<?xml version="1.0"?>
<VTKFile type="UnstructuredGrid" version="0.1" byte_order="LittleEndian">
  <UnstructuredGrid>
    <Piece NumberOfCells="39" NumberOfPoints="80">
      <PointData Scalars="Sg">
        <DataArray type="Float32" Name="Sg" NumberOfComponents="1" format="ascii">
          0 0 0 0 0 0 0 0 0 0 0 0
          0 0 0 0 0 0 0 0 0 0 0 0
          0 0 0 0 0 0 0 0 0 0 0 0
          0 0 0 0 0 0 0 0 0 0 0 0
          0 0 0 0 0 0 0 0 0 0 0 0
          0 0 0 0 0 0 0 0 0 0 0 0
          0 0 0 0 0 0 0 0
        </DataArray>
        <DataArray type="Float32" Name="Sl" NumberOfComponents="1" format="ascii">
          1 1 1 1 1 1 1 1 1 1 1 1
          1 1 1 1 1 1 1 1 1 1 1 1
          1 1 1 1 1 1 1 1 1 1 1 1
          1 1 1 1 1 1 1 1 1 1 1 1
          1 1 1 1 1 1 1 1 1 1 1 1
          1 1 1 1 1 1 1 1 1 1 1 1
          1 1 1 1 1 1 1 1
        </DataArray>
        <DataArray type="Float32" Name="pg" NumberOfComponents="1" format="ascii">
          123377 123378 123200 123200 123013 123013 122824 122823 122632 122632 122440 122440
          122246 122246 122052 122052 121857 121857 121661 121661 121465 121465 121072 121072
          120679 120679 120284 120284 119888 119888 119493 119492 119000 119000 118509 118509
          118020 118019 117536 117536 117059 117059 116589 116589 116126 116126 115671 115671
          115224 115224 114785 114785 114355 114355 113933 113933 113520 113520 113116 113116
          112722 112722 112336 112336 111960 111960 111594 111594 111240 111240 110897 110897
          110569 110569 110255 110255 109956 109956 109667 109667
        </DataArray>
        <DataArray type="Float32" Name="pl" NumberOfComponents="1" format="ascii">
          113711 113711 113533 113533 113346 113346 113157 113157 112966 112965 112773 112773
          112580 112579 112385 112385 112190 112190 111994 111994 111798 111798 111406 111405
          111012 111012 110617 110617 110222 110221 109826 109826 109333 109334 108842 108842
          108353 108352 107869 107870 107392 107393 106922 106922 106459 106459 106004 106004
          105557 105557 105119 105119 104688 104688 104266 104266 103853 103853 103450 103450
          103055 103055 102669 102669 102294 102294 101928 101928 101573 101573 101231 101231
          100902 100902 100589 100589 100289 100289 100000 100000
        </DataArray>
        <DataArray type="Float32" Name="pc" NumberOfComponents="1" format="ascii">
          9666.67 9666.67 9666.67 9666.67 9666.67 9666.67 9666.67 9666.67 9666.67 9666.67 9666.67 9666.67
          9666.67 9666.67 9666.67 9666.67 9666.67 9666.67 9666.67 9666.67 9666.67 9666.67 9666.67 9666.67
          9666.67 9666.67 9666.67 9666.67 9666.67 9666.67 9666.67 9666.67 9666.67 9666.67 9666.67 9666.67
          9666.67 9666.67 9666.67 9666.67 9666.67 9666.67 9666.67 9666.67 9666.67 9666.67 9666.67 9666.67
          9666.67 9666.67 9666.67 9666.67 9666.67 9666.67 9666.67 9666.67 9666.67 9666.67 9666.67 9666.67
          9666.67 9666.67 9666.67 9666.67 9666.67 9666.67 9666.67 9666.67 9666.67 9666.67 9666.67 9666.67
          9666.67 9666.67 9666.67 9666.67 9666.67 9666.67 9666.67 9666.67
        </DataArray>
        <DataArray type="Float32" Name="rhoL" NumberOfComponents="1" format="ascii">
          1025.6 1025.6 1025.51 1025.5 1025.41 1025.41 1025.32 1025.32 1025.23 1025.23 1025.14 1025.14
          1025.05 1025.05 1024.97 1024.97 1024.88 1024.89 1024.8 1024.8 1024.72 1024.72 1024.57 1024.57
          1024.42 1024.42 1024.27 1024.27 1024.13 1024.13 1023.99 1023.99 1023.82 1023.82 1023.66 1023.66
          1023.49 1023.5 1023.33 1023.33 1023.17 1023.17 1023.01 1023.01 1022.84 1022.84 1022.67 1022.67
          1022.48 1022.48 1022.28 1022.28 1022.05 1022.05 1021.8 1021.8 1021.5 1021.5 1021.15 1021.15
          1020.72 1020.72 1020.19 1020.19 1019.52 1019.52 1018.67 1018.67 1017.57 1017.57 1016.1 1016.1
          1014.1 1014.1 1011.3 1011.3 1007.27 1007.27 1001.45 1001.45
        </DataArray>
        <DataArray type="Float32" Name="rhoG" NumberOfComponents="1" format="ascii">
          2.17341 2.17366 2.17043 2.17043 2.16705 2.16705 2.16362 2.16361 2.16015 2.16015 2.15666 2.15666
          2.15316 2.15315 2.14963 2.14963 2.14609 2.14609 2.14255 2.14255 2.13899 2.13899 2.13188 2.13188
          2.12475 2.12475 2.11759 2.11759 2.11042 2.11042 2.10325 2.10325 2.09433 2.09433 2.08543 2.08543
          2.07657 2.07656 2.0678 2.0678 2.05916 2.05916 2.05064 2.05063 2.04225 2.04225 2.034 2.034
          2.0259 2.0259 2.01795 2.01795 2.01016 2.01016 2.0025 2.0025 1.99501 1.99502 1.9877 1.9877
          1.98055 1.98055 1.97355 1.97355 1.96673 1.96673 1.96009 1.9601 1.95365 1.95365 1.94743 1.94743
          1.94144 1.94144 1.93572 1.93572 1.93022 1.93022 1.9249 1.9249
        </DataArray>
        <DataArray type="Float32" Name="mobL" NumberOfComponents="1" format="ascii">
          1009.79 1009.8 1010.07 1010.07 1010.33 1010.33 1010.59 1010.59 1010.85 1010.85 1011.1 1011.09
          1011.34 1011.34 1011.58 1011.58 1011.82 1011.82 1012.06 1012.06 1012.29 1012.29 1012.73 1012.73
          1013.16 1013.16 1013.58 1013.57 1013.98 1013.98 1014.39 1014.38 1014.87 1014.87 1015.34 1015.34
          1015.81 1015.81 1016.28 1016.28 1016.75 1016.75 1017.23 1017.23 1017.73 1017.73 1018.24 1018.24
          1018.8 1018.8 1019.4 1019.4 1020.07 1020.07 1020.84 1020.84 1021.73 1021.73 1022.8 1022.8
          1024.11 1024.11 1025.74 1025.74 1027.82 1027.82 1030.53 1030.53 1034.13 1034.13 1039.06 1039.06
          1046.06 1046.06 1056.57 1056.57 1073.37 1073.37 1103.12 1103.12
        </DataArray>
        <DataArray type="Float32" Name="mobG" NumberOfComponents="1" format="ascii">
          0 0 0 0 0 0 0 0 0 0 0 0
          0 0 0 0 0 0 0 0 0 0 0 0
          0 0 0 0 0 0 0 0 0 0 0 0
          0 0 0 0 0 0 0 0 0 0 0 0
          0 0 0 0 0 0 0 0 0 0 0 0
          0 0 0 0 0 0 0 0 0 0 0 0
          0 0 0 0 0 0 0 0
        </DataArray>
        <DataArray type="Float32" Name="porosity" NumberOfComponents="1" format="ascii">
          0.247502 0.247536 0.232914 0.232628 0.229861 0.229427 0.227639 0.227512 0.226432 0.226511 0.225706 0.22571
          0.224599 0.224954 0.223956 0.224259 0.223359 0.223919 0.223108 0.223416 0.222628 0.22293 0.222689 0.223099
          0.22209 0.222419 0.221503 0.221625 0.22138 0.2217 0.221453 0.221652 0.222426 0.223114 0.222599 0.221889
          0.224009 0.22357 0.225618 0.226497 0.228155 0.227412 0.230347 0.230818 0.232975 0.233216 0.235979 0.236137
          0.239477 0.239429 0.243093 0.243019 0.246683 0.246507 0.25012 0.250592 0.255818 0.255587 0.260656 0.260397
          0.265606 0.265734 0.271644 0.271635 0.278482 0.278637 0.286784 0.286743 0.297034 0.297012 0.310109 0.310032
          0.32845 0.32842 0.353693 0.353721 0.378131 0.378142 0.4 0.4
        </DataArray>
        <DataArray type="Float32" Name="temperature" NumberOfComponents="1" format="ascii">
          298.15 298.15 298.15 298.15 298.15 298.15 298.15 298.15 298.15 298.15 298.15 298.15
          298.15 298.15 298.15 298.15 298.15 298.15 298.15 298.15 298.15 298.15 298.15 298.15
          298.15 298.15 298.15 298.15 298.15 298.15 298.15 298.15 298.15 298.15 298.15 298.15
          298.15 298.15 298.15 298.15 298.15 298.15 298.15 298.15 298.15 298.15 298.15 298.15
          298.15 298.15 298.15 298.15 298.15 298.15 298.15 298.15 298.15 298.15 298.15 298.15
          298.15 298.15 298.15 298.15 298.15 298.15 298.15 298.15 298.15 298.15 298.15 298.15
          298.15 298.15 298.15 298.15 298.15 298.15 298.15 298.15
        </DataArray>
        <DataArray type="Float32" Name="phase presence" NumberOfComponents="1" format="ascii">
          1 1 1 1 1 1 1 1 1 1 1 1
          1 1 1 1 1 1 1 1 1 1 1 1
          1 1 1 1 1 1 1 1 1 1 1 1
          1 1 1 1 1 1 1 1 1 1 1 1
          1 1 1 1 1 1 1 1 1 1 1 1
          1 1 1 1 1 1 1 1 1 1 1 1
          1 1 1 1 1 1 1 1
        </DataArray>
        <DataArray type="Float32" Name="potential" NumberOfComponents="1" format="ascii">
          0.562731 0.562764 0.555192 0.555216 0.54678 0.546773 0.538066 0.538038 0.52915 0.529129 0.520125 0.5201
          0.510993 0.510967 0.501755 0.501738 0.492442 0.492439 0.483074 0.483083 0.473662 0.47366 0.454764 0.454763
          0.435787 0.435799 0.416645 0.416645 0.397403 0.397397 0.378158 0.378141 0.354259 0.354296 0.33049 0.330536
          0.30694 0.306877 0.283893 0.283903 0.261485 0.261502 0.239765 0.239729 0.21874 0.218751 0.198472 0.198481
          0.179014 0.179021 0.160401 0.160404 0.142612 0.142597 0.125594 0.125594 0.109491 0.109509 0.094369 0.0943613
          0.080103 0.0800976 0.066732 0.0667318 0.0543157 0.054316 0.0429078 0.0429107 0.0325943 0.0325947 0.0234703 0.0234704
          0.0156735 0.0156726 0.0093231 0.00932279 0.00423526 0.00423541 0 0
        </DataArray>
        <DataArray type="Float32" Name="boxVolume" NumberOfComponents="1" format="ascii">
          6.35e-05 6.35e-05 0.000127 0.000127 0.000127 0.000127 0.000127 0.000127 0.000127 0.000127 0.000127 0.000127
          0.000127 0.000127 0.000127 0.000127 0.000127 0.000127 0.000127 0.000127 0.0001905 0.0001905 0.000254 0.000254
          0.000254 0.000254 0.000254 0.000254 0.000254 0.000254 0.00028575 0.00028575 0.0003175 0.0003175 0.0003175 0.0003175
          0.0003175 0.0003175 0.0003175 0.0003175 0.0003175 0.0003175 0.0003175 0.0003175 0.0003175 0.0003175 0.0003175 0.0003175
          0.0003175 0.0003175 0.0003175 0.0003175 0.0003175 0.0003175 0.0003175 0.0003175 0.0003175 0.0003175 0.0003175 0.0003175
          0.0003175 0.0003175 0.0003175 0.0003175 0.0003175 0.0003175 0.0003175 0.0003175 0.0003175 0.0003175 0.0003175 0.0003175
          0.0003175 0.0003175 0.0003175 0.0003175 0.0003175 0.0003175 0.00015875 0.00015875
        </DataArray>
        <DataArray type="Float32" Name="pH" NumberOfComponents="1" format="ascii">
          6.71429 6.71435 6.71642 6.71657 6.71414 6.71443 6.71229 6.71238 6.7103 6.7103 6.70836 6.70834
          6.70668 6.70652 6.70499 6.70477 6.7033 6.70296 6.70162 6.70137 6.70009 6.69996 6.69737 6.69718
          6.69532 6.69507 6.69372 6.69355 6.69237 6.69215 6.69131 6.69103 6.69004 6.68977 6.68949 6.68941
          6.68907 6.68901 6.68881 6.68859 6.68856 6.68851 6.68848 6.6884 6.68864 6.68855 6.68877 6.68869
          6.68892 6.68899 6.68928 6.68944 6.69001 6.69021 6.69113 6.69117 6.69235 6.69237 6.69453 6.6947
          6.69823 6.69812 6.70355 6.70357 6.71139 6.71138 6.7229 6.7229 6.73955 6.73961 6.76332 6.76332
          6.79332 6.79332 6.8107 6.81066 6.74187 6.74181 6.19963 6.19963
        </DataArray>
        <DataArray type="Float32" Name="Omega" NumberOfComponents="1" format="ascii">
          45.0902 45.1052 46.037 46.0755 45.8829 45.9513 45.7803 45.8029 45.6058 45.6038 45.4039 45.3968
          45.2272 45.1882 45.0145 44.9605 44.7734 44.6916 44.5051 44.4466 44.2484 44.2181 43.7363 43.6919
          43.3004 43.242 42.8938 42.8572 42.4825 42.4343 42.079 42.0188 41.5227 41.4665 41.059 41.0418
          40.5611 40.5485 40.043 39.9969 39.4728 39.4627 38.8894 38.873 38.3037 38.2862 37.6555 37.6401
          36.9526 36.966 36.2202 36.2494 35.468 35.5046 34.6787 34.6856 33.7645 33.7672 32.8283 32.8566
          31.8999 31.8803 30.8944 30.8974 29.8198 29.8183 28.6452 28.6459 27.2725 27.28 25.4666 25.4669
          22.283 22.2831 15.0139 15.0112 3.86697 3.86563 0 0
        </DataArray>
        <DataArray type="Float32" Name="rurea" NumberOfComponents="1" format="ascii">
          0 0 0 0 0 0 0 0 0 0 0 0
          0 0 0 0 0 0 0 0 0 0 0 0
          0 0 0 0 0 0 0 0 0 0 0 0
          0 0 0 0 0 0 0 0 0 0 0 0
          0 0 0 0 0 0 0 0 0 0 0 0
          0 0 0 0 0 0 0 0 0 0 0 0
          0 0 0 0 0 0 0 0
        </DataArray>
        <DataArray type="Float32" Name="Volume_Fraction_Biofilm" NumberOfComponents="1" format="ascii">
          0.0268526 0.0268691 0.0247397 0.0247935 0.024016 0.0241316 0.023893 0.0239223 0.0236478 0.0236444 0.0233847 0.0233765
          0.0231828 0.0231283 0.0229236 0.0228449 0.02261 0.0224832 0.0222661 0.022178 0.0219565 0.0219259 0.0213554 0.0213001
          0.0208716 0.0207856 0.0204429 0.0203879 0.0200253 0.0199599 0.0196234 0.019551 0.0190971 0.0190414 0.0186946 0.0186298
          0.0182839 0.0182395 0.0178484 0.0178139 0.0173748 0.0173247 0.0168622 0.0168575 0.0163781 0.0163613 0.0158069 0.0157885
          0.0151808 0.0152008 0.0145269 0.014568 0.0138633 0.013912 0.0131701 0.0131933 0.0123828 0.0123772 0.0115938 0.0116299
          0.0108728 0.0108441 0.010131 0.0101376 0.00939639 0.00939722 0.00867902 0.00867877 0.00792466 0.00793447 0.00711373 0.00711168
          0.00615957 0.00615948 0.00488306 0.0048807 0.00289123 0.00288929 0 0
        </DataArray>
        <DataArray type="Float32" Name="Volume_Fraction_Calcite" NumberOfComponents="1" format="ascii">
          0.125645 0.125595 0.142347 0.142579 0.146123 0.146441 0.148468 0.148566 0.14992 0.149845 0.15091 0.150913
          0.152219 0.151917 0.15312 0.152896 0.154031 0.153598 0.154626 0.154406 0.155415 0.155144 0.155956 0.155601
          0.157038 0.156796 0.158054 0.157987 0.158594 0.15834 0.158923 0.158797 0.158477 0.157844 0.158707 0.159482
          0.157707 0.158191 0.156534 0.155689 0.15447 0.155263 0.152791 0.152324 0.150647 0.150423 0.148214 0.148074
          0.145342 0.14537 0.14238 0.142412 0.139454 0.139581 0.13671 0.136215 0.1318 0.132036 0.12775 0.127973
          0.123521 0.123422 0.118225 0.118228 0.112122 0.111966 0.104537 0.104579 0.0950417 0.0950534 0.0827772 0.0828567
          0.0653909 0.0654208 0.041424 0.0413982 0.0189776 0.0189688 0 0
        </DataArray>
        <DataArray type="Float32" Name="Kxx" NumberOfComponents="1" format="ascii">
          4.73791e-11 4.73983e-11 3.94852e-11 3.934e-11 3.79532e-11 3.77385e-11 3.6863e-11 3.68012e-11 3.62798e-11 3.63176e-11 3.59316e-11 3.59339e-11
          3.54056e-11 3.5574e-11 3.51025e-11 3.52453e-11 3.48226e-11 3.5085e-11 3.47051e-11 3.48492e-11 3.44819e-11 3.46224e-11 3.45101e-11 3.47011e-11
          3.42325e-11 3.43846e-11 3.39615e-11 3.40178e-11 3.39053e-11 3.40525e-11 3.39389e-11 3.40302e-11 3.43879e-11 3.47083e-11 3.44682e-11 3.41393e-11
          3.51275e-11 3.49211e-11 3.58898e-11 3.63111e-11 3.71144e-11 3.67528e-11 3.81941e-11 3.84292e-11 3.95164e-11 3.96393e-11 4.10651e-11 4.11474e-11
          4.29181e-11 4.28925e-11 4.48916e-11 4.48511e-11 4.691e-11 4.681e-11 4.88982e-11 4.91756e-11 5.23168e-11 5.21754e-11 5.53418e-11 5.51771e-11
          5.85548e-11 5.86398e-11 6.26399e-11 6.26333e-11 6.74901e-11 6.76028e-11 7.3708e-11 7.36762e-11 8.18968e-11 8.1879e-11 9.31952e-11 9.31253e-11
          1.10728e-10 1.10697e-10 1.3827e-10 1.38303e-10 1.68957e-10 1.68972e-10 2e-10 2e-10
        </DataArray>
        <DataArray type="Float32" Name="X_lBrine" NumberOfComponents="1" format="ascii">
          0.933495 0.933496 0.93373 0.933731 0.933954 0.933955 0.934174 0.934174 0.934389 0.934388 0.9346 0.934599
          0.934808 0.934807 0.935013 0.935011 0.935214 0.935212 0.935413 0.935411 0.935609 0.935607 0.935977 0.935975
          0.936335 0.936333 0.936684 0.936682 0.937024 0.937022 0.937357 0.937355 0.937756 0.937756 0.938147 0.938147
          0.938532 0.938531 0.938914 0.938914 0.939297 0.939297 0.939685 0.939684 0.940082 0.940082 0.940496 0.940496
          0.940935 0.940935 0.941411 0.941411 0.941937 0.941938 0.942533 0.942533 0.943224 0.943224 0.944045 0.944045
          0.945038 0.945038 0.946264 0.946264 0.947806 0.947806 0.949779 0.949779 0.95235 0.95235 0.955769 0.955769
          0.960432 0.960432 0.966999 0.966999 0.976477 0.976477 0.99029 0.99029
        </DataArray>
        <DataArray type="Float32" Name="X_lTotalC" NumberOfComponents="1" format="ascii">
          2.10131e-05 2.10185e-05 2.17453e-05 2.17563e-05 2.22128e-05 2.22302e-05 2.26855e-05 2.26911e-05 2.31356e-05 2.31343e-05 2.35745e-05 2.35706e-05
          2.40153e-05 2.40021e-05 2.44424e-05 2.44242e-05 2.48577e-05 2.48314e-05 2.52618e-05 2.52412e-05 2.56653e-05 2.56521e-05 2.64208e-05 2.64029e-05
          2.71821e-05 2.71596e-05 2.79362e-05 2.79199e-05 2.8674e-05 2.86534e-05 2.94004e-05 2.93752e-05 3.02476e-05 3.02249e-05 3.11012e-05 3.10937e-05
          3.19166e-05 3.19093e-05 3.26977e-05 3.26778e-05 3.34299e-05 3.34241e-05 3.41263e-05 3.4117e-05 3.47896e-05 3.47801e-05 3.53912e-05 3.53831e-05
          3.59328e-05 3.59391e-05 3.64259e-05 3.6441e-05 3.68769e-05 3.68962e-05 3.72798e-05 3.72843e-05 3.75953e-05 3.75979e-05 3.78886e-05 3.79053e-05
          3.81941e-05 3.81828e-05 3.84893e-05 3.84911e-05 3.88181e-05 3.88171e-05 3.9224e-05 3.92246e-05 3.97458e-05 3.97515e-05 4.03937e-05 4.03942e-05
          4.06932e-05 4.06933e-05 3.7837e-05 3.78336e-05 2.48613e-05 2.4857e-05 5.81077e-07 5.81077e-07
        </DataArray>
        <DataArray type="Float32" Name="X_lNa" NumberOfComponents="1" format="ascii">
          1.2236e-07 1.22361e-07 1.22665e-07 1.22666e-07 1.22983e-07 1.22983e-07 1.23321e-07 1.2332e-07 1.23682e-07 1.23681e-07 1.2407e-07 1.24069e-07
          1.24486e-07 1.24484e-07 1.24933e-07 1.24931e-07 1.25413e-07 1.25411e-07 1.2593e-07 1.25928e-07 1.26486e-07 1.26485e-07 1.2768e-07 1.27679e-07
          1.29061e-07 1.2906e-07 1.30658e-07 1.30656e-07 1.32508e-07 1.32506e-07 1.34656e-07 1.34655e-07 1.37781e-07 1.37783e-07 1.41553e-07 1.41557e-07
          1.46123e-07 1.46117e-07 1.51686e-07 1.51686e-07 1.58492e-07 1.58492e-07 1.6685e-07 1.66841e-07 1.77144e-07 1.77143e-07 1.8988e-07 1.89881e-07
          2.05707e-07 2.0571e-07 2.25466e-07 2.25468e-07 2.50227e-07 2.50217e-07 2.81349e-07 2.81353e-07 3.20758e-07 3.20781e-07 3.70991e-07 3.70982e-07
          4.35217e-07 4.35205e-07 5.17877e-07 5.1787e-07 6.25104e-07 6.25104e-07 7.65469e-07 7.65486e-07 9.5138e-07 9.51394e-07 1.2013e-06 1.20131e-06
          1.54445e-06 1.54444e-06 2.02923e-06 2.02922e-06 2.72905e-06 2.72906e-06 3.74885e-06 3.74885e-06
        </DataArray>
        <DataArray type="Float32" Name="X_lCl" NumberOfComponents="1" format="ascii">
          0.0300967 0.0300967 0.0301024 0.0301024 0.0301076 0.0301076 0.0301125 0.0301125 0.0301171 0.0301171 0.0301214 0.0301214
          0.0301254 0.0301253 0.030129 0.030129 0.0301323 0.0301323 0.0301353 0.0301353 0.0301379 0.0301379 0.0301418 0.0301417
          0.030144 0.0301439 0.0301443 0.0301443 0.0301427 0.0301426 0.0301386 0.0301386 0.03013 0.03013 0.0301165 0.0301165
          0.0300973 0.0300973 0.030071 0.030071 0.030036 0.030036 0.0299902 0.0299903 0.0299313 0.0299313 0.0298557 0.0298557
          0.0297594 0.0297593 0.0296366 0.0296366 0.0294805 0.0294806 0.0292821 0.0292821 0.0290288 0.0290287 0.0287039 0.0287039
          0.0282866 0.0282867 0.0277478 0.0277478 0.0270472 0.0270472 0.0261286 0.0261284 0.0249105 0.0249104 0.0232717 0.0232717
          0.0210206 0.0210207 0.0178397 0.0178398 0.0132477 0.0132477 0.00655617 0.00655617
        </DataArray>
        <DataArray type="Float32" Name="X_lCa" NumberOfComponents="1" format="ascii">
          0.0116942 0.0116936 0.0115476 0.011547 0.0114078 0.0114074 0.0112714 0.0112714 0.0111379 0.0111381 0.0110068 0.0110073
          0.0108781 0.0108789 0.0107518 0.0107528 0.0106276 0.0106288 0.0105056 0.0105067 0.0103854 0.0103866 0.0101607 0.0101619
          0.00994352 0.00994467 0.00973376 0.00973488 0.00953096 0.00953207 0.00933459 0.00933568 0.00910283 0.00910346 0.00888074 0.008881
          0.00866778 0.00866831 0.00846324 0.00846358 0.00826652 0.00826685 0.00807704 0.00807749 0.00789423 0.00789456 0.00771729 0.0077175
          0.00754501 0.00754501 0.00737578 0.00737562 0.00720768 0.00720754 0.00703842 0.00703827 0.00686422 0.00686403 0.00668013 0.00668
          0.00648028 0.00648027 0.00625645 0.00625646 0.00599721 0.00599721 0.00568663 0.00568659 0.00530169 0.00530164 0.00480797 0.00480793
          0.00415039 0.0041504 0.0032356 0.0032356 0.0019189 0.00191888 0 0
        </DataArray>
        <DataArray type="Float32" Name="X_lUrea" NumberOfComponents="1" format="ascii">
          0.0172021 0.0172012 0.0169794 0.0169784 0.0167673 0.0167667 0.0165603 0.0165603 0.0163577 0.0163581 0.0161588 0.0161597
          0.0159636 0.0159649 0.015772 0.0157736 0.0155837 0.0155855 0.0153985 0.0154003 0.0152162 0.015218 0.0148754 0.0148773
          0.014546 0.0145478 0.0142278 0.0142296 0.0139203 0.013922 0.0136225 0.0136242 0.0132711 0.0132721 0.0129344 0.0129348
          0.0126117 0.0126125 0.0123019 0.0123025 0.0120042 0.0120047 0.0117177 0.0117183 0.0114415 0.011442 0.0111746 0.0111749
          0.0109153 0.0109153 0.0106611 0.0106608 0.0104093 0.0104091 0.0101567 0.0101565 0.00989776 0.00989747 0.00962526 0.00962505
          0.00933068 0.00933069 0.00900219 0.0090022 0.00862319 0.00862319 0.00817063 0.00817057 0.00761121 0.00761112 0.00689516 0.0068951
          0.00594355 0.00594356 0.00462516 0.00462515 0.00273998 0.00273996 0 0
        </DataArray>
        <DataArray type="Float32" Name="X_lTotalNH" NumberOfComponents="1" format="ascii">
          0.0045349 0.00453543 0.00466276 0.00466333 0.00478442 0.00478479 0.00490311 0.00490315 0.00501916 0.00501896 0.00513298 0.0051325
          0.00524462 0.00524387 0.00535406 0.00535313 0.00546145 0.00546043 0.00556694 0.00556593 0.00567066 0.00566962 0.00586404 0.00586297
          0.00605026 0.00604924 0.0062293 0.00622831 0.00640142 0.00640044 0.00656696 0.00656599 0.00676043 0.00675986 0.00694337 0.00694313
          0.00711575 0.0071153 0.00727755 0.00727723 0.00742849 0.0074282 0.0075681 0.00756774 0.00769567 0.00769537 0.00781022 0.00781003
          0.00791076 0.00791076 0.00799602 0.00799617 0.00806425 0.00806442 0.0081131 0.00811322 0.0081397 0.0081398 0.0081403 0.00814045
          0.00810993 0.00810996 0.00804154 0.00804156 0.00792558 0.00792558 0.00774856 0.00774854 0.00749097 0.00749098 0.00712387 0.00712387
          0.00660159 0.00660162 0.00584881 0.00584882 0.0047519 0.00475188 0.00314947 0.00314947
        </DataArray>
        <DataArray type="Float32" Name="X_lO2" NumberOfComponents="1" format="ascii">
          5.83278e-06 5.83203e-06 5.64775e-06 5.64696e-06 5.47056e-06 5.47008e-06 5.29662e-06 5.2966e-06 5.12547e-06 5.12579e-06 4.95657e-06 4.9573e-06
          4.78991e-06 4.79102e-06 4.62554e-06 4.62692e-06 4.4633e-06 4.46479e-06 4.30301e-06 4.3045e-06 4.14454e-06 4.14608e-06 3.84653e-06 3.84813e-06
          3.55657e-06 3.5581e-06 3.2751e-06 3.2766e-06 3.00204e-06 3.00355e-06 2.73728e-06 2.73879e-06 2.42527e-06 2.42615e-06 2.12811e-06 2.12847e-06
          1.84674e-06 1.84746e-06 1.58212e-06 1.58264e-06 1.33583e-06 1.33631e-06 1.10988e-06 1.11049e-06 9.06883e-07 9.07402e-07 7.301e-07 7.30488e-07
          5.83138e-07 5.83306e-07 4.65276e-07 4.65329e-07 3.70835e-07 3.709e-07 2.95332e-07 2.95376e-07 2.34911e-07 2.34897e-07 1.86526e-07 1.86512e-07
          1.4789e-07 1.47886e-07 1.17057e-07 1.17062e-07 9.24399e-08 9.24463e-08 7.27448e-08 7.27471e-08 5.68865e-08 5.68856e-08 4.3924e-08 4.39216e-08
          3.29472e-08 3.29456e-08 2.29373e-08 2.29364e-08 1.26169e-08 1.26166e-08 0 0
        </DataArray>
        <DataArray type="Float32" Name="X_lSubstrate" NumberOfComponents="1" format="ascii">
          0.0029498 0.0029498 0.00294997 0.00294998 0.00295013 0.00295013 0.00295025 0.00295025 0.00295035 0.00295035 0.00295042 0.00295042
          0.00295046 0.00295046 0.00295048 0.00295048 0.00295046 0.00295046 0.00295041 0.0029504 0.00295032 0.00295031 0.00295003 0.00295003
          0.00294958 0.00294958 0.00294895 0.00294895 0.0029481 0.0029481 0.002947 0.002947 0.00294524 0.00294524 0.00294295 0.00294295
          0.00294001 0.00294002 0.00293627 0.00293627 0.00293152 0.00293152 0.00292551 0.00292552 0.00291794 0.00291794 0.00290839 0.00290839
          0.00289635 0.00289635 0.00288111 0.00288111 0.0028618 0.00286181 0.00283727 0.00283726 0.00280593 0.00280592 0.00276571 0.00276572
          0.00271397 0.00271398 0.00264707 0.00264708 0.00255995 0.00255995 0.00244557 0.00244556 0.00229373 0.00229372 0.00208924 0.00208924
          0.00180813 0.00180814 0.00141067 0.00141067 0.000836642 0.000836634 0 0
        </DataArray>
        <DataArray type="Float32" Name="X_lSuspended_Biomass" NumberOfComponents="1" format="ascii">
          4.22113e-07 4.22299e-07 4.60591e-07 4.60793e-07 4.97417e-07 4.97558e-07 5.33503e-07 5.33535e-07 5.68912e-07 5.68858e-07 6.03742e-07 6.03587e-07
          6.37991e-07 6.37737e-07 6.71638e-07 6.71313e-07 7.04711e-07 7.04348e-07 7.37244e-07 7.36881e-07 7.69277e-07 7.68904e-07 8.29117e-07 8.28731e-07
          8.86878e-07 8.86501e-07 9.42483e-07 9.42118e-07 9.95946e-07 9.9558e-07 1.04729e-06 1.04693e-06 1.10713e-06 1.10689e-06 1.16341e-06 1.16328e-06
          1.21597e-06 1.21578e-06 1.26468e-06 1.26454e-06 1.30936e-06 1.30923e-06 1.34977e-06 1.34964e-06 1.38561e-06 1.3855e-06 1.41647e-06 1.4164e-06
          1.44194e-06 1.44193e-06 1.46182e-06 1.46186e-06 1.47608e-06 1.47612e-06 1.48438e-06 1.48442e-06 1.4862e-06 1.48622e-06 1.48064e-06 1.48067e-06
          1.46644e-06 1.46646e-06 1.44171e-06 1.44172e-06 1.40374e-06 1.40374e-06 1.34869e-06 1.34869e-06 1.27091e-06 1.27092e-06 1.16199e-06 1.16199e-06
          1.00855e-06 1.00857e-06 7.88463e-07 7.88478e-07 4.68184e-07 4.68191e-07 0 0
        </DataArray>
        <DataArray type="Float32" Name="X_lNH4" NumberOfComponents="1" format="ascii">
          0.00479372 0.00479428 0.00492881 0.00492941 0.00505744 0.00505782 0.00518291 0.00518295 0.00530561 0.0053054 0.00542595 0.00542544
          0.00554397 0.00554319 0.00565968 0.0056587 0.00577322 0.00577216 0.00588475 0.00588369 0.00599441 0.00599331 0.00619885 0.00619773
          0.00639572 0.00639465 0.00658497 0.00658394 0.00676692 0.00676589 0.00694189 0.00694087 0.00714638 0.00714579 0.00733973 0.00733948
          0.0075219 0.00752142 0.00769289 0.00769256 0.00785239 0.00785209 0.00799991 0.00799953 0.00813468 0.00813438 0.00825571 0.00825551
          0.00836192 0.00836191 0.00845196 0.00845211 0.00852398 0.00852415 0.00857549 0.00857562 0.00860348 0.00860358 0.00860393 0.00860408
          0.00857156 0.0085716 0.00849893 0.00849895 0.00837588 0.00837588 0.00818811 0.00818809 0.00791493 0.00791493 0.00752566 0.00752566
          0.00697215 0.00697217 0.00617577 0.00617577 0.0050192 0.00501918 0.00333307 0.00333307
        </DataArray>
        <DataArray type="Float32" Name="X_lHCO3" NumberOfComponents="1" format="ascii">
          2.42263e-05 2.4233e-05 2.50805e-05 2.50947e-05 2.55872e-05 2.561e-05 2.61024e-05 2.61098e-05 2.65892e-05 2.65876e-05 2.70622e-05 2.70576e-05
          2.7539e-05 2.75222e-05 2.79988e-05 2.79755e-05 2.8444e-05 2.84101e-05 2.88753e-05 2.88491e-05 2.93068e-05 2.92903e-05 3.01129e-05 3.00903e-05
          3.09307e-05 3.0902e-05 3.17434e-05 3.17229e-05 3.25384e-05 3.25123e-05 3.33225e-05 3.32901e-05 3.42323e-05 3.4203e-05 3.51577e-05 3.5148e-05
          3.60398e-05 3.60306e-05 3.68842e-05 3.68583e-05 3.76719e-05 3.76646e-05 3.8421e-05 3.84092e-05 3.91355e-05 3.91234e-05 3.97792e-05 3.97687e-05
          4.03547e-05 4.0363e-05 4.08783e-05 4.0898e-05 4.13597e-05 4.13848e-05 4.17924e-05 4.1798e-05 4.21264e-05 4.21296e-05 4.24493e-05 4.24711e-05
          4.28088e-05 4.2794e-05 4.31792e-05 4.31816e-05 4.36233e-05 4.3622e-05 4.42057e-05 4.42065e-05 4.49894e-05 4.49969e-05 4.60068e-05 4.60074e-05
          4.66647e-05 4.66649e-05 4.33215e-05 4.33171e-05 2.71143e-05 2.71088e-05 3.37056e-07 3.37056e-07
        </DataArray>
        <DataArray type="Float32" Name="X_lCO3" NumberOfComponents="1" format="ascii">
          2.73469e-08 2.73574e-08 2.82937e-08 2.8319e-08 2.8562e-08 2.86057e-08 2.88604e-08 2.88748e-08 2.91122e-08 2.91103e-08 2.93455e-08 2.93394e-08
          2.95939e-08 2.9566e-08 2.98174e-08 2.97786e-08 3.00204e-08 2.99622e-08 3.02036e-08 3.01605e-08 3.03931e-08 3.03686e-08 3.07362e-08 3.07011e-08
          3.11245e-08 3.10788e-08 3.15261e-08 3.14954e-08 3.19172e-08 3.18771e-08 3.23077e-08 3.22575e-08 3.27267e-08 3.268e-08 3.32043e-08 3.31894e-08
          3.36409e-08 3.36283e-08 3.40468e-08 3.40062e-08 3.43935e-08 3.43833e-08 3.47128e-08 3.46962e-08 3.50148e-08 3.49974e-08 3.52451e-08 3.52298e-08
          3.54117e-08 3.54246e-08 3.55427e-08 3.55721e-08 3.56553e-08 3.56927e-08 3.57429e-08 3.57507e-08 3.57315e-08 3.57355e-08 3.57532e-08 3.57848e-08
          3.58787e-08 3.58567e-08 3.60699e-08 3.60734e-08 3.64187e-08 3.64169e-08 3.70211e-08 3.70223e-08 3.79731e-08 3.7984e-08 3.93274e-08 3.93282e-08
          4.01775e-08 4.01776e-08 3.51081e-08 3.51017e-08 1.54889e-08 1.54837e-08 2.55591e-11 2.55591e-11
        </DataArray>
        <DataArray type="Float32" Name="X_lCO2" NumberOfComponents="1" format="ascii">
          3.52352e-06 3.52407e-06 3.63902e-06 3.63983e-06 3.74104e-06 3.74197e-06 3.84193e-06 3.84219e-06 3.94085e-06 3.94066e-06 4.03845e-06 4.03795e-06
          4.13528e-06 4.13421e-06 4.23067e-06 4.22925e-06 4.32479e-06 4.32296e-06 4.41772e-06 4.41613e-06 4.51e-06 4.50868e-06 4.68394e-06 4.68238e-06
          4.85518e-06 4.85343e-06 5.02304e-06 5.02157e-06 5.18719e-06 5.18551e-06 5.348e-06 5.34608e-06 5.53877e-06 5.53727e-06 5.72478e-06 5.72423e-06
          5.90373e-06 5.90301e-06 6.07568e-06 6.07445e-06 6.23957e-06 6.23904e-06 6.39561e-06 6.39484e-06 6.54336e-06 6.54264e-06 6.68073e-06 6.68016e-06
          6.80716e-06 6.80748e-06 6.92258e-06 6.92348e-06 7.02642e-06 7.02755e-06 7.11725e-06 7.11759e-06 7.19187e-06 7.19211e-06 7.25231e-06 7.25332e-06
          7.29847e-06 7.29789e-06 7.32643e-06 7.32654e-06 7.33477e-06 7.33472e-06 7.32023e-06 7.32026e-06 7.27623e-06 7.27654e-06 7.18956e-06 7.1896e-06
          7.01394e-06 7.01397e-06 6.57221e-06 6.57204e-06 5.29791e-06 5.29756e-06 3.38012e-07 3.38012e-07
        </DataArray>
        <DataArray type="Float32" Name="X_lH" NumberOfComponents="1" format="ascii">
          1.83644e-10 1.83621e-10 1.82807e-10 1.82743e-10 1.83823e-10 1.83703e-10 1.84666e-10 1.84627e-10 1.85566e-10 1.85569e-10 1.8645e-10 1.86461e-10
          1.87226e-10 1.87295e-10 1.88011e-10 1.88107e-10 1.88794e-10 1.88944e-10 1.89579e-10 1.89687e-10 1.90297e-10 1.90352e-10 1.91589e-10 1.91673e-10
          1.92587e-10 1.927e-10 1.9339e-10 1.93463e-10 1.9408e-10 1.94177e-10 1.94641e-10 1.94764e-10 1.95314e-10 1.95431e-10 1.95659e-10 1.95695e-10
          1.95946e-10 1.95974e-10 1.96156e-10 1.96256e-10 1.96365e-10 1.96389e-10 1.96493e-10 1.96531e-10 1.96512e-10 1.96553e-10 1.96551e-10 1.96587e-10
          1.96578e-10 1.96547e-10 1.96513e-10 1.96443e-10 1.96293e-10 1.96205e-10 1.95905e-10 1.95887e-10 1.95483e-10 1.95474e-10 1.94655e-10 1.94582e-10
          1.93179e-10 1.9323e-10 1.91038e-10 1.9103e-10 1.87873e-10 1.87877e-10 1.83275e-10 1.83272e-10 1.76768e-10 1.76746e-10 1.6784e-10 1.67838e-10
          1.57252e-10 1.57253e-10 1.51919e-10 1.5193e-10 1.79413e-10 1.79437e-10 6.32454e-10 6.32454e-10
        </DataArray>
        <DataArray type="Float32" Name="X_lOH" NumberOfComponents="1" format="ascii">
          8.30947e-07 8.31057e-07 8.35292e-07 8.35588e-07 8.31186e-07 8.31728e-07 8.27886e-07 8.28065e-07 8.24355e-07 8.24342e-07 8.20922e-07 8.20873e-07
          8.17983e-07 8.1768e-07 8.15023e-07 8.14602e-07 8.12084e-07 8.11438e-07 8.09157e-07 8.08695e-07 8.06534e-07 8.06296e-07 8.01893e-07 8.01536e-07
          7.9851e-07 7.98035e-07 7.95935e-07 7.95632e-07 7.93828e-07 7.93426e-07 7.92242e-07 7.91737e-07 7.90341e-07 7.89866e-07 7.89754e-07 7.89607e-07
          7.8938e-07 7.89264e-07 7.89297e-07 7.88894e-07 7.89209e-07 7.89114e-07 7.89442e-07 7.89286e-07 7.90109e-07 7.89945e-07 7.90709e-07 7.90564e-07
          7.91374e-07 7.91499e-07 7.9245e-07 7.92732e-07 7.94207e-07 7.94565e-07 7.96729e-07 7.96803e-07 7.99518e-07 7.99557e-07 8.0416e-07 8.04463e-07
          8.11778e-07 8.11562e-07 8.22679e-07 8.22712e-07 8.38805e-07 8.38787e-07 8.62792e-07 8.62807e-07 8.98499e-07 8.98611e-07 9.51802e-07 9.51811e-07
          1.0239e-06 1.02389e-06 1.07155e-06 1.07147e-06 9.21729e-07 9.21607e-07 2.67481e-07 2.67481e-07
        </DataArray>
        <DataArray type="Float32" Name="X_gBrine" NumberOfComponents="1" format="ascii">
          0.0106654 0.0105901 0.010606 0.010606 0.0106228 0.0106228 0.0106398 0.0106398 0.010657 0.010657 0.0106744 0.0106744
          0.0106919 0.010692 0.0107096 0.0107096 0.0107274 0.0107274 0.0107453 0.0107453 0.0107632 0.0107632 0.0107994 0.0107994
          0.0108358 0.0108357 0.0108725 0.0108725 0.0109096 0.0109096 0.0109469 0.0109469 0.0109936 0.0109936 0.0110407 0.0110406
          0.0110878 0.0110879 0.0111349 0.0111349 0.0111817 0.0111817 0.0112283 0.0112283 0.0112746 0.0112746 0.0113205 0.0113205
          0.0113661 0.0113661 0.0114112 0.0114112 0.011456 0.011456 0.0115005 0.0115005 0.0115445 0.0115445 0.0115883 0.0115883
          0.0116318 0.0116318 0.0116753 0.0116753 0.0117188 0.0117188 0.0117625 0.0117625 0.0118068 0.0118068 0.011852 0.011852
          0.011899 0.011899 0.0119492 0.0119492 0.0120049 0.0120049 0.0120698 0.0120698
        </DataArray>
        <DataArray type="Float32" Name="X_gTotalC" NumberOfComponents="1" format="ascii">
          0.989335 0.98941 0.989394 0.989394 0.989377 0.989377 0.98936 0.98936 0.989343 0.989343 0.989326 0.989326
          0.989308 0.989308 0.98929 0.98929 0.989273 0.989273 0.989255 0.989255 0.989237 0.989237 0.989201 0.989201
          0.989164 0.989164 0.989127 0.989128 0.98909 0.98909 0.989053 0.989053 0.989006 0.989006 0.988959 0.988959
          0.988912 0.988912 0.988865 0.988865 0.988818 0.988818 0.988772 0.988772 0.988725 0.988725 0.988679 0.988679
          0.988634 0.988634 0.988589 0.988589 0.988544 0.988544 0.9885 0.9885 0.988455 0.988455 0.988412 0.988412
          0.988368 0.988368 0.988325 0.988325 0.988281 0.988281 0.988238 0.988238 0.988193 0.988193 0.988148 0.988148
          0.988101 0.988101 0.988051 0.988051 0.987995 0.987995 0.98793 0.98793
        </DataArray>
        <DataArray type="Float32" Name="X_gNa" NumberOfComponents="1" format="ascii">
          0 0 0 0 0 0 0 0 0 0 0 0
          0 0 0 0 0 0 0 0 0 0 0 0
          0 0 0 0 0 0 0 0 0 0 0 0
          0 0 0 0 0 0 0 0 0 0 0 0
          0 0 0 0 0 0 0 0 0 0 0 0
          0 0 0 0 0 0 0 0 0 0 0 0
          0 0 0 0 0 0 0 0
        </DataArray>
        <DataArray type="Float32" Name="X_gCl" NumberOfComponents="1" format="ascii">
          0 0 0 0 0 0 0 0 0 0 0 0
          0 0 0 0 0 0 0 0 0 0 0 0
          0 0 0 0 0 0 0 0 0 0 0 0
          0 0 0 0 0 0 0 0 0 0 0 0
          0 0 0 0 0 0 0 0 0 0 0 0
          0 0 0 0 0 0 0 0 0 0 0 0
          0 0 0 0 0 0 0 0
        </DataArray>
        <DataArray type="Float32" Name="X_gCa" NumberOfComponents="1" format="ascii">
          0 0 0 0 0 0 0 0 0 0 0 0
          0 0 0 0 0 0 0 0 0 0 0 0
          0 0 0 0 0 0 0 0 0 0 0 0
          0 0 0 0 0 0 0 0 0 0 0 0
          0 0 0 0 0 0 0 0 0 0 0 0
          0 0 0 0 0 0 0 0 0 0 0 0
          0 0 0 0 0 0 0 0
        </DataArray>
        <DataArray type="Float32" Name="X_gUrea" NumberOfComponents="1" format="ascii">
          0 0 0 0 0 0 0 0 0 0 0 0
          0 0 0 0 0 0 0 0 0 0 0 0
          0 0 0 0 0 0 0 0 0 0 0 0
          0 0 0 0 0 0 0 0 0 0 0 0
          0 0 0 0 0 0 0 0 0 0 0 0
          0 0 0 0 0 0 0 0 0 0 0 0
          0 0 0 0 0 0 0 0
        </DataArray>
        <DataArray type="Float32" Name="X_gTotalNH" NumberOfComponents="1" format="ascii">
          0 0 0 0 0 0 0 0 0 0 0 0
          0 0 0 0 0 0 0 0 0 0 0 0
          0 0 0 0 0 0 0 0 0 0 0 0
          0 0 0 0 0 0 0 0 0 0 0 0
          0 0 0 0 0 0 0 0 0 0 0 0
          0 0 0 0 0 0 0 0 0 0 0 0
          0 0 0 0 0 0 0 0
        </DataArray>
        <DataArray type="Float32" Name="X_gO2" NumberOfComponents="1" format="ascii">
          0 0 0 0 0 0 0 0 0 0 0 0
          0 0 0 0 0 0 0 0 0 0 0 0
          0 0 0 0 0 0 0 0 0 0 0 0
          0 0 0 0 0 0 0 0 0 0 0 0
          0 0 0 0 0 0 0 0 0 0 0 0
          0 0 0 0 0 0 0 0 0 0 0 0
          0 0 0 0 0 0 0 0
        </DataArray>
        <DataArray type="Float32" Name="X_gSubstrate" NumberOfComponents="1" format="ascii">
          0 0 0 0 0 0 0 0 0 0 0 0
          0 0 0 0 0 0 0 0 0 0 0 0
          0 0 0 0 0 0 0 0 0 0 0 0
          0 0 0 0 0 0 0 0 0 0 0 0
          0 0 0 0 0 0 0 0 0 0 0 0
          0 0 0 0 0 0 0 0 0 0 0 0
          0 0 0 0 0 0 0 0
        </DataArray>
        <DataArray type="Float32" Name="X_gSuspended_Biomass" NumberOfComponents="1" format="ascii">
          0 0 0 0 0 0 0 0 0 0 0 0
          0 0 0 0 0 0 0 0 0 0 0 0
          0 0 0 0 0 0 0 0 0 0 0 0
          0 0 0 0 0 0 0 0 0 0 0 0
          0 0 0 0 0 0 0 0 0 0 0 0
          0 0 0 0 0 0 0 0 0 0 0 0
          0 0 0 0 0 0 0 0
        </DataArray>
        <DataArray type="Float32" Name="X_gNH4" NumberOfComponents="1" format="ascii">
          0 0 0 0 0 0 0 0 0 0 0 0
          0 0 0 0 0 0 0 0 0 0 0 0
          0 0 0 0 0 0 0 0 0 0 0 0
          0 0 0 0 0 0 0 0 0 0 0 0
          0 0 0 0 0 0 0 0 0 0 0 0
          0 0 0 0 0 0 0 0 0 0 0 0
          0 0 0 0 0 0 0 0
        </DataArray>
        <DataArray type="Float32" Name="X_gHCO3" NumberOfComponents="1" format="ascii">
          0 0 0 0 0 0 0 0 0 0 0 0
          0 0 0 0 0 0 0 0 0 0 0 0
          0 0 0 0 0 0 0 0 0 0 0 0
          0 0 0 0 0 0 0 0 0 0 0 0
          0 0 0 0 0 0 0 0 0 0 0 0
          0 0 0 0 0 0 0 0 0 0 0 0
          0 0 0 0 0 0 0 0
        </DataArray>
        <DataArray type="Float32" Name="X_gCO3" NumberOfComponents="1" format="ascii">
          0 0 0 0 0 0 0 0 0 0 0 0
          0 0 0 0 0 0 0 0 0 0 0 0
          0 0 0 0 0 0 0 0 0 0 0 0
          0 0 0 0 0 0 0 0 0 0 0 0
          0 0 0 0 0 0 0 0 0 0 0 0
          0 0 0 0 0 0 0 0 0 0 0 0
          0 0 0 0 0 0 0 0
        </DataArray>
        <DataArray type="Float32" Name="X_gCO2" NumberOfComponents="1" format="ascii">
          0.989335 0.98941 0.989394 0.989394 0.989377 0.989377 0.98936 0.98936 0.989343 0.989343 0.989326 0.989326
          0.989308 0.989308 0.98929 0.98929 0.989273 0.989273 0.989255 0.989255 0.989237 0.989237 0.989201 0.989201
          0.989164 0.989164 0.989127 0.989128 0.98909 0.98909 0.989053 0.989053 0.989006 0.989006 0.988959 0.988959
          0.988912 0.988912 0.988865 0.988865 0.988818 0.988818 0.988772 0.988772 0.988725 0.988725 0.988679 0.988679
          0.988634 0.988634 0.988589 0.988589 0.988544 0.988544 0.9885 0.9885 0.988455 0.988455 0.988412 0.988412
          0.988368 0.988368 0.988325 0.988325 0.988281 0.988281 0.988238 0.988238 0.988193 0.988193 0.988148 0.988148
          0.988101 0.988101 0.988051 0.988051 0.987995 0.987995 0.98793 0.98793
        </DataArray>
        <DataArray type="Float32" Name="X_gH" NumberOfComponents="1" format="ascii">
          0 0 0 0 0 0 0 0 0 0 0 0
          0 0 0 0 0 0 0 0 0 0 0 0
          0 0 0 0 0 0 0 0 0 0 0 0
          0 0 0 0 0 0 0 0 0 0 0 0
          0 0 0 0 0 0 0 0 0 0 0 0
          0 0 0 0 0 0 0 0 0 0 0 0
          0 0 0 0 0 0 0 0
        </DataArray>
        <DataArray type="Float32" Name="X_gOH" NumberOfComponents="1" format="ascii">
          0 0 0 0 0 0 0 0 0 0 0 0
          0 0 0 0 0 0 0 0 0 0 0 0
          0 0 0 0 0 0 0 0 0 0 0 0
          0 0 0 0 0 0 0 0 0 0 0 0
          0 0 0 0 0 0 0 0 0 0 0 0
          0 0 0 0 0 0 0 0 0 0 0 0
          0 0 0 0 0 0 0 0
        </DataArray>
        <DataArray type="Float32" Name="Molarity_Brine" NumberOfComponents="1" format="ascii">
          53143.8 53143.9 53152.1 53152.2 53160 53160.1 53167.8 53167.8 53175.3 53175.3 53182.8 53182.8
          53190.1 53190.1 53197.3 53197.2 53204.4 53204.3 53211.4 53211.3 53218.3 53218.2 53231.2 53231.1
          53243.8 53243.7 53256 53255.9 53267.9 53267.9 53279.6 53279.6 53293.6 53293.6 53307.3 53307.3
          53320.7 53320.7 53334.1 53334.1 53347.4 53347.4 53360.9 53360.9 53374.7 53374.7 53389 53389
          53404.2 53404.2 53420.6 53420.6 53438.7 53438.7 53459.1 53459.1 53482.8 53482.8 53510.8 53510.8
          53544.7 53544.7 53586.4 53586.4 53638.7 53638.7 53705.6 53705.6 53792.5 53792.5 53907.7 53907.7
          54064.1 54064.1 54283.3 54283.3 54597 54597.1 55049.2 55049.2
        </DataArray>
        <DataArray type="Float32" Name="Molarity_TotalC" NumberOfComponents="1" format="ascii">
          0.489798 0.489924 0.506816 0.507073 0.517665 0.518071 0.528634 0.528764 0.539075 0.539044 0.549254 0.549165
          0.559477 0.559169 0.569379 0.568955 0.579007 0.578393 0.58837 0.587893 0.597722 0.597415 0.615224 0.614807
          0.632858 0.632335 0.650323 0.649944 0.667405 0.666927 0.68422 0.683632 0.70382 0.703293 0.723567 0.723392
          0.74242 0.742249 0.76047 0.760007 0.777377 0.777242 0.793444 0.793228 0.808732 0.808512 0.822577 0.822387
          0.835011 0.835158 0.846302 0.846653 0.856592 0.85704 0.865734 0.865838 0.872808 0.872867 0.879313 0.879701
          0.886031 0.885769 0.892417 0.89246 0.899455 0.899432 0.908101 0.908117 0.919183 0.919315 0.932819 0.932831
          0.937887 0.93789 0.869646 0.869568 0.569136 0.569039 0.0132254 0.0132254
        </DataArray>
        <DataArray type="Float32" Name="Molarity_Na" NumberOfComponents="1" format="ascii">
          0.0054586 0.00545862 0.00547168 0.0054717 0.00548534 0.00548534 0.00549993 0.0054999 0.00551556 0.00551552 0.00553238 0.00553232
          0.00555046 0.00555039 0.00556991 0.00556984 0.00559085 0.00559079 0.00561343 0.00561338 0.00563779 0.00563773 0.00569015 0.0056901
          0.00575085 0.00575081 0.00582117 0.00582112 0.00590278 0.0059027 0.00599767 0.0059976 0.00613583 0.00613594 0.00630282 0.00630299
          0.00650525 0.00650502 0.00675185 0.00675186 0.0070537 0.00705369 0.00742448 0.0074241 0.00788127 0.00788123 0.00844643 0.00844651
          0.00914881 0.00914895 0.0100256 0.0100257 0.0111242 0.0111237 0.0125046 0.0125048 0.014252 0.014253 0.0164783 0.0164779
          0.0193229 0.0193224 0.022981 0.0229806 0.0277211 0.0277211 0.0339175 0.0339183 0.0421094 0.04211 0.0530944 0.0530949
          0.0681264 0.068126 0.0892626 0.0892626 0.119569 0.119569 0.1633 0.1633
        </DataArray>
        <DataArray type="Float32" Name="Molarity_Cl" NumberOfComponents="1" format="ascii">
          870.654 870.654 870.734 870.735 870.805 870.806 870.869 870.87 870.926 870.926 870.975 870.975
          871.016 871.016 871.049 871.049 871.074 871.073 871.089 871.088 871.094 871.093 871.074 871.073
          871.011 871.01 870.897 870.897 870.728 870.727 870.494 870.493 870.102 870.101 869.573 869.572
          868.88 868.881 867.984 867.984 866.837 866.837 865.379 865.381 863.536 863.536 861.209 861.208
          858.272 858.271 854.563 854.563 849.875 849.877 843.944 843.944 836.399 836.395 826.752 826.754
          814.391 814.394 798.465 798.466 777.798 777.798 750.755 750.751 714.977 714.975 666.978 666.977
          601.276 601.278 508.879 508.879 376.386 376.385 185.193 185.193
        </DataArray>
        <DataArray type="Float32" Name="Molarity_Ca" NumberOfComponents="1" format="ascii">
          299.257 299.241 295.477 295.461 291.874 291.864 288.358 288.357 284.916 284.922 281.538 281.553
          278.223 278.245 274.969 274.996 271.773 271.802 268.629 268.659 265.535 265.565 259.751 259.782
          254.162 254.191 248.765 248.794 243.548 243.577 238.497 238.526 232.538 232.554 226.828 226.835
          221.354 221.368 216.097 216.105 211.04 211.049 206.17 206.182 201.471 201.479 196.921 196.926
          192.49 192.49 188.135 188.131 183.807 183.803 179.446 179.442 174.954 174.949 170.203 170.199
          165.041 165.041 159.259 159.259 152.56 152.56 144.539 144.538 134.608 134.607 121.897 121.896
          105.018 105.018 81.6446 81.6445 48.2272 48.2267 0 0
        </DataArray>
        <DataArray type="Float32" Name="Molarity_Urea" NumberOfComponents="1" format="ascii">
          291.131 291.116 287.334 287.318 283.72 283.709 280.192 280.191 276.74 276.746 273.351 273.366
          270.026 270.048 266.762 266.79 263.556 263.586 260.403 260.433 257.299 257.33 251.499 251.531
          245.894 245.924 240.481 240.51 235.249 235.279 230.185 230.214 224.212 224.228 218.488 218.495
          213.004 213.017 207.739 207.748 202.679 202.688 197.81 197.821 193.116 193.125 188.579 188.585
          184.169 184.169 179.845 179.84 175.559 175.555 171.255 171.251 166.841 166.836 162.191 162.188
          157.162 157.162 151.55 151.55 145.075 145.075 137.347 137.346 127.804 127.803 115.613 115.612
          99.4614 99.4615 77.1849 77.1848 45.543 45.5426 0 0
        </DataArray>
        <DataArray type="Float32" Name="Molarity_TotalNH" NumberOfComponents="1" format="ascii">
          273.091 273.123 280.764 280.798 288.063 288.085 295.182 295.185 302.143 302.131 308.968 308.939
          315.661 315.616 322.221 322.165 328.657 328.596 334.978 334.917 341.192 341.129 352.774 352.71
          363.924 363.863 374.639 374.58 384.938 384.879 394.838 394.78 406.404 406.37 417.335 417.32
          427.628 427.601 437.283 437.264 446.282 446.265 454.597 454.575 462.183 462.166 468.983 468.971
          474.933 474.933 479.956 479.965 483.945 483.955 486.755 486.762 488.209 488.215 488.076 488.085
          486.052 486.053 481.704 481.705 474.448 474.448 463.465 463.463 447.571 447.571 425.022 425.022
          393.088 393.09 347.301 347.301 281.043 281.042 185.193 185.193
        </DataArray>
        <DataArray type="Float32" Name="Molarity_O2" NumberOfComponents="1" format="ascii">
          0.186941 0.186917 0.180994 0.180968 0.175299 0.175284 0.16971 0.16971 0.164212 0.164222 0.158787 0.15881
          0.153435 0.153471 0.148157 0.148201 0.142949 0.142997 0.137804 0.137852 0.132718 0.132768 0.123157 0.123208
          0.113857 0.113906 0.104831 0.104879 0.0960771 0.0961255 0.087592 0.0876402 0.0775951 0.0776233 0.0680765 0.0680883
          0.0590664 0.0590896 0.0505948 0.0506115 0.0427119 0.0427274 0.0354818 0.0355013 0.0289874 0.029004 0.0233328 0.0233451
          0.0186327 0.0186381 0.0148638 0.0148655 0.0118441 0.0118462 0.00943029 0.00943169 0.00749877 0.00749833 0.0059522 0.00595175
          0.00471731 0.00471718 0.00373189 0.00373204 0.00294515 0.00294535 0.00231573 0.0023158 0.00180894 0.00180891 0.00139472 0.00139465
          0.00104412 0.00104407 0.000724887 0.00072486 0.000397146 0.000397134 0 0
        </DataArray>
        <DataArray type="Float32" Name="Molarity_Substrate" NumberOfComponents="1" format="ascii">
          16.7924 16.7924 16.7918 16.7918 16.7911 16.7911 16.7904 16.7904 16.7894 16.7894 16.7884 16.7884
          16.7872 16.7872 16.7859 16.7859 16.7844 16.7844 16.7827 16.7827 16.7809 16.7809 16.7768 16.7768
          16.7718 16.7718 16.7658 16.7658 16.7586 16.7586 16.7501 16.7501 16.7373 16.7373 16.7217 16.7216
          16.7023 16.7023 16.6784 16.6784 16.6488 16.6488 16.612 16.6121 16.5663 16.5663 16.5093 16.5093
          16.4379 16.4379 16.3482 16.3482 16.235 16.2351 16.0918 16.0918 15.9095 15.9094 15.676 15.676
          15.3763 15.3764 14.9895 14.9896 14.4868 14.4868 13.828 13.8279 12.9553 12.9552 11.7833 11.7833
          10.1778 10.1778 7.91853 7.91854 4.67764 4.6776 0 0
        </DataArray>
        <DataArray type="Float32" Name="Molarity_Suspended_Biomass" NumberOfComponents="1" format="ascii">
          0.00043292 0.000433111 0.000472338 0.000472546 0.000510057 0.000510201 0.000547011 0.000547044 0.000583265 0.00058321 0.000618921 0.000618762
          0.000653975 0.000653715 0.000688408 0.000688075 0.000722247 0.000721876 0.000755529 0.000755158 0.000788293 0.000787912 0.000849485 0.00084909
          0.000908532 0.000908146 0.000965357 0.000964984 0.00101998 0.0010196 0.00107242 0.00107204 0.0011335 0.00113326 0.00119093 0.0011908
          0.00124454 0.00124435 0.00129419 0.00129405 0.0013397 0.00133957 0.00138082 0.00138069 0.00141726 0.00141715 0.00144858 0.00144851
          0.00147436 0.00147435 0.00149439 0.00149442 0.00150863 0.00150867 0.00151674 0.00151677 0.00151815 0.00151817 0.00151195 0.00151198
          0.00149682 0.00149684 0.00147081 0.00147082 0.00143114 0.00143115 0.00137387 0.00137387 0.00129324 0.00129325 0.00118069 0.0011807
          0.00102277 0.00102279 0.00079737 0.000797385 0.000471587 0.000471595 0 0
        </DataArray>
        <DataArray type="Float32" Name="Molarity_NH4" NumberOfComponents="1" format="ascii">
          272.546 272.578 280.2 280.233 287.486 287.507 294.592 294.594 301.539 301.528 308.352 308.324
          315.033 314.988 321.581 321.526 328.005 327.945 334.315 334.255 340.517 340.455 352.078 352.014
          363.206 363.146 373.9 373.842 384.178 384.12 394.058 394 405.6 405.566 416.507 416.492
          426.777 426.75 436.41 436.391 445.388 445.371 453.683 453.661 461.25 461.233 468.032 468.021
          473.966 473.966 478.975 478.983 482.95 482.96 485.747 485.755 487.191 487.197 487.048 487.056
          485.013 485.015 480.654 480.655 473.386 473.386 462.388 462.387 446.476 446.476 423.905 423.905
          391.954 391.956 346.224 346.224 280.264 280.263 185.037 185.037
        </DataArray>
        <DataArray type="Float32" Name="Molarity_HCO3" NumberOfComponents="1" format="ascii">
          0.407207 0.40732 0.421524 0.421762 0.43 0.430383 0.43862 0.438744 0.44676 0.446734 0.454669 0.454592
          0.462641 0.462358 0.470325 0.469934 0.477765 0.477195 0.484969 0.48453 0.492177 0.491901 0.505639 0.505259
          0.519296 0.518814 0.532863 0.532519 0.546134 0.545695 0.559216 0.558674 0.574391 0.5739 0.589824 0.589662
          0.604528 0.604374 0.618594 0.61816 0.631706 0.631583 0.644163 0.643966 0.656036 0.655833 0.666711 0.666535
          0.676233 0.676372 0.684872 0.685202 0.692784 0.693204 0.699856 0.699952 0.705246 0.705299 0.710406 0.71077
          0.716121 0.715874 0.721945 0.721985 0.728894 0.728873 0.738009 0.738024 0.750277 0.750402 0.766136 0.766146
          0.775565 0.775567 0.71801 0.717936 0.447602 0.447512 0.00553194 0.00553194
        </DataArray>
        <DataArray type="Float32" Name="Molarity_CO3" NumberOfComponents="1" format="ascii">
          0.000467379 0.000467559 0.000483515 0.000483947 0.000488056 0.000488801 0.000493111 0.000493356 0.000497369 0.000497336 0.000501311 0.000501207
          0.000505512 0.000505035 0.000509286 0.000508624 0.000512713 0.000511719 0.000515799 0.000515063 0.000518993 0.000518576 0.000524774 0.000524175
          0.000531325 0.000530546 0.000538104 0.000537581 0.000544704 0.00054402 0.000551293 0.000550438 0.000558351 0.000557556 0.000566409 0.000566155
          0.000573767 0.000573553 0.000580599 0.000579906 0.000586417 0.000586244 0.000591768 0.000591485 0.000596818 0.000596521 0.000600641 0.000600379
          0.00060337 0.000603589 0.000605482 0.000605982 0.000607265 0.000607903 0.000608605 0.000608738 0.000608235 0.000608302 0.000608394 0.000608931
          0.000610273 0.000609899 0.000613208 0.000613267 0.000618735 0.000618703 0.000628445 0.000628466 0.000643905 0.000644089 0.000665907 0.00066592
          0.000678963 0.000678964 0.000591653 0.000591547 0.000259985 0.000259898 4.26535e-07 4.26535e-07
        </DataArray>
        <DataArray type="Float32" Name="Molarity_CO2" NumberOfComponents="1" format="ascii">
          0.0821303 0.0821432 0.0848144 0.0848333 0.0871843 0.0872058 0.0895274 0.0895334 0.0918244 0.09182 0.0940905 0.094079
          0.0963382 0.0963133 0.0985525 0.0985194 0.100737 0.100694 0.102893 0.102856 0.105034 0.105003 0.109068 0.109032
          0.113039 0.112999 0.116931 0.116896 0.120735 0.120696 0.124461 0.124416 0.12888 0.128845 0.133186 0.133174
          0.137328 0.137311 0.141306 0.141277 0.145094 0.145082 0.148699 0.148681 0.152109 0.152093 0.155276 0.155263
          0.158186 0.158193 0.160836 0.160857 0.163213 0.163239 0.165281 0.165289 0.166966 0.166971 0.168311 0.168334
          0.169311 0.169297 0.169871 0.169874 0.169954 0.169953 0.169476 0.169476 0.168274 0.168281 0.16603 0.166031
          0.161656 0.161656 0.151056 0.151052 0.121282 0.121274 0.00769319 0.00769319
        </DataArray>
        <DataArray type="Float32" Name="Molarity_H" NumberOfComponents="1" format="ascii">
          0.000186863 0.000186838 0.000185993 0.000185927 0.000187009 0.000186888 0.000187851 0.00018781 0.000188749 0.000188752 0.000189632 0.000189643
          0.000190405 0.000190475 0.000191187 0.000191285 0.000191968 0.00019212 0.000192751 0.00019286 0.000193465 0.000193521 0.000194749 0.000194835
          0.000195735 0.00019585 0.000196524 0.000196597 0.000197197 0.000197296 0.000197739 0.000197865 0.000198391 0.00019851 0.000198709 0.000198746
          0.000198969 0.000198998 0.000199152 0.000199253 0.000199333 0.000199357 0.00019943 0.00019947 0.000199417 0.000199459 0.000199422 0.000199459
          0.000199414 0.000199382 0.000199308 0.000199237 0.000199041 0.000198951 0.000198598 0.00019858 0.000198113 0.000198104 0.000197205 0.000197131
          0.000195628 0.00019568 0.000193359 0.000193351 0.000190032 0.000190036 0.000185227 0.000185224 0.000178457 0.000178434 0.000169198 0.000169197
          0.000158214 0.000158214 0.000152425 0.000152436 0.000179294 0.000179318 0.000628379 0.000628379
        </DataArray>
        <DataArray type="Float32" Name="Molarity_OH" NumberOfComponents="1" format="ascii">
          5.01325e-05 5.01391e-05 5.03898e-05 5.04077e-05 5.01375e-05 5.01702e-05 4.9934e-05 4.99448e-05 4.97167e-05 4.97159e-05 4.95053e-05 4.95024e-05
          4.93239e-05 4.93057e-05 4.91413e-05 4.9116e-05 4.89601e-05 4.89212e-05 4.87797e-05 4.87519e-05 4.86177e-05 4.86034e-05 4.83306e-05 4.83092e-05
          4.81197e-05 4.80911e-05 4.79577e-05 4.79395e-05 4.78241e-05 4.77999e-05 4.7722e-05 4.76917e-05 4.75997e-05 4.75712e-05 4.75568e-05 4.7548e-05
          4.75268e-05 4.75198e-05 4.75143e-05 4.74901e-05 4.75015e-05 4.74958e-05 4.7508e-05 4.74985e-05 4.75403e-05 4.75304e-05 4.75682e-05 4.75595e-05
          4.75995e-05 4.7607e-05 4.76548e-05 4.76717e-05 4.77499e-05 4.77714e-05 4.78896e-05 4.7894e-05 4.80433e-05 4.80456e-05 4.83055e-05 4.83237e-05
          4.87427e-05 4.87297e-05 4.93716e-05 4.93736e-05 5.03066e-05 5.03055e-05 5.17021e-05 5.1703e-05 5.37833e-05 5.379e-05 5.68917e-05 5.68923e-05
          6.10806e-05 6.10805e-05 6.37466e-05 6.37417e-05 5.46154e-05 5.46082e-05 1.57575e-05 1.57575e-05
        </DataArray>
        <DataArray type="Float32" Name="Da_ureolysis" NumberOfComponents="1" format="ascii">
          0 0 0 0 0 0 0 0 0 0 0 0
          0 0 0 0 0 0 0 0 0 0 0 0
          0 0 0 0 0 0 0 0 0 0 0 0
          0 0 0 0 0 0 0 0 0 0 0 0
          0 0 0 0 0 0 0 0 0 0 0 0
          0 0 0 0 0 0 0 0 0 0 0 0
          0 0 0 0 0 0 0 0
        </DataArray>
        <DataArray type="Float32" Name="Da_precipitation" NumberOfComponents="1" format="ascii">
          1.34517 1.34813 1.45304 1.45853 1.42838 1.43711 1.4267 1.43032 1.42015 1.42018 1.4124 1.40998
          1.40716 1.40091 1.3987 1.38932 1.3867 1.37467 1.37244 1.36224 1.35943 1.35312 1.33195 1.32508
          1.31355 1.30543 1.29779 1.29183 1.28046 1.27387 1.2681 1.25943 1.23833 1.2334 1.22801 1.22543
          1.20865 1.20702 1.18807 1.18555 1.16866 1.16505 1.1409 1.13986 1.11767 1.11486 1.08628 1.08424
          1.05014 1.05131 1.0116 1.0147 0.972752 0.975775 0.932124 0.933389 0.881384 0.88134 0.833152 0.835753
          0.788693 0.787331 0.742978 0.742986 0.698099 0.698003 0.654591 0.654535 0.607695 0.608359 0.546532 0.546593
          0.416175 0.416213 0.141569 0.141485 0.00139191 0.00138976 0 0
        </DataArray>
        <DataArray type="Float32" Name="Vx" NumberOfComponents="1" format="ascii">
          -5.02495e-07 -5.01869e-07 -3.11599e-07 -3.11068e-07 7.46519e-08 7.45216e-08 3.27276e-07 3.26889e-07 3.36988e-07 3.37013e-07 3.41811e-07 3.42181e-07
          3.24496e-07 3.25259e-07 2.13839e-07 2.14571e-07 3.69675e-08 3.71257e-08 -6.81889e-08 -6.83892e-08 -1.11883e-08 -1.12412e-08 -2.65449e-08 -2.66456e-08
          -1.10111e-07 -1.10312e-07 -2.98991e-08 -2.99591e-08 7.72756e-08 7.74327e-08 4.35617e-08 4.34558e-08 -4.03388e-07 -4.03584e-07 -3.31485e-07 -3.31685e-07
          4.0562e-07 4.05655e-07 3.39892e-08 3.41997e-08 -8.3043e-08 -8.31679e-08 2.67016e-07 2.67174e-07 -3.10621e-08 -3.09384e-08 -1.54108e-07 -1.54241e-07
          -1.19894e-07 -1.19903e-07 -1.42932e-08 -1.43131e-08 1.54028e-07 1.54046e-07 -2.05226e-08 -2.05415e-08 -2.04541e-07 -2.04538e-07 5.66056e-08 5.66528e-08
          1.14797e-07 1.14778e-07 2.65446e-08 2.65564e-08 -1.89484e-08 -1.89561e-08 -5.60021e-08 -5.60053e-08 -2.48286e-08 -2.48235e-08 1.44762e-09 1.44645e-09
          2.75908e-08 2.75883e-08 1.81356e-08 1.81355e-08 -2.85259e-09 -2.85245e-09 -4.52466e-09 -4.5248e-09
        </DataArray>
        <DataArray type="Float32" Name="Vy" NumberOfComponents="1" format="ascii">
          0.000345204 0.000344886 0.000332721 0.000332215 0.000335506 0.000334865 0.000335383 0.000334999 0.000335376 0.00033538 0.000335348 0.00033573
          0.00033502 0.000335788 0.000334883 0.000335965 0.000334846 0.000336073 0.000334929 0.00033612 0.0003348 0.000335799 0.000335476 0.000336356
          0.0003352 0.000335948 0.000334915 0.000335523 0.000335213 0.000335863 0.000334471 0.000335239 0.000336386 0.000336764 0.000334693 0.0003342
          0.000335424 0.000335062 0.00033587 0.000336046 0.000335087 0.0003351 0.000335746 0.00033598 0.000335222 0.00033574 0.000335383 0.00033567
          0.000335668 0.00033568 0.000335898 0.000335758 0.000335684 0.000335704 0.000334984 0.00033518 0.000336208 0.000336129 0.000335873 0.000335626
          0.000335573 0.000335539 0.000335523 0.000335627 0.000335474 0.000335582 0.000335349 0.000335378 0.000335372 0.000335316 0.000334935 0.000334857
          0.00033536 0.000335312 0.00033866 0.000338663 0.000338734 0.00033875 0.000358153 0.000358163
        </DataArray>
      </PointData>
      <CellData Scalars="process rank">
        <DataArray type="Float32" Name="process rank" NumberOfComponents="1" format="ascii">
          0 0 0 0 0 0 0 0 0 0 0 0
          0 0 0 0 0 0 0 0 0 0 0 0
          0 0 0 0 0 0 0 0 0 0 0 0
          0 0 0
        </DataArray>
      </CellData>
      <Points>
        <DataArray type="Float32" Name="Coordinates" NumberOfComponents="3" format="ascii">
          0 0 0 0.0254 0 0 0 0.01 0 0.0254 0.01 0
          0 0.02 0 0.0254 0.02 0 0 0.03 0 0.0254 0.03 0
          0 0.04 0 0.0254 0.04 0 0 0.05 0 0.0254 0.05 0
          0 0.06 0 0.0254 0.06 0 0 0.07 0 0.0254 0.07 0
          0 0.08 0 0.0254 0.08 0 0 0.09 0 0.0254 0.09 0
          0 0.1 0 0.0254 0.1 0 0 0.12 0 0.0254 0.12 0
          0 0.14 0 0.0254 0.14 0 0 0.16 0 0.0254 0.16 0
          0 0.18 0 0.0254 0.18 0 0 0.2 0 0.0254 0.2 0
          0 0.225 0 0.0254 0.225 0 0 0.25 0 0.0254 0.25 0
          0 0.275 0 0.0254 0.275 0 0 0.3 0 0.0254 0.3 0
          0 0.325 0 0.0254 0.325 0 0 0.35 0 0.0254 0.35 0
          0 0.375 0 0.0254 0.375 0 0 0.4 0 0.0254 0.4 0
          0 0.425 0 0.0254 0.425 0 0 0.45 0 0.0254 0.45 0
          0 0.475 0 0.0254 0.475 0 0 0.5 0 0.0254 0.5 0
          0 0.525 0 0.0254 0.525 0 0 0.55 0 0.0254 0.55 0
          0 0.575 0 0.0254 0.575 0 0 0.6 0 0.0254 0.6 0
          0 0.625 0 0.0254 0.625 0 0 0.65 0 0.0254 0.65 0
          0 0.675 0 0.0254 0.675 0 0 0.7 0 0.0254 0.7 0
          0 0.725 0 0.0254 0.725 0 0 0.75 0 0.0254 0.75 0
          0 0.775 0 0.0254 0.775 0 0 0.8 0 0.0254 0.8 0
        </DataArray>
      </Points>
      <Cells>
        <DataArray type="Int32" Name="connectivity" NumberOfComponents="1" format="ascii">
          0 1 3 2 2 3 5 4 4 5 7 6
          6 7 9 8 8 9 11 10 10 11 13 12
          12 13 15 14 14 15 17 16 16 17 19 18
          18 19 21 20 20 21 23 22 22 23 25 24
          24 25 27 26 26 27 29 28 28 29 31 30
          30 31 33 32 32 33 35 34 34 35 37 36
          36 37 39 38 38 39 41 40 40 41 43 42
          42 43 45 44 44 45 47 46 46 47 49 48
          48 49 51 50 50 51 53 52 52 53 55 54
          54 55 57 56 56 57 59 58 58 59 61 60
          60 61 63 62 62 63 65 64 64 65 67 66
          66 67 69 68 68 69 71 70 70 71 73 72
          72 73 75 74 74 75 77 76 76 77 79 78
        </DataArray>
        <DataArray type="Int32" Name="offsets" NumberOfComponents="1" format="ascii">
          4 8 12 16 20 24 28 32 36 40 44 48
          52 56 60 64 68 72 76 80 84 88 92 96
          100 104 108 112 116 120 124 128 132 136 140 144
          148 152 156
        </DataArray>
        <DataArray type="UInt8" Name="types" NumberOfComponents="1" format="ascii">
          9 9 9 9 9 9 9 9 9 9 9 9
          9 9 9 9 9 9 9 9 9 9 9 9
          9 9 9 9 9 9 9 9 9 9 9 9
          9 9 9
        </DataArray>
      </Cells>
    </Piece>
  </UnstructuredGrid>
</VTKFile>
