<?xml version="1.0"?>
<VTKFile type="UnstructuredGrid" version="0.1" byte_order="LittleEndian">
  <UnstructuredGrid>
    <Piece NumberOfCells="39" NumberOfPoints="80">
      <PointData Scalars="Sg">
        <DataArray type="Float32" Name="Sg" NumberOfComponents="1" format="ascii">
          0 0 0 0 0 0 0 0 0 0 0 0
          0 0 0 0 0 0 0 0 0 0 0 0
          0 0 0 0 0 0 0 0 0 0 0 0
          0 0 0 0 0 0 0 0 0 0 0 0
          0 0 0 0 0 0 0 0 0 0 0 0
          0 0 0 0 0 0 0 0 0 0 0 0
          0 0 0 0 0 0 0 0
        </DataArray>
        <DataArray type="Float32" Name="Sl" NumberOfComponents="1" format="ascii">
          1 1 1 1 1 1 1 1 1 1 1 1
          1 1 1 1 1 1 1 1 1 1 1 1
          1 1 1 1 1 1 1 1 1 1 1 1
          1 1 1 1 1 1 1 1 1 1 1 1
          1 1 1 1 1 1 1 1 1 1 1 1
          1 1 1 1 1 1 1 1 1 1 1 1
          1 1 1 1 1 1 1 1
        </DataArray>
        <DataArray type="Float32" Name="pg" NumberOfComponents="1" format="ascii">
          117613 117613 117515 117515 117416 117416 117317 117317 117219 117219 117120 117120
          117021 117021 116922 116922 116824 116824 116725 116725 116626 116626 116428 116428
          116230 116230 116032 116032 115833 115833 115635 115635 115387 115387 115138 115138
          114890 114890 114641 114641 114392 114392 114143 114143 113894 113894 113645 113645
          113396 113396 113147 113147 112898 112898 112648 112648 112399 112399 112150 112150
          111901 111901 111651 111651 111402 111402 111153 111153 110905 110905 110656 110656
          110408 110408 110160 110160 109913 109913 109667 109667
        </DataArray>
        <DataArray type="Float32" Name="pl" NumberOfComponents="1" format="ascii">
          107947 107947 107848 107848 107749 107749 107651 107651 107552 107552 107453 107453
          107354 107354 107256 107256 107157 107157 107058 107058 106959 106959 106761 106761
          106563 106563 106365 106365 106167 106167 105968 105968 105720 105720 105472 105472
          105223 105223 104974 104974 104726 104726 104477 104477 104228 104228 103979 103979
          103730 103730 103480 103480 103231 103231 102982 102982 102732 102732 102483 102483
          102234 102234 101985 101985 101736 101736 101487 101487 101238 101238 100989 100989
          100741 100741 100493 100493 100246 100246 100000 100000
        </DataArray>
        <DataArray type="Float32" Name="pc" NumberOfComponents="1" format="ascii">
          9666.67 9666.67 9666.67 9666.67 9666.67 9666.67 9666.67 9666.67 9666.67 9666.67 9666.67 9666.67
          9666.67 9666.67 9666.67 9666.67 9666.67 9666.67 9666.67 9666.67 9666.67 9666.67 9666.67 9666.67
          9666.67 9666.67 9666.67 9666.67 9666.67 9666.67 9666.67 9666.67 9666.67 9666.67 9666.67 9666.67
          9666.67 9666.67 9666.67 9666.67 9666.67 9666.67 9666.67 9666.67 9666.67 9666.67 9666.67 9666.67
          9666.67 9666.67 9666.67 9666.67 9666.67 9666.67 9666.67 9666.67 9666.67 9666.67 9666.67 9666.67
          9666.67 9666.67 9666.67 9666.67 9666.67 9666.67 9666.67 9666.67 9666.67 9666.67 9666.67 9666.67
          9666.67 9666.67 9666.67 9666.67 9666.67 9666.67 9666.67 9666.67
        </DataArray>
        <DataArray type="Float32" Name="rhoL" NumberOfComponents="1" format="ascii">
          1005.11 1005.08 1005.34 1005.35 1005.67 1005.66 1005.99 1005.99 1006.32 1006.32 1006.66 1006.66
          1007 1007 1007.34 1007.34 1007.69 1007.69 1008.04 1008.04 1008.39 1008.39 1009.06 1009.06
          1009.73 1009.73 1010.38 1010.38 1011.02 1011.02 1011.63 1011.63 1012.35 1012.35 1013.01 1013.01
          1013.62 1013.62 1014.18 1014.18 1014.68 1014.68 1015.13 1015.13 1015.51 1015.51 1015.83 1015.83
          1016.09 1016.09 1016.29 1016.29 1016.42 1016.43 1016.49 1016.49 1016.49 1016.49 1016.4 1016.4
          1016.23 1016.23 1015.94 1015.94 1015.52 1015.52 1014.93 1014.93 1014.11 1014.11 1012.98 1012.98
          1011.4 1011.4 1009.18 1009.18 1006 1006 1001.45 1001.45
        </DataArray>
        <DataArray type="Float32" Name="rhoG" NumberOfComponents="1" format="ascii">
          2.06886 2.06891 2.06713 2.06713 2.06535 2.06535 2.06357 2.06357 2.06178 2.06178 2.06 2.06
          2.05822 2.05822 2.05643 2.05643 2.05465 2.05465 2.05286 2.05286 2.05107 2.05107 2.0475 2.0475
          2.04392 2.04392 2.04034 2.04034 2.03676 2.03676 2.03318 2.03318 2.02869 2.02869 2.0242 2.0242
          2.01971 2.01971 2.01522 2.01522 2.01072 2.01072 2.00621 2.00621 2.00171 2.00171 1.9972 1.9972
          1.99269 1.99269 1.98818 1.98818 1.98367 1.98367 1.97915 1.97915 1.97464 1.97464 1.97012 1.97012
          1.9656 1.9656 1.96108 1.96108 1.95656 1.95656 1.95204 1.95204 1.94752 1.94752 1.943 1.943
          1.93848 1.93848 1.93396 1.93396 1.92943 1.92943 1.9249 1.9249
        </DataArray>
        <DataArray type="Float32" Name="mobL" NumberOfComponents="1" format="ascii">
          1083.57 1083.71 1082.42 1082.4 1080.87 1080.9 1079.34 1079.36 1077.79 1077.78 1076.23 1076.24
          1074.68 1074.68 1073.12 1073.13 1071.59 1071.59 1070.06 1070.06 1068.54 1068.55 1065.67 1065.68
          1062.9 1062.9 1060.24 1060.24 1057.72 1057.72 1055.33 1055.33 1052.59 1052.59 1050.1 1050.1
          1047.84 1047.84 1045.82 1045.82 1044.03 1044.03 1042.47 1042.47 1041.14 1041.14 1040.03 1040.03
          1039.13 1039.13 1038.45 1038.45 1037.99 1037.99 1037.77 1037.77 1037.78 1037.78 1038.06 1038.06
          1038.66 1038.66 1039.64 1039.64 1041.09 1041.1 1043.17 1043.17 1046.09 1046.09 1050.23 1050.23
          1056.21 1056.21 1065.2 1065.2 1079.31 1079.31 1103.12 1103.12
        </DataArray>
        <DataArray type="Float32" Name="mobG" NumberOfComponents="1" format="ascii">
          0 0 0 0 0 0 0 0 0 0 0 0
          0 0 0 0 0 0 0 0 0 0 0 0
          0 0 0 0 0 0 0 0 0 0 0 0
          0 0 0 0 0 0 0 0 0 0 0 0
          0 0 0 0 0 0 0 0 0 0 0 0
          0 0 0 0 0 0 0 0 0 0 0 0
          0 0 0 0 0 0 0 0
        </DataArray>
        <DataArray type="Float32" Name="porosity" NumberOfComponents="1" format="ascii">
          0.247054 0.247063 0.23235 0.232075 0.229236 0.228808 0.226982 0.226844 0.225704 0.225788 0.224972 0.224974
          0.223803 0.224161 0.223141 0.223443 0.222509 0.223053 0.222219 0.222536 0.221708 0.222018 0.221713 0.222117
          0.221069 0.221393 0.220411 0.220535 0.220245 0.220561 0.220275 0.22049 0.221184 0.221862 0.221312 0.220607
          0.222676 0.222238 0.224243 0.225121 0.22674 0.226 0.228898 0.229367 0.231496 0.231738 0.234485 0.234636
          0.237945 0.237906 0.241559 0.241482 0.245132 0.244959 0.248568 0.249036 0.254258 0.254029 0.259105 0.258847
          0.26407 0.264198 0.270126 0.270116 0.27699 0.277143 0.285329 0.285287 0.295633 0.295612 0.308794 0.308716
          0.327272 0.327242 0.35275 0.352778 0.377589 0.3776 0.4 0.4
        </DataArray>
        <DataArray type="Float32" Name="temperature" NumberOfComponents="1" format="ascii">
          298.15 298.15 298.15 298.15 298.15 298.15 298.15 298.15 298.15 298.15 298.15 298.15
          298.15 298.15 298.15 298.15 298.15 298.15 298.15 298.15 298.15 298.15 298.15 298.15
          298.15 298.15 298.15 298.15 298.15 298.15 298.15 298.15 298.15 298.15 298.15 298.15
          298.15 298.15 298.15 298.15 298.15 298.15 298.15 298.15 298.15 298.15 298.15 298.15
          298.15 298.15 298.15 298.15 298.15 298.15 298.15 298.15 298.15 298.15 298.15 298.15
          298.15 298.15 298.15 298.15 298.15 298.15 298.15 298.15 298.15 298.15 298.15 298.15
          298.15 298.15 298.15 298.15 298.15 298.15 298.15 298.15
        </DataArray>
        <DataArray type="Float32" Name="phase presence" NumberOfComponents="1" format="ascii">
          1 1 1 1 1 1 1 1 1 1 1 1
          1 1 1 1 1 1 1 1 1 1 1 1
          1 1 1 1 1 1 1 1 1 1 1 1
          1 1 1 1 1 1 1 1 1 1 1 1
          1 1 1 1 1 1 1 1 1 1 1 1
          1 1 1 1 1 1 1 1 1 1 1 1
          1 1 1 1 1 1 1 1
        </DataArray>
        <DataArray type="Float32" Name="potential" NumberOfComponents="1" format="ascii">
          0.00593303 0.00595708 0.00574639 0.00574255 0.00549252 0.00549762 0.00524286 0.0052459 0.00498872 0.00498837 0.00473488 0.0047359
          0.00448135 0.00448117 0.00422782 0.00422915 0.00397732 0.00397846 0.00372873 0.00372896 0.00348288 0.00348324 0.00301885 0.00301931
          0.00257427 0.00257453 0.00215206 0.00215218 0.00175536 0.00175538 0.00138477 0.00138475 0.000969 0.000968952 0.000599018 0.000599018
          0.000274139 0.000274175 -7.9415e-06 -7.8606e-06 -0.000248464 -0.000248297 -0.000449658 -0.000449597 -0.000614197 -0.000614027 -0.000744586 -0.000744441
          -0.000843778 -0.000843719 -0.000914607 -0.000914631 -0.000958899 -0.000958911 -0.000979478 -0.000979496 -0.000978197 -0.000978213 -0.000956359 -0.000956387
          -0.000915179 -0.00091516 -0.000855473 -0.000855487 -0.000777975 -0.000777969 -0.000683313 -0.000683308 -0.000572488 -0.000572495 -0.000447415 -0.000447415
          -0.000311945 -0.000311946 -0.000174648 -0.000174648 -5.65828e-05 -5.65828e-05 0 0
        </DataArray>
        <DataArray type="Float32" Name="boxVolume" NumberOfComponents="1" format="ascii">
          6.35e-05 6.35e-05 0.000127 0.000127 0.000127 0.000127 0.000127 0.000127 0.000127 0.000127 0.000127 0.000127
          0.000127 0.000127 0.000127 0.000127 0.000127 0.000127 0.000127 0.000127 0.0001905 0.0001905 0.000254 0.000254
          0.000254 0.000254 0.000254 0.000254 0.000254 0.000254 0.00028575 0.00028575 0.0003175 0.0003175 0.0003175 0.0003175
          0.0003175 0.0003175 0.0003175 0.0003175 0.0003175 0.0003175 0.0003175 0.0003175 0.0003175 0.0003175 0.0003175 0.0003175
          0.0003175 0.0003175 0.0003175 0.0003175 0.0003175 0.0003175 0.0003175 0.0003175 0.0003175 0.0003175 0.0003175 0.0003175
          0.0003175 0.0003175 0.0003175 0.0003175 0.0003175 0.0003175 0.0003175 0.0003175 0.0003175 0.0003175 0.0003175 0.0003175
          0.0003175 0.0003175 0.0003175 0.0003175 0.0003175 0.0003175 0.00015875 0.00015875
        </DataArray>
        <DataArray type="Float32" Name="pH" NumberOfComponents="1" format="ascii">
          7.2212 7.22265 7.20969 7.20938 7.1948 7.19504 7.1805 7.18065 7.16636 7.16635 7.15259 7.15265
          7.1391 7.13913 7.12592 7.12603 7.11318 7.11331 7.1008 7.10086 7.08875 7.0888 7.06661 7.06668
          7.04586 7.04592 7.02654 7.02658 7.00875 7.0088 6.99236 6.9924 6.97424 6.97432 6.95803 6.958
          6.9439 6.94388 6.93158 6.93168 6.92106 6.92102 6.91214 6.91219 6.90476 6.90481 6.89895 6.89899
          6.89466 6.89464 6.8918 6.89175 6.89039 6.89032 6.89048 6.89051 6.8926 6.89257 6.89647 6.89637
          6.90237 6.90245 6.91107 6.91105 6.92322 6.92324 6.94002 6.94001 6.96365 6.96361 6.99768 6.99768
          7.04926 7.04925 7.13137 7.13137 7.24907 7.24905 6.19963 6.19963
        </DataArray>
        <DataArray type="Float32" Name="Omega" NumberOfComponents="1" format="ascii">
          2.88786 2.8873 2.88472 2.88322 2.88916 2.88791 2.89303 2.89263 2.89858 2.89874 2.90475 2.90475
          2.90987 2.91062 2.91572 2.91653 2.92176 2.92316 2.92824 2.92918 2.93416 2.93472 2.94661 2.94744
          2.9565 2.95744 2.96522 2.9657 2.9742 2.97509 2.98306 2.98382 2.99526 2.99671 3.00415 3.00351
          3.01534 3.01498 3.0272 3.02902 3.04112 3.0403 3.05523 3.05614 3.07024 3.07088 3.08787 3.08842
          3.10842 3.10808 3.13141 3.13046 3.15638 3.15491 3.18439 3.18484 3.22415 3.22372 3.26737 3.26536
          3.31442 3.31601 3.37288 3.3725 3.44367 3.44408 3.53196 3.5319 3.65172 3.65083 3.82618 3.82622
          4.12082 4.12067 4.69773 4.698 5.71114 5.71107 0 0
        </DataArray>
        <DataArray type="Float32" Name="rurea" NumberOfComponents="1" format="ascii">
          0 0 0 0 0 0 0 0 0 0 0 0
          0 0 0 0 0 0 0 0 0 0 0 0
          0 0 0 0 0 0 0 0 0 0 0 0
          0 0 0 0 0 0 0 0 0 0 0 0
          0 0 0 0 0 0 0 0 0 0 0 0
          0 0 0 0 0 0 0 0 0 0 0 0
          0 0 0 0 0 0 0 0
        </DataArray>
        <DataArray type="Float32" Name="Volume_Fraction_Biofilm" NumberOfComponents="1" format="ascii">
          0.0268424 0.0268567 0.0247093 0.0247636 0.023978 0.0240929 0.023847 0.023875 0.0235924 0.0235897 0.0233235 0.0233149
          0.0231173 0.0230645 0.0228543 0.0227767 0.0225332 0.0224096 0.0221851 0.0220983 0.0218737 0.021844 0.0212652 0.0212102
          0.0207735 0.0206878 0.0203388 0.0202844 0.0199161 0.0198511 0.019508 0.0194377 0.018978 0.0189222 0.0185703 0.0185059
          0.0181541 0.0181098 0.0177175 0.0176837 0.0172417 0.0171918 0.0167299 0.0167252 0.0162442 0.0162277 0.0156768 0.0156581
          0.0150567 0.0150715 0.0144025 0.0144428 0.0137428 0.0137909 0.0130548 0.0130794 0.0122732 0.0122675 0.0114862 0.0115222
          0.010768 0.0107397 0.0100318 0.0100384 0.00930449 0.00930541 0.00859548 0.00859531 0.00785067 0.00786044 0.00705027 0.00704828
          0.00610835 0.00610829 0.0048466 0.00484427 0.00287288 0.00287096 0 0
        </DataArray>
        <DataArray type="Float32" Name="Volume_Fraction_Calcite" NumberOfComponents="1" format="ascii">
          0.126103 0.12608 0.14294 0.143161 0.146786 0.147099 0.149171 0.149281 0.150704 0.150622 0.151705 0.151711
          0.15308 0.152774 0.154005 0.15378 0.154958 0.154537 0.155596 0.155366 0.156418 0.156138 0.157021 0.156673
          0.158158 0.157919 0.15925 0.15918 0.159839 0.159588 0.160217 0.160072 0.159838 0.159216 0.160118 0.160887
          0.15917 0.159652 0.15804 0.157195 0.156019 0.156808 0.154372 0.153908 0.152259 0.152034 0.149838 0.149706
          0.146998 0.147022 0.144038 0.144075 0.141125 0.14125 0.138377 0.137885 0.133468 0.133703 0.129409 0.129631
          0.125162 0.125063 0.119842 0.119845 0.113706 0.113551 0.106076 0.106117 0.0965162 0.096528 0.0841561 0.0842353
          0.06662 0.0666497 0.0424033 0.0423773 0.019538 0.019529 0 0
        </DataArray>
        <DataArray type="Float32" Name="Kxx" NumberOfComponents="1" format="ascii">
          4.71224e-11 4.71276e-11 3.91994e-11 3.90604e-11 3.76443e-11 3.74337e-11 3.65445e-11 3.6478e-11 3.59308e-11 3.59711e-11 3.55824e-11 3.55834e-11
          3.50307e-11 3.51992e-11 3.47206e-11 3.48618e-11 3.44263e-11 3.46798e-11 3.42922e-11 3.44388e-11 3.40562e-11 3.41991e-11 3.40585e-11 3.42448e-11
          3.37622e-11 3.3911e-11 3.34618e-11 3.35184e-11 3.33862e-11 3.35302e-11 3.33998e-11 3.3498e-11 3.3815e-11 3.41272e-11 3.38739e-11 3.35512e-11
          3.45041e-11 3.43009e-11 3.52376e-11 3.56532e-11 3.64278e-11 3.60723e-11 3.7478e-11 3.77089e-11 3.87689e-11 3.88905e-11 4.02898e-11 4.03676e-11
          4.20997e-11 4.20792e-11 4.40476e-11 4.40053e-11 4.60309e-11 4.59337e-11 4.79939e-11 4.82653e-11 5.1366e-11 5.12272e-11 5.43598e-11 5.41976e-11
          5.7545e-11 5.76284e-11 6.15954e-11 6.15889e-11 6.6411e-11 6.65218e-11 7.25915e-11 7.25601e-11 8.07438e-11 8.07261e-11 9.20143e-11 9.19453e-11
          1.09541e-10 1.09511e-10 1.37168e-10 1.37201e-10 1.68232e-10 1.68247e-10 2e-10 2e-10
        </DataArray>
        <DataArray type="Float32" Name="X_lBrine" NumberOfComponents="1" format="ascii">
          0.979366 0.979432 0.978859 0.978849 0.97816 0.978174 0.977464 0.977473 0.976746 0.976745 0.97602 0.976022
          0.975284 0.975284 0.974539 0.974543 0.973792 0.973796 0.973041 0.973041 0.972287 0.972288 0.970834 0.970835
          0.969399 0.9694 0.967995 0.967995 0.966634 0.966634 0.96532 0.96532 0.96379 0.96379 0.962369 0.962369
          0.961063 0.961063 0.959874 0.959875 0.95881 0.958811 0.957873 0.957873 0.957065 0.957066 0.956389 0.95639
          0.955845 0.955845 0.955436 0.955436 0.95517 0.95517 0.955051 0.955051 0.955092 0.955092 0.955312 0.955312
          0.95574 0.955741 0.956418 0.956418 0.957403 0.957403 0.958785 0.958785 0.96069 0.96069 0.963316 0.963316
          0.96697 0.96697 0.972155 0.972155 0.979587 0.979587 0.99029 0.99029
        </DataArray>
        <DataArray type="Float32" Name="X_lTotalC" NumberOfComponents="1" format="ascii">
          0.000109541 0.000109542 0.000109423 0.0001094 0.000109378 0.000109362 0.000109318 0.000109313 0.000109272 0.000109274 0.000109227 0.000109227
          0.00010916 0.000109171 0.000109096 0.000109109 0.00010903 0.000109052 0.000108966 0.00010898 0.000108889 0.000108897 0.000108746 0.000108758
          0.000108559 0.000108573 0.000108353 0.000108361 0.000108156 0.000108169 0.000107962 0.000107974 0.00010776 0.000107782 0.000107532 0.000107522
          0.000107364 0.000107359 0.000107234 0.000107261 0.000107165 0.000107153 0.000107129 0.000107143 0.000107139 0.000107149 0.00010722 0.000107229
          0.000107377 0.000107372 0.000107601 0.000107588 0.00010789 0.000107869 0.000108257 0.000108264 0.00010883 0.000108824 0.000109494 0.000109465
          0.000110258 0.00011028 0.000111237 0.000111232 0.000112452 0.000112458 0.000113986 0.000113985 0.000116032 0.000116021 0.000118874 0.000118875
          0.000123147 0.000123145 0.000129404 0.000129406 0.000129011 0.000129003 5.81077e-07 5.81077e-07
        </DataArray>
        <DataArray type="Float32" Name="X_lNa" NumberOfComponents="1" format="ascii">
          2.97008e-06 2.97672e-06 2.91855e-06 2.91747e-06 2.84757e-06 2.849e-06 2.77686e-06 2.77772e-06 2.70394e-06 2.70383e-06 2.63014e-06 2.63044e-06
          2.55543e-06 2.55538e-06 2.4797e-06 2.4801e-06 2.40383e-06 2.40419e-06 2.32749e-06 2.32756e-06 2.25091e-06 2.25102e-06 2.1032e-06 2.10335e-06
          1.95742e-06 1.95751e-06 1.81469e-06 1.81473e-06 1.67629e-06 1.6763e-06 1.54273e-06 1.54272e-06 1.38711e-06 1.3871e-06 1.24242e-06 1.24242e-06
          1.10942e-06 1.10943e-06 9.88266e-07 9.88307e-07 8.79624e-07 8.79699e-07 7.83793e-07 7.83825e-07 7.009e-07 7.0099e-07 6.31193e-07 6.31273e-07
          5.747e-07 5.74733e-07 5.31532e-07 5.31515e-07 5.02477e-07 5.02465e-07 4.87807e-07 4.87796e-07 4.88635e-07 4.88621e-07 5.06799e-07 5.0677e-07
          5.4483e-07 5.44852e-07 6.06581e-07 6.06565e-07 6.97526e-07 6.97535e-07 8.25818e-07 8.25825e-07 1.00348e-06 1.00346e-06 1.24875e-06 1.24875e-06
          1.59072e-06 1.59072e-06 2.0769e-06 2.0769e-06 2.77706e-06 2.77707e-06 3.74885e-06 3.74885e-06
        </DataArray>
        <DataArray type="Float32" Name="X_lCl" NumberOfComponents="1" format="ascii">
          0.011786 0.011742 0.0121281 0.0121352 0.0125992 0.0125897 0.0130685 0.0130628 0.0135525 0.0135532 0.0140424 0.0140404
          0.0145383 0.0145386 0.0150409 0.0150382 0.0155445 0.0155421 0.0160512 0.0160507 0.0165595 0.0165587 0.0175399 0.0175389
          0.0185075 0.0185069 0.0194549 0.0194546 0.0203735 0.0203734 0.0212599 0.02126 0.0222928 0.0222929 0.0232531 0.0232531
          0.0241358 0.0241357 0.0249399 0.0249396 0.0256609 0.0256604 0.0262968 0.0262966 0.0268468 0.0268462 0.0273093 0.0273088
          0.0276839 0.0276837 0.0279701 0.0279702 0.0281625 0.0281626 0.0282592 0.0282593 0.028253 0.0282531 0.0281314 0.0281316
          0.0278777 0.0278776 0.0274663 0.0274664 0.0268605 0.0268604 0.0260062 0.0260062 0.0248234 0.0248235 0.0231904 0.0231904
          0.0209138 0.0209138 0.0176769 0.0176769 0.0130144 0.0130144 0.00655617 0.00655617
        </DataArray>
        <DataArray type="Float32" Name="X_lCa" NumberOfComponents="1" format="ascii">
          0.000165187 0.000164631 0.000169401 0.000169471 0.000175314 0.000175179 0.00018119 0.000181114 0.000187264 0.000187275 0.000193413 0.000193389
          0.000199618 0.000199632 0.000205912 0.00020589 0.000212215 0.000212205 0.000218559 0.000218566 0.000224912 0.00022491 0.00023717 0.000237169
          0.000249226 0.000249231 0.000261009 0.000261012 0.000272435 0.000272446 0.00028346 0.00028347 0.000296325 0.000296346 0.00030825 0.000308241
          0.000319248 0.000319242 0.000329287 0.000329308 0.00033833 0.000338313 0.00034633 0.000346339 0.000353284 0.000353285 0.000359196 0.000359197
          0.000364067 0.00036406 0.000367882 0.000367871 0.00037057 0.000370552 0.000372122 0.000372129 0.00037256 0.000372555 0.000371623 0.0003716
          0.000369111 0.000369129 0.000364803 0.0003648 0.000358262 0.000358267 0.000348887 0.000348885 0.000335873 0.000335863 0.000318057 0.000318057
          0.000294135 0.000294133 0.000264359 0.000264367 0.000244322 0.000244343 0 0
        </DataArray>
        <DataArray type="Float32" Name="X_lUrea" NumberOfComponents="1" format="ascii">
          2.40477e-17 2.33906e-17 3.98959e-17 3.7367e-17 6.11214e-17 5.35891e-17 6.15315e-17 5.92757e-17 7.39526e-17 7.46112e-17 9.43128e-17 9.50745e-17
          1.10209e-16 1.18834e-16 1.41155e-16 1.54771e-16 1.90802e-16 2.22199e-16 2.71431e-16 3.00714e-16 3.69288e-16 3.87934e-16 7.27521e-16 7.87058e-16
          1.2104e-15 1.33753e-15 1.89597e-15 2.00588e-15 3.05996e-15 3.32265e-15 4.95151e-15 5.35141e-15 9.80443e-15 1.08638e-14 1.59752e-14 1.60366e-14
          2.90519e-14 2.92492e-14 5.46362e-14 6.01825e-14 1.13678e-13 1.12879e-13 2.37753e-13 2.46786e-13 4.97377e-13 5.13583e-13 1.15503e-12 1.18802e-12
          2.9038e-12 2.8528e-12 7.57788e-12 7.23493e-12 1.97095e-11 1.85575e-11 5.24219e-11 5.24106e-11 1.72311e-10 1.71265e-10 5.36376e-10 5.09992e-10
          1.53896e-09 1.59462e-09 4.63584e-09 4.60168e-09 1.39354e-08 1.39957e-08 4.18548e-08 4.1837e-08 1.32923e-07 1.31735e-07 4.55845e-07 4.56072e-07
          1.86063e-06 1.85951e-06 1.00045e-05 1.00142e-05 6.92365e-05 6.92789e-05 0 0
        </DataArray>
        <DataArray type="Float32" Name="X_lTotalNH" NumberOfComponents="1" format="ascii">
          0.00560576 0.00558507 0.00576639 0.00576976 0.00598766 0.00598319 0.00620807 0.00620539 0.00643538 0.00643571 0.00666544 0.0066645
          0.00689832 0.00689847 0.00713439 0.00713313 0.00737087 0.00736978 0.00760885 0.00760862 0.00784758 0.00784722 0.00830801 0.00830754
          0.00876243 0.00876215 0.00920736 0.00920722 0.00963877 0.00963873 0.0100551 0.0100551 0.0105402 0.0105402 0.0109912 0.0109912
          0.0114057 0.0114057 0.0117834 0.0117832 0.012122 0.0121217 0.0124206 0.0124205 0.012679 0.0126787 0.0128961 0.0128959
          0.0130721 0.013072 0.0132065 0.0132066 0.0132969 0.0132969 0.0133423 0.0133423 0.0133394 0.0133394 0.0132823 0.0132824
          0.0131631 0.0131631 0.0129699 0.0129699 0.0126854 0.0126854 0.0122842 0.0122842 0.0117286 0.0117286 0.0109615 0.0109615
          0.0098915 0.00989151 0.00836672 0.00836671 0.00614367 0.00614364 0.00314947 0.00314947
        </DataArray>
        <DataArray type="Float32" Name="X_lO2" NumberOfComponents="1" format="ascii">
          -1.95114e-07 -1.94972e-07 -2.05162e-07 -2.09042e-07 -2.0306e-07 -1.95032e-07 -1.87542e-07 -1.90336e-07 -1.73665e-07 -1.78322e-07 -5.44063e-08 -4.67329e-08
          -1.63449e-07 -1.6088e-07 -1.7039e-07 -1.80466e-07 -4.25255e-08 -1.39235e-07 -6.50577e-08 -5.63886e-08 -1.13203e-07 -1.07953e-07 -1.35698e-07 -1.43609e-07
          -2.2365e-08 -1.62394e-08 -1.27849e-07 -1.25252e-07 -1.2075e-07 -1.21576e-07 -2.03471e-08 -1.53367e-08 -1.24275e-07 -1.19333e-07 -1.1111e-07 -1.11302e-07
          -2.78223e-08 -2.72155e-08 -1.04707e-07 -1.03611e-07 -4.10971e-08 -4.11347e-08 -8.96275e-08 -8.95195e-08 -1.20067e-08 -1.19088e-08 -6.86013e-08 -6.83152e-08
          -5.14826e-09 -5.02889e-09 -1.26523e-10 -1.22886e-10 -1.51271e-12 -1.49986e-12 -1.5325e-14 -1.52875e-14 -1.3343e-16 -1.33466e-16 -1.00938e-18 -1.01249e-18
          -6.68774e-21 -6.69665e-21 -3.87972e-23 -3.88003e-23 -1.98076e-25 -1.98214e-25 -8.99841e-28 -8.97971e-28 -3.65322e-30 -3.66123e-30 -1.34488e-32 -1.34686e-32
          -4.56078e-35 -4.46161e-35 -1.21558e-37 -1.5518e-37 0 0 0 0
        </DataArray>
        <DataArray type="Float32" Name="X_lSubstrate" NumberOfComponents="1" format="ascii">
          0.0029634 0.00296335 0.0029638 0.0029638 0.00296437 0.00296438 0.00296495 0.00296494 0.00296553 0.00296552 0.00296631 0.00296632
          0.00296663 0.00296663 0.00296713 0.00296711 0.00296788 0.00296769 0.00296831 0.00296833 0.00296866 0.00296867 0.00296938 0.00296936
          0.0029702 0.00297022 0.00297039 0.0029704 0.00297056 0.00297056 0.00297063 0.00297064 0.00296979 0.00296979 0.00296854 0.00296854
          0.00296667 0.00296667 0.00296354 0.00296354 0.00295955 0.00295955 0.00295393 0.00295394 0.00294683 0.00294684 0.00293731 0.00293733
          0.00292533 0.00292535 0.00290975 0.00290977 0.00288998 0.00288998 0.00286471 0.00286472 0.00283235 0.00283236 0.00279079 0.0027908
          0.00273732 0.00273729 0.00266813 0.00266816 0.00257813 0.00257812 0.00246 0.00245999 0.00230329 0.0023033 0.00209242 0.00209242
          0.00180284 0.00180285 0.00139468 0.00139468 0.000809459 0.000809457 0 0
        </DataArray>
        <DataArray type="Float32" Name="X_lSuspended_Biomass" NumberOfComponents="1" format="ascii">
          9.02101e-07 8.6861e-07 1.10423e-06 1.11579e-06 1.13494e-06 1.13837e-06 1.16254e-06 1.16371e-06 1.17806e-06 1.18234e-06 1.17568e-06 1.18352e-06
          1.15714e-06 1.12226e-06 1.17626e-06 1.16213e-06 1.17437e-06 1.15359e-06 1.21879e-06 1.22032e-06 1.2097e-06 1.21254e-06 1.33062e-06 1.33334e-06
          1.33989e-06 1.33991e-06 1.36981e-06 1.37068e-06 1.38497e-06 1.38622e-06 1.36913e-06 1.37015e-06 1.42357e-06 1.42506e-06 1.43969e-06 1.44289e-06
          1.45376e-06 1.45734e-06 1.47427e-06 1.47747e-06 1.45153e-06 1.45504e-06 1.47581e-06 1.48043e-06 1.47642e-06 1.48151e-06 1.48371e-06 1.49126e-06
          1.48072e-06 1.48769e-06 1.46554e-06 1.47189e-06 1.45571e-06 1.46479e-06 1.43483e-06 1.44579e-06 1.40407e-06 1.40786e-06 1.4333e-06 1.42016e-06
          1.42666e-06 1.42099e-06 1.41238e-06 1.40764e-06 1.38444e-06 1.38124e-06 1.33871e-06 1.33677e-06 1.26697e-06 1.26589e-06 1.16674e-06 1.16613e-06
          1.02007e-06 1.01981e-06 8.047e-07 8.04608e-07 4.78033e-07 4.7801e-07 0 0
        </DataArray>
        <DataArray type="Float32" Name="X_lNH4" NumberOfComponents="1" format="ascii">
          0.00588616 0.00586426 0.00605629 0.00605987 0.0062906 0.00628586 0.006524 0.00652116 0.0067647 0.00676505 0.00700832 0.00700733
          0.00725493 0.0072551 0.00750493 0.0075036 0.00775537 0.0077542 0.0080074 0.00800715 0.00826022 0.00825983 0.00874784 0.00874734
          0.00922912 0.00922882 0.00970037 0.00970022 0.0101573 0.0101573 0.0105983 0.0105983 0.0111121 0.0111121 0.0115898 0.0115898
          0.0120289 0.0120288 0.0124289 0.0124287 0.0127875 0.0127872 0.0131038 0.0131037 0.0133774 0.0133771 0.0136074 0.0136071
          0.0137936 0.0137935 0.0139359 0.0139359 0.0140314 0.0140315 0.0140794 0.0140795 0.0140761 0.0140761 0.0140153 0.0140154
          0.0138888 0.0138887 0.0136837 0.0136838 0.0133819 0.0133819 0.0129563 0.0129563 0.0123671 0.0123671 0.0115535 0.0115535
          0.0104186 0.0104186 0.00880136 0.00880134 0.00644771 0.00644768 0.00333307 0.00333307
        </DataArray>
        <DataArray type="Float32" Name="X_lHCO3" NumberOfComponents="1" format="ascii">
          0.000135726 0.000135772 0.000135223 0.000135185 0.000134697 0.000134685 0.000134161 0.000134161 0.000133638 0.00013364 0.000133119 0.000133122
          0.000132572 0.000132587 0.000132033 0.000132052 0.000131497 0.000131528 0.000130968 0.000130988 0.000130429 0.000130441 0.000129418 0.000129435
          0.000128384 0.000128403 0.000127366 0.000127376 0.000126403 0.000126421 0.00012549 0.000125505 0.00012448 0.000124508 0.000123508 0.000123495
          0.000122688 0.000122681 0.000121985 0.000122021 0.000121428 0.000121413 0.000120979 0.000120997 0.000120649 0.000120662 0.000120472 0.000120483
          0.00012045 0.000120444 0.000120574 0.000120555 0.000120838 0.00012081 0.000121263 0.000121272 0.000122021 0.000122013 0.000122967 0.000122929
          0.000124127 0.000124157 0.000125671 0.000125664 0.000127654 0.000127662 0.000130231 0.00013023 0.000133733 0.000133717 0.000138658 0.000138658
          0.000146083 0.00014608 0.00015722 0.000157222 0.000161326 0.000161316 3.37056e-07 3.37056e-07
        </DataArray>
        <DataArray type="Float32" Name="X_lCO3" NumberOfComponents="1" format="ascii">
          1.35244e-07 1.35687e-07 1.31646e-07 1.31522e-07 1.27282e-07 1.27327e-07 1.23203e-07 1.23239e-07 1.1932e-07 1.1932e-07 1.15659e-07 1.15674e-07
          1.12149e-07 1.1217e-07 1.0883e-07 1.08873e-07 1.0571e-07 1.05766e-07 1.02764e-07 1.02794e-07 9.99612e-08 9.99813e-08 9.50095e-08 9.50369e-08
          9.05405e-08 9.05673e-08 8.65427e-08 8.65557e-08 8.30104e-08 8.30318e-08 7.98766e-08 7.98939e-08 7.65614e-08 7.65932e-08 7.36751e-08 7.36614e-08
          7.12747e-08 7.12677e-08 6.92612e-08 6.92985e-08 6.76214e-08 6.76068e-08 6.62814e-08 6.62992e-08 6.52238e-08 6.52373e-08 6.44592e-08 6.44707e-08
          6.39725e-08 6.39668e-08 6.37422e-08 6.37247e-08 6.37617e-08 6.37352e-08 6.40496e-08 6.40576e-08 6.47777e-08 6.477e-08 6.58327e-08 6.57962e-08
          6.72763e-08 6.73053e-08 6.9338e-08 6.93308e-08 7.21862e-08 7.21939e-08 7.61746e-08 7.61736e-08 8.20283e-08 8.20108e-08 9.10964e-08 9.10971e-08
          1.06634e-07 1.06631e-07 1.36234e-07 1.36238e-07 1.81051e-07 1.81034e-07 2.55591e-11 2.55591e-11
        </DataArray>
        <DataArray type="Float32" Name="X_lCO2" NumberOfComponents="1" format="ascii">
          1.15699e-05 1.15376e-05 1.18171e-05 1.18219e-05 1.21544e-05 1.21473e-05 1.2484e-05 1.24799e-05 1.28181e-05 1.28186e-05 1.31502e-05 1.31488e-05
          1.34798e-05 1.34802e-05 1.38079e-05 1.38065e-05 1.41306e-05 1.41297e-05 1.44496e-05 1.44496e-05 1.47635e-05 1.47633e-05 1.53535e-05 1.53533e-05
          1.59152e-05 1.59153e-05 1.64467e-05 1.64467e-05 1.6946e-05 1.69464e-05 1.74135e-05 1.74139e-05 1.79422e-05 1.79431e-05 1.84166e-05 1.84162e-05
          1.88418e-05 1.88415e-05 1.92201e-05 1.92211e-05 1.95536e-05 1.95529e-05 1.98433e-05 1.98438e-05 2.00916e-05 2.00918e-05 2.0301e-05 2.03012e-05
          2.04734e-05 2.04731e-05 2.06094e-05 2.06088e-05 2.07074e-05 2.07064e-05 2.07678e-05 2.07682e-05 2.0794e-05 2.07937e-05 2.07743e-05 2.0773e-05
          2.07007e-05 2.07017e-05 2.05653e-05 2.05651e-05 2.03481e-05 2.03484e-05 2.00204e-05 2.00204e-05 1.95378e-05 1.95374e-05 1.88218e-05 1.88218e-05
          1.77287e-05 1.77286e-05 1.59337e-05 1.59337e-05 1.25464e-05 1.25462e-05 3.38012e-07 3.38012e-07
        </DataArray>
        <DataArray type="Float32" Name="X_lH" NumberOfComponents="1" format="ascii">
          5.96946e-11 5.94974e-11 6.12759e-11 6.13192e-11 6.33833e-11 6.33494e-11 6.54754e-11 6.54528e-11 6.76092e-11 6.76111e-11 6.9752e-11 6.97431e-11
          7.1918e-11 7.19131e-11 7.40958e-11 7.40768e-11 7.62633e-11 7.62403e-11 7.84287e-11 7.84176e-11 8.05938e-11 8.0585e-11 8.47257e-11 8.47129e-11
          8.87862e-11 8.87737e-11 9.27349e-11 9.27283e-11 9.65234e-11 9.65126e-11 1.00146e-10 1.00137e-10 1.04304e-10 1.04286e-10 1.08166e-10 1.08174e-10
          1.11645e-10 1.11649e-10 1.14764e-10 1.14737e-10 1.17492e-10 1.17502e-10 1.19854e-10 1.1984e-10 1.2184e-10 1.21828e-10 1.23424e-10 1.23413e-10
          1.24605e-10 1.24609e-10 1.25392e-10 1.25407e-10 1.25777e-10 1.25799e-10 1.25741e-10 1.25734e-10 1.25135e-10 1.25142e-10 1.24045e-10 1.24074e-10
          1.22408e-10 1.22386e-10 1.20038e-10 1.20043e-10 1.16808e-10 1.16803e-10 1.12485e-10 1.12486e-10 1.06671e-10 1.06681e-10 9.88126e-11 9.88123e-11
          8.79714e-11 8.79726e-11 7.30806e-11 7.30798e-11 5.60177e-11 5.60204e-11 6.32454e-10 6.32454e-10
        </DataArray>
        <DataArray type="Float32" Name="X_lOH" NumberOfComponents="1" format="ascii">
          2.7883e-06 2.79779e-06 2.71448e-06 2.71253e-06 2.62176e-06 2.62321e-06 2.5356e-06 2.53651e-06 2.45319e-06 2.45312e-06 2.3755e-06 2.37581e-06
          2.30166e-06 2.30182e-06 2.23176e-06 2.23234e-06 2.16614e-06 2.1668e-06 2.10419e-06 2.10449e-06 2.04557e-06 2.0458e-06 1.94198e-06 1.94228e-06
          1.84956e-06 1.84982e-06 1.76743e-06 1.76756e-06 1.69492e-06 1.69511e-06 1.63069e-06 1.63084e-06 1.56242e-06 1.56269e-06 1.50372e-06 1.50361e-06
          1.45427e-06 1.45422e-06 1.41245e-06 1.41278e-06 1.37765e-06 1.37754e-06 1.34878e-06 1.34894e-06 1.32533e-06 1.32546e-06 1.30712e-06 1.30723e-06
          1.29377e-06 1.29372e-06 1.28494e-06 1.28479e-06 1.28055e-06 1.28033e-06 1.28072e-06 1.28079e-06 1.28701e-06 1.28694e-06 1.29875e-06 1.29844e-06
          1.31691e-06 1.31715e-06 1.34421e-06 1.34415e-06 1.3833e-06 1.38336e-06 1.43926e-06 1.43925e-06 1.52177e-06 1.52163e-06 1.64886e-06 1.64886e-06
          1.86154e-06 1.86152e-06 2.25708e-06 2.2571e-06 2.97491e-06 2.97476e-06 2.67481e-07 2.67481e-07
        </DataArray>
        <DataArray type="Float32" Name="X_gBrine" NumberOfComponents="1" format="ascii">
          0.0112401 0.0112236 0.0112318 0.0112317 0.0112396 0.0112397 0.0112475 0.0112475 0.0112554 0.0112554 0.0112632 0.0112632
          0.0112711 0.0112711 0.0112789 0.0112789 0.0112867 0.0112867 0.0112946 0.0112946 0.0113024 0.0113024 0.0113183 0.0113183
          0.0113344 0.0113344 0.0113505 0.0113505 0.0113668 0.0113668 0.0113833 0.0113833 0.0114043 0.0114043 0.0114257 0.0114257
          0.0114475 0.0114475 0.0114696 0.0114696 0.0114922 0.0114922 0.0115153 0.0115153 0.0115387 0.0115387 0.0115626 0.0115626
          0.011587 0.011587 0.0116118 0.0116118 0.0116371 0.0116371 0.0116629 0.0116629 0.0116891 0.0116891 0.011716 0.011716
          0.0117435 0.0117435 0.0117717 0.0117717 0.0118008 0.0118008 0.0118309 0.0118309 0.0118625 0.0118625 0.0118959 0.0118959
          0.0119319 0.0119319 0.0119717 0.0119717 0.0120169 0.0120169 0.0120698 0.0120698
        </DataArray>
        <DataArray type="Float32" Name="X_gTotalC" NumberOfComponents="1" format="ascii">
          0.98876 0.988776 0.988768 0.988768 0.98876 0.98876 0.988752 0.988752 0.988745 0.988745 0.988737 0.988737
          0.988729 0.988729 0.988721 0.988721 0.988713 0.988713 0.988705 0.988705 0.988698 0.988698 0.988682 0.988682
          0.988666 0.988666 0.988649 0.988649 0.988633 0.988633 0.988617 0.988617 0.988596 0.988596 0.988574 0.988574
          0.988553 0.988553 0.98853 0.98853 0.988508 0.988508 0.988485 0.988485 0.988461 0.988461 0.988437 0.988437
          0.988413 0.988413 0.988388 0.988388 0.988363 0.988363 0.988337 0.988337 0.988311 0.988311 0.988284 0.988284
          0.988257 0.988257 0.988228 0.988228 0.988199 0.988199 0.988169 0.988169 0.988138 0.988138 0.988104 0.988104
          0.988068 0.988068 0.988028 0.988028 0.987983 0.987983 0.98793 0.98793
        </DataArray>
        <DataArray type="Float32" Name="X_gNa" NumberOfComponents="1" format="ascii">
          0 0 0 0 0 0 0 0 0 0 0 0
          0 0 0 0 0 0 0 0 0 0 0 0
          0 0 0 0 0 0 0 0 0 0 0 0
          0 0 0 0 0 0 0 0 0 0 0 0
          0 0 0 0 0 0 0 0 0 0 0 0
          0 0 0 0 0 0 0 0 0 0 0 0
          0 0 0 0 0 0 0 0
        </DataArray>
        <DataArray type="Float32" Name="X_gCl" NumberOfComponents="1" format="ascii">
          0 0 0 0 0 0 0 0 0 0 0 0
          0 0 0 0 0 0 0 0 0 0 0 0
          0 0 0 0 0 0 0 0 0 0 0 0
          0 0 0 0 0 0 0 0 0 0 0 0
          0 0 0 0 0 0 0 0 0 0 0 0
          0 0 0 0 0 0 0 0 0 0 0 0
          0 0 0 0 0 0 0 0
        </DataArray>
        <DataArray type="Float32" Name="X_gCa" NumberOfComponents="1" format="ascii">
          0 0 0 0 0 0 0 0 0 0 0 0
          0 0 0 0 0 0 0 0 0 0 0 0
          0 0 0 0 0 0 0 0 0 0 0 0
          0 0 0 0 0 0 0 0 0 0 0 0
          0 0 0 0 0 0 0 0 0 0 0 0
          0 0 0 0 0 0 0 0 0 0 0 0
          0 0 0 0 0 0 0 0
        </DataArray>
        <DataArray type="Float32" Name="X_gUrea" NumberOfComponents="1" format="ascii">
          0 0 0 0 0 0 0 0 0 0 0 0
          0 0 0 0 0 0 0 0 0 0 0 0
          0 0 0 0 0 0 0 0 0 0 0 0
          0 0 0 0 0 0 0 0 0 0 0 0
          0 0 0 0 0 0 0 0 0 0 0 0
          0 0 0 0 0 0 0 0 0 0 0 0
          0 0 0 0 0 0 0 0
        </DataArray>
        <DataArray type="Float32" Name="X_gTotalNH" NumberOfComponents="1" format="ascii">
          0 0 0 0 0 0 0 0 0 0 0 0
          0 0 0 0 0 0 0 0 0 0 0 0
          0 0 0 0 0 0 0 0 0 0 0 0
          0 0 0 0 0 0 0 0 0 0 0 0
          0 0 0 0 0 0 0 0 0 0 0 0
          0 0 0 0 0 0 0 0 0 0 0 0
          0 0 0 0 0 0 0 0
        </DataArray>
        <DataArray type="Float32" Name="X_gO2" NumberOfComponents="1" format="ascii">
          0 0 0 0 0 0 0 0 0 0 0 0
          0 0 0 0 0 0 0 0 0 0 0 0
          0 0 0 0 0 0 0 0 0 0 0 0
          0 0 0 0 0 0 0 0 0 0 0 0
          0 0 0 0 0 0 0 0 0 0 0 0
          0 0 0 0 0 0 0 0 0 0 0 0
          0 0 0 0 0 0 0 0
        </DataArray>
        <DataArray type="Float32" Name="X_gSubstrate" NumberOfComponents="1" format="ascii">
          0 0 0 0 0 0 0 0 0 0 0 0
          0 0 0 0 0 0 0 0 0 0 0 0
          0 0 0 0 0 0 0 0 0 0 0 0
          0 0 0 0 0 0 0 0 0 0 0 0
          0 0 0 0 0 0 0 0 0 0 0 0
          0 0 0 0 0 0 0 0 0 0 0 0
          0 0 0 0 0 0 0 0
        </DataArray>
        <DataArray type="Float32" Name="X_gSuspended_Biomass" NumberOfComponents="1" format="ascii">
          0 0 0 0 0 0 0 0 0 0 0 0
          0 0 0 0 0 0 0 0 0 0 0 0
          0 0 0 0 0 0 0 0 0 0 0 0
          0 0 0 0 0 0 0 0 0 0 0 0
          0 0 0 0 0 0 0 0 0 0 0 0
          0 0 0 0 0 0 0 0 0 0 0 0
          0 0 0 0 0 0 0 0
        </DataArray>
        <DataArray type="Float32" Name="X_gNH4" NumberOfComponents="1" format="ascii">
          0 0 0 0 0 0 0 0 0 0 0 0
          0 0 0 0 0 0 0 0 0 0 0 0
          0 0 0 0 0 0 0 0 0 0 0 0
          0 0 0 0 0 0 0 0 0 0 0 0
          0 0 0 0 0 0 0 0 0 0 0 0
          0 0 0 0 0 0 0 0 0 0 0 0
          0 0 0 0 0 0 0 0
        </DataArray>
        <DataArray type="Float32" Name="X_gHCO3" NumberOfComponents="1" format="ascii">
          0 0 0 0 0 0 0 0 0 0 0 0
          0 0 0 0 0 0 0 0 0 0 0 0
          0 0 0 0 0 0 0 0 0 0 0 0
          0 0 0 0 0 0 0 0 0 0 0 0
          0 0 0 0 0 0 0 0 0 0 0 0
          0 0 0 0 0 0 0 0 0 0 0 0
          0 0 0 0 0 0 0 0
        </DataArray>
        <DataArray type="Float32" Name="X_gCO3" NumberOfComponents="1" format="ascii">
          0 0 0 0 0 0 0 0 0 0 0 0
          0 0 0 0 0 0 0 0 0 0 0 0
          0 0 0 0 0 0 0 0 0 0 0 0
          0 0 0 0 0 0 0 0 0 0 0 0
          0 0 0 0 0 0 0 0 0 0 0 0
          0 0 0 0 0 0 0 0 0 0 0 0
          0 0 0 0 0 0 0 0
        </DataArray>
        <DataArray type="Float32" Name="X_gCO2" NumberOfComponents="1" format="ascii">
          0.98876 0.988776 0.988768 0.988768 0.98876 0.98876 0.988752 0.988752 0.988745 0.988745 0.988737 0.988737
          0.988729 0.988729 0.988721 0.988721 0.988713 0.988713 0.988705 0.988705 0.988698 0.988698 0.988682 0.988682
          0.988666 0.988666 0.988649 0.988649 0.988633 0.988633 0.988617 0.988617 0.988596 0.988596 0.988574 0.988574
          0.988553 0.988553 0.98853 0.98853 0.988508 0.988508 0.988485 0.988485 0.988461 0.988461 0.988437 0.988437
          0.988413 0.988413 0.988388 0.988388 0.988363 0.988363 0.988337 0.988337 0.988311 0.988311 0.988284 0.988284
          0.988257 0.988257 0.988228 0.988228 0.988199 0.988199 0.988169 0.988169 0.988138 0.988138 0.988104 0.988104
          0.988068 0.988068 0.988028 0.988028 0.987983 0.987983 0.98793 0.98793
        </DataArray>
        <DataArray type="Float32" Name="X_gH" NumberOfComponents="1" format="ascii">
          0 0 0 0 0 0 0 0 0 0 0 0
          0 0 0 0 0 0 0 0 0 0 0 0
          0 0 0 0 0 0 0 0 0 0 0 0
          0 0 0 0 0 0 0 0 0 0 0 0
          0 0 0 0 0 0 0 0 0 0 0 0
          0 0 0 0 0 0 0 0 0 0 0 0
          0 0 0 0 0 0 0 0
        </DataArray>
        <DataArray type="Float32" Name="X_gOH" NumberOfComponents="1" format="ascii">
          0 0 0 0 0 0 0 0 0 0 0 0
          0 0 0 0 0 0 0 0 0 0 0 0
          0 0 0 0 0 0 0 0 0 0 0 0
          0 0 0 0 0 0 0 0 0 0 0 0
          0 0 0 0 0 0 0 0 0 0 0 0
          0 0 0 0 0 0 0 0 0 0 0 0
          0 0 0 0 0 0 0 0
        </DataArray>
        <DataArray type="Float32" Name="Molarity_Brine" NumberOfComponents="1" format="ascii">
          54641.2 54643.2 54625.6 54625.3 54604.2 54604.6 54582.8 54583 54560.7 54560.7 54538.3 54538.4
          54515.7 54515.7 54492.7 54492.8 54469.6 54469.8 54446.4 54446.4 54423.1 54423.2 54378.2 54378.2
          54333.7 54333.7 54290.2 54290.2 54247.9 54247.9 54207 54207 54159.3 54159.3 54115 54115
          54074.2 54074.2 54037.1 54037.1 54003.8 54003.8 53974.6 53974.6 53949.3 53949.4 53928.3 53928.4
          53911.5 53911.5 53899 53899 53891.2 53891.2 53888 53888 53890.1 53890.1 53898.1 53898.1
          53912.9 53912.9 53935.9 53935.9 53969.1 53969.1 54015.4 54015.4 54079 54079 54166.3 54166.3
          54287.4 54287.4 54458.3 54458.3 54701.6 54701.6 55049.2 55049.2
        </DataArray>
        <DataArray type="Float32" Name="Molarity_TotalC" NumberOfComponents="1" format="ascii">
          2.50229 2.50224 2.50017 2.49966 2.49994 2.49957 2.49937 2.49926 2.49914 2.49919 2.49896 2.49897
          2.49826 2.49851 2.49767 2.49795 2.49702 2.4975 2.4964 2.49672 2.4955 2.4957 2.4939 2.49418
          2.49126 2.49158 2.48815 2.48832 2.48517 2.48547 2.48223 2.48249 2.47933 2.47983 2.47571 2.47549
          2.47334 2.47322 2.4717 2.47233 2.47132 2.47105 2.47159 2.47189 2.47274 2.47297 2.4754 2.47559
          2.47965 2.47953 2.48533 2.48501 2.49231 2.49183 2.50097 2.50112 2.5142 2.51406 2.52931 2.52866
          2.54653 2.54704 2.56841 2.56829 2.5954 2.59553 2.62925 2.62924 2.6743 2.67403 2.73675 2.73676
          2.83071 2.83067 2.968 2.96803 2.94964 2.94947 0.0132254 0.0132254
        </DataArray>
        <DataArray type="Float32" Name="Molarity_Na" NumberOfComponents="1" format="ascii">
          0.12985 0.130137 0.127627 0.127581 0.124563 0.124625 0.121509 0.121546 0.118357 0.118353 0.115165 0.115178
          0.111932 0.11193 0.108652 0.108669 0.105364 0.105379 0.102053 0.102056 0.0987293 0.0987343 0.0923124 0.0923189
          0.0859707 0.0859745 0.0797534 0.0797553 0.0737172 0.0737177 0.0678848 0.0678847 0.0610804 0.0610798 0.054745 0.054745
          0.0489141 0.0489147 0.0435965 0.0435982 0.038823 0.0388263 0.0346085 0.0346099 0.03096 0.0309639 0.0278897 0.0278933
          0.0254001 0.0254015 0.0234968 0.023496 0.0222153 0.0222148 0.0215682 0.0215677 0.0216047 0.0216041 0.0224059 0.0224047
          0.0240831 0.0240841 0.0268052 0.0268045 0.0308113 0.0308117 0.036457 0.0364573 0.0442642 0.0442635 0.0550219 0.0550219
          0.0699808 0.0699806 0.0911684 0.0911684 0.121519 0.121519 0.1633 0.1633
        </DataArray>
        <DataArray type="Float32" Name="Molarity_Cl" NumberOfComponents="1" format="ascii">
          334.14 332.881 343.917 344.122 357.392 357.119 370.823 370.66 384.684 384.704 398.722 398.665
          412.941 412.951 427.365 427.288 441.824 441.757 456.385 456.371 471.001 470.979 499.22 499.192
          527.108 527.091 554.449 554.441 580.993 580.991 606.64 606.641 636.562 636.565 664.42 664.421
          690.059 690.057 713.441 713.433 734.428 734.414 752.957 752.951 768.995 768.978 782.49 782.474
          793.428 793.422 801.787 801.79 807.408 807.411 810.236 810.239 810.054 810.056 806.502 806.508
          799.09 799.086 787.074 787.077 769.396 769.395 744.491 744.489 710.054 710.057 662.606 662.606
          596.629 596.63 503.177 503.177 369.291 369.291 185.193 185.193
        </DataArray>
        <DataArray type="Float32" Name="Molarity_Ca" NumberOfComponents="1" format="ascii">
          4.14269 4.12864 4.24938 4.25115 4.39911 4.3957 4.54801 4.54608 4.70202 4.70229 4.85805 4.85743
          5.01559 5.01595 5.17551 5.17494 5.33576 5.3355 5.49718 5.49734 5.65893 5.65887 5.97134 5.97131
          6.27903 6.27916 6.58015 6.58023 6.87253 6.87281 7.15497 7.15524 7.485 7.48553 7.79132 7.79111
          8.0742 8.07405 8.33267 8.33321 8.56575 8.56531 8.77209 8.77233 8.95161 8.95164 9.1043 9.10432
          9.23014 9.22996 9.3287 9.32841 9.39809 9.39763 9.43808 9.43825 9.44914 9.44903 9.42461 9.42402
          9.35927 9.35974 9.24744 9.24735 9.07787 9.07798 8.83514 8.8351 8.4987 8.49845 8.03892 8.03893
          7.42275 7.4227 6.65665 6.65684 6.13272 6.13325 0 0
        </DataArray>
        <DataArray type="Float32" Name="Molarity_Urea" NumberOfComponents="1" format="ascii">
          3.98855e-13 3.87944e-13 6.61867e-13 6.19916e-13 1.01432e-12 8.89315e-13 1.02145e-12 9.84001e-13 1.22805e-12 1.23899e-12 1.56668e-12 1.57933e-12
          1.83136e-12 1.97469e-12 2.34639e-12 2.57272e-12 3.17275e-12 3.69485e-12 4.51507e-12 5.00217e-12 6.14498e-12 6.45525e-12 1.21141e-11 1.31055e-11
          2.0168e-11 2.22863e-11 3.16116e-11 3.34441e-11 5.10508e-11 5.54333e-11 8.26586e-11 8.93343e-11 1.63787e-10 1.81485e-10 2.67048e-10 2.68073e-10
          4.85935e-10 4.89236e-10 9.14374e-10 1.00719e-09 1.90342e-09 1.89004e-09 3.98266e-09 4.13397e-09 8.33483e-09 8.6064e-09 1.93617e-08 1.99147e-08
          4.86886e-08 4.78335e-08 1.27085e-07 1.21333e-07 3.30581e-07 3.11259e-07 8.79314e-07 8.79125e-07 2.8903e-06 2.87275e-06 8.99629e-06 8.55377e-06
          2.58075e-05 2.67409e-05 7.77186e-05 7.7146e-05 0.000233526 0.000234536 0.000700983 0.000700686 0.00222439 0.00220451 0.00761981 0.00762359
          0.0310537 0.0310349 0.166605 0.166767 1.14937 1.15007 0 0
        </DataArray>
        <DataArray type="Float32" Name="Molarity_TotalNH" NumberOfComponents="1" format="ascii">
          330.832 329.602 340.392 340.592 353.567 353.3 366.699 366.54 380.251 380.271 393.976 393.921
          407.879 407.889 421.982 421.907 436.119 436.054 450.356 450.342 464.647 464.625 492.238 492.21
          519.505 519.489 546.237 546.229 572.191 572.188 597.267 597.268 626.523 626.525 653.761 653.761
          678.829 678.827 701.69 701.683 722.211 722.197 740.327 740.321 756.009 755.992 769.203 769.188
          779.899 779.892 788.071 788.075 793.568 793.57 796.333 796.335 796.155 796.157 792.682 792.688
          785.436 785.432 773.687 773.69 756.403 756.401 732.05 732.049 698.376 698.379 651.973 651.973
          587.417 587.417 495.772 495.772 362.898 362.896 185.193 185.193
        </DataArray>
        <DataArray type="Float32" Name="Molarity_O2" NumberOfComponents="1" format="ascii">
          -0.00612847 -0.00612382 -0.00644559 -0.00656751 -0.00638159 -0.00612926 -0.00589578 -0.00598361 -0.00546134 -0.00560778 -0.00171152 -0.00147013
          -0.00514353 -0.00506269 -0.00536378 -0.00568098 -0.00133914 -0.00438454 -0.0020494 -0.00177631 -0.00356728 -0.00340183 -0.004279 -0.00452846
          -0.000705708 -0.000512419 -0.00403677 -0.00395477 -0.00381501 -0.0038411 -0.000643244 -0.000484848 -0.00393153 -0.0037752 -0.00351738 -0.00352343
          -0.000881293 -0.00086207 -0.00331849 -0.00328375 -0.00130314 -0.00130433 -0.00284322 -0.0028398 -0.000381029 -0.000377923 -0.00217773 -0.00216865
          -0.000163472 -0.000159682 -4.01827e-06 -3.90274e-06 -4.80488e-08 -4.76404e-08 -4.86804e-10 -4.85612e-10 -4.23843e-12 -4.2396e-12 -3.20606e-14 -3.21595e-14
          -2.12384e-16 -2.12666e-16 -1.23174e-18 -1.23184e-18 -6.28595e-21 -6.29034e-21 -2.85398e-23 -2.84805e-23 -1.15774e-25 -1.16027e-25 -4.25728e-28 -4.26357e-28
          -1.4415e-30 -1.41015e-30 -3.83355e-33 -4.89387e-33 -3.27952e-35 7.62803e-37 0 0
        </DataArray>
        <DataArray type="Float32" Name="Molarity_Substrate" NumberOfComponents="1" format="ascii">
          16.5328 16.532 16.5389 16.539 16.5473 16.5473 16.5559 16.5558 16.5646 16.5646 16.5745 16.5745
          16.5819 16.5819 16.5904 16.5902 16.6003 16.5991 16.6084 16.6085 16.6161 16.6162 16.6313 16.6312
          16.6469 16.647 16.6587 16.6588 16.6702 16.6702 16.6807 16.6807 16.6877 16.6877 16.6916 16.6916
          16.6912 16.6912 16.6828 16.6828 16.6685 16.6685 16.6442 16.6442 16.6104 16.6105 16.562 16.5621
          16.4987 16.4988 16.414 16.4141 16.3046 16.3047 16.1632 16.1632 15.9805 15.9806 15.7447 15.7448
          15.4404 15.4402 15.0459 15.046 14.5323 14.5323 13.8583 13.8583 12.965 12.9651 11.765 11.765
          10.121 10.121 7.81239 7.81238 4.51994 4.51993 0 0
        </DataArray>
        <DataArray type="Float32" Name="Molarity_Suspended_Biomass" NumberOfComponents="1" format="ascii">
          0.000906712 0.000873023 0.00111013 0.00112176 0.00114137 0.00114481 0.0011695 0.00117067 0.0011855 0.00118982 0.0011835 0.0011914
          0.00116524 0.00113011 0.0011849 0.00117066 0.0011834 0.00116246 0.00122858 0.00123012 0.00121985 0.00122271 0.00134268 0.00134542
          0.00135293 0.00135294 0.00138403 0.00138491 0.00140023 0.00140149 0.00138505 0.00138609 0.00144114 0.00144265 0.00145843 0.00146167
          0.00147356 0.0014772 0.00149518 0.00149842 0.00147284 0.0014764 0.00149814 0.00150282 0.00149931 0.00150449 0.00150719 0.00151487
          0.00150454 0.00151163 0.00148941 0.00149587 0.00147962 0.00148885 0.0014585 0.00146964 0.00142723 0.00143107 0.00145681 0.00144345
          0.00144982 0.00144404 0.00143489 0.00143008 0.00140593 0.00140268 0.0013587 0.00135673 0.00128485 0.00128375 0.00118188 0.00118126
          0.0010317 0.00103144 0.000812084 0.000811992 0.000480899 0.000480876 0 0
        </DataArray>
        <DataArray type="Float32" Name="Molarity_NH4" NumberOfComponents="1" format="ascii">
          327.969 326.739 337.528 337.728 350.698 350.432 363.827 363.667 377.375 377.394 391.096 391.04
          404.995 405.004 419.094 419.019 433.228 433.162 447.462 447.448 461.75 461.728 489.335 489.307
          516.599 516.582 543.328 543.32 569.279 569.277 594.354 594.354 623.607 623.609 650.844 650.845
          675.911 675.909 698.771 698.763 719.289 719.275 737.403 737.396 753.081 753.064 766.271 766.255
          776.961 776.955 785.127 785.13 790.615 790.618 793.371 793.373 793.179 793.182 789.691 789.697
          782.427 782.423 770.657 770.66 753.347 753.345 728.962 728.961 695.247 695.25 648.786 648.786
          584.146 584.147 492.384 492.384 359.575 359.573 185.037 185.037
        </DataArray>
        <DataArray type="Float32" Name="Molarity_HCO3" NumberOfComponents="1" format="ascii">
          2.23576 2.23645 2.22799 2.22737 2.22004 2.21983 2.21191 2.2119 2.20402 2.20405 2.19619 2.19623
          2.18791 2.18815 2.17975 2.18007 2.17166 2.17216 2.16367 2.16399 2.15551 2.15571 2.14023 2.14052
          2.12454 2.12486 2.10906 2.10922 2.09442 2.09471 2.08055 2.0808 2.06526 2.06574 2.05049 2.05028
          2.03811 2.038 2.02755 2.02815 2.01928 2.01903 2.01269 2.01299 2.00797 2.00818 2.00565 2.00584
          2.0058 2.0057 2.00825 2.00795 2.01291 2.01245 2.02014 2.02028 2.03275 2.03262 2.04834 2.04772
          2.06731 2.0678 2.09243 2.09231 2.12458 2.1247 2.1662 2.16618 2.22264 2.22239 2.30193 2.30193
          2.42143 2.42139 2.60029 2.60033 2.65979 2.65963 0.00553194 0.00553194
        </DataArray>
        <DataArray type="Float32" Name="Molarity_CO3" NumberOfComponents="1" format="ascii">
          0.00226525 0.00227258 0.00220549 0.00220342 0.00213306 0.0021338 0.00206537 0.00206597 0.00200093 0.00200092 0.00194018 0.00194043
          0.00188195 0.0018823 0.00182688 0.00182759 0.00177511 0.00177605 0.00172624 0.00172674 0.00167974 0.00168007 0.0015976 0.00159806
          0.00152346 0.00152391 0.00145713 0.00145735 0.00139854 0.0013989 0.00134655 0.00134685 0.00129158 0.00129212 0.00124371 0.00124347
          0.00120391 0.00120379 0.00117055 0.00117118 0.0011434 0.00114315 0.00112123 0.00112153 0.00110375 0.00110398 0.00109116 0.00109135
          0.0010832 0.0010831 0.00107951 0.00107922 0.00107998 0.00107954 0.00108493 0.00108507 0.00109726 0.00109713 0.00111504 0.00111442
          0.00113929 0.00113978 0.00117388 0.00117375 0.00122159 0.00122172 0.00128833 0.00128831 0.00138621 0.00138592 0.00153774 0.00153775
          0.00179723 0.00179717 0.00229106 0.00229112 0.00303515 0.00303485 4.26535e-07 4.26535e-07
        </DataArray>
        <DataArray type="Float32" Name="Molarity_CO2" NumberOfComponents="1" format="ascii">
          0.264296 0.263549 0.270007 0.270117 0.277801 0.277637 0.285426 0.285331 0.293161 0.293173 0.300857 0.300826
          0.308502 0.308513 0.31612 0.316087 0.32362 0.323598 0.331039 0.331041 0.338349 0.338343 0.352107 0.352101
          0.365229 0.365231 0.377669 0.377671 0.38938 0.389389 0.400364 0.400374 0.412811 0.412832 0.424005 0.423996
          0.434056 0.43405 0.443015 0.44304 0.450926 0.450908 0.457805 0.457818 0.463708 0.463712 0.46869 0.468694
          0.472792 0.472784 0.476027 0.476012 0.478353 0.478329 0.479781 0.479789 0.480383 0.480377 0.479888 0.479858
          0.478106 0.478129 0.474843 0.474839 0.469636 0.469641 0.461802 0.4618 0.450305 0.450295 0.433319 0.43332
          0.407519 0.407518 0.365452 0.365452 0.286856 0.28685 0.00769319 0.00769319
        </DataArray>
        <DataArray type="Float32" Name="Molarity_H" NumberOfComponents="1" format="ascii">
          5.9527e-05 5.93286e-05 6.11182e-05 6.11616e-05 6.32404e-05 6.32062e-05 6.53487e-05 6.53258e-05 6.75006e-05 6.75025e-05 6.96632e-05 6.96542e-05
          7.18508e-05 7.18459e-05 7.40519e-05 7.40328e-05 7.62444e-05 7.62213e-05 7.84363e-05 7.84252e-05 8.06296e-05 8.06208e-05 8.48201e-05 8.48073e-05
          8.8944e-05 8.89313e-05 9.29598e-05 9.29532e-05 9.68182e-05 9.68074e-05 0.000100513 0.000100503 0.00010476 0.000104742 0.00010871 0.000108719
          0.000112274 0.000112279 0.000115475 0.000115448 0.000118279 0.000118288 0.000120708 0.000120694 0.000122755 0.000122743 0.00012439 0.00012438
          0.000125613 0.000125617 0.000126431 0.000126446 0.000126835 0.000126858 0.000126808 0.000126801 0.000126197 0.000126203 0.000125086 0.000125116
          0.000123415 0.000123392 0.000120991 0.000120996 0.000117687 0.000117681 0.000113265 0.000113265 0.000107324 0.000107334 9.93063e-05 9.9306e-05
          8.82736e-05 8.82749e-05 7.31702e-05 7.31694e-05 5.59096e-05 5.59123e-05 0.000628379 0.000628379
        </DataArray>
        <DataArray type="Float32" Name="Molarity_OH" NumberOfComponents="1" format="ascii">
          0.000164862 0.000165418 0.000160535 0.00016042 0.000155101 0.000155185 0.000150052 0.000150105 0.000145223 0.000145219 0.00014067 0.000140689
          0.000136344 0.000136353 0.000132249 0.000132283 0.000128404 0.000128443 0.000124775 0.000124793 0.000121341 0.000121355 0.000115274 0.000115291
          0.00010986 0.000109876 0.00010505 0.000105057 0.000100803 0.000100814 9.70423e-05 9.70512e-05 9.3045e-05 9.30611e-05 8.96085e-05 8.96015e-05
          8.67141e-05 8.67106e-05 8.42667e-05 8.42863e-05 8.22309e-05 8.22242e-05 8.0543e-05 8.05525e-05 7.91725e-05 7.91802e-05 7.81091e-05 7.81157e-05
          7.73314e-05 7.73287e-05 7.68185e-05 7.68095e-05 7.65666e-05 7.65531e-05 7.65819e-05 7.65858e-05 7.69576e-05 7.69536e-05 7.76527e-05 7.76344e-05
          7.87253e-05 7.87398e-05 8.03344e-05 8.03307e-05 8.26365e-05 8.26402e-05 8.59292e-05 8.59288e-05 9.07821e-05 9.07737e-05 9.82538e-05 9.82541e-05
          0.000110755 0.000110754 0.000133992 0.000133994 0.00017605 0.000176041 1.57575e-05 1.57575e-05
        </DataArray>
        <DataArray type="Float32" Name="Da_ureolysis" NumberOfComponents="1" format="ascii">
          0 0 0 0 0 0 0 0 0 0 0 0
          0 0 0 0 0 0 0 0 0 0 0 0
          0 0 0 0 0 0 0 0 0 0 0 0
          0 0 0 0 0 0 0 0 0 0 0 0
          0 0 0 0 0 0 0 0 0 0 0 0
          0 0 0 0 0 0 0 0 0 0 0 0
          0 0 0 0 0 0 0 0
        </DataArray>
        <DataArray type="Float32" Name="Da_precipitation" NumberOfComponents="1" format="ascii">
          65.1105 61.3145 781.578 440.532 2052.7 2039.94 2363.86 1896.43 1649.64 3679.78 2429.08 6907.88
          1748.95 3264.92 1373.85 2442.64 1247.44 2085.52 1066.77 1448.01 38.6706 38.4844 623.605 682.158
          477.891 503.114 381.409 389.82 334.253 336.819 80.3868 80.5692 181.624 181.96 164.68 164.285
          153.069 153.367 139.535 141.25 132.306 133.11 125.194 126.754 120.214 121.756 116.831 118.223
          114.315 114.876 109.561 109.442 108.286 107.84 104.245 104.221 99.0683 98.746 93.3212 92.9043
          85.86 86.054 77.4452 77.3944 68.2278 68.2949 58.8662 58.8609 50.1376 50.0732 42.8339 42.8224
          38.6161 38.6057 43.4088 43.4192 61.3507 61.3431 0 0
        </DataArray>
        <DataArray type="Float32" Name="Vx" NumberOfComponents="1" format="ascii">
          1.25265e-09 1.25216e-09 2.27466e-10 2.27474e-10 -1.22742e-10 -1.22393e-10 -2.52173e-10 -2.52209e-10 -2.48451e-10 -2.48618e-10 -8.26691e-11 -8.27148e-11
          1.95907e-11 1.96593e-11 3.22825e-11 3.23631e-11 -4.26465e-11 -4.28024e-11 -5.96812e-11 -5.98973e-11 -1.94434e-11 -1.95081e-11 -1.18286e-11 -1.1863e-11
          -2.12831e-11 -2.13264e-11 -1.92944e-11 -1.9327e-11 -1.29289e-11 -1.29526e-11 -6.42305e-12 -6.43625e-12 2.61383e-12 2.61015e-12 7.41086e-12 7.39811e-12
          6.16047e-12 6.15396e-12 9.61272e-12 9.62068e-12 3.2674e-12 3.26937e-12 2.40522e-12 2.41269e-12 6.45765e-12 6.46634e-12 -8.06851e-12 -8.07048e-12
          -1.76232e-11 -1.76233e-11 -1.10371e-11 -1.10318e-11 -3.49656e-12 -3.49494e-12 -1.56538e-12 -1.56663e-12 7.3974e-13 7.36574e-13 5.44379e-12 5.44003e-12
          1.99705e-12 1.99576e-12 -6.36493e-13 -6.36275e-13 3.43858e-12 3.43915e-12 -3.80086e-12 -3.80019e-12 -3.34052e-12 -3.34e-12 1.8099e-12 1.80963e-12
          8.36986e-13 8.367e-13 1.07343e-12 1.07347e-12 2.96986e-13 2.97029e-13 -9.65179e-14 -9.65209e-14
        </DataArray>
        <DataArray type="Float32" Name="Vy" NumberOfComponents="1" format="ascii">
          1.72088e-08 1.83255e-08 1.31648e-09 2.35081e-09 -4.746e-10 4.76729e-10 -3.25694e-10 4.4689e-10 -5.17509e-10 -6.68957e-11 -3.71242e-10 -1.05115e-10
          -5.13876e-10 -2.75335e-10 -6.38392e-10 -3.58819e-10 -6.86798e-10 -4.10844e-10 -7.86033e-10 -5.78941e-10 2.12896e-08 2.14294e-08 -1.27549e-09 -1.16874e-09
          -1.60418e-09 -1.52711e-09 -1.9403e-09 -1.90029e-09 -2.14827e-09 -2.13643e-09 8.69751e-09 8.6919e-09 -3.75828e-09 -3.76653e-09 -4.03717e-09 -4.0341e-09
          -4.27949e-09 -4.26311e-09 -4.65156e-09 -4.61903e-09 -4.90734e-09 -4.86105e-09 -5.20286e-09 -5.15257e-09 -5.46872e-09 -5.40819e-09 -5.72527e-09 -5.66473e-09
          -6.00429e-09 -5.97156e-09 -6.47246e-09 -6.46958e-09 -6.80378e-09 -6.81487e-09 -7.39278e-09 -7.40869e-09 -8.34486e-09 -8.36206e-09 -9.55457e-09 -9.56499e-09
          -1.13005e-08 -1.13026e-08 -1.39345e-08 -1.39363e-08 -1.79964e-08 -1.79948e-08 -2.44946e-08 -2.44927e-08 -3.55246e-08 -3.55314e-08 -5.56045e-08 -5.56122e-08
          -9.57728e-08 -9.57776e-08 -1.73354e-07 -1.73357e-07 -3.06345e-07 -3.06347e-07 2.43825e-06 2.43825e-06
        </DataArray>
      </PointData>
      <CellData Scalars="process rank">
        <DataArray type="Float32" Name="process rank" NumberOfComponents="1" format="ascii">
          0 0 0 0 0 0 0 0 0 0 0 0
          0 0 0 0 0 0 0 0 0 0 0 0
          0 0 0 0 0 0 0 0 0 0 0 0
          0 0 0
        </DataArray>
      </CellData>
      <Points>
        <DataArray type="Float32" Name="Coordinates" NumberOfComponents="3" format="ascii">
          0 0 0 0.0254 0 0 0 0.01 0 0.0254 0.01 0
          0 0.02 0 0.0254 0.02 0 0 0.03 0 0.0254 0.03 0
          0 0.04 0 0.0254 0.04 0 0 0.05 0 0.0254 0.05 0
          0 0.06 0 0.0254 0.06 0 0 0.07 0 0.0254 0.07 0
          0 0.08 0 0.0254 0.08 0 0 0.09 0 0.0254 0.09 0
          0 0.1 0 0.0254 0.1 0 0 0.12 0 0.0254 0.12 0
          0 0.14 0 0.0254 0.14 0 0 0.16 0 0.0254 0.16 0
          0 0.18 0 0.0254 0.18 0 0 0.2 0 0.0254 0.2 0
          0 0.225 0 0.0254 0.225 0 0 0.25 0 0.0254 0.25 0
          0 0.275 0 0.0254 0.275 0 0 0.3 0 0.0254 0.3 0
          0 0.325 0 0.0254 0.325 0 0 0.35 0 0.0254 0.35 0
          0 0.375 0 0.0254 0.375 0 0 0.4 0 0.0254 0.4 0
          0 0.425 0 0.0254 0.425 0 0 0.45 0 0.0254 0.45 0
          0 0.475 0 0.0254 0.475 0 0 0.5 0 0.0254 0.5 0
          0 0.525 0 0.0254 0.525 0 0 0.55 0 0.0254 0.55 0
          0 0.575 0 0.0254 0.575 0 0 0.6 0 0.0254 0.6 0
          0 0.625 0 0.0254 0.625 0 0 0.65 0 0.0254 0.65 0
          0 0.675 0 0.0254 0.675 0 0 0.7 0 0.0254 0.7 0
          0 0.725 0 0.0254 0.725 0 0 0.75 0 0.0254 0.75 0
          0 0.775 0 0.0254 0.775 0 0 0.8 0 0.0254 0.8 0
        </DataArray>
      </Points>
      <Cells>
        <DataArray type="Int32" Name="connectivity" NumberOfComponents="1" format="ascii">
          0 1 3 2 2 3 5 4 4 5 7 6
          6 7 9 8 8 9 11 10 10 11 13 12
          12 13 15 14 14 15 17 16 16 17 19 18
          18 19 21 20 20 21 23 22 22 23 25 24
          24 25 27 26 26 27 29 28 28 29 31 30
          30 31 33 32 32 33 35 34 34 35 37 36
          36 37 39 38 38 39 41 40 40 41 43 42
          42 43 45 44 44 45 47 46 46 47 49 48
          48 49 51 50 50 51 53 52 52 53 55 54
          54 55 57 56 56 57 59 58 58 59 61 60
          60 61 63 62 62 63 65 64 64 65 67 66
          66 67 69 68 68 69 71 70 70 71 73 72
          72 73 75 74 74 75 77 76 76 77 79 78
        </DataArray>
        <DataArray type="Int32" Name="offsets" NumberOfComponents="1" format="ascii">
          4 8 12 16 20 24 28 32 36 40 44 48
          52 56 60 64 68 72 76 80 84 88 92 96
          100 104 108 112 116 120 124 128 132 136 140 144
          148 152 156
        </DataArray>
        <DataArray type="UInt8" Name="types" NumberOfComponents="1" format="ascii">
          9 9 9 9 9 9 9 9 9 9 9 9
          9 9 9 9 9 9 9 9 9 9 9 9
          9 9 9 9 9 9 9 9 9 9 9 9
          9 9 9
        </DataArray>
      </Cells>
    </Piece>
  </UnstructuredGrid>
</VTKFile>
