<?xml version="1.0"?>
<VTKFile type="UnstructuredGrid" version="0.1" byte_order="LittleEndian">
  <UnstructuredGrid>
    <Piece NumberOfCells="39" NumberOfPoints="80">
      <PointData Scalars="Sg">
        <DataArray type="Float32" Name="Sg" NumberOfComponents="1" format="ascii">
          0 0 0 0 0 0 0 0 0 0 0 0
          0 0 0 0 0 0 0 0 0 0 0 0
          0 0 0 0 0 0 0 0 0 0 0 0
          0 0 0 0 0 0 0 0 0 0 0 0
          0 0 0 0 0 0 0 0 0 0 0 0
          0 0 0 0 0 0 0 0 0 0 0 0
          0 0 0 0 0 0 0 0
        </DataArray>
        <DataArray type="Float32" Name="Sl" NumberOfComponents="1" format="ascii">
          1 1 1 1 1 1 1 1 1 1 1 1
          1 1 1 1 1 1 1 1 1 1 1 1
          1 1 1 1 1 1 1 1 1 1 1 1
          1 1 1 1 1 1 1 1 1 1 1 1
          1 1 1 1 1 1 1 1 1 1 1 1
          1 1 1 1 1 1 1 1 1 1 1 1
          1 1 1 1 1 1 1 1
        </DataArray>
        <DataArray type="Float32" Name="pg" NumberOfComponents="1" format="ascii">
          117631 117631 117533 117533 117434 117434 117335 117335 117237 117237 117138 117138
          117039 117039 116940 116940 116841 116841 116742 116742 116642 116642 116444 116444
          116245 116245 116046 116046 115847 115847 115648 115648 115399 115399 115150 115150
          114900 114900 114651 114651 114401 114401 114151 114151 113902 113902 113652 113652
          113402 113402 113152 113152 112903 112903 112653 112653 112403 112403 112153 112153
          111904 111904 111654 111654 111405 111405 111155 111155 110906 110906 110657 110657
          110408 110408 110160 110160 109913 109913 109667 109667
        </DataArray>
        <DataArray type="Float32" Name="pl" NumberOfComponents="1" format="ascii">
          107965 107965 107866 107866 107767 107767 107669 107669 107570 107570 107471 107471
          107372 107372 107273 107273 107174 107174 107075 107075 106976 106976 106777 106777
          106579 106579 106380 106380 106181 106181 105982 105982 105732 105732 105483 105483
          105234 105234 104984 104984 104734 104734 104485 104485 104235 104235 103985 103985
          103735 103735 103486 103486 103236 103236 102986 102986 102736 102736 102487 102487
          102237 102237 101987 101987 101738 101738 101489 101489 101239 101239 100990 100990
          100742 100742 100494 100494 100246 100246 100000 100000
        </DataArray>
        <DataArray type="Float32" Name="pc" NumberOfComponents="1" format="ascii">
          9666.67 9666.67 9666.67 9666.67 9666.67 9666.67 9666.67 9666.67 9666.67 9666.67 9666.67 9666.67
          9666.67 9666.67 9666.67 9666.67 9666.67 9666.67 9666.67 9666.67 9666.67 9666.67 9666.67 9666.67
          9666.67 9666.67 9666.67 9666.67 9666.67 9666.67 9666.67 9666.67 9666.67 9666.67 9666.67 9666.67
          9666.67 9666.67 9666.67 9666.67 9666.67 9666.67 9666.67 9666.67 9666.67 9666.67 9666.67 9666.67
          9666.67 9666.67 9666.67 9666.67 9666.67 9666.67 9666.67 9666.67 9666.67 9666.67 9666.67 9666.67
          9666.67 9666.67 9666.67 9666.67 9666.67 9666.67 9666.67 9666.67 9666.67 9666.67 9666.67 9666.67
          9666.67 9666.67 9666.67 9666.67 9666.67 9666.67 9666.67 9666.67
        </DataArray>
        <DataArray type="Float32" Name="rhoL" NumberOfComponents="1" format="ascii">
          1005.14 1005.09 1005.73 1005.73 1006.21 1006.22 1006.8 1006.8 1007.44 1007.45 1008 1008.01
          1008.57 1008.58 1009.22 1009.21 1009.87 1009.86 1010.44 1010.43 1011.07 1011.06 1012.13 1012.12
          1013.15 1013.14 1014.07 1014.06 1014.88 1014.87 1015.6 1015.59 1016.34 1016.34 1016.92 1016.92
          1017.39 1017.39 1017.75 1017.75 1018.03 1018.03 1018.22 1018.22 1018.36 1018.36 1018.44 1018.45
          1018.49 1018.49 1018.5 1018.5 1018.45 1018.45 1018.39 1018.39 1018.28 1018.29 1018.14 1018.12
          1017.88 1017.88 1017.56 1017.56 1017.11 1017.11 1016.51 1016.51 1015.66 1015.66 1014.47 1014.47
          1012.82 1012.82 1010.47 1010.47 1007 1007 1001.45 1001.45
        </DataArray>
        <DataArray type="Float32" Name="rhoG" NumberOfComponents="1" format="ascii">
          2.06919 2.06924 2.06746 2.06746 2.06568 2.06568 2.0639 2.0639 2.06212 2.06212 2.06034 2.06034
          2.05856 2.05856 2.05678 2.05678 2.05499 2.05499 2.05321 2.05321 2.05142 2.05142 2.04784 2.04784
          2.04426 2.04426 2.04067 2.04067 2.03708 2.03708 2.03348 2.03348 2.02898 2.02898 2.02447 2.02447
          2.01996 2.01996 2.01544 2.01544 2.01093 2.01093 2.00641 2.00641 2.00189 2.00189 1.99736 1.99736
          1.99284 1.99284 1.98831 1.98831 1.98379 1.98379 1.97926 1.97926 1.97474 1.97474 1.97021 1.97021
          1.96568 1.96568 1.96116 1.96116 1.95663 1.95663 1.9521 1.9521 1.94758 1.94758 1.94305 1.94305
          1.93852 1.93852 1.93399 1.93399 1.92945 1.92945 1.9249 1.9249
        </DataArray>
        <DataArray type="Float32" Name="mobL" NumberOfComponents="1" format="ascii">
          1083.43 1083.69 1080.59 1080.59 1078.3 1078.29 1075.58 1075.57 1072.7 1072.68 1070.22 1070.2
          1067.77 1067.74 1065.02 1065.07 1062.36 1062.38 1060.02 1060.06 1057.51 1057.57 1053.4 1053.45
          1049.58 1049.63 1046.22 1046.28 1043.33 1043.39 1040.83 1040.86 1038.28 1038.28 1036.33 1036.33
          1034.76 1034.77 1033.57 1033.57 1032.66 1032.66 1032.02 1032.03 1031.59 1031.59 1031.31 1031.3
          1031.16 1031.16 1031.13 1031.13 1031.28 1031.27 1031.49 1031.49 1031.82 1031.81 1032.29 1032.34
          1033.13 1033.12 1034.18 1034.19 1035.66 1035.66 1037.7 1037.69 1040.59 1040.59 1044.75 1044.75
          1050.77 1050.77 1059.85 1059.85 1074.58 1074.58 1103.12 1103.12
        </DataArray>
        <DataArray type="Float32" Name="mobG" NumberOfComponents="1" format="ascii">
          0 0 0 0 0 0 0 0 0 0 0 0
          0 0 0 0 0 0 0 0 0 0 0 0
          0 0 0 0 0 0 0 0 0 0 0 0
          0 0 0 0 0 0 0 0 0 0 0 0
          0 0 0 0 0 0 0 0 0 0 0 0
          0 0 0 0 0 0 0 0 0 0 0 0
          0 0 0 0 0 0 0 0
        </DataArray>
        <DataArray type="Float32" Name="porosity" NumberOfComponents="1" format="ascii">
          0.38848 0.388621 0.386536 0.386628 0.385177 0.385245 0.384178 0.384299 0.383193 0.38331 0.382332 0.382612
          0.381567 0.381692 0.380726 0.380912 0.379907 0.380096 0.37918 0.379347 0.378453 0.378709 0.377206 0.377546
          0.375965 0.376139 0.374974 0.37516 0.373959 0.374258 0.373153 0.373275 0.372433 0.372607 0.371463 0.371625
          0.371035 0.371101 0.370711 0.370837 0.37076 0.370757 0.370485 0.370549 0.370576 0.370705 0.370511 0.370648
          0.370852 0.370793 0.371047 0.371059 0.371005 0.371082 0.371452 0.371365 0.372003 0.372007 0.372709 0.372559
          0.373093 0.373096 0.374073 0.374114 0.375249 0.375323 0.376915 0.376882 0.379163 0.379119 0.382064 0.38205
          0.385953 0.385919 0.39066 0.39068 0.395937 0.395942 0.4 0.4
        </DataArray>
        <DataArray type="Float32" Name="temperature" NumberOfComponents="1" format="ascii">
          298.15 298.15 298.15 298.15 298.15 298.15 298.15 298.15 298.15 298.15 298.15 298.15
          298.15 298.15 298.15 298.15 298.15 298.15 298.15 298.15 298.15 298.15 298.15 298.15
          298.15 298.15 298.15 298.15 298.15 298.15 298.15 298.15 298.15 298.15 298.15 298.15
          298.15 298.15 298.15 298.15 298.15 298.15 298.15 298.15 298.15 298.15 298.15 298.15
          298.15 298.15 298.15 298.15 298.15 298.15 298.15 298.15 298.15 298.15 298.15 298.15
          298.15 298.15 298.15 298.15 298.15 298.15 298.15 298.15 298.15 298.15 298.15 298.15
          298.15 298.15 298.15 298.15 298.15 298.15 298.15 298.15
        </DataArray>
        <DataArray type="Float32" Name="phase presence" NumberOfComponents="1" format="ascii">
          1 1 1 1 1 1 1 1 1 1 1 1
          1 1 1 1 1 1 1 1 1 1 1 1
          1 1 1 1 1 1 1 1 1 1 1 1
          1 1 1 1 1 1 1 1 1 1 1 1
          1 1 1 1 1 1 1 1 1 1 1 1
          1 1 1 1 1 1 1 1 1 1 1 1
          1 1 1 1 1 1 1 1
        </DataArray>
        <DataArray type="Float32" Name="potential" NumberOfComponents="1" format="ascii">
          0.00774218 0.00778497 0.00727424 0.00727444 0.00689178 0.00689085 0.00643447 0.0064338 0.00594608 0.00594207 0.00552048 0.00551756
          0.00509923 0.00509457 0.00462179 0.00463041 0.00415662 0.00416055 0.00374692 0.0037528 0.00330353 0.00331517 0.00257726 0.00258572
          0.00190182 0.00191093 0.0013106 0.00132128 0.000807477 0.00081634 0.000376178 0.000382218 -5.27352e-05 -5.28722e-05 -0.000373179 -0.000373154
          -0.000620889 -0.000619325 -0.000802228 -0.000801981 -0.000935229 -0.000935414 -0.00102453 -0.00102322 -0.00108096 -0.00108071 -0.00111585 -0.00111726
          -0.00113386 -0.00113312 -0.00113678 -0.0011369 -0.00112148 -0.00112171 -0.00110106 -0.00110074 -0.00107198 -0.00107303 -0.00103447 -0.00103079
          -0.000974987 -0.000975159 -0.000907938 -0.000907594 -0.000825877 -0.000825953 -0.000729355 -0.000729604 -0.000615184 -0.000615143 -0.000484371 -0.000484382
          -0.000342184 -0.000342178 -0.000197505 -0.000197506 -6.90663e-05 -6.90664e-05 0 0
        </DataArray>
        <DataArray type="Float32" Name="boxVolume" NumberOfComponents="1" format="ascii">
          6.35e-05 6.35e-05 0.000127 0.000127 0.000127 0.000127 0.000127 0.000127 0.000127 0.000127 0.000127 0.000127
          0.000127 0.000127 0.000127 0.000127 0.000127 0.000127 0.000127 0.000127 0.0001905 0.0001905 0.000254 0.000254
          0.000254 0.000254 0.000254 0.000254 0.000254 0.000254 0.00028575 0.00028575 0.0003175 0.0003175 0.0003175 0.0003175
          0.0003175 0.0003175 0.0003175 0.0003175 0.0003175 0.0003175 0.0003175 0.0003175 0.0003175 0.0003175 0.0003175 0.0003175
          0.0003175 0.0003175 0.0003175 0.0003175 0.0003175 0.0003175 0.0003175 0.0003175 0.0003175 0.0003175 0.0003175 0.0003175
          0.0003175 0.0003175 0.0003175 0.0003175 0.0003175 0.0003175 0.0003175 0.0003175 0.0003175 0.0003175 0.0003175 0.0003175
          0.0003175 0.0003175 0.0003175 0.0003175 0.0003175 0.0003175 0.00015875 0.00015875
        </DataArray>
        <DataArray type="Float32" Name="pH" NumberOfComponents="1" format="ascii">
          7.28507 7.28769 7.25668 7.25691 7.23448 7.23432 7.2089 7.20894 7.18225 7.18202 7.15964 7.1595
          7.13812 7.13789 7.11448 7.11495 7.09177 7.09192 7.07229 7.07278 7.05126 7.05187 7.01733 7.01772
          6.9865 6.98674 6.95984 6.96058 6.93671 6.93722 6.91729 6.91755 6.89746 6.8975 6.88596 6.88583
          6.87267 6.87317 6.86237 6.86251 6.85286 6.85277 6.8464 6.84707 6.84212 6.84237 6.83811 6.83738
          6.83407 6.8345 6.83088 6.8309 6.83189 6.8319 6.82992 6.83008 6.8263 6.82653 6.8217 6.82534
          6.82588 6.82459 6.82489 6.8247 6.8246 6.82433 6.82358 6.82347 6.82507 6.82566 6.83113 6.83109
          6.84303 6.84299 6.87109 6.87106 6.94577 6.94576 6.19963 6.19963
        </DataArray>
        <DataArray type="Float32" Name="Omega" NumberOfComponents="1" format="ascii">
          7.41084 7.38185 7.78324 7.77733 8.06698 8.07052 8.3922 8.39139 8.73877 8.74246 9.03547 9.03815
          9.31721 9.32083 9.6283 9.62199 9.93388 9.93259 10.1985 10.1913 10.4905 10.4825 10.969 10.9646
          11.4091 11.4066 11.7944 11.784 12.1341 12.1278 12.4198 12.4164 12.7124 12.7123 12.8663 12.869
          13.0659 13.0582 13.2206 13.2189 13.3663 13.3679 13.4597 13.449 13.5192 13.5159 13.5751 13.5875
          13.6336 13.6264 13.6766 13.6761 13.6531 13.6536 13.6792 13.6763 13.7335 13.7281 13.7946 13.7446
          13.7322 13.7497 13.741 13.7436 13.7367 13.7398 13.73 13.729 13.659 13.6559 13.4855 13.4863
          13.1247 13.1241 12.3113 12.3107 10.2393 10.2386 0 0
        </DataArray>
        <DataArray type="Float32" Name="rurea" NumberOfComponents="1" format="ascii">
          0 0 0 0 0 0 0 0 0 0 0 0
          0 0 0 0 0 0 0 0 0 0 0 0
          0 0 0 0 0 0 0 0 0 0 0 0
          0 0 0 0 0 0 0 0 0 0 0 0
          0 0 0 0 0 0 0 0 0 0 0 0
          0 0 0 0 0 0 0 0 0 0 0 0
          0 0 0 0 0 0 0 0
        </DataArray>
        <DataArray type="Float32" Name="Volume_Fraction_Biofilm" NumberOfComponents="1" format="ascii">
          0.00355963 0.00356121 0.00353393 0.00354162 0.00351986 0.00351762 0.00350828 0.00351133 0.00349056 0.00349131 0.00347266 0.00347516
          0.00346179 0.00346271 0.00345016 0.00345261 0.00343433 0.00343506 0.00342208 0.00342736 0.00340454 0.00340785 0.00337263 0.00337574
          0.00334427 0.00334339 0.00331989 0.0033256 0.00329146 0.00329576 0.00327265 0.00327372 0.00324931 0.00325117 0.00326397 0.00326384
          0.00323405 0.00323951 0.00320912 0.00321158 0.00317503 0.00317414 0.00314931 0.00315579 0.00313276 0.00313635 0.00310778 0.00310253
          0.00307744 0.00308049 0.0030451 0.00304529 0.00303948 0.00304054 0.00300528 0.00300587 0.00295056 0.0029524 0.00287671 0.0029078
          0.00286162 0.0028495 0.00278702 0.00278519 0.00269422 0.00269209 0.00256166 0.00256084 0.00239673 0.00240293 0.00218695 0.00218677
          0.00188756 0.00188686 0.0014635 0.00146317 0.000851574 0.000851368 0 0
        </DataArray>
        <DataArray type="Float32" Name="Volume_Fraction_Calcite" NumberOfComponents="1" format="ascii">
          0.00796059 0.00781818 0.0099301 0.00983004 0.0113034 0.0112378 0.0123135 0.0121893 0.0133164 0.0131982 0.0141951 0.0139124
          0.0149717 0.0148451 0.0158237 0.0156358 0.0166591 0.0164691 0.0173978 0.0172253 0.0181422 0.0178828 0.0194211 0.0190784
          0.0206912 0.0205174 0.0217064 0.0215142 0.0227498 0.0224461 0.023574 0.0234515 0.024318 0.024142 0.0252733 0.025111
          0.0257308 0.0256599 0.0260801 0.0259517 0.026065 0.0260691 0.0263661 0.026295 0.0262909 0.0261585 0.0263811 0.0262491
          0.0260704 0.026127 0.025908 0.0258954 0.0259559 0.0258777 0.0255425 0.0256289 0.025046 0.0250406 0.0244142 0.0245333
          0.0240458 0.024055 0.0231404 0.0231006 0.0220563 0.0219853 0.0205237 0.0205573 0.0184407 0.0184779 0.0157496 0.0157637
          0.0121598 0.0121941 0.00787669 0.00785665 0.00321152 0.00320703 0 0
        </DataArray>
        <DataArray type="Float32" Name="Kxx" NumberOfComponents="1" format="ascii">
          1.83213e-10 1.83412e-10 1.80476e-10 1.80606e-10 1.78579e-10 1.78673e-10 1.77194e-10 1.77361e-10 1.75834e-10 1.75996e-10 1.74652e-10 1.75036e-10
          1.73604e-10 1.73776e-10 1.7246e-10 1.72712e-10 1.71349e-10 1.71605e-10 1.70368e-10 1.70593e-10 1.6939e-10 1.69734e-10 1.67721e-10 1.68174e-10
          1.6607e-10 1.66301e-10 1.6476e-10 1.65006e-10 1.63426e-10 1.63819e-10 1.62372e-10 1.62531e-10 1.61433e-10 1.6166e-10 1.60175e-10 1.60386e-10
          1.59623e-10 1.59707e-10 1.59205e-10 1.59367e-10 1.59268e-10 1.59264e-10 1.58913e-10 1.58997e-10 1.59031e-10 1.59197e-10 1.58947e-10 1.59124e-10
          1.59387e-10 1.5931e-10 1.59638e-10 1.59654e-10 1.59584e-10 1.59683e-10 1.60162e-10 1.60049e-10 1.60876e-10 1.6088e-10 1.61793e-10 1.61598e-10
          1.62293e-10 1.62297e-10 1.63575e-10 1.6363e-10 1.65124e-10 1.65221e-10 1.67332e-10 1.67288e-10 1.70344e-10 1.70285e-10 1.74284e-10 1.74265e-10
          1.7966e-10 1.79613e-10 1.86314e-10 1.86343e-10 1.93967e-10 1.93974e-10 2e-10 2e-10
        </DataArray>
        <DataArray type="Float32" Name="X_lBrine" NumberOfComponents="1" format="ascii">
          0.979272 0.979389 0.977999 0.978 0.976945 0.976942 0.975668 0.975666 0.974286 0.974274 0.973065 0.973056
          0.97184 0.971826 0.970432 0.970458 0.969041 0.969052 0.967797 0.967816 0.966432 0.966468 0.964145 0.964172
          0.961953 0.961983 0.959973 0.96001 0.958233 0.958265 0.956692 0.956714 0.9551 0.955099 0.953862 0.953862
          0.952854 0.952861 0.95208 0.952082 0.951482 0.951481 0.951059 0.951066 0.950778 0.95078 0.950594 0.950586
          0.950494 0.950499 0.95048 0.950479 0.95059 0.950589 0.950744 0.950746 0.950978 0.950969 0.951308 0.951345
          0.951895 0.951892 0.952631 0.952635 0.953655 0.953653 0.955045 0.955041 0.956992 0.956993 0.959724 0.959724
          0.963547 0.963547 0.969004 0.969004 0.977108 0.977108 0.99029 0.99029
        </DataArray>
        <DataArray type="Float32" Name="X_lTotalC" NumberOfComponents="1" format="ascii">
          0.000125984 0.00012602 0.000125203 0.000125292 0.000124548 0.000124506 0.000123699 0.000123726 0.00012256 0.000122545 0.000121441 0.000121436
          0.000120374 0.00012036 0.000119124 0.000119165 0.000117729 0.000117725 0.000116479 0.000116575 0.000114947 0.000115008 0.000112245 0.000112276
          0.000109656 0.000109631 0.000107301 0.000107435 0.000105042 0.000105115 0.000103204 0.000103226 0.00010121 0.000101224 0.000100868 0.000100825
          9.91933e-05 9.93408e-05 9.78476e-05 9.78897e-05 9.62848e-05 9.62563e-05 9.52688e-05 9.54656e-05 9.46005e-05 9.46779e-05 9.37818e-05 9.35686e-05
          9.27561e-05 9.28795e-05 9.18023e-05 9.18095e-05 9.18887e-05 9.18976e-05 9.09358e-05 9.09808e-05 8.92845e-05 8.93746e-05 8.71321e-05 8.81674e-05
          8.70977e-05 8.67094e-05 8.51235e-05 8.50568e-05 8.26848e-05 8.26078e-05 7.91387e-05 7.91192e-05 7.49302e-05 7.50948e-05 6.98748e-05 6.9864e-05
          6.30622e-05 6.30532e-05 5.45848e-05 5.45789e-05 4.58801e-05 4.58781e-05 5.81077e-07 5.81077e-07
        </DataArray>
        <DataArray type="Float32" Name="X_lNa" NumberOfComponents="1" format="ascii">
          2.98117e-06 2.99273e-06 2.85535e-06 2.8553e-06 2.7512e-06 2.75097e-06 2.62515e-06 2.62493e-06 2.48909e-06 2.48797e-06 2.36916e-06 2.36834e-06
          2.2489e-06 2.2476e-06 2.1109e-06 2.1134e-06 1.97494e-06 1.97613e-06 1.85367e-06 1.85533e-06 1.72098e-06 1.72447e-06 1.49963e-06 1.50225e-06
          1.28826e-06 1.29128e-06 1.09817e-06 1.10147e-06 9.32205e-07 9.35095e-07 7.85322e-07 7.87405e-07 6.34336e-07 6.3424e-07 5.13313e-07 5.13452e-07
          4.19551e-07 4.19754e-07 3.47957e-07 3.47932e-07 2.94598e-07 2.94611e-07 2.56625e-07 2.56588e-07 2.31247e-07 2.31104e-07 2.15912e-07 2.15918e-07
          2.09524e-07 2.09501e-07 2.11116e-07 2.11011e-07 2.20286e-07 2.20122e-07 2.37566e-07 2.37615e-07 2.65183e-07 2.64037e-07 3.03729e-07 3.02812e-07
          3.56835e-07 3.58161e-07 4.3147e-07 4.32108e-07 5.34051e-07 5.34266e-07 6.74618e-07 6.74333e-07 8.68173e-07 8.67514e-07 1.13547e-06 1.13551e-06
          1.50702e-06 1.50708e-06 2.02571e-06 2.02574e-06 2.753e-06 2.75301e-06 3.74885e-06 3.74885e-06
        </DataArray>
        <DataArray type="Float32" Name="X_lCl" NumberOfComponents="1" format="ascii">
          0.0117058 0.0116291 0.0125398 0.0125402 0.0132302 0.0132317 0.0140656 0.0140671 0.0149673 0.0149747 0.015762 0.0157674
          0.0165589 0.0165675 0.0174733 0.0174567 0.0183739 0.018366 0.0191773 0.0191663 0.020056 0.0200329 0.0215217 0.0215043
          0.0229209 0.022901 0.0241791 0.0241573 0.0252772 0.0252581 0.026249 0.0262352 0.0272476 0.0272483 0.0280493 0.0280484
          0.0286688 0.0286676 0.0291417 0.0291419 0.0294933 0.0294932 0.0297436 0.0297441 0.0299108 0.0299119 0.0300113 0.0300109
          0.0300521 0.0300524 0.03004 0.0300407 0.0299791 0.0299802 0.0298629 0.0298627 0.029677 0.0296848 0.0294177 0.0294254
          0.029065 0.0290556 0.0285662 0.0285618 0.027881 0.0278795 0.0269417 0.0269435 0.0256493 0.0256539 0.0238658 0.0238656
          0.0213876 0.0213872 0.0179319 0.0179317 0.0131013 0.0131013 0.00655617 0.00655617
        </DataArray>
        <DataArray type="Float32" Name="X_lCa" NumberOfComponents="1" format="ascii">
          0.000287994 0.0002854 0.000320216 0.00031966 0.000347119 0.000347459 0.000380457 0.000380324 0.000418884 0.000419271 0.000454476 0.000454733
          0.000490558 0.000490998 0.000533241 0.00053229 0.000578175 0.000577962 0.000619559 0.000618178 0.000668177 0.000666673 0.00075511 0.000754112
          0.000843478 0.000843086 0.000928085 0.000925178 0.00100945 0.00100749 0.00108216 0.0010812 0.00116231 0.00116209 0.00120229 0.00120317
          0.00126431 0.00126104 0.00131494 0.00131402 0.00136723 0.00136792 0.00140297 0.0013981 0.00142694 0.00142507 0.00145212 0.00145771
          0.00148066 0.00147735 0.00150527 0.00150508 0.00149943 0.00149932 0.00151955 0.00151827 0.00155667 0.00155433 0.00160571 0.00157592
          0.00158845 0.00159936 0.00162099 0.00162279 0.00165872 0.00166103 0.00171883 0.0017194 0.00178115 0.00177589 0.00184077 0.0018412
          0.00190831 0.00190858 0.00192719 0.00192738 0.00166766 0.00166768 0 0
        </DataArray>
        <DataArray type="Float32" Name="X_lUrea" NumberOfComponents="1" format="ascii">
          0.000164576 0.000162068 0.000198437 0.000197466 0.000226827 0.000227371 0.000262444 0.000262177 0.000304888 0.000305352 0.000345063 0.000345353
          0.000385865 0.000386384 0.000434656 0.000433477 0.000487312 0.000487147 0.000536262 0.000534251 0.000595098 0.000593182 0.000702271 0.000701051
          0.000812732 0.000812555 0.000919885 0.000915721 0.00102507 0.00102237 0.001119 0.00111779 0.00122391 0.00122355 0.00126958 0.00127099
          0.00135391 0.00134879 0.00142338 0.00142192 0.00149799 0.00149906 0.00154876 0.00154112 0.00158287 0.00157992 0.00162032 0.00162907
          0.00166427 0.00165909 0.00170321 0.0017029 0.00169562 0.00169542 0.00172978 0.00172779 0.00179194 0.00178813 0.00187422 0.0018276
          0.00185509 0.00187231 0.00191671 0.00191961 0.00199034 0.00199396 0.00210411 0.00210496 0.00222879 0.00222052 0.00235981 0.00236048
          0.00251832 0.00251874 0.002624 0.00262429 0.00233503 0.00233506 0 0
        </DataArray>
        <DataArray type="Float32" Name="X_lTotalNH" NumberOfComponents="1" format="ascii">
          0.00547557 0.00544098 0.00584822 0.00584894 0.00615649 0.0061569 0.00652882 0.00652966 0.00692844 0.00693166 0.00727908 0.00728147
          0.00763039 0.00763417 0.0080324 0.00802527 0.00842579 0.00842219 0.00877556 0.00877154 0.00915518 0.00914542 0.0097833 0.00977584
          0.0103784 0.0103691 0.010909 0.0109012 0.0113656 0.0113582 0.0117692 0.0117634 0.0121793 0.0121798 0.0125302 0.0125289
          0.0127738 0.0127761 0.0129569 0.0129578 0.0130801 0.0130795 0.0131692 0.0131737 0.0132286 0.0132308 0.0132548 0.0132498
          0.0132494 0.0132525 0.013222 0.0132225 0.0131977 0.0131984 0.0131241 0.0131251 0.013002 0.0130077 0.0128341 0.0128639
          0.0126792 0.0126651 0.0124104 0.0124068 0.0120473 0.0120446 0.0115423 0.0115427 0.0108652 0.010872 0.00995388 0.00995338
          0.00870071 0.00870029 0.00701804 0.0070178 0.00491135 0.00491132 0.00314947 0.00314947
        </DataArray>
        <DataArray type="Float32" Name="X_lO2" NumberOfComponents="1" format="ascii">
          -6.27032e-08 -6.22009e-08 -6.53782e-08 -6.77375e-08 -6.84998e-08 -6.76283e-08 -7.02245e-08 -7.03001e-08 -6.34118e-08 -6.15773e-08 -7.19352e-09 -7.75486e-09
          -3.96168e-10 -1.21362e-10 -5.51461e-12 -9.48431e-12 -1.60735e-12 -2.29878e-13 -6.10849e-14 -5.09411e-14 -1.67813e-15 -1.569e-15 -1.38368e-17 -1.62482e-17
          -1.67953e-17 -1.8085e-17 -1.81374e-15 -9.84737e-16 -5.819e-14 -1.24025e-13 -7.5057e-12 -1.65193e-12 -4.03126e-10 -5.01319e-10 -2.10512e-08 -2.06026e-08
          -2.16477e-08 -2.26903e-08 -2.24314e-08 -2.26462e-08 -1.97662e-08 -1.94382e-08 -2.08921e-08 -2.2031e-08 -2.18901e-08 -2.17619e-08 -2.13179e-08 -2.13849e-08
          -2.07905e-08 -2.07386e-08 -2.01327e-08 -2.01254e-08 -1.80109e-08 -1.80176e-08 -1.71877e-08 -1.70568e-08 -1.74847e-08 -1.74086e-08 -1.68759e-08 -1.64477e-08
          -1.45771e-08 -1.5219e-08 -1.37428e-08 -1.38329e-08 -1.26402e-08 -1.2712e-08 -1.15254e-08 -1.1528e-08 -9.12291e-09 -9.18083e-09 -5.79207e-09 -5.76829e-09
          -2.02623e-10 -2.07554e-10 -3.43517e-12 -2.91372e-12 -1.12493e-14 -5.03543e-14 0 0
        </DataArray>
        <DataArray type="Float32" Name="X_lSubstrate" NumberOfComponents="1" format="ascii">
          0.0029648 0.00296469 0.00296602 0.00296602 0.00296702 0.00296703 0.00296824 0.00296824 0.00296955 0.00296957 0.0029708 0.00297081
          0.00297195 0.00297196 0.00297324 0.00297321 0.00297449 0.00297448 0.00297559 0.00297558 0.00297678 0.00297675 0.0029787 0.00297868
          0.00298047 0.00298044 0.00298198 0.00298197 0.00298319 0.00298318 0.00298416 0.00298415 0.00298494 0.00298494 0.00298536 0.00298535
          0.00298515 0.00298517 0.0029844 0.00298441 0.00298295 0.00298296 0.00298074 0.00298077 0.00297758 0.00297754 0.00297297 0.00297292
          0.00296651 0.00296655 0.00295751 0.00295763 0.00294549 0.00294562 0.00292872 0.00292866 0.00290481 0.00290577 0.00287284 0.00287373
          0.00282973 0.00282859 0.00276879 0.00276826 0.0026846 0.00268441 0.00256841 0.00256864 0.00240753 0.00240811 0.00218439 0.00218436
          0.00187315 0.0018731 0.00143795 0.00143793 0.000828332 0.00082833 0 0
        </DataArray>
        <DataArray type="Float32" Name="X_lSuspended_Biomass" NumberOfComponents="1" format="ascii">
          9.57069e-08 9.44662e-08 1.09452e-07 1.09511e-07 1.08632e-07 1.08682e-07 1.08468e-07 1.0916e-07 1.14822e-07 1.13702e-07 1.15896e-07 1.17312e-07
          1.1933e-07 1.19233e-07 1.18721e-07 1.19474e-07 1.15679e-07 1.12611e-07 1.18637e-07 1.19642e-07 1.09435e-07 1.13423e-07 1.27578e-07 1.18817e-07
          1.38766e-07 1.35982e-07 1.3681e-07 1.35555e-07 1.37701e-07 1.36999e-07 1.27959e-07 1.32877e-07 1.39986e-07 1.4109e-07 1.44098e-07 1.43946e-07
          1.44828e-07 1.45563e-07 1.46222e-07 1.46502e-07 1.46996e-07 1.47035e-07 1.48067e-07 1.48047e-07 1.47981e-07 1.48862e-07 1.50141e-07 1.50364e-07
          1.51113e-07 1.51123e-07 1.52209e-07 1.52186e-07 1.56683e-07 1.54247e-07 1.59819e-07 1.59773e-07 1.62228e-07 1.61466e-07 1.6379e-07 1.63752e-07
          1.65615e-07 1.6535e-07 1.641e-07 1.63875e-07 1.61948e-07 1.61914e-07 1.57823e-07 1.57643e-07 1.50113e-07 1.50074e-07 1.38168e-07 1.38078e-07
          1.19635e-07 1.19573e-07 9.25931e-08 9.25652e-08 5.37345e-08 5.37263e-08 0 0
        </DataArray>
        <DataArray type="Float32" Name="X_lNH4" NumberOfComponents="1" format="ascii">
          0.00574167 0.00570503 0.0061366 0.00613731 0.00646329 0.00646374 0.00685792 0.00685879 0.00728156 0.00728498 0.00765335 0.00765588
          0.00802583 0.00802984 0.00845209 0.00844452 0.00886929 0.00886547 0.00924024 0.00923594 0.00964294 0.00963257 0.0103093 0.0103014
          0.0109407 0.0109309 0.0115037 0.0114953 0.0119883 0.0119804 0.0124166 0.0124105 0.0128518 0.0128524 0.0132236 0.0132223
          0.0134824 0.0134848 0.0136769 0.0136778 0.0138082 0.0138075 0.013903 0.0139077 0.0139662 0.0139685 0.0139944 0.0139891
          0.013989 0.0139922 0.0139604 0.0139609 0.0139347 0.0139354 0.0138571 0.0138582 0.0137285 0.0137346 0.0135517 0.0135828
          0.0133877 0.013373 0.0131039 0.0131001 0.0127204 0.0127175 0.0121871 0.0121875 0.0114719 0.0114791 0.0105089 0.0105084
          0.00918471 0.00918426 0.0074063 0.00740605 0.00517886 0.00517883 0.00333307 0.00333307
        </DataArray>
        <DataArray type="Float32" Name="X_lHCO3" NumberOfComponents="1" format="ascii">
          0.00015894 0.00015906 0.000157152 0.000157269 0.000155679 0.000155622 0.000153847 0.000153882 0.000151608 0.000151582 0.000149509 0.000149499
          0.000147502 0.000147477 0.000145192 0.000145259 0.000142736 0.000142736 0.000140561 0.000140693 0.000137997 0.000138091 0.000133592 0.000133643
          0.000129445 0.000129425 0.000125738 0.00012592 0.000122287 0.00012239 0.00011947 0.000119505 0.000116472 0.00011649 0.000115654 0.000115602
          0.000113277 0.000113461 0.00011139 0.000111442 0.000109297 0.000109262 0.00010793 0.000108173 0.000107032 0.000107127 0.000105978 0.000105716
          0.000104698 0.00010485 0.00010353 0.000103538 0.00010366 0.000103671 0.000102538 0.000102593 0.000100591 0.000100697 9.80611e-05 9.93265e-05
          9.81663e-05 9.76944e-05 9.59569e-05 9.58771e-05 9.32583e-05 9.31647e-05 8.93127e-05 8.92876e-05 8.47043e-05 8.49042e-05 7.92649e-05 7.92519e-05
          7.19593e-05 7.19484e-05 6.29904e-05 6.29832e-05 5.41827e-05 5.41801e-05 3.37056e-07 3.37056e-07
        </DataArray>
        <DataArray type="Float32" Name="X_lCO3" NumberOfComponents="1" format="ascii">
          1.98995e-07 2.0005e-07 1.87633e-07 1.87817e-07 1.79139e-07 1.79041e-07 1.69729e-07 1.69772e-07 1.60216e-07 1.60133e-07 1.52422e-07 1.52379e-07
          1.45364e-07 1.45288e-07 1.37921e-07 1.38082e-07 1.30982e-07 1.31016e-07 1.25269e-07 1.25464e-07 1.19249e-07 1.19433e-07 1.09974e-07 1.1008e-07
          1.02082e-07 1.0211e-07 9.56356e-08 9.58572e-08 9.02313e-08 9.03642e-08 8.59581e-08 8.60134e-08 8.17255e-08 8.17403e-08 7.9824e-08 7.97821e-08
          7.69705e-08 7.71254e-08 7.47963e-08 7.48395e-08 7.26612e-08 7.26333e-08 7.12588e-08 7.14516e-08 7.03415e-08 7.04167e-08 6.93864e-08 6.91815e-08
          6.83288e-08 6.84464e-08 6.74192e-08 6.74251e-08 6.75767e-08 6.75845e-08 6.68212e-08 6.68639e-08 6.55034e-08 6.55755e-08 6.38079e-08 6.47858e-08
          6.42648e-08 6.39058e-08 6.30753e-08 6.30177e-08 6.17046e-08 6.16323e-08 5.96259e-08 5.96012e-08 5.73901e-08 5.75478e-08 5.5028e-08 5.50183e-08
          5.19279e-08 5.19183e-08 4.85963e-08 4.85895e-08 4.72566e-08 4.72531e-08 2.55591e-11 2.55591e-11
        </DataArray>
        <DataArray type="Float32" Name="X_lCO2" NumberOfComponents="1" format="ascii">
          1.12267e-05 1.1176e-05 1.17441e-05 1.17484e-05 1.2157e-05 1.21559e-05 1.26357e-05 1.26379e-05 1.31183e-05 1.31218e-05 1.3518e-05 1.35207e-05
          1.39041e-05 1.3908e-05 1.43245e-05 1.43182e-05 1.47066e-05 1.47022e-05 1.50288e-05 1.50297e-05 1.53505e-05 1.53437e-05 1.58314e-05 1.58259e-05
          1.62388e-05 1.62282e-05 1.65619e-05 1.65644e-05 1.67947e-05 1.67937e-05 1.69916e-05 1.69885e-05 1.71619e-05 1.71634e-05 1.74115e-05 1.74067e-05
          1.74528e-05 1.74676e-05 1.74699e-05 1.74743e-05 1.74176e-05 1.74144e-05 1.73882e-05 1.741e-05 1.73686e-05 1.73774e-05 1.73102e-05 1.72861e-05
          1.72084e-05 1.72225e-05 1.70978e-05 1.70988e-05 1.70902e-05 1.70915e-05 1.69468e-05 1.69519e-05 1.67008e-05 1.67138e-05 1.63738e-05 1.64958e-05
          1.62631e-05 1.62154e-05 1.5883e-05 1.58739e-05 1.53912e-05 1.53818e-05 1.46919e-05 1.46905e-05 1.3808e-05 1.38285e-05 1.26767e-05 1.26753e-05
          1.11345e-05 1.11334e-05 9.12692e-06 9.12628e-06 6.77443e-06 6.77431e-06 3.38012e-07 3.38012e-07
        </DataArray>
        <DataArray type="Float32" Name="X_lH" NumberOfComponents="1" format="ascii">
          5.15202e-11 5.12146e-11 5.49532e-11 5.49239e-11 5.77929e-11 5.78136e-11 6.12445e-11 6.1239e-11 6.50572e-11 6.50909e-11 6.8476e-11 6.84979e-11
          7.18917e-11 7.19301e-11 7.58396e-11 7.57582e-11 7.9832e-11 7.98056e-11 8.34223e-11 8.33291e-11 8.74756e-11 8.7356e-11 9.44307e-11 9.43473e-11
          1.01219e-10 1.01164e-10 1.07473e-10 1.07292e-10 1.13208e-10 1.13079e-10 1.18254e-10 1.18185e-10 1.23635e-10 1.23624e-10 1.26841e-10 1.26878e-10
          1.30684e-10 1.30534e-10 1.33742e-10 1.33699e-10 1.3664e-10 1.36669e-10 1.38642e-10 1.38432e-10 1.39986e-10 1.39905e-10 1.41264e-10 1.41499e-10
          1.42569e-10 1.42431e-10 1.43615e-10 1.43609e-10 1.43295e-10 1.43289e-10 1.43958e-10 1.43905e-10 1.45181e-10 1.45106e-10 1.46754e-10 1.45537e-10
          1.45409e-10 1.4584e-10 1.45811e-10 1.45875e-10 1.46008e-10 1.46098e-10 1.46485e-10 1.4652e-10 1.46173e-10 1.45974e-10 1.44413e-10 1.44426e-10
          1.40873e-10 1.40884e-10 1.32556e-10 1.32564e-10 1.12267e-10 1.12271e-10 6.32454e-10 6.32454e-10
        </DataArray>
        <DataArray type="Float32" Name="X_lOH" NumberOfComponents="1" format="ascii">
          3.22951e-06 3.2493e-06 3.02242e-06 3.02403e-06 2.86971e-06 2.86867e-06 2.70318e-06 2.70341e-06 2.53986e-06 2.5385e-06 2.40893e-06 2.40813e-06
          2.29055e-06 2.28928e-06 2.16703e-06 2.16943e-06 2.05462e-06 2.05533e-06 1.96275e-06 1.96499e-06 1.86818e-06 1.87083e-06 1.72495e-06 1.72654e-06
          1.60422e-06 1.60515e-06 1.50657e-06 1.50919e-06 1.42664e-06 1.42834e-06 1.36271e-06 1.36355e-06 1.30037e-06 1.30048e-06 1.26527e-06 1.26491e-06
          1.22622e-06 1.22765e-06 1.1968e-06 1.19719e-06 1.17033e-06 1.17008e-06 1.15269e-06 1.15446e-06 1.14113e-06 1.1418e-06 1.13047e-06 1.12856e-06
          1.1199e-06 1.121e-06 1.11167e-06 1.11171e-06 1.11434e-06 1.11438e-06 1.1094e-06 1.10981e-06 1.10033e-06 1.10089e-06 1.08893e-06 1.09816e-06
          1.09994e-06 1.09666e-06 1.09796e-06 1.09748e-06 1.09796e-06 1.09728e-06 1.09637e-06 1.0961e-06 1.10156e-06 1.10307e-06 1.1191e-06 1.11899e-06
          1.15317e-06 1.15307e-06 1.23476e-06 1.23468e-06 1.47504e-06 1.47499e-06 2.67481e-07 2.67481e-07
        </DataArray>
        <DataArray type="Float32" Name="X_gBrine" NumberOfComponents="1" format="ascii">
          0.0112386 0.0112218 0.011228 0.011228 0.011235 0.011235 0.0112415 0.0112415 0.0112478 0.0112477 0.0112544 0.0112544
          0.0112611 0.011261 0.0112673 0.0112674 0.0112736 0.0112736 0.0112802 0.0112803 0.0112866 0.0112867 0.0113005 0.0113005
          0.0113146 0.0113147 0.0113294 0.0113295 0.0113448 0.0113449 0.0113608 0.0113608 0.0113817 0.0113816 0.0114035 0.0114035
          0.0114261 0.0114261 0.0114494 0.0114494 0.0114732 0.0114732 0.0114976 0.0114976 0.0115225 0.0115225 0.0115477 0.0115477
          0.0115732 0.0115732 0.0115991 0.0115991 0.0116254 0.0116254 0.0116519 0.011652 0.0116788 0.0116788 0.011706 0.0117061
          0.0117339 0.0117339 0.0117624 0.0117624 0.0117916 0.0117916 0.0118219 0.0118219 0.0118536 0.0118536 0.0118873 0.0118873
          0.0119238 0.0119238 0.0119643 0.0119643 0.0120112 0.0120112 0.0120698 0.0120698
        </DataArray>
        <DataArray type="Float32" Name="X_gTotalC" NumberOfComponents="1" format="ascii">
          0.988761 0.988778 0.988772 0.988772 0.988765 0.988765 0.988759 0.988759 0.988752 0.988752 0.988746 0.988746
          0.988739 0.988739 0.988733 0.988733 0.988726 0.988726 0.98872 0.98872 0.988713 0.988713 0.9887 0.988699
          0.988685 0.988685 0.988671 0.988671 0.988655 0.988655 0.988639 0.988639 0.988618 0.988618 0.988596 0.988596
          0.988574 0.988574 0.988551 0.988551 0.988527 0.988527 0.988502 0.988502 0.988478 0.988478 0.988452 0.988452
          0.988427 0.988427 0.988401 0.988401 0.988375 0.988375 0.988348 0.988348 0.988321 0.988321 0.988294 0.988294
          0.988266 0.988266 0.988238 0.988238 0.988208 0.988208 0.988178 0.988178 0.988146 0.988146 0.988113 0.988113
          0.988076 0.988076 0.988036 0.988036 0.987989 0.987989 0.98793 0.98793
        </DataArray>
        <DataArray type="Float32" Name="X_gNa" NumberOfComponents="1" format="ascii">
          0 0 0 0 0 0 0 0 0 0 0 0
          0 0 0 0 0 0 0 0 0 0 0 0
          0 0 0 0 0 0 0 0 0 0 0 0
          0 0 0 0 0 0 0 0 0 0 0 0
          0 0 0 0 0 0 0 0 0 0 0 0
          0 0 0 0 0 0 0 0 0 0 0 0
          0 0 0 0 0 0 0 0
        </DataArray>
        <DataArray type="Float32" Name="X_gCl" NumberOfComponents="1" format="ascii">
          0 0 0 0 0 0 0 0 0 0 0 0
          0 0 0 0 0 0 0 0 0 0 0 0
          0 0 0 0 0 0 0 0 0 0 0 0
          0 0 0 0 0 0 0 0 0 0 0 0
          0 0 0 0 0 0 0 0 0 0 0 0
          0 0 0 0 0 0 0 0 0 0 0 0
          0 0 0 0 0 0 0 0
        </DataArray>
        <DataArray type="Float32" Name="X_gCa" NumberOfComponents="1" format="ascii">
          0 0 0 0 0 0 0 0 0 0 0 0
          0 0 0 0 0 0 0 0 0 0 0 0
          0 0 0 0 0 0 0 0 0 0 0 0
          0 0 0 0 0 0 0 0 0 0 0 0
          0 0 0 0 0 0 0 0 0 0 0 0
          0 0 0 0 0 0 0 0 0 0 0 0
          0 0 0 0 0 0 0 0
        </DataArray>
        <DataArray type="Float32" Name="X_gUrea" NumberOfComponents="1" format="ascii">
          0 0 0 0 0 0 0 0 0 0 0 0
          0 0 0 0 0 0 0 0 0 0 0 0
          0 0 0 0 0 0 0 0 0 0 0 0
          0 0 0 0 0 0 0 0 0 0 0 0
          0 0 0 0 0 0 0 0 0 0 0 0
          0 0 0 0 0 0 0 0 0 0 0 0
          0 0 0 0 0 0 0 0
        </DataArray>
        <DataArray type="Float32" Name="X_gTotalNH" NumberOfComponents="1" format="ascii">
          0 0 0 0 0 0 0 0 0 0 0 0
          0 0 0 0 0 0 0 0 0 0 0 0
          0 0 0 0 0 0 0 0 0 0 0 0
          0 0 0 0 0 0 0 0 0 0 0 0
          0 0 0 0 0 0 0 0 0 0 0 0
          0 0 0 0 0 0 0 0 0 0 0 0
          0 0 0 0 0 0 0 0
        </DataArray>
        <DataArray type="Float32" Name="X_gO2" NumberOfComponents="1" format="ascii">
          0 0 0 0 0 0 0 0 0 0 0 0
          0 0 0 0 0 0 0 0 0 0 0 0
          0 0 0 0 0 0 0 0 0 0 0 0
          0 0 0 0 0 0 0 0 0 0 0 0
          0 0 0 0 0 0 0 0 0 0 0 0
          0 0 0 0 0 0 0 0 0 0 0 0
          0 0 0 0 0 0 0 0
        </DataArray>
        <DataArray type="Float32" Name="X_gSubstrate" NumberOfComponents="1" format="ascii">
          0 0 0 0 0 0 0 0 0 0 0 0
          0 0 0 0 0 0 0 0 0 0 0 0
          0 0 0 0 0 0 0 0 0 0 0 0
          0 0 0 0 0 0 0 0 0 0 0 0
          0 0 0 0 0 0 0 0 0 0 0 0
          0 0 0 0 0 0 0 0 0 0 0 0
          0 0 0 0 0 0 0 0
        </DataArray>
        <DataArray type="Float32" Name="X_gSuspended_Biomass" NumberOfComponents="1" format="ascii">
          0 0 0 0 0 0 0 0 0 0 0 0
          0 0 0 0 0 0 0 0 0 0 0 0
          0 0 0 0 0 0 0 0 0 0 0 0
          0 0 0 0 0 0 0 0 0 0 0 0
          0 0 0 0 0 0 0 0 0 0 0 0
          0 0 0 0 0 0 0 0 0 0 0 0
          0 0 0 0 0 0 0 0
        </DataArray>
        <DataArray type="Float32" Name="X_gNH4" NumberOfComponents="1" format="ascii">
          0 0 0 0 0 0 0 0 0 0 0 0
          0 0 0 0 0 0 0 0 0 0 0 0
          0 0 0 0 0 0 0 0 0 0 0 0
          0 0 0 0 0 0 0 0 0 0 0 0
          0 0 0 0 0 0 0 0 0 0 0 0
          0 0 0 0 0 0 0 0 0 0 0 0
          0 0 0 0 0 0 0 0
        </DataArray>
        <DataArray type="Float32" Name="X_gHCO3" NumberOfComponents="1" format="ascii">
          0 0 0 0 0 0 0 0 0 0 0 0
          0 0 0 0 0 0 0 0 0 0 0 0
          0 0 0 0 0 0 0 0 0 0 0 0
          0 0 0 0 0 0 0 0 0 0 0 0
          0 0 0 0 0 0 0 0 0 0 0 0
          0 0 0 0 0 0 0 0 0 0 0 0
          0 0 0 0 0 0 0 0
        </DataArray>
        <DataArray type="Float32" Name="X_gCO3" NumberOfComponents="1" format="ascii">
          0 0 0 0 0 0 0 0 0 0 0 0
          0 0 0 0 0 0 0 0 0 0 0 0
          0 0 0 0 0 0 0 0 0 0 0 0
          0 0 0 0 0 0 0 0 0 0 0 0
          0 0 0 0 0 0 0 0 0 0 0 0
          0 0 0 0 0 0 0 0 0 0 0 0
          0 0 0 0 0 0 0 0
        </DataArray>
        <DataArray type="Float32" Name="X_gCO2" NumberOfComponents="1" format="ascii">
          0.988761 0.988778 0.988772 0.988772 0.988765 0.988765 0.988759 0.988759 0.988752 0.988752 0.988746 0.988746
          0.988739 0.988739 0.988733 0.988733 0.988726 0.988726 0.98872 0.98872 0.988713 0.988713 0.9887 0.988699
          0.988685 0.988685 0.988671 0.988671 0.988655 0.988655 0.988639 0.988639 0.988618 0.988618 0.988596 0.988596
          0.988574 0.988574 0.988551 0.988551 0.988527 0.988527 0.988502 0.988502 0.988478 0.988478 0.988452 0.988452
          0.988427 0.988427 0.988401 0.988401 0.988375 0.988375 0.988348 0.988348 0.988321 0.988321 0.988294 0.988294
          0.988266 0.988266 0.988238 0.988238 0.988208 0.988208 0.988178 0.988178 0.988146 0.988146 0.988113 0.988113
          0.988076 0.988076 0.988036 0.988036 0.987989 0.987989 0.98793 0.98793
        </DataArray>
        <DataArray type="Float32" Name="X_gH" NumberOfComponents="1" format="ascii">
          0 0 0 0 0 0 0 0 0 0 0 0
          0 0 0 0 0 0 0 0 0 0 0 0
          0 0 0 0 0 0 0 0 0 0 0 0
          0 0 0 0 0 0 0 0 0 0 0 0
          0 0 0 0 0 0 0 0 0 0 0 0
          0 0 0 0 0 0 0 0 0 0 0 0
          0 0 0 0 0 0 0 0
        </DataArray>
        <DataArray type="Float32" Name="X_gOH" NumberOfComponents="1" format="ascii">
          0 0 0 0 0 0 0 0 0 0 0 0
          0 0 0 0 0 0 0 0 0 0 0 0
          0 0 0 0 0 0 0 0 0 0 0 0
          0 0 0 0 0 0 0 0 0 0 0 0
          0 0 0 0 0 0 0 0 0 0 0 0
          0 0 0 0 0 0 0 0 0 0 0 0
          0 0 0 0 0 0 0 0
        </DataArray>
        <DataArray type="Float32" Name="Molarity_Brine" NumberOfComponents="1" format="ascii">
          54637.7 54641.3 54598.5 54598.5 54566 54565.9 54526.6 54526.5 54483.8 54483.4 54446 54445.7
          54408 54407.5 54364.2 54365 54320.9 54321.3 54282.1 54282.7 54239.5 54240.6 54167.9 54168.8
          54099.1 54100 54036.8 54037.9 53981.9 53982.9 53933.1 53933.8 53882.7 53882.7 53843.5 53843.5
          53811.5 53811.7 53786.8 53786.9 53767.7 53767.7 53754.2 53754.5 53745.3 53745.4 53739.5 53739.2
          53736.3 53736.5 53736 53735.9 53739.8 53739.7 53744.9 53745 53752.7 53752.4 53763.7 53765
          53783.3 53783.2 53807.9 53808 53842.1 53842 53888.4 53888.3 53953.3 53953.3 54044.1 54044.1
          54171 54171 54351.3 54351.3 54617.9 54617.9 55049.2 55049.2
        </DataArray>
        <DataArray type="Float32" Name="Molarity_TotalC" NumberOfComponents="1" format="ascii">
          2.878 2.87867 2.86183 2.86387 2.84822 2.84728 2.83046 2.8311 2.80618 2.80585 2.7821 2.78201
          2.75922 2.75891 2.73232 2.73325 2.70207 2.70195 2.6749 2.67707 2.64136 2.64272 2.58197 2.58267
          2.52497 2.52436 2.47299 2.47602 2.42284 2.4245 2.38213 2.38262 2.33781 2.33813 2.33123 2.33025
          2.29359 2.297 2.26328 2.26425 2.22774 2.22708 2.20466 2.20921 2.18948 2.19127 2.17071 2.16579
          2.14707 2.14992 2.12501 2.12518 2.12692 2.12712 2.10472 2.10576 2.06629 2.06839 2.01619 2.04012
          2.01489 2.00591 1.9686 1.96705 1.91136 1.90958 1.8283 1.82785 1.72963 1.73343 1.61105 1.6108
          1.45161 1.4514 1.25355 1.25342 1.05003 1.04999 0.0132254 0.0132254
        </DataArray>
        <DataArray type="Float32" Name="Molarity_Na" NumberOfComponents="1" format="ascii">
          0.130339 0.130838 0.124911 0.124909 0.120413 0.120403 0.114964 0.114954 0.109074 0.109026 0.103877 0.103841
          0.0986594 0.0986026 0.0926648 0.0927737 0.086752 0.0868037 0.0814712 0.0815436 0.0756869 0.075839 0.0660211 0.0661356
          0.0567728 0.0569048 0.0484395 0.0485842 0.0411517 0.0412787 0.0346921 0.0347838 0.0280427 0.0280384 0.0227055 0.0227116
          0.0185666 0.0185755 0.0154038 0.0154027 0.0130452 0.0130458 0.0113659 0.0113642 0.0102432 0.0102369 0.00956476 0.00956506
          0.00928223 0.0092812 0.00935282 0.00934819 0.00975863 0.00975136 0.0105235 0.0105256 0.0117456 0.0116949 0.013451 0.0134102
          0.0157988 0.0158576 0.0190973 0.0191255 0.0236272 0.0236368 0.0298283 0.0298158 0.0383544 0.0383253 0.0501047 0.0501063
          0.0663915 0.0663941 0.0890353 0.0890362 0.120587 0.120587 0.1633 0.1633
        </DataArray>
        <DataArray type="Float32" Name="Molarity_Cl" NumberOfComponents="1" format="ascii">
          331.875 329.685 355.729 355.739 375.494 375.537 399.439 399.48 425.314 425.527 448.147 448.303
          471.068 471.318 497.402 496.924 523.374 523.147 546.569 546.251 571.971 571.304 614.414 613.912
          655.02 654.439 691.602 690.968 723.587 723.03 751.937 751.534 781.114 781.133 804.555 804.528
          822.704 822.668 836.57 836.576 846.896 846.893 854.248 854.26 859.163 859.192 862.121 862.114
          863.333 863.34 862.994 863.014 861.206 861.238 857.811 857.803 852.385 852.611 844.817 845.025
          834.476 834.207 819.897 819.771 799.88 799.836 772.47 772.525 734.802 734.935 682.911 682.904
          611 610.989 511.088 511.083 372.128 372.127 185.193 185.193
        </DataArray>
        <DataArray type="Float32" Name="Molarity_Ca" NumberOfComponents="1" format="ascii">
          7.22278 7.15734 8.03559 8.02163 8.7149 8.72347 9.5575 9.55416 10.5295 10.5393 11.4306 11.4371
          12.345 12.3561 13.4278 13.4037 14.5686 14.5631 15.6202 15.5853 16.8565 16.8183 19.0696 19.0442
          21.3227 21.3125 23.4828 23.4089 25.5619 25.5119 27.4225 27.398 29.4751 29.4695 30.5062 30.5286
          32.0948 32.0117 33.3919 33.3684 34.7293 34.7467 35.644 35.5202 36.2576 36.2101 36.9007 37.0428
          37.6276 37.5435 38.2533 38.2485 38.1031 38.1003 38.612 38.5793 39.551 39.4918 40.7914 40.0339
          40.3426 40.6198 41.1561 41.2017 42.0956 42.1542 43.5951 43.6096 45.1381 45.0047 46.5946 46.6054
          48.2254 48.2322 48.5894 48.5942 41.9018 41.9022 0 0
        </DataArray>
        <DataArray type="Float32" Name="Molarity_Urea" NumberOfComponents="1" format="ascii">
          2.72974 2.688 3.2933 3.27719 3.76628 3.77532 4.36022 4.35578 5.06859 5.07633 5.73968 5.74454
          6.42198 6.43066 7.23869 7.21896 8.12078 8.11799 8.9416 8.90801 9.92885 9.89671 11.7293 11.7087
          13.5878 13.5847 15.3932 15.3233 17.167 17.1215 18.7534 18.7329 20.5266 20.5205 21.3047 21.3284
          22.7303 22.6442 23.905 23.8805 25.1649 25.1829 26.0229 25.8945 26.5994 26.5499 27.231 27.3782
          27.971 27.884 28.6257 28.6205 28.4969 28.4935 29.0691 29.0355 30.1106 30.0466 31.4886 30.705
          31.1595 31.4487 32.1843 32.2329 33.4059 33.4668 35.2944 35.3087 37.3546 37.216 39.5044 39.5155
          42.0892 42.0963 43.7536 43.7585 38.8017 38.8023 0 0
        </DataArray>
        <DataArray type="Float32" Name="Molarity_TotalNH" NumberOfComponents="1" format="ascii">
          323.159 321.101 345.354 345.396 363.734 363.758 385.957 386.007 409.841 410.033 430.823 430.966
          451.869 452.096 475.984 475.556 499.613 499.397 520.65 520.407 543.513 542.924 581.411 580.961
          617.396 616.835 649.554 649.074 677.28 676.827 701.827 701.475 726.811 726.841 748.176 748.102
          763.073 763.21 774.284 774.338 781.864 781.825 787.341 787.609 790.997 791.125 792.632 792.331
          792.343 792.524 790.708 790.738 789.224 789.262 784.768 784.827 777.387 777.735 767.238 769.008
          757.792 756.951 741.493 741.272 719.482 719.317 688.908 688.933 647.956 648.364 592.916 592.886
          517.424 517.399 416.388 416.374 290.397 290.395 185.193 185.193
        </DataArray>
        <DataArray type="Float32" Name="Molarity_O2" NumberOfComponents="1" format="ascii">
          -0.00196955 -0.00195367 -0.00205477 -0.00212892 -0.00215392 -0.00212652 -0.00220945 -0.00221182 -0.00199636 -0.00193862 -0.000226597 -0.00024428
          -1.24863e-05 -3.8251e-06 -1.73921e-07 -2.99115e-07 -5.07252e-08 -7.25453e-09 -1.92883e-09 -1.60852e-09 -5.30224e-11 -4.95734e-11 -4.37646e-13 -5.1391e-13
          -5.31758e-13 -5.7258e-13 -5.74769e-11 -3.12055e-11 -1.8455e-09 -3.93341e-09 -2.38212e-07 -5.24275e-08 -1.28035e-05 -1.59222e-05 -0.000668981 -0.000654726
          -0.000688255 -0.000721401 -0.000713424 -0.000720254 -0.00062883 -0.000618396 -0.000664777 -0.000701014 -0.000696623 -0.000692541 -0.00067847 -0.000680605
          -0.000661716 -0.000660063 -0.000640787 -0.000640555 -0.000573226 -0.000573441 -0.000546992 -0.000542825 -0.000556388 -0.000553968 -0.000536936 -0.000523305
          -0.000463679 -0.000484099 -0.000437003 -0.000439868 -0.000401766 -0.000404048 -0.000366114 -0.000366196 -0.000289555 -0.000291394 -0.000183622 -0.000182868
          -6.41315e-06 -6.56922e-06 -1.08473e-07 -9.20071e-08 -3.54003e-10 -1.58459e-09 0 0
        </DataArray>
        <DataArray type="Float32" Name="Molarity_Substrate" NumberOfComponents="1" format="ascii">
          16.5411 16.5396 16.5576 16.5575 16.5712 16.5712 16.5877 16.5877 16.6055 16.6057 16.6218 16.6219
          16.6375 16.6377 16.6555 16.6552 16.6731 16.673 16.6888 16.6886 16.7059 16.7055 16.7343 16.7339
          16.7611 16.7607 16.7848 16.7844 16.805 16.8046 16.8223 16.8221 16.839 16.839 16.851 16.8509
          16.8575 16.8576 16.8593 16.8593 16.8557 16.8558 16.8465 16.8466 16.8308 16.8306 16.8062 16.8059
          16.7704 16.7707 16.7197 16.7204 16.651 16.6517 16.5551 16.5548 16.4183 16.4238 16.2353 16.2401
          15.9876 15.9812 15.6384 15.6354 15.1562 15.1551 14.4916 14.4929 13.5726 13.5758 12.3002 12.3
          10.5305 10.5302 8.06509 8.06498 4.62996 4.62995 0 0
        </DataArray>
        <DataArray type="Float32" Name="Molarity_Suspended_Biomass" NumberOfComponents="1" format="ascii">
          9.61991e-05 9.49469e-05 0.000110079 0.000110139 0.000109307 0.000109358 0.000109205 0.000109903 0.000115677 0.000114548 0.000116824 0.000118251
          0.000120352 0.000120256 0.000119816 0.000120575 0.00011682 0.000113721 0.000119876 0.00012089 0.000110647 0.000114677 0.000129126 0.000120257
          0.000140591 0.000137769 0.000138735 0.000137461 0.00013975 0.000139036 0.000129955 0.000134949 0.000142274 0.000143395 0.000146536 0.000146381
          0.000147347 0.000148094 0.000148818 0.000149102 0.000149646 0.000149686 0.000150765 0.000150744 0.000150698 0.000151594 0.00015291 0.000153138
          0.000153907 0.000153917 0.000155025 0.000155001 0.000159574 0.000157094 0.000162758 0.00016271 0.000165194 0.000164419 0.00016676 0.00016672
          0.000168577 0.000168307 0.000166982 0.000166753 0.00016472 0.000164685 0.000160428 0.000160245 0.000152464 0.000152424 0.000140168 0.000140077
          0.000121169 0.000121106 9.35625e-05 9.35342e-05 5.41109e-05 5.41026e-05 0 0
        </DataArray>
        <DataArray type="Float32" Name="Molarity_NH4" NumberOfComponents="1" format="ascii">
          319.929 317.87 342.134 342.174 360.522 360.547 382.758 382.807 406.66 406.853 427.663 427.806
          448.729 448.956 472.866 472.437 496.523 496.307 517.585 517.34 540.48 539.89 578.437 577.985
          614.478 613.918 646.689 646.206 674.468 674.013 699.058 698.705 724.088 724.118 745.46 745.387
          760.398 760.531 771.642 771.695 779.261 779.222 784.763 785.027 788.436 788.562 790.091 789.796
          789.828 790.007 788.218 788.249 786.732 786.77 782.301 782.359 774.963 775.309 764.87 766.613
          755.425 754.594 739.177 738.959 717.231 717.068 686.749 686.774 645.907 646.311 591 590.97
          515.686 515.661 414.87 414.856 289.103 289.102 185.037 185.037
        </DataArray>
        <DataArray type="Float32" Name="Molarity_HCO3" NumberOfComponents="1" format="ascii">
          2.61824 2.62007 2.59028 2.59222 2.56725 2.56632 2.53852 2.53911 2.50317 2.50276 2.46989 2.46974
          2.4381 2.4377 2.40148 2.40255 2.36236 2.36234 2.32769 2.32985 2.28665 2.28817 2.21598 2.21681
          2.14936 2.149 2.0897 2.09268 2.03397 2.03565 1.98851 1.98907 1.94004 1.94033 1.9275 1.92663
          1.88877 1.89183 1.85795 1.85882 1.82355 1.82296 1.80109 1.80513 1.78632 1.78791 1.7689 1.76453
          1.74761 1.75013 1.72812 1.72827 1.73022 1.73039 1.71138 1.7123 1.67871 1.68049 1.63626 1.65735
          1.6376 1.62973 1.60024 1.5989 1.55455 1.55299 1.48789 1.48748 1.40994 1.41327 1.31786 1.31765
          1.19445 1.19427 1.04315 1.04303 0.894211 0.894168 0.00553194 0.00553194
        </DataArray>
        <DataArray type="Float32" Name="Molarity_CO3" NumberOfComponents="1" format="ascii">
          0.00333312 0.00335063 0.00314464 0.00314773 0.00300374 0.0030021 0.00284762 0.00284834 0.00268972 0.00268834 0.0025603 0.0025596
          0.00244313 0.00244185 0.00231952 0.0023222 0.00220424 0.00220479 0.00210929 0.00211255 0.00200918 0.00201225 0.00185485 0.00185662
          0.00172347 0.00172393 0.00161611 0.00161983 0.001526 0.00152823 0.00145476 0.00145568 0.00138414 0.00138439 0.0013527 0.00135199
          0.00130495 0.00130757 0.00126854 0.00126927 0.00123266 0.00123219 0.00120911 0.00121237 0.0011937 0.00119497 0.00117759 0.00117412
          0.00115969 0.00116169 0.00114426 0.00114437 0.00114689 0.00114702 0.00113399 0.00113471 0.00111151 0.00111274 0.00108259 0.00109916
          0.00109007 0.00108398 0.00106955 0.00106857 0.00104585 0.00104462 0.00101001 0.0010096 0.000971332 0.000973999 0.000930264 0.000930101
          0.000876426 0.000876264 0.000818293 0.000818177 0.000793005 0.000792946 4.26535e-07 4.26535e-07
        </DataArray>
        <DataArray type="Float32" Name="Molarity_CO2" NumberOfComponents="1" format="ascii">
          0.256465 0.255293 0.268441 0.268539 0.278012 0.277988 0.289129 0.28918 0.300362 0.300443 0.309687 0.30975
          0.31871 0.318801 0.32856 0.328411 0.337538 0.337436 0.345131 0.345148 0.352739 0.352576 0.364172 0.364038
          0.373917 0.373669 0.381703 0.381755 0.387377 0.38735 0.392196 0.392121 0.396416 0.396451 0.40241 0.402301
          0.403551 0.403892 0.404091 0.404193 0.40299 0.402917 0.402389 0.402891 0.401988 0.402191 0.400668 0.400112
          0.398332 0.398658 0.395774 0.395798 0.395581 0.395612 0.392236 0.392354 0.386503 0.386807 0.378881 0.381699
          0.376225 0.375122 0.367316 0.367105 0.355787 0.35557 0.339417 0.339387 0.318733 0.319205 0.292277 0.292244
          0.256301 0.256276 0.209601 0.209587 0.155043 0.15504 0.00769319 0.00769319
        </DataArray>
        <DataArray type="Float32" Name="Molarity_H" NumberOfComponents="1" format="ascii">
          5.13772e-05 5.10697e-05 5.48327e-05 5.48034e-05 5.76939e-05 5.77147e-05 6.11754e-05 6.117e-05 6.5025e-05 6.5059e-05 6.84804e-05 6.85026e-05
          7.19367e-05 7.19755e-05 7.59361e-05 7.58536e-05 7.99845e-05 7.99577e-05 8.36293e-05 8.35352e-05 8.77476e-05 8.76262e-05 9.48237e-05 9.47387e-05
          0.000101742 0.000101686 0.000108126 0.000107943 0.000113988 0.000113856 0.000119153 0.000119082 0.000124665 0.000124655 0.000127971 0.000128008
          0.00013191 0.000131758 0.000135044 0.000135 0.000138008 0.000138037 0.000140057 0.000139844 0.000141433 0.000141351 0.000142736 0.000142974
          0.000144061 0.000143921 0.00014512 0.000145114 0.000144789 0.000144784 0.00014545 0.000145397 0.000146671 0.000146595 0.000148239 0.000147007
          0.000146843 0.000147279 0.000147203 0.000147267 0.000147337 0.000147428 0.00014773 0.000147766 0.000147292 0.000147092 0.000145349 0.000145362
          0.000141555 0.000141566 0.000132889 0.000132897 0.000112163 0.000112167 0.000628379 0.000628379
        </DataArray>
        <DataArray type="Float32" Name="Molarity_OH" NumberOfComponents="1" format="ascii">
          0.000190955 0.000192115 0.000178814 0.00017891 0.000169861 0.0001698 0.000160098 0.000160112 0.00015052 0.000150441 0.000142841 0.000142794
          0.000135898 0.000135823 0.000128652 0.000128794 0.000122057 0.000122098 0.000116665 0.000116798 0.000111114 0.00011127 0.000102702 0.000102796
          9.56106e-05 9.56645e-05 8.98721e-05 9.00269e-05 8.51717e-05 8.52719e-05 8.14124e-05 8.14618e-05 7.77451e-05 7.77519e-05 7.56897e-05 7.56678e-05
          7.33876e-05 7.34729e-05 7.16522e-05 7.16753e-05 7.00868e-05 7.00717e-05 6.90432e-05 6.91492e-05 6.83598e-05 6.83999e-05 6.77269e-05 6.76127e-05
          6.70971e-05 6.71629e-05 6.66042e-05 6.6607e-05 6.67614e-05 6.67638e-05 6.64611e-05 6.64857e-05 6.5911e-05 6.5945e-05 6.52186e-05 6.57705e-05
          6.58618e-05 6.56654e-05 6.57224e-05 6.56936e-05 6.56937e-05 6.56529e-05 6.55594e-05 6.55434e-05 6.58148e-05 6.59051e-05 6.67843e-05 6.67783e-05
          6.87053e-05 6.86998e-05 7.33957e-05 7.33913e-05 8.73779e-05 8.73752e-05 1.57575e-05 1.57575e-05
        </DataArray>
        <DataArray type="Float32" Name="Da_ureolysis" NumberOfComponents="1" format="ascii">
          0 0 0 0 0 0 0 0 0 0 0 0
          0 0 0 0 0 0 0 0 0 0 0 0
          0 0 0 0 0 0 0 0 0 0 0 0
          0 0 0 0 0 0 0 0 0 0 0 0
          0 0 0 0 0 0 0 0 0 0 0 0
          0 0 0 0 0 0 0 0 0 0 0 0
          0 0 0 0 0 0 0 0
        </DataArray>
        <DataArray type="Float32" Name="Da_precipitation" NumberOfComponents="1" format="ascii">
          270.761 256.056 2372.06 3418.88 3763.51 3354.88 6737.89 8531.84 6659.43 4690.09 22258.8 28727.9
          5853.6 5699.92 12663.8 11489.3 4461.06 11931.1 23160.2 5035.49 434.924 399.355 4433.45 28540.5
          2770.8 5913.95 2635.2 5376.76 3131.2 6545.23 2320.98 1888.02 2081.25 2235.37 3160.42 3278.27
          3288.51 3464.75 4094.56 4276.26 4055.89 4201.44 5055.99 5419.11 6713.4 6784.99 6875.07 6477.51
          7634.39 7573.13 5260.41 5290.16 9785.12 9608.4 7258.42 7158.09 4643.11 5273.33 2903.33 3556.3
          3386.36 3926.01 2374.18 2428.69 1840.62 1830.8 1211.26 1197.47 830.403 829.436 549.72 549.762
          320.938 320.861 154.889 154.861 47.6581 47.6466 0 0
        </DataArray>
        <DataArray type="Float32" Name="Vx" NumberOfComponents="1" format="ascii">
          9.30924e-09 9.32828e-09 -7.64473e-10 -7.60851e-10 -4.25965e-09 -4.26372e-09 -2.25507e-09 -2.2522e-09 -8.47834e-10 -8.46787e-10 1.62164e-09 1.62076e-09
          4.4845e-09 4.49074e-09 4.31606e-09 4.32782e-09 2.73125e-09 2.73932e-09 2.84482e-09 2.85234e-09 1.71034e-09 1.71528e-09 2.03478e-10 2.04949e-10
          4.33265e-10 4.34106e-10 -2.0562e-10 -2.06309e-10 -1.79346e-09 -1.79774e-09 -2.8404e-09 -2.84594e-09 -1.81707e-09 -1.81985e-09 4.27601e-11 4.26058e-11
          4.67048e-11 4.67332e-11 -3.22855e-10 -3.22927e-10 2.19017e-10 2.19028e-10 -3.97544e-11 -3.98451e-11 -7.38729e-10 -7.3898e-10 5.94694e-11 5.93697e-11
          3.61834e-10 3.6187e-10 -1.66354e-10 -1.66368e-10 -4.18882e-11 -4.18988e-11 2.10104e-10 2.10006e-10 1.79372e-09 1.79338e-09 3.9384e-10 3.93971e-10
          -1.59054e-09 -1.59023e-09 -6.0247e-10 -6.02569e-10 -4.04158e-10 -4.04206e-10 3.92172e-11 3.91864e-11 2.35368e-10 2.3534e-10 3.01639e-11 3.01568e-11
          -2.51932e-12 -2.51835e-12 -9.35576e-12 -9.35599e-12 -1.21569e-12 -1.21591e-12 2.104e-12 2.10402e-12
        </DataArray>
        <DataArray type="Float32" Name="Vy" NumberOfComponents="1" format="ascii">
          1.64387e-07 1.72904e-07 -2.02362e-08 -1.40163e-08 1.27309e-08 1.44556e-08 7.57895e-09 5.8258e-09 -8.37834e-09 -1.19371e-08 2.05873e-09 -1.22664e-09
          9.2881e-09 9.6017e-09 -2.39272e-09 3.29258e-09 -1.41869e-08 -4.65732e-09 1.98184e-10 1.28021e-08 1.55651e-07 1.6951e-07 -1.58168e-08 -2.44984e-09
          -2.60087e-08 -1.21793e-08 -2.79184e-08 -1.36867e-08 -2.37754e-08 -1.12712e-08 3.2402e-08 3.98897e-08 -3.65641e-08 -3.40526e-08 -2.42684e-08 -2.34031e-08
          -2.33928e-08 -2.22164e-08 -1.88114e-08 -1.80205e-08 -1.89832e-08 -1.83237e-08 -1.51998e-08 -1.41926e-08 -1.14079e-08 -1.12947e-08 -1.11275e-08 -1.18057e-08
          -9.97642e-09 -1.00599e-08 -1.44137e-08 -1.43329e-08 -7.73183e-09 -7.8769e-09 -1.03613e-08 -1.0506e-08 -1.59524e-08 -1.40219e-08 -2.53097e-08 -2.07799e-08
          -2.15512e-08 -1.85269e-08 -3.03239e-08 -2.96327e-08 -3.82781e-08 -3.84652e-08 -5.62247e-08 -5.68343e-08 -7.80564e-08 -7.83108e-08 -1.09698e-07 -1.09684e-07
          -1.65969e-07 -1.6595e-07 -2.73983e-07 -2.73973e-07 -5.37023e-07 -5.37025e-07 2.9769e-06 2.9769e-06
        </DataArray>
      </PointData>
      <CellData Scalars="process rank">
        <DataArray type="Float32" Name="process rank" NumberOfComponents="1" format="ascii">
          0 0 0 0 0 0 0 0 0 0 0 0
          0 0 0 0 0 0 0 0 0 0 0 0
          0 0 0 0 0 0 0 0 0 0 0 0
          0 0 0
        </DataArray>
      </CellData>
      <Points>
        <DataArray type="Float32" Name="Coordinates" NumberOfComponents="3" format="ascii">
          0 0 0 0.0254 0 0 0 0.01 0 0.0254 0.01 0
          0 0.02 0 0.0254 0.02 0 0 0.03 0 0.0254 0.03 0
          0 0.04 0 0.0254 0.04 0 0 0.05 0 0.0254 0.05 0
          0 0.06 0 0.0254 0.06 0 0 0.07 0 0.0254 0.07 0
          0 0.08 0 0.0254 0.08 0 0 0.09 0 0.0254 0.09 0
          0 0.1 0 0.0254 0.1 0 0 0.12 0 0.0254 0.12 0
          0 0.14 0 0.0254 0.14 0 0 0.16 0 0.0254 0.16 0
          0 0.18 0 0.0254 0.18 0 0 0.2 0 0.0254 0.2 0
          0 0.225 0 0.0254 0.225 0 0 0.25 0 0.0254 0.25 0
          0 0.275 0 0.0254 0.275 0 0 0.3 0 0.0254 0.3 0
          0 0.325 0 0.0254 0.325 0 0 0.35 0 0.0254 0.35 0
          0 0.375 0 0.0254 0.375 0 0 0.4 0 0.0254 0.4 0
          0 0.425 0 0.0254 0.425 0 0 0.45 0 0.0254 0.45 0
          0 0.475 0 0.0254 0.475 0 0 0.5 0 0.0254 0.5 0
          0 0.525 0 0.0254 0.525 0 0 0.55 0 0.0254 0.55 0
          0 0.575 0 0.0254 0.575 0 0 0.6 0 0.0254 0.6 0
          0 0.625 0 0.0254 0.625 0 0 0.65 0 0.0254 0.65 0
          0 0.675 0 0.0254 0.675 0 0 0.7 0 0.0254 0.7 0
          0 0.725 0 0.0254 0.725 0 0 0.75 0 0.0254 0.75 0
          0 0.775 0 0.0254 0.775 0 0 0.8 0 0.0254 0.8 0
        </DataArray>
      </Points>
      <Cells>
        <DataArray type="Int32" Name="connectivity" NumberOfComponents="1" format="ascii">
          0 1 3 2 2 3 5 4 4 5 7 6
          6 7 9 8 8 9 11 10 10 11 13 12
          12 13 15 14 14 15 17 16 16 17 19 18
          18 19 21 20 20 21 23 22 22 23 25 24
          24 25 27 26 26 27 29 28 28 29 31 30
          30 31 33 32 32 33 35 34 34 35 37 36
          36 37 39 38 38 39 41 40 40 41 43 42
          42 43 45 44 44 45 47 46 46 47 49 48
          48 49 51 50 50 51 53 52 52 53 55 54
          54 55 57 56 56 57 59 58 58 59 61 60
          60 61 63 62 62 63 65 64 64 65 67 66
          66 67 69 68 68 69 71 70 70 71 73 72
          72 73 75 74 74 75 77 76 76 77 79 78
        </DataArray>
        <DataArray type="Int32" Name="offsets" NumberOfComponents="1" format="ascii">
          4 8 12 16 20 24 28 32 36 40 44 48
          52 56 60 64 68 72 76 80 84 88 92 96
          100 104 108 112 116 120 124 128 132 136 140 144
          148 152 156
        </DataArray>
        <DataArray type="UInt8" Name="types" NumberOfComponents="1" format="ascii">
          9 9 9 9 9 9 9 9 9 9 9 9
          9 9 9 9 9 9 9 9 9 9 9 9
          9 9 9 9 9 9 9 9 9 9 9 9
          9 9 9
        </DataArray>
      </Cells>
    </Piece>
  </UnstructuredGrid>
</VTKFile>
