<?xml version="1.0"?>
<VTKFile type="UnstructuredGrid" version="0.1" byte_order="LittleEndian">
  <UnstructuredGrid>
    <Piece NumberOfCells="39" NumberOfPoints="80">
      <PointData Scalars="Sg">
        <DataArray type="Float32" Name="Sg" NumberOfComponents="1" format="ascii">
          0 0 0 0 0 0 0 0 0 0 0 0
          0 0 0 0 0 0 0 0 0 0 0 0
          0 0 0 0 0 0 0 0 0 0 0 0
          0 0 0 0 0 0 0 0 0 0 0 0
          0 0 0 0 0 0 0 0 0 0 0 0
          0 0 0 0 0 0 0 0 0 0 0 0
          0 0 0 0 0 0 0 0
        </DataArray>
        <DataArray type="Float32" Name="Sl" NumberOfComponents="1" format="ascii">
          1 1 1 1 1 1 1 1 1 1 1 1
          1 1 1 1 1 1 1 1 1 1 1 1
          1 1 1 1 1 1 1 1 1 1 1 1
          1 1 1 1 1 1 1 1 1 1 1 1
          1 1 1 1 1 1 1 1 1 1 1 1
          1 1 1 1 1 1 1 1 1 1 1 1
          1 1 1 1 1 1 1 1
        </DataArray>
        <DataArray type="Float32" Name="pg" NumberOfComponents="1" format="ascii">
          117624 117624 117526 117526 117427 117427 117328 117328 117229 117229 117131 117131
          117032 117032 116933 116933 116834 116834 116735 116735 116636 116636 116437 116437
          116239 116239 116040 116040 115842 115842 115643 115643 115394 115394 115145 115145
          114896 114896 114646 114646 114397 114397 114148 114148 113898 113898 113649 113649
          113399 113399 113149 113149 112900 112900 112650 112650 112401 112401 112151 112151
          111902 111902 111652 111652 111403 111403 111154 111154 110905 110905 110656 110656
          110408 110408 110160 110160 109913 109913 109667 109667
        </DataArray>
        <DataArray type="Float32" Name="pl" NumberOfComponents="1" format="ascii">
          107957 107957 107859 107859 107760 107760 107661 107661 107563 107563 107464 107464
          107365 107365 107266 107266 107167 107167 107068 107068 106969 106969 106771 106771
          106572 106572 106374 106374 106175 106175 105976 105976 105727 105727 105478 105478
          105229 105229 104980 104980 104730 104730 104481 104481 104231 104231 103982 103982
          103732 103732 103483 103483 103233 103233 102984 102984 102734 102734 102485 102485
          102235 102235 101986 101986 101736 101736 101487 101487 101238 101238 100990 100990
          100741 100741 100493 100493 100246 100246 100000 100000
        </DataArray>
        <DataArray type="Float32" Name="pc" NumberOfComponents="1" format="ascii">
          9666.67 9666.67 9666.67 9666.67 9666.67 9666.67 9666.67 9666.67 9666.67 9666.67 9666.67 9666.67
          9666.67 9666.67 9666.67 9666.67 9666.67 9666.67 9666.67 9666.67 9666.67 9666.67 9666.67 9666.67
          9666.67 9666.67 9666.67 9666.67 9666.67 9666.67 9666.67 9666.67 9666.67 9666.67 9666.67 9666.67
          9666.67 9666.67 9666.67 9666.67 9666.67 9666.67 9666.67 9666.67 9666.67 9666.67 9666.67 9666.67
          9666.67 9666.67 9666.67 9666.67 9666.67 9666.67 9666.67 9666.67 9666.67 9666.67 9666.67 9666.67
          9666.67 9666.67 9666.67 9666.67 9666.67 9666.67 9666.67 9666.67 9666.67 9666.67 9666.67 9666.67
          9666.67 9666.67 9666.67 9666.67 9666.67 9666.67 9666.67 9666.67
        </DataArray>
        <DataArray type="Float32" Name="rhoL" NumberOfComponents="1" format="ascii">
          1005.15 1005.13 1005.58 1005.58 1006.05 1006.05 1006.55 1006.55 1007.05 1007.04 1007.57 1007.57
          1008.1 1008.09 1008.62 1008.61 1009.14 1009.13 1009.66 1009.65 1010.17 1010.17 1011.12 1011.11
          1012.01 1012 1012.83 1012.83 1013.59 1013.59 1014.27 1014.27 1015 1015 1015.62 1015.62
          1016.13 1016.13 1016.55 1016.55 1016.89 1016.89 1017.15 1017.15 1017.35 1017.35 1017.49 1017.49
          1017.58 1017.57 1017.61 1017.61 1017.61 1017.61 1017.55 1017.55 1017.44 1017.44 1017.27 1017.27
          1017.02 1017.02 1016.67 1016.67 1016.2 1016.2 1015.56 1015.56 1014.69 1014.69 1013.51 1013.51
          1011.88 1011.88 1009.63 1009.62 1006.44 1006.44 1001.45 1001.45
        </DataArray>
        <DataArray type="Float32" Name="rhoG" NumberOfComponents="1" format="ascii">
          2.06906 2.06911 2.06733 2.06733 2.06555 2.06555 2.06377 2.06377 2.06199 2.06199 2.06021 2.06021
          2.05842 2.05842 2.05664 2.05664 2.05486 2.05486 2.05307 2.05307 2.05128 2.05128 2.04771 2.04771
          2.04412 2.04412 2.04054 2.04054 2.03695 2.03695 2.03336 2.03336 2.02886 2.02886 2.02436 2.02436
          2.01986 2.01986 2.01535 2.01535 2.01083 2.01083 2.00632 2.00632 2.0018 2.0018 1.99729 1.99729
          1.99277 1.99277 1.98825 1.98825 1.98373 1.98373 1.9792 1.9792 1.97468 1.97468 1.97016 1.97016
          1.96564 1.96564 1.96111 1.96111 1.95659 1.95659 1.95207 1.95207 1.94754 1.94754 1.94302 1.94302
          1.93849 1.93849 1.93397 1.93397 1.92944 1.92944 1.9249 1.9249
        </DataArray>
        <DataArray type="Float32" Name="mobL" NumberOfComponents="1" format="ascii">
          1083.4 1083.5 1081.29 1081.3 1079.06 1079.1 1076.76 1076.77 1074.47 1074.52 1072.14 1072.14
          1069.83 1069.86 1067.59 1067.61 1065.38 1065.4 1063.22 1063.24 1061.13 1061.15 1057.36 1057.38
          1053.92 1053.93 1050.8 1050.81 1048 1048 1045.52 1045.53 1042.93 1042.94 1040.78 1040.79
          1039.02 1039.02 1037.59 1037.59 1036.46 1036.46 1035.58 1035.58 1034.93 1034.93 1034.47 1034.47
          1034.18 1034.18 1034.05 1034.05 1034.08 1034.08 1034.27 1034.27 1034.62 1034.62 1035.19 1035.19
          1036.02 1036.02 1037.18 1037.18 1038.77 1038.77 1040.98 1040.98 1044.02 1044.02 1048.29 1048.29
          1054.38 1054.38 1063.32 1063.32 1077.19 1077.19 1103.12 1103.12
        </DataArray>
        <DataArray type="Float32" Name="mobG" NumberOfComponents="1" format="ascii">
          0 0 0 0 0 0 0 0 0 0 0 0
          0 0 0 0 0 0 0 0 0 0 0 0
          0 0 0 0 0 0 0 0 0 0 0 0
          0 0 0 0 0 0 0 0 0 0 0 0
          0 0 0 0 0 0 0 0 0 0 0 0
          0 0 0 0 0 0 0 0 0 0 0 0
          0 0 0 0 0 0 0 0
        </DataArray>
        <DataArray type="Float32" Name="porosity" NumberOfComponents="1" format="ascii">
          0.354006 0.354131 0.345821 0.34575 0.34225 0.342353 0.340177 0.340191 0.338278 0.33835 0.336548 0.336796
          0.335007 0.335173 0.333386 0.333497 0.33176 0.331977 0.330299 0.330426 0.328784 0.32894 0.326507 0.326871
          0.324117 0.324349 0.321979 0.322019 0.320294 0.320539 0.31868 0.318774 0.317644 0.318152 0.316003 0.31503
          0.315528 0.315063 0.315222 0.315803 0.315657 0.315601 0.315656 0.315707 0.316108 0.316278 0.316676 0.316762
          0.317634 0.317502 0.318603 0.318598 0.319427 0.319364 0.319897 0.320514 0.322553 0.322333 0.324166 0.323939
          0.325892 0.32595 0.328466 0.328506 0.331615 0.331722 0.335824 0.335796 0.341358 0.341284 0.34856 0.348519
          0.358639 0.358622 0.37217 0.372193 0.386867 0.386874 0.4 0.4
        </DataArray>
        <DataArray type="Float32" Name="temperature" NumberOfComponents="1" format="ascii">
          298.15 298.15 298.15 298.15 298.15 298.15 298.15 298.15 298.15 298.15 298.15 298.15
          298.15 298.15 298.15 298.15 298.15 298.15 298.15 298.15 298.15 298.15 298.15 298.15
          298.15 298.15 298.15 298.15 298.15 298.15 298.15 298.15 298.15 298.15 298.15 298.15
          298.15 298.15 298.15 298.15 298.15 298.15 298.15 298.15 298.15 298.15 298.15 298.15
          298.15 298.15 298.15 298.15 298.15 298.15 298.15 298.15 298.15 298.15 298.15 298.15
          298.15 298.15 298.15 298.15 298.15 298.15 298.15 298.15 298.15 298.15 298.15 298.15
          298.15 298.15 298.15 298.15 298.15 298.15 298.15 298.15
        </DataArray>
        <DataArray type="Float32" Name="phase presence" NumberOfComponents="1" format="ascii">
          1 1 1 1 1 1 1 1 1 1 1 1
          1 1 1 1 1 1 1 1 1 1 1 1
          1 1 1 1 1 1 1 1 1 1 1 1
          1 1 1 1 1 1 1 1 1 1 1 1
          1 1 1 1 1 1 1 1 1 1 1 1
          1 1 1 1 1 1 1 1 1 1 1 1
          1 1 1 1 1 1 1 1
        </DataArray>
        <DataArray type="Float32" Name="potential" NumberOfComponents="1" format="ascii">
          0.00700532 0.00702283 0.00665878 0.0066596 0.00628926 0.00629514 0.00590518 0.00590738 0.00552124 0.00552971 0.00512919 0.00512862
          0.00473789 0.00474279 0.00435531 0.00435832 0.00397752 0.00398132 0.00360801 0.00361176 0.00324849 0.00325147 0.00260086 0.00260364
          0.00200974 0.00201205 0.00147858 0.00148018 0.00100666 0.00100637 0.000593925 0.00059446 0.000170764 0.000171453 -0.000170656 -0.000170139
          -0.000442049 -0.000442057 -0.000654128 -0.000653897 -0.000815059 -0.000814903 -0.000933868 -0.000933801 -0.00101802 -0.00101812 -0.00107415 -0.00107413
          -0.00110729 -0.00110719 -0.00112105 -0.00112105 -0.00111815 -0.00111808 -0.00110062 -0.00110068 -0.00107026 -0.0010705 -0.00102624 -0.00102604
          -0.000968238 -0.000968139 -0.000896116 -0.000896151 -0.000809629 -0.000809596 -0.000707411 -0.00070745 -0.000590076 -0.000590111 -0.00045908 -0.000459089
          -0.00031912 -0.000319121 -0.000180226 -0.000180225 -6.20686e-05 -6.20688e-05 0 0
        </DataArray>
        <DataArray type="Float32" Name="boxVolume" NumberOfComponents="1" format="ascii">
          6.35e-05 6.35e-05 0.000127 0.000127 0.000127 0.000127 0.000127 0.000127 0.000127 0.000127 0.000127 0.000127
          0.000127 0.000127 0.000127 0.000127 0.000127 0.000127 0.000127 0.000127 0.0001905 0.0001905 0.000254 0.000254
          0.000254 0.000254 0.000254 0.000254 0.000254 0.000254 0.00028575 0.00028575 0.0003175 0.0003175 0.0003175 0.0003175
          0.0003175 0.0003175 0.0003175 0.0003175 0.0003175 0.0003175 0.0003175 0.0003175 0.0003175 0.0003175 0.0003175 0.0003175
          0.0003175 0.0003175 0.0003175 0.0003175 0.0003175 0.0003175 0.0003175 0.0003175 0.0003175 0.0003175 0.0003175 0.0003175
          0.0003175 0.0003175 0.0003175 0.0003175 0.0003175 0.0003175 0.0003175 0.0003175 0.0003175 0.0003175 0.0003175 0.0003175
          0.0003175 0.0003175 0.0003175 0.0003175 0.0003175 0.0003175 0.00015875 0.00015875
        </DataArray>
        <DataArray type="Float32" Name="pH" NumberOfComponents="1" format="ascii">
          7.30094 7.29958 7.28129 7.28109 7.26341 7.26366 7.24551 7.24558 7.22869 7.22899 7.21214 7.21207
          7.19609 7.19634 7.18105 7.18109 7.16671 7.16693 7.15323 7.15327 7.14052 7.14064 7.11879 7.11883
          7.09946 7.09952 7.08253 7.08248 7.0681 7.068 7.05546 7.0554 7.04287 7.04292 7.03203 7.03183
          7.024 7.02383 7.01776 7.01779 7.01302 7.01305 7.00939 7.00932 7.00673 7.00673 7.00499 7.00504
          7.00418 7.00414 7.00398 7.00396 7.00436 7.00436 7.00547 7.00553 7.00747 7.00745 7.01012 7.01018
          7.01394 7.01385 7.01892 7.01892 7.02509 7.02505 7.03296 7.03296 7.04232 7.04249 7.05356 7.05355
          7.06531 7.06533 7.07713 7.07706 7.10293 7.10289 6.19963 6.19963
        </DataArray>
        <DataArray type="Float32" Name="Omega" NumberOfComponents="1" format="ascii">
          5.11441 5.03094 5.13896 5.12847 5.24084 5.23783 5.34092 5.33931 5.45684 5.45118 5.57285 5.57064
          5.68021 5.68171 5.79105 5.78624 5.902 5.90487 6.01727 6.01085 6.13212 6.13182 6.36474 6.36029
          6.56842 6.56692 6.75376 6.74623 6.94635 6.93912 7.1085 7.10249 7.30989 7.31105 7.42973 7.41128
          7.59648 7.5802 7.75845 7.75907 7.91347 7.91594 8.04646 8.03604 8.15983 8.15915 8.27016 8.27845
          8.40723 8.39772 8.52573 8.52084 8.615 8.61157 8.70533 8.72352 8.91688 8.91573 9.07553 9.04342
          9.18073 9.20873 9.35925 9.35822 9.60167 9.60707 9.87582 9.8753 10.218 10.2087 10.6037 10.604
          11.045 11.0442 11.374 11.3744 10.6987 10.698 0 0
        </DataArray>
        <DataArray type="Float32" Name="rurea" NumberOfComponents="1" format="ascii">
          0 0 0 0 0 0 0 0 0 0 0 0
          0 0 0 0 0 0 0 0 0 0 0 0
          0 0 0 0 0 0 0 0 0 0 0 0
          0 0 0 0 0 0 0 0 0 0 0 0
          0 0 0 0 0 0 0 0 0 0 0 0
          0 0 0 0 0 0 0 0 0 0 0 0
          0 0 0 0 0 0 0 0
        </DataArray>
        <DataArray type="Float32" Name="Volume_Fraction_Biofilm" NumberOfComponents="1" format="ascii">
          0.0112723 0.0112824 0.0109368 0.010984 0.0108049 0.0108158 0.0107461 0.0107509 0.0106224 0.0106383 0.0105145 0.0105329
          0.0104414 0.0104379 0.0103466 0.0103637 0.0102508 0.0102466 0.0101468 0.0101668 0.0100419 0.010046 0.00982247 0.00984441
          0.00964972 0.00966017 0.00950187 0.00951827 0.00933964 0.00936239 0.00921428 0.00922801 0.00905908 0.00907404 0.00897536 0.00897363
          0.00883805 0.00884799 0.00869687 0.00871391 0.00857001 0.00856501 0.0084426 0.00845784 0.00833974 0.00834579 0.0082338 0.00822651
          0.00809896 0.00810578 0.00797657 0.00798168 0.00787453 0.00787669 0.00775623 0.00775313 0.00755983 0.00755469 0.00738218 0.00740971
          0.0072491 0.00722099 0.00704544 0.00704744 0.00677133 0.00676791 0.00645564 0.00645571 0.0060471 0.00605623 0.00553419 0.00553379
          0.0048271 0.00482772 0.00380843 0.00380698 0.00224956 0.00224853 0 0
        </DataArray>
        <DataArray type="Float32" Name="Volume_Fraction_Calcite" NumberOfComponents="1" format="ascii">
          0.0347216 0.0345866 0.0432423 0.0432661 0.046945 0.0468311 0.0490768 0.0490584 0.0510991 0.0510122 0.0529371 0.0526708
          0.0545518 0.0543894 0.0562672 0.056139 0.0579896 0.0577761 0.0595544 0.0594073 0.0611746 0.061014 0.0636706 0.0632848
          0.066233 0.0659905 0.068519 0.0684625 0.0703667 0.0700985 0.0721059 0.071998 0.0732973 0.0727744 0.0750216 0.0759965
          0.0756335 0.0760889 0.0760813 0.0754832 0.0757727 0.0758342 0.0759015 0.0758348 0.0755523 0.075376 0.0750905 0.0750119
          0.074267 0.0743919 0.0734203 0.0734205 0.0726989 0.0727594 0.0723473 0.0717333 0.0698869 0.0701122 0.0684514 0.0686516
          0.0668589 0.066829 0.0644881 0.0644467 0.0616138 0.0615098 0.0577199 0.0577486 0.0525953 0.0526598 0.0459061 0.0459475
          0.0365339 0.0365501 0.0240219 0.0239999 0.0108837 0.010877 0 0
        </DataArray>
        <DataArray type="Float32" Name="Kxx" NumberOfComponents="1" format="ascii">
          1.38638e-10 1.38785e-10 1.29242e-10 1.29162e-10 1.2528e-10 1.25393e-10 1.23017e-10 1.23032e-10 1.20969e-10 1.21045e-10 1.19122e-10 1.19386e-10
          1.17493e-10 1.17667e-10 1.15796e-10 1.15912e-10 1.14109e-10 1.14334e-10 1.12608e-10 1.12738e-10 1.11066e-10 1.11224e-10 1.08774e-10 1.09139e-10
          1.06404e-10 1.06632e-10 1.04312e-10 1.04351e-10 1.02682e-10 1.02918e-10 1.01138e-10 1.01228e-10 1.00154e-10 1.00636e-10 9.86106e-11 9.77024e-11
          9.8167e-11 9.77333e-11 9.78811e-11 9.84234e-11 9.82873e-11 9.82345e-11 9.8286e-11 9.83341e-11 9.87089e-11 9.88685e-11 9.92418e-11 9.93225e-11
          1.00145e-10 1.00021e-10 1.01065e-10 1.0106e-10 1.01851e-10 1.01791e-10 1.02301e-10 1.02894e-10 1.04871e-10 1.04656e-10 1.06452e-10 1.06228e-10
          1.08161e-10 1.08219e-10 1.10745e-10 1.10785e-10 1.1396e-10 1.14071e-10 1.18355e-10 1.18325e-10 1.24302e-10 1.24222e-10 1.32337e-10 1.3229e-10
          1.44153e-10 1.44132e-10 1.61092e-10 1.61122e-10 1.8094e-10 1.80951e-10 2e-10 2e-10
        </DataArray>
        <DataArray type="Float32" Name="X_lBrine" NumberOfComponents="1" format="ascii">
          0.979276 0.979323 0.978335 0.978337 0.977319 0.977335 0.976248 0.976255 0.975165 0.975189 0.974043 0.974042
          0.972909 0.972923 0.971784 0.971793 0.970659 0.97067 0.969542 0.969553 0.96844 0.968449 0.966411 0.96642
          0.964503 0.964511 0.962736 0.962741 0.961115 0.961114 0.959651 0.959653 0.958092 0.958094 0.956779 0.956781
          0.955686 0.955686 0.95479 0.954791 0.954077 0.954078 0.953523 0.953523 0.95311 0.953109 0.95282 0.95282
          0.952642 0.952643 0.95257 0.95257 0.952602 0.952603 0.952743 0.952743 0.952997 0.952995 0.953395 0.953397
          0.953971 0.953972 0.95477 0.95477 0.955855 0.955855 0.957334 0.957333 0.959341 0.95934 0.962081 0.96208
          0.965845 0.965845 0.971077 0.971077 0.978502 0.978502 0.99029 0.99029
        </DataArray>
        <DataArray type="Float32" Name="X_lTotalC" NumberOfComponents="1" format="ascii">
          0.000134455 0.000133644 0.000134676 0.000134597 0.00013564 0.000135615 0.000136562 0.00013655 0.000137556 0.000137513 0.000138511 0.000138497
          0.000139364 0.000139373 0.000140198 0.000140166 0.000140994 0.000141013 0.000141781 0.000141741 0.000142527 0.000142526 0.000143935 0.000143912
          0.000145058 0.000145052 0.000145994 0.000145957 0.000146891 0.000146861 0.000147582 0.000147557 0.000148375 0.000148385 0.000148784 0.000148707
          0.000149345 0.000149286 0.000149842 0.00014985 0.000150271 0.000150277 0.000150588 0.000150566 0.000150826 0.000150828 0.000151026 0.000151041
          0.000151226 0.000151212 0.000151343 0.000151338 0.000151387 0.000151384 0.000151386 0.000151398 0.000151318 0.000151313 0.000151087 0.000151125
          0.000150794 0.000150737 0.000150182 0.000150186 0.000149012 0.000148991 0.000147064 0.000147067 0.00014359 0.000143668 0.000137695 0.000137694
          0.000127102 0.000127113 0.000108778 0.000108756 8.16012e-05 8.15891e-05 5.81077e-07 5.81077e-07
        </DataArray>
        <DataArray type="Float32" Name="X_lNa" NumberOfComponents="1" format="ascii">
          2.96606e-06 2.97075e-06 2.87065e-06 2.87085e-06 2.76772e-06 2.76936e-06 2.65931e-06 2.65994e-06 2.54956e-06 2.55198e-06 2.43598e-06 2.4358e-06
          2.32106e-06 2.32251e-06 2.20716e-06 2.20805e-06 2.09313e-06 2.0943e-06 1.98004e-06 1.98118e-06 1.86843e-06 1.86936e-06 1.66305e-06 1.66393e-06
          1.46991e-06 1.47067e-06 1.29098e-06 1.2915e-06 1.12702e-06 1.12689e-06 9.78849e-07 9.79023e-07 8.21204e-07 8.21469e-07 6.88137e-07 6.88271e-07
          5.77696e-07 5.77623e-07 4.87287e-07 4.87388e-07 4.15277e-07 4.15362e-07 3.59303e-07 3.59282e-07 3.17452e-07 3.17394e-07 2.8799e-07 2.88046e-07
          2.69821e-07 2.69828e-07 2.62046e-07 2.62022e-07 2.64382e-07 2.64407e-07 2.77207e-07 2.77265e-07 3.01741e-07 3.01541e-07 3.39697e-07 3.39645e-07
          3.94187e-07 3.94498e-07 4.70295e-07 4.70247e-07 5.73996e-07 5.74086e-07 7.15344e-07 7.15279e-07 9.07557e-07 9.07377e-07 1.17031e-06 1.1703e-06
          1.53317e-06 1.53315e-06 2.04059e-06 2.04063e-06 2.7577e-06 2.75771e-06 3.74885e-06 3.74885e-06
        </DataArray>
        <DataArray type="Float32" Name="X_lCl" NumberOfComponents="1" format="ascii">
          0.0118112 0.01178 0.0124444 0.012443 0.0131275 0.0131166 0.0138469 0.0138428 0.0145753 0.0145592 0.0153291 0.0153303
          0.0160918 0.0160821 0.0168477 0.0168418 0.0176045 0.0175967 0.018355 0.0183475 0.0190957 0.0190895 0.0204587 0.0204529
          0.0217404 0.0217354 0.0229279 0.0229245 0.024016 0.0240169 0.0249992 0.0249981 0.0260453 0.0260436 0.0269284 0.0269275
          0.0276612 0.0276617 0.028261 0.0282603 0.0287386 0.0287381 0.0291099 0.02911 0.0293873 0.0293877 0.0295825 0.0295821
          0.0297026 0.0297026 0.0297537 0.0297539 0.0297377 0.0297375 0.0296518 0.0296514 0.0294878 0.0294892 0.0292346 0.0292351
          0.0288715 0.0288694 0.0283643 0.0283646 0.0276732 0.0276726 0.0267312 0.0267316 0.0254501 0.0254514 0.0236988 0.0236989
          0.0212797 0.0212798 0.0178956 0.0178954 0.0131142 0.0131141 0.00655617 0.00655617
        </DataArray>
        <DataArray type="Float32" Name="X_lCa" NumberOfComponents="1" format="ascii">
          0.000190967 0.000189814 0.0001997 0.000199533 0.000209705 0.000209523 0.00022013 0.000220054 0.000230926 0.000230637 0.000242063 0.000242038
          0.000253196 0.000253101 0.000264333 0.000264176 0.000275517 0.000275473 0.000286741 0.000286528 0.000297883 0.0002978 0.000318947 0.000318775
          0.000338661 0.00033856 0.000357029 0.00035681 0.000374562 0.000374383 0.000390299 0.000390124 0.000407986 0.000407974 0.000421763 0.000421267
          0.000435213 0.000434749 0.000447193 0.000447173 0.000457753 0.000457832 0.000466614 0.000466246 0.000473875 0.000473842 0.000480237 0.00048054
          0.000486951 0.000486585 0.000492412 0.000492212 0.000496106 0.00049596 0.000499236 0.000499993 0.000507244 0.000507233 0.000512541 0.000510898
          0.000514307 0.000515837 0.000519082 0.000519019 0.00052705 0.000527396 0.000536901 0.000536869 0.000552969 0.000552117 0.000577491 0.000577509
          0.000623821 0.000623705 0.000710198 0.00071043 0.000813115 0.000813242 0 0
        </DataArray>
        <DataArray type="Float32" Name="X_lUrea" NumberOfComponents="1" format="ascii">
          4.19241e-06 4.15993e-06 4.99449e-06 4.87712e-06 5.74329e-06 5.71248e-06 6.49117e-06 6.47321e-06 7.53024e-06 7.46171e-06 8.65558e-06 8.61489e-06
          9.7432e-06 9.77209e-06 1.0995e-05 1.09138e-05 1.23527e-05 1.24071e-05 1.39027e-05 1.37798e-05 1.55736e-05 1.5568e-05 1.945e-05 1.93345e-05
          2.32315e-05 2.31849e-05 2.70401e-05 2.6825e-05 3.15392e-05 3.1294e-05 3.56126e-05 3.54053e-05 4.13001e-05 4.1301e-05 4.47242e-05 4.40978e-05
          5.03183e-05 4.96896e-05 5.63252e-05 5.62957e-05 6.26145e-05 6.2737e-05 6.85291e-05 6.8e-05 7.39264e-05 7.38676e-05 7.95963e-05 8.00417e-05
          8.72354e-05 8.67021e-05 9.44151e-05 9.4116e-05 0.000100311 0.000100097 0.000106749 0.000107885 0.000122147 0.000122112 0.000135374 0.000132828
          0.00014544 0.000147872 0.000163238 0.000163131 0.00019013 0.000190693 0.000225711 0.00022565 0.000279241 0.000277821 0.000357826 0.000357852
          0.000488553 0.000488359 0.000708823 0.000709209 0.000992877 0.000993088 0 0
        </DataArray>
        <DataArray type="Float32" Name="X_lTotalNH" NumberOfComponents="1" format="ascii">
          0.00561521 0.00560061 0.00591213 0.00591157 0.00623254 0.00622743 0.00657 0.00656807 0.0069115 0.00690398 0.00726487 0.00726546
          0.00762247 0.0076179 0.00797675 0.00797402 0.00833141 0.00832774 0.00868303 0.00867955 0.00902994 0.00902705 0.00966789 0.00966521
          0.0102677 0.0102654 0.0108233 0.0108218 0.0113318 0.0113323 0.0117913 0.0117908 0.0122794 0.0122785 0.0126922 0.0126921
          0.0130332 0.0130338 0.0133115 0.0133112 0.0135323 0.013532 0.0137034 0.0137038 0.0138307 0.0138309 0.0139192 0.0139188
          0.0139714 0.0139716 0.0139913 0.0139916 0.0139805 0.0139806 0.0139366 0.0139358 0.013851 0.0138516 0.0137247 0.0137263
          0.0135485 0.0135461 0.0133003 0.0133005 0.0129606 0.01296 0.0124983 0.0124985 0.0118665 0.0118679 0.0109998 0.0109998
          0.00979013 0.0097903 0.0080769 0.00807657 0.00567149 0.00567132 0.00314947 0.00314947
        </DataArray>
        <DataArray type="Float32" Name="X_lO2" NumberOfComponents="1" format="ascii">
          -9.39928e-08 -9.50258e-08 -1.12353e-07 -1.24841e-07 -1.24344e-07 -1.27808e-07 -1.18217e-08 -1.1402e-08 -5.68595e-10 -5.92213e-10 -4.50957e-10 -4.84592e-10
          -8.82137e-09 -5.46592e-09 -3.74045e-08 -4.08919e-08 -6.06479e-08 -5.85218e-08 -7.27825e-08 -7.44502e-08 -7.69734e-08 -7.70468e-08 -7.20726e-08 -7.23093e-08
          -2.59471e-08 -2.60569e-08 -7.82709e-08 -8.17584e-08 -9.96228e-08 -1.01571e-07 -2.58462e-09 -2.17752e-09 -2.32369e-09 -2.06418e-09 -5.17235e-08 -5.18998e-08
          -7.20284e-09 -1.4398e-08 -5.43219e-08 -5.44451e-08 -7.59691e-08 -7.59126e-08 -7.06147e-08 -7.03955e-08 -5.50432e-08 -5.52953e-08 -9.64943e-08 -9.46815e-08
          -9.8132e-08 -9.80547e-08 -4.85812e-09 -4.46187e-09 -2.44579e-08 -2.52233e-08 -4.8518e-08 -4.76603e-08 -4.47005e-08 -4.49583e-08 -7.76603e-09 -1.70472e-08
          -5.34548e-08 -4.85885e-08 -7.09648e-08 -7.09587e-08 -6.95205e-08 -6.94157e-08 -5.97458e-08 -5.97407e-08 -4.58806e-08 -4.53442e-08 -3.72044e-09 -3.72885e-09
          -2.49453e-08 -2.49284e-08 -1.41814e-08 -1.41731e-08 -5.91317e-10 -5.92532e-10 0 0
        </DataArray>
        <DataArray type="Float32" Name="X_lSubstrate" NumberOfComponents="1" format="ascii">
          0.0029652 0.00296515 0.00296614 0.00296612 0.00296717 0.00296715 0.0029685 0.0029685 0.00296964 0.00296961 0.00297078 0.00297079
          0.00297192 0.00297191 0.002973 0.00297298 0.00297408 0.00297407 0.00297515 0.00297514 0.00297622 0.00297621 0.00297816 0.00297815
          0.00297999 0.00297998 0.0029814 0.00298139 0.0029826 0.0029826 0.00298375 0.00298375 0.00298446 0.00298446 0.00298451 0.00298452
          0.00298411 0.0029841 0.00298277 0.00298278 0.00298059 0.0029806 0.00297738 0.00297739 0.00297283 0.00297282 0.00296639 0.00296641
          0.00295777 0.0029578 0.0029464 0.0029464 0.00293091 0.00293089 0.00291028 0.00291023 0.00288269 0.0028829 0.00284618 0.00284621
          0.00279736 0.00279709 0.00273177 0.00273181 0.00264408 0.002644 0.00252563 0.00252569 0.00236516 0.00236532 0.00214613 0.00214615
          0.00184351 0.00184353 0.00142022 0.00142019 0.000821984 0.000821971 0 0
        </DataArray>
        <DataArray type="Float32" Name="X_lSuspended_Biomass" NumberOfComponents="1" format="ascii">
          2.97108e-07 2.94864e-07 3.3546e-07 3.37011e-07 3.39583e-07 3.43355e-07 3.43684e-07 3.39394e-07 3.45944e-07 3.46249e-07 3.49064e-07 3.51089e-07
          3.57397e-07 3.5884e-07 3.67693e-07 3.70469e-07 3.74999e-07 3.75376e-07 3.78208e-07 3.80068e-07 3.67255e-07 3.7214e-07 4.02181e-07 4.03242e-07
          4.12177e-07 4.1223e-07 4.22718e-07 4.22558e-07 4.28357e-07 4.28487e-07 4.2779e-07 4.27865e-07 4.45176e-07 4.45143e-07 4.55378e-07 4.55519e-07
          4.58847e-07 4.59394e-07 4.64757e-07 4.64607e-07 4.7411e-07 4.74643e-07 4.78491e-07 4.79331e-07 4.83526e-07 4.84676e-07 4.89817e-07 4.89171e-07
          4.92073e-07 4.93581e-07 4.94888e-07 4.96516e-07 4.99132e-07 4.99283e-07 5.07019e-07 5.04902e-07 5.12138e-07 5.09637e-07 5.14337e-07 5.12892e-07
          5.15443e-07 5.1362e-07 5.11368e-07 5.10085e-07 5.01743e-07 5.00571e-07 4.84857e-07 4.84104e-07 4.58858e-07 4.58327e-07 4.20166e-07 4.19764e-07
          3.65571e-07 3.65278e-07 2.83535e-07 2.83429e-07 1.65781e-07 1.65752e-07 0 0
        </DataArray>
        <DataArray type="Float32" Name="X_lNH4" NumberOfComponents="1" format="ascii">
          0.00588583 0.00587071 0.00620012 0.00619956 0.00653897 0.00653356 0.00689589 0.00689385 0.00725707 0.00724912 0.00763084 0.00763146
          0.00800912 0.00800428 0.00838391 0.00838103 0.00875912 0.00875523 0.00913112 0.00912745 0.00949816 0.00949509 0.0101731 0.0101703
          0.0108078 0.0108053 0.0113957 0.0113942 0.0119338 0.0119344 0.0124202 0.0124197 0.0129367 0.0129359 0.0133737 0.0133737
          0.0137346 0.0137353 0.0140292 0.0140289 0.0142629 0.0142625 0.0144439 0.0144443 0.0145786 0.0145788 0.0146723 0.0146718
          0.0147274 0.0147278 0.0147486 0.0147488 0.0147371 0.0147371 0.0146906 0.0146897 0.0146 0.0146007 0.0144663 0.014468
          0.0142799 0.0142774 0.0140174 0.0140176 0.0136581 0.0136575 0.0131693 0.0131696 0.0125018 0.0125033 0.0115866 0.0115866
          0.0103101 0.0103103 0.00850377 0.00850343 0.0059682 0.00596802 0.00333307 0.00333307
        </DataArray>
        <DataArray type="Float32" Name="X_lHCO3" NumberOfComponents="1" format="ascii">
          0.000169712 0.000168636 0.000169352 0.000169245 0.000169969 0.000169946 0.000170506 0.000170493 0.000171149 0.000171105 0.000171728 0.000171707
          0.000172174 0.000172196 0.000172617 0.000172579 0.000173022 0.000173054 0.000173433 0.000173385 0.000173812 0.000173816 0.00017459 0.000174563
          0.000175086 0.000175081 0.000175433 0.000175386 0.000175834 0.000175791 0.000176052 0.000176018 0.000176387 0.000176402 0.000176327 0.00017622
          0.000176598 0.000176515 0.000176882 0.000176894 0.000177166 0.000177175 0.00017737 0.000177338 0.000177531 0.000177532 0.000177696 0.000177718
          0.00017792 0.000177899 0.000178076 0.000178069 0.000178173 0.000178168 0.000178257 0.000178279 0.000178344 0.000178337 0.000178261 0.000178301
          0.000178155 0.000178091 0.000177754 0.000177759 0.000176772 0.000176747 0.000174958 0.000174962 0.000171413 0.000171512 0.00016506 0.000165059
          0.000153078 0.000153093 0.000131715 0.000131686 9.97149e-05 9.9699e-05 3.37056e-07 3.37056e-07
        </DataArray>
        <DataArray type="Float32" Name="X_lCO3" NumberOfComponents="1" format="ascii">
          2.0715e-07 2.05021e-07 1.98789e-07 1.9855e-07 1.92794e-07 1.92854e-07 1.86899e-07 1.86909e-07 1.81761e-07 1.81805e-07 1.76815e-07 1.76763e-07
          1.72032e-07 1.72146e-07 1.67743e-07 1.67706e-07 1.63766e-07 1.63875e-07 1.60186e-07 1.60136e-07 1.56902e-07 1.56939e-07 1.51678e-07 1.51655e-07
          1.47037e-07 1.47048e-07 1.43061e-07 1.4299e-07 1.39942e-07 1.39863e-07 1.37159e-07 1.37104e-07 1.34641e-07 1.34667e-07 1.3214e-07 1.31967e-07
          1.30733e-07 1.30592e-07 1.29783e-07 1.298e-07 1.29195e-07 1.29213e-07 1.28772e-07 1.28708e-07 1.28512e-07 1.28511e-07 1.28473e-07 1.2852e-07
          1.28769e-07 1.2872e-07 1.29122e-07 1.29101e-07 1.29509e-07 1.29495e-07 1.30071e-07 1.30145e-07 1.31174e-07 1.31159e-07 1.322e-07 1.32156e-07
          1.3338e-07 1.3339e-07 1.34872e-07 1.34873e-07 1.36477e-07 1.36464e-07 1.38079e-07 1.3808e-07 1.39094e-07 1.39183e-07 1.38736e-07 1.38734e-07
          1.34462e-07 1.34478e-07 1.22486e-07 1.2245e-07 1.01641e-07 1.01618e-07 2.55591e-11 2.55591e-11
        </DataArray>
        <DataArray type="Float32" Name="X_lCO2" NumberOfComponents="1" format="ascii">
          1.19238e-05 1.18905e-05 1.24106e-05 1.24091e-05 1.29342e-05 1.29259e-05 1.34734e-05 1.34703e-05 1.40081e-05 1.39963e-05 1.45489e-05 1.45497e-05
          1.50833e-05 1.50767e-05 1.56012e-05 1.5597e-05 1.61084e-05 1.61036e-05 1.66009e-05 1.65958e-05 1.70766e-05 1.70727e-05 1.7927e-05 1.79234e-05
          1.86963e-05 1.86934e-05 1.93843e-05 1.93823e-05 1.99953e-05 1.99958e-05 2.05308e-05 2.05303e-05 2.10842e-05 2.10835e-05 2.15384e-05 2.15379e-05
          2.19051e-05 2.19058e-05 2.2197e-05 2.2197e-05 2.24226e-05 2.24221e-05 2.25924e-05 2.25936e-05 2.27152e-05 2.27157e-05 2.27959e-05 2.27946e-05
          2.28338e-05 2.28351e-05 2.28378e-05 2.28387e-05 2.28119e-05 2.28125e-05 2.27496e-05 2.2746e-05 2.26181e-05 2.26187e-05 2.24459e-05 2.24556e-05
          2.22284e-05 2.22178e-05 2.19046e-05 2.19052e-05 2.14422e-05 2.14395e-05 2.08006e-05 2.08011e-05 1.98821e-05 1.98891e-05 1.85692e-05 1.85692e-05
          1.6619e-05 1.66199e-05 1.37093e-05 1.37077e-05 9.62253e-06 9.62182e-06 3.38012e-07 3.38012e-07
        </DataArray>
        <DataArray type="Float32" Name="X_lH" NumberOfComponents="1" format="ascii">
          4.96769e-11 4.9835e-11 5.19435e-11 5.1967e-11 5.40894e-11 5.40591e-11 5.63249e-11 5.63151e-11 5.85059e-11 5.84668e-11 6.07314e-11 6.07412e-11
          6.29706e-11 6.29341e-11 6.5139e-11 6.51332e-11 6.72739e-11 6.72405e-11 6.93421e-11 6.93361e-11 7.13487e-11 7.13299e-11 7.49057e-11 7.48991e-11
          7.82134e-11 7.82015e-11 8.12235e-11 8.12328e-11 8.38741e-11 8.38934e-11 8.62656e-11 8.62762e-11 8.8708e-11 8.86978e-11 9.08663e-11 9.0909e-11
          9.24924e-11 9.25291e-11 9.37742e-11 9.37678e-11 9.47552e-11 9.47503e-11 9.55152e-11 9.55303e-11 9.60741e-11 9.60747e-11 9.64407e-11 9.64297e-11
          9.66075e-11 9.66173e-11 9.66478e-11 9.66517e-11 9.65644e-11 9.65661e-11 9.63277e-11 9.63156e-11 9.5901e-11 9.59071e-11 9.5345e-11 9.53328e-11
          9.45479e-11 9.45665e-11 9.35215e-11 9.35205e-11 9.22717e-11 9.22799e-11 9.07071e-11 9.07069e-11 8.88948e-11 8.88597e-11 8.67869e-11 8.67876e-11
          8.46867e-11 8.46811e-11 8.27031e-11 8.27152e-11 7.83221e-11 7.83303e-11 6.32454e-10 6.32454e-10
        </DataArray>
        <DataArray type="Float32" Name="X_lOH" NumberOfComponents="1" format="ascii">
          3.35004e-06 3.33963e-06 3.19979e-06 3.19835e-06 3.06862e-06 3.07041e-06 2.94256e-06 2.9431e-06 2.82871e-06 2.83069e-06 2.72091e-06 2.72046e-06
          2.62012e-06 2.62169e-06 2.52903e-06 2.52929e-06 2.44503e-06 2.44628e-06 2.3685e-06 2.36874e-06 2.29844e-06 2.29907e-06 2.18324e-06 2.18346e-06
          2.08547e-06 2.08581e-06 2.00333e-06 2.00312e-06 1.93572e-06 1.93528e-06 1.87828e-06 1.87806e-06 1.82266e-06 1.82288e-06 1.77616e-06 1.77533e-06
          1.74231e-06 1.74162e-06 1.71637e-06 1.71649e-06 1.69692e-06 1.69701e-06 1.68213e-06 1.68187e-06 1.67139e-06 1.67138e-06 1.66436e-06 1.66455e-06
          1.66107e-06 1.66091e-06 1.66021e-06 1.66014e-06 1.66172e-06 1.66169e-06 1.66612e-06 1.66633e-06 1.67411e-06 1.674e-06 1.68479e-06 1.68502e-06
          1.70035e-06 1.70002e-06 1.72092e-06 1.72093e-06 1.74684e-06 1.74668e-06 1.78059e-06 1.78059e-06 1.82191e-06 1.82263e-06 1.87317e-06 1.87315e-06
          1.92946e-06 1.92959e-06 1.9897e-06 1.9894e-06 2.12207e-06 2.12185e-06 2.67481e-07 2.67481e-07
        </DataArray>
        <DataArray type="Float32" Name="X_gBrine" NumberOfComponents="1" format="ascii">
          0.011239 0.0112223 0.0112295 0.0112295 0.0112366 0.0112366 0.0112436 0.0112436 0.0112505 0.0112506 0.0112574 0.0112574
          0.0112643 0.0112643 0.0112712 0.0112712 0.0112781 0.0112781 0.0112851 0.0112851 0.0112921 0.0112921 0.0113066 0.0113066
          0.0113214 0.0113214 0.0113366 0.0113367 0.0113523 0.0113523 0.0113685 0.0113685 0.0113894 0.0113894 0.0114111 0.0114111
          0.0114334 0.0114334 0.0114563 0.0114563 0.0114798 0.0114799 0.0115039 0.0115039 0.0115284 0.0115284 0.0115533 0.0115533
          0.0115786 0.0115786 0.0116043 0.0116043 0.0116304 0.0116304 0.0116569 0.0116569 0.0116838 0.0116838 0.0117111 0.0117111
          0.011739 0.011739 0.0117675 0.0117675 0.0117969 0.0117969 0.0118273 0.0118273 0.0118592 0.0118592 0.0118929 0.0118929
          0.0119292 0.0119292 0.0119691 0.0119691 0.0120144 0.0120144 0.0120698 0.0120698
        </DataArray>
        <DataArray type="Float32" Name="X_gTotalC" NumberOfComponents="1" format="ascii">
          0.988761 0.988778 0.988771 0.988771 0.988763 0.988763 0.988756 0.988756 0.98875 0.988749 0.988743 0.988743
          0.988736 0.988736 0.988729 0.988729 0.988722 0.988722 0.988715 0.988715 0.988708 0.988708 0.988693 0.988693
          0.988679 0.988679 0.988663 0.988663 0.988648 0.988648 0.988632 0.988632 0.988611 0.988611 0.988589 0.988589
          0.988567 0.988567 0.988544 0.988544 0.98852 0.98852 0.988496 0.988496 0.988472 0.988472 0.988447 0.988447
          0.988421 0.988421 0.988396 0.988396 0.98837 0.98837 0.988343 0.988343 0.988316 0.988316 0.988289 0.988289
          0.988261 0.988261 0.988232 0.988232 0.988203 0.988203 0.988173 0.988173 0.988141 0.988141 0.988107 0.988107
          0.988071 0.988071 0.988031 0.988031 0.987986 0.987986 0.98793 0.98793
        </DataArray>
        <DataArray type="Float32" Name="X_gNa" NumberOfComponents="1" format="ascii">
          0 0 0 0 0 0 0 0 0 0 0 0
          0 0 0 0 0 0 0 0 0 0 0 0
          0 0 0 0 0 0 0 0 0 0 0 0
          0 0 0 0 0 0 0 0 0 0 0 0
          0 0 0 0 0 0 0 0 0 0 0 0
          0 0 0 0 0 0 0 0 0 0 0 0
          0 0 0 0 0 0 0 0
        </DataArray>
        <DataArray type="Float32" Name="X_gCl" NumberOfComponents="1" format="ascii">
          0 0 0 0 0 0 0 0 0 0 0 0
          0 0 0 0 0 0 0 0 0 0 0 0
          0 0 0 0 0 0 0 0 0 0 0 0
          0 0 0 0 0 0 0 0 0 0 0 0
          0 0 0 0 0 0 0 0 0 0 0 0
          0 0 0 0 0 0 0 0 0 0 0 0
          0 0 0 0 0 0 0 0
        </DataArray>
        <DataArray type="Float32" Name="X_gCa" NumberOfComponents="1" format="ascii">
          0 0 0 0 0 0 0 0 0 0 0 0
          0 0 0 0 0 0 0 0 0 0 0 0
          0 0 0 0 0 0 0 0 0 0 0 0
          0 0 0 0 0 0 0 0 0 0 0 0
          0 0 0 0 0 0 0 0 0 0 0 0
          0 0 0 0 0 0 0 0 0 0 0 0
          0 0 0 0 0 0 0 0
        </DataArray>
        <DataArray type="Float32" Name="X_gUrea" NumberOfComponents="1" format="ascii">
          0 0 0 0 0 0 0 0 0 0 0 0
          0 0 0 0 0 0 0 0 0 0 0 0
          0 0 0 0 0 0 0 0 0 0 0 0
          0 0 0 0 0 0 0 0 0 0 0 0
          0 0 0 0 0 0 0 0 0 0 0 0
          0 0 0 0 0 0 0 0 0 0 0 0
          0 0 0 0 0 0 0 0
        </DataArray>
        <DataArray type="Float32" Name="X_gTotalNH" NumberOfComponents="1" format="ascii">
          0 0 0 0 0 0 0 0 0 0 0 0
          0 0 0 0 0 0 0 0 0 0 0 0
          0 0 0 0 0 0 0 0 0 0 0 0
          0 0 0 0 0 0 0 0 0 0 0 0
          0 0 0 0 0 0 0 0 0 0 0 0
          0 0 0 0 0 0 0 0 0 0 0 0
          0 0 0 0 0 0 0 0
        </DataArray>
        <DataArray type="Float32" Name="X_gO2" NumberOfComponents="1" format="ascii">
          0 0 0 0 0 0 0 0 0 0 0 0
          0 0 0 0 0 0 0 0 0 0 0 0
          0 0 0 0 0 0 0 0 0 0 0 0
          0 0 0 0 0 0 0 0 0 0 0 0
          0 0 0 0 0 0 0 0 0 0 0 0
          0 0 0 0 0 0 0 0 0 0 0 0
          0 0 0 0 0 0 0 0
        </DataArray>
        <DataArray type="Float32" Name="X_gSubstrate" NumberOfComponents="1" format="ascii">
          0 0 0 0 0 0 0 0 0 0 0 0
          0 0 0 0 0 0 0 0 0 0 0 0
          0 0 0 0 0 0 0 0 0 0 0 0
          0 0 0 0 0 0 0 0 0 0 0 0
          0 0 0 0 0 0 0 0 0 0 0 0
          0 0 0 0 0 0 0 0 0 0 0 0
          0 0 0 0 0 0 0 0
        </DataArray>
        <DataArray type="Float32" Name="X_gSuspended_Biomass" NumberOfComponents="1" format="ascii">
          0 0 0 0 0 0 0 0 0 0 0 0
          0 0 0 0 0 0 0 0 0 0 0 0
          0 0 0 0 0 0 0 0 0 0 0 0
          0 0 0 0 0 0 0 0 0 0 0 0
          0 0 0 0 0 0 0 0 0 0 0 0
          0 0 0 0 0 0 0 0 0 0 0 0
          0 0 0 0 0 0 0 0
        </DataArray>
        <DataArray type="Float32" Name="X_gNH4" NumberOfComponents="1" format="ascii">
          0 0 0 0 0 0 0 0 0 0 0 0
          0 0 0 0 0 0 0 0 0 0 0 0
          0 0 0 0 0 0 0 0 0 0 0 0
          0 0 0 0 0 0 0 0 0 0 0 0
          0 0 0 0 0 0 0 0 0 0 0 0
          0 0 0 0 0 0 0 0 0 0 0 0
          0 0 0 0 0 0 0 0
        </DataArray>
        <DataArray type="Float32" Name="X_gHCO3" NumberOfComponents="1" format="ascii">
          0 0 0 0 0 0 0 0 0 0 0 0
          0 0 0 0 0 0 0 0 0 0 0 0
          0 0 0 0 0 0 0 0 0 0 0 0
          0 0 0 0 0 0 0 0 0 0 0 0
          0 0 0 0 0 0 0 0 0 0 0 0
          0 0 0 0 0 0 0 0 0 0 0 0
          0 0 0 0 0 0 0 0
        </DataArray>
        <DataArray type="Float32" Name="X_gCO3" NumberOfComponents="1" format="ascii">
          0 0 0 0 0 0 0 0 0 0 0 0
          0 0 0 0 0 0 0 0 0 0 0 0
          0 0 0 0 0 0 0 0 0 0 0 0
          0 0 0 0 0 0 0 0 0 0 0 0
          0 0 0 0 0 0 0 0 0 0 0 0
          0 0 0 0 0 0 0 0 0 0 0 0
          0 0 0 0 0 0 0 0
        </DataArray>
        <DataArray type="Float32" Name="X_gCO2" NumberOfComponents="1" format="ascii">
          0.988761 0.988778 0.988771 0.988771 0.988763 0.988763 0.988756 0.988756 0.98875 0.988749 0.988743 0.988743
          0.988736 0.988736 0.988729 0.988729 0.988722 0.988722 0.988715 0.988715 0.988708 0.988708 0.988693 0.988693
          0.988679 0.988679 0.988663 0.988663 0.988648 0.988648 0.988632 0.988632 0.988611 0.988611 0.988589 0.988589
          0.988567 0.988567 0.988544 0.988544 0.98852 0.98852 0.988496 0.988496 0.988472 0.988472 0.988447 0.988447
          0.988421 0.988421 0.988396 0.988396 0.98837 0.98837 0.988343 0.988343 0.988316 0.988316 0.988289 0.988289
          0.988261 0.988261 0.988232 0.988232 0.988203 0.988203 0.988173 0.988173 0.988141 0.988141 0.988107 0.988107
          0.988071 0.988071 0.988031 0.988031 0.987986 0.987986 0.98793 0.98793
        </DataArray>
        <DataArray type="Float32" Name="X_gH" NumberOfComponents="1" format="ascii">
          0 0 0 0 0 0 0 0 0 0 0 0
          0 0 0 0 0 0 0 0 0 0 0 0
          0 0 0 0 0 0 0 0 0 0 0 0
          0 0 0 0 0 0 0 0 0 0 0 0
          0 0 0 0 0 0 0 0 0 0 0 0
          0 0 0 0 0 0 0 0 0 0 0 0
          0 0 0 0 0 0 0 0
        </DataArray>
        <DataArray type="Float32" Name="X_gOH" NumberOfComponents="1" format="ascii">
          0 0 0 0 0 0 0 0 0 0 0 0
          0 0 0 0 0 0 0 0 0 0 0 0
          0 0 0 0 0 0 0 0 0 0 0 0
          0 0 0 0 0 0 0 0 0 0 0 0
          0 0 0 0 0 0 0 0 0 0 0 0
          0 0 0 0 0 0 0 0 0 0 0 0
          0 0 0 0 0 0 0 0
        </DataArray>
        <DataArray type="Float32" Name="Molarity_Brine" NumberOfComponents="1" format="ascii">
          54638.3 54639.8 54609.4 54609.5 54578.1 54578.6 54545.2 54545.4 54511.8 54512.5 54477.2 54477.1
          54442.1 54442.6 54407.4 54407.6 54372.5 54372.9 54337.9 54338.2 54303.7 54304 54240.6 54240.8
          54181.1 54181.3 54125.9 54126.1 54075.2 54075.2 54029.3 54029.4 53980.4 53980.5 53939.2 53939.2
          53904.8 53904.8 53876.6 53876.6 53854.1 53854.2 53836.7 53836.7 53823.8 53823.8 53814.8 53814.8
          53809.3 53809.4 53807.3 53807.3 53808.7 53808.7 53813.6 53813.6 53822.3 53822.2 53835.7 53835.7
          53855 53855.1 53881.8 53881.8 53918 53918 53967.4 53967.3 54034.2 54034.2 54125.1 54125.1
          54249.7 54249.7 54422.1 54422.1 54665.2 54665.2 55049.2 55049.2
        </DataArray>
        <DataArray type="Float32" Name="Molarity_TotalC" NumberOfComponents="1" format="ascii">
          3.07153 3.05294 3.07791 3.0761 3.10139 3.10079 3.12401 3.12371 3.14832 3.1473 3.17181 3.17149
          3.193 3.19319 3.21378 3.21303 3.2337 3.23411 3.25341 3.25248 3.27221 3.27216 3.3076 3.30706
          3.33635 3.3362 3.36062 3.35977 3.38381 3.3831 3.40201 3.40143 3.42276 3.42299 3.43428 3.43248
          3.44897 3.4476 3.46187 3.46206 3.47294 3.47308 3.48116 3.48064 3.48734 3.48738 3.49244 3.49278
          3.49736 3.49703 3.5002 3.50009 3.50118 3.50112 3.50096 3.50125 3.49902 3.49891 3.49309 3.49397
          3.48546 3.48414 3.47013 3.47023 3.44152 3.44103 3.39438 3.39444 3.31135 3.31316 3.17171 3.17169
          2.92299 2.92326 2.49603 2.49552 1.86652 1.86624 0.0132254 0.0132254
        </DataArray>
        <DataArray type="Float32" Name="Molarity_Na" NumberOfComponents="1" format="ascii">
          0.129679 0.129882 0.125563 0.125571 0.121117 0.121188 0.11643 0.116457 0.11168 0.111785 0.10676 0.106753
          0.101777 0.10184 0.0968326 0.0968714 0.0918774 0.0919281 0.0869579 0.0870075 0.0820982 0.0821387 0.0731421 0.0731806
          0.0647046 0.0647379 0.0568746 0.0568972 0.0496881 0.0496824 0.0431849 0.0431925 0.036256 0.0362676 0.0303996 0.0304054
          0.0255335 0.0255303 0.0215465 0.021551 0.0183685 0.0183722 0.0158967 0.0158958 0.0140478 0.0140453 0.0127458 0.0127483
          0.0119427 0.011943 0.011599 0.011598 0.0117023 0.0117034 0.0122693 0.0122719 0.0133538 0.013345 0.015031 0.0150287
          0.0174379 0.0174516 0.0207976 0.0207955 0.0253718 0.0253757 0.0315996 0.0315968 0.0400561 0.0400482 0.0515927 0.051592
          0.0674806 0.0674798 0.0896142 0.0896158 0.120724 0.120725 0.1633 0.1633
        </DataArray>
        <DataArray type="Float32" Name="Molarity_Cl" NumberOfComponents="1" format="ascii">
          334.865 333.976 352.97 352.932 372.52 372.208 393.129 393.011 414.016 413.554 435.651 435.685
          457.566 457.288 479.307 479.137 501.097 500.874 522.729 522.511 544.099 543.921 583.48 583.311
          620.581 620.434 655.01 654.91 686.608 686.634 715.202 715.169 745.667 745.615 771.416 771.391
          792.809 792.823 810.336 810.316 824.304 824.288 835.167 835.171 843.29 843.301 849.007 848.996
          852.528 852.527 854.026 854.031 853.558 853.553 851.047 851.035 846.251 846.29 838.843 838.855
          828.222 828.16 813.394 813.404 793.207 793.189 765.723 765.736 728.402 728.438 677.486 677.489
          607.353 607.357 509.629 509.622 372.286 372.283 185.193 185.193
        </DataArray>
        <DataArray type="Float32" Name="Molarity_Ca" NumberOfComponents="1" format="ascii">
          4.78943 4.7604 5.01061 5.00642 5.26409 5.2595 5.5285 5.52658 5.80253 5.79522 6.08552 6.0849
          6.36872 6.36629 6.65231 6.64831 6.93736 6.9362 7.22368 7.21827 7.50819 7.50607 8.04661 8.04226
          8.55148 8.54892 9.02265 9.0171 9.47283 9.4683 9.87748 9.87306 10.3325 10.3322 10.6879 10.6754
          11.0343 11.0226 11.3428 11.3423 11.6145 11.6165 11.8424 11.833 12.0289 12.0281 12.1921 12.1998
          12.3636 12.3543 12.5027 12.4977 12.5964 12.5927 12.6752 12.6944 12.8771 12.8769 13.0094 12.9677
          13.0511 13.0899 13.1678 13.1662 13.3637 13.3725 13.6049 13.6041 14 13.9785 14.6038 14.6042
          15.7501 15.7471 17.891 17.8968 20.419 20.4222 0 0
        </DataArray>
        <DataArray type="Float32" Name="Molarity_Urea" NumberOfComponents="1" format="ascii">
          0.069538 0.0689976 0.0828775 0.0809298 0.0953475 0.0948352 0.107817 0.107518 0.125137 0.123997 0.143912 0.143236
          0.16208 0.16256 0.182999 0.181647 0.205702 0.206608 0.231633 0.229585 0.259603 0.25951 0.324526 0.322597
          0.387961 0.38718 0.451931 0.448336 0.527521 0.52342 0.596055 0.592585 0.691746 0.69176 0.749551 0.739052
          0.843731 0.833188 0.944846 0.944351 1.05069 1.05275 1.15024 1.14136 1.24107 1.24008 1.33644 1.34392
          1.46483 1.45587 1.58545 1.58042 1.68443 1.68084 1.79244 1.81152 2.05078 2.0502 2.27247 2.22974
          2.44084 2.48166 2.73861 2.73681 3.18829 3.19774 3.78257 3.78154 4.67563 4.65185 5.98446 5.9849
          8.1577 8.15446 11.8093 11.8158 16.4896 16.4931 0 0
        </DataArray>
        <DataArray type="Float32" Name="Molarity_TotalNH" NumberOfComponents="1" format="ascii">
          331.403 330.534 349.078 349.045 368.168 367.863 388.293 388.178 408.68 408.231 429.797 429.831
          451.188 450.914 472.403 472.239 493.662 493.442 514.761 514.552 535.599 535.425 573.974 573.813
          610.122 609.981 643.657 643.568 674.402 674.435 702.223 702.197 731.818 731.768 756.88 756.876
          777.609 777.644 794.545 794.527 807.992 807.972 818.415 818.437 826.178 826.191 831.579 831.553
          834.766 834.783 835.992 836.007 835.338 835.341 832.67 832.62 827.465 827.505 819.781 819.878
          809.061 808.919 793.97 793.983 773.334 773.298 745.273 745.288 706.996 707.079 654.593 654.595
          581.67 581.681 478.812 478.792 335.154 335.144 185.193 185.193
        </DataArray>
        <DataArray type="Float32" Name="Molarity_O2" NumberOfComponents="1" format="ascii">
          -0.0029524 -0.00298478 -0.00353063 -0.00392305 -0.00390928 -0.00401816 -0.000371846 -0.000358645 -1.78939e-05 -1.86369e-05 -1.41991e-05 -1.52581e-05
          -0.0002779 -0.000172192 -0.00117896 -0.00128888 -0.00191257 -0.00184551 -0.00229642 -0.00234903 -0.00242988 -0.00243219 -0.0022773 -0.00228477
          -0.00082058 -0.000824052 -0.00247735 -0.00258773 -0.00315552 -0.00321723 -8.19222e-05 -6.90187e-05 -7.37048e-05 -6.54733e-05 -0.00164161 -0.0016472
          -0.00022872 -0.000457196 -0.00172566 -0.00172957 -0.00241413 -0.00241234 -0.00224456 -0.00223759 -0.00174994 -0.00175796 -0.00306818 -0.00301054
          -0.00312052 -0.00311806 -0.00015449 -0.00014189 -0.000777764 -0.000802106 -0.00154279 -0.00151552 -0.00142125 -0.00142945 -0.000246879 -0.000541925
          -0.00169889 -0.00154423 -0.00225463 -0.00225443 -0.00220772 -0.00220439 -0.00189611 -0.00189595 -0.00145483 -0.00143782 -0.000117834 -0.0001181
          -0.000788802 -0.000788268 -0.000447435 -0.000447173 -1.85977e-05 -1.86359e-05 0 0
        </DataArray>
        <DataArray type="Float32" Name="Molarity_Substrate" NumberOfComponents="1" format="ascii">
          16.5434 16.5428 16.5559 16.5557 16.5693 16.5691 16.5849 16.5849 16.5995 16.5992 16.6145 16.6145
          16.6295 16.6294 16.6442 16.644 16.6588 16.6587 16.6735 16.6733 16.6879 16.6878 16.7144 16.7143
          16.7394 16.7393 16.7609 16.7608 16.7802 16.7802 16.7981 16.7981 16.8141 16.8141 16.8247 16.8247
          16.8309 16.8308 16.8303 16.8303 16.8236 16.8236 16.8098 16.8098 16.7873 16.7873 16.7532 16.7534
          16.706 16.7062 16.6424 16.6424 16.5548 16.5547 16.4373 16.4371 16.2798 16.281 16.0709 16.071
          15.7914 15.7898 15.4158 15.4161 14.9141 14.9137 14.237 14.2373 13.321 13.3219 12.0733 12.0733
          10.3542 10.3543 7.959 7.95883 4.5919 4.59183 0 0
        </DataArray>
        <DataArray type="Float32" Name="Molarity_Suspended_Biomass" NumberOfComponents="1" format="ascii">
          0.000298638 0.000296376 0.000337333 0.000338893 0.000341638 0.000345431 0.000345935 0.000341615 0.000348383 0.000348686 0.000351706 0.000353747
          0.00036029 0.000361743 0.000370862 0.00037366 0.000378427 0.000378805 0.000381861 0.000383737 0.00037099 0.000375924 0.000406652 0.000407723
          0.000417125 0.000417177 0.000428142 0.000427978 0.000434177 0.000434309 0.000433896 0.000433971 0.000451856 0.000451821 0.000462491 0.000462634
          0.00046625 0.000466806 0.000472451 0.000472298 0.000482118 0.00048266 0.000486698 0.000487553 0.000491914 0.000493084 0.000498383 0.000497726
          0.000500721 0.000502256 0.000503605 0.000505262 0.000507919 0.000508073 0.000515916 0.000513762 0.00052107 0.000518526 0.000523219 0.000521749
          0.000524216 0.000522362 0.000519894 0.00051859 0.000509873 0.000508682 0.000492402 0.000491638 0.000465599 0.000465061 0.000425841 0.000425433
          0.000369914 0.000369617 0.000286264 0.000286157 0.000166849 0.000166819 0 0
        </DataArray>
        <DataArray type="Float32" Name="Molarity_NH4" NumberOfComponents="1" format="ascii">
          327.964 327.114 345.626 345.594 364.685 364.381 384.78 384.665 405.135 404.687 426.221 426.256
          447.584 447.31 468.771 468.608 490.004 489.784 511.077 510.869 531.89 531.716 570.22 570.059
          606.33 606.188 639.833 639.744 670.547 670.581 698.344 698.319 727.914 727.863 752.959 752.957
          773.67 773.707 790.59 790.572 804.024 804.004 814.438 814.46 822.193 822.206 827.588 827.562
          830.771 830.788 831.995 832.009 831.34 831.343 828.673 828.622 823.472 823.512 815.797 815.892
          805.087 804.946 790.015 790.027 769.413 769.377 741.408 741.423 703.227 703.307 650.981 650.983
          578.336 578.346 475.948 475.928 332.98 332.971 185.037 185.037
        </DataArray>
        <DataArray type="Float32" Name="Molarity_HCO3" NumberOfComponents="1" format="ascii">
          2.79571 2.77793 2.79099 2.78921 2.80246 2.80206 2.8127 2.81247 2.8247 2.82395 2.83572 2.83539
          2.84458 2.84492 2.85337 2.85272 2.86154 2.86206 2.86982 2.86901 2.87756 2.8776 2.89313 2.89267
          2.9039 2.90381 2.91204 2.91124 2.92087 2.92016 2.92646 2.9259 2.93416 2.9344 2.93493 2.93315
          2.94093 2.93954 2.94688 2.94708 2.95258 2.95273 2.95676 2.95621 2.96 2.96002 2.96316 2.96353
          2.96715 2.96679 2.96987 2.96975 2.97145 2.97137 2.97269 2.97306 2.97383 2.97371 2.97195 2.97261
          2.96945 2.96838 2.96176 2.96184 2.94404 2.94361 2.91199 2.91204 2.85054 2.85218 2.74168 2.74166
          2.53857 2.53882 2.17943 2.17895 1.64473 1.64447 0.00553194 0.00553194
        </DataArray>
        <DataArray type="Float32" Name="Molarity_CO3" NumberOfComponents="1" format="ascii">
          0.00346975 0.00343401 0.00333115 0.00332714 0.00323218 0.00323316 0.00313491 0.00313505 0.00305024 0.00305095 0.00296877 0.00296789
          0.00288998 0.00289186 0.00281938 0.00281874 0.00275396 0.00275578 0.00269514 0.00269429 0.00264122 0.00264185 0.00255568 0.00255528
          0.00247965 0.00247984 0.00241457 0.00241337 0.0023637 0.00236236 0.00231825 0.00231733 0.00227734 0.00227778 0.00223639 0.00223347
          0.0022137 0.00221131 0.00219852 0.0021988 0.00218928 0.00218959 0.00218269 0.00218158 0.0021787 0.00217867 0.00217832 0.00217913
          0.00218353 0.00218271 0.00218961 0.00218924 0.00219614 0.00219591 0.00220556 0.00220681 0.00222401 0.00222377 0.00224104 0.0022403
          0.00226049 0.00226065 0.00228499 0.00228502 0.00231112 0.0023109 0.00233678 0.00233679 0.00235194 0.00235343 0.00234313 0.00234311
          0.00226731 0.00226758 0.00206076 0.00206017 0.00170467 0.00170429 4.26535e-07 4.26535e-07
        </DataArray>
        <DataArray type="Float32" Name="Molarity_CO2" NumberOfComponents="1" format="ascii">
          0.272391 0.271624 0.283635 0.283599 0.295739 0.295546 0.30822 0.308148 0.320611 0.320336 0.33316 0.333177
          0.345576 0.345425 0.357629 0.357531 0.369447 0.369333 0.380937 0.380817 0.392052 0.391961 0.411961 0.411877
          0.430018 0.429949 0.446206 0.446157 0.460613 0.460626 0.47327 0.473257 0.486375 0.48636 0.497155 0.497144
          0.505875 0.505891 0.512828 0.512829 0.518211 0.518201 0.522271 0.522299 0.52521 0.525222 0.527148 0.527119
          0.52807 0.5281 0.528182 0.528204 0.527581 0.527593 0.52611 0.526027 0.523014 0.523027 0.518944 0.519168
          0.51379 0.513543 0.506132 0.506147 0.495219 0.495156 0.480098 0.48011 0.458505 0.458667 0.427728 0.427727
          0.382192 0.382212 0.314573 0.314538 0.220102 0.220086 0.00769319 0.00769319
        </DataArray>
        <DataArray type="Float32" Name="Molarity_H" NumberOfComponents="1" format="ascii">
          4.95394e-05 4.9696e-05 5.18221e-05 5.18455e-05 5.39882e-05 5.39575e-05 5.62472e-05 5.62372e-05 5.84543e-05 5.84145e-05 6.07091e-05 6.07189e-05
          6.29803e-05 6.29433e-05 6.51827e-05 6.51767e-05 6.7354e-05 6.73202e-05 6.94603e-05 6.9454e-05 7.15066e-05 7.14875e-05 7.51417e-05 7.51348e-05
          7.85289e-05 7.85167e-05 8.16176e-05 8.16267e-05 8.43442e-05 8.43635e-05 8.68077e-05 8.68183e-05 8.93296e-05 8.93193e-05 9.15587e-05 9.16017e-05
          9.32443e-05 9.32813e-05 9.45757e-05 9.45691e-05 9.55967e-05 9.55916e-05 9.63882e-05 9.64034e-05 9.69709e-05 9.69715e-05 9.73542e-05 9.73431e-05
          9.7531e-05 9.75409e-05 9.75754e-05 9.75793e-05 9.74903e-05 9.7492e-05 9.72459e-05 9.72338e-05 9.68049e-05 9.68112e-05 9.62276e-05 9.62151e-05
          9.53997e-05 9.54184e-05 9.43318e-05 9.43309e-05 9.30282e-05 9.30365e-05 9.13929e-05 9.13928e-05 8.94903e-05 8.9455e-05 8.72661e-05 8.72669e-05
          8.50177e-05 8.50121e-05 8.28413e-05 8.28535e-05 7.82056e-05 7.82137e-05 0.000628379 0.000628379
        </DataArray>
        <DataArray type="Float32" Name="Molarity_OH" NumberOfComponents="1" format="ascii">
          0.000198083 0.000197463 0.00018928 0.000189195 0.000181606 0.000181711 0.000174231 0.000174263 0.000167574 0.000167689 0.000161271 0.000161244
          0.000155378 0.00015547 0.000150054 0.000150068 0.000145145 0.000145218 0.000140674 0.000140688 0.000136582 0.000136619 0.000129858 0.000129871
          0.000124152 0.000124172 0.000119359 0.000119346 0.000115417 0.000115391 0.000112068 0.000112055 0.000108828 0.000108841 0.000106116 0.000106066
          0.000104146 0.000104105 0.000102638 0.000102645 0.000101509 0.000101514 0.00010065 0.000100634 0.000100026 0.000100025 9.96193e-05 9.96307e-05
          9.94309e-05 9.94209e-05 9.93829e-05 9.9379e-05 9.94724e-05 9.94707e-05 9.97305e-05 9.97428e-05 0.000100198 0.000100191 0.00010082 0.000100834
          0.000101727 0.000101707 0.000102922 0.000102923 0.000104424 0.000104414 0.000106374 0.000106375 0.000108749 0.000108792 0.000111678 0.000111677
          0.00011485 0.000114858 0.000118172 0.000118154 0.000125636 0.000125623 1.57575e-05 1.57575e-05
        </DataArray>
        <DataArray type="Float32" Name="Da_ureolysis" NumberOfComponents="1" format="ascii">
          0 0 0 0 0 0 0 0 0 0 0 0
          0 0 0 0 0 0 0 0 0 0 0 0
          0 0 0 0 0 0 0 0 0 0 0 0
          0 0 0 0 0 0 0 0 0 0 0 0
          0 0 0 0 0 0 0 0 0 0 0 0
          0 0 0 0 0 0 0 0 0 0 0 0
          0 0 0 0 0 0 0 0
        </DataArray>
        <DataArray type="Float32" Name="Da_precipitation" NumberOfComponents="1" format="ascii">
          165.472 149.626 8296.59 3201.49 33817.4 2824.03 5589.18 6099.62 28441.9 3214.49 6028.43 9499.09
          7491.93 9170.22 6923.18 9888.31 6467.48 11923.6 6216.68 15403.1 194.887 188.591 2338.53 3299.76
          2270.09 2891.13 2431.58 2793.27 2436.95 2565.55 1044.51 1024.44 1665.99 1724.22 1911.34 1945.58
          2204.52 2222.09 2502.57 2540.91 2918.56 2961.56 3369.42 3374.3 3842.05 3834.16 4283.75 4307.31
          4617.9 4641.8 4753.86 4783.75 4800.1 4798.68 4744.4 4707.31 4114.92 4065.83 3665.03 3664.11
          3088.89 3150.58 2602.63 2608.98 2085.58 2087.65 1686.79 1682.17 1315.93 1310.17 996.932 995.883
          706.992 706.802 427.77 427.703 140.485 140.43 0 0
        </DataArray>
        <DataArray type="Float32" Name="Vx" NumberOfComponents="1" format="ascii">
          4.80878e-09 4.81539e-09 1.73746e-09 1.74079e-09 2.36108e-10 2.36523e-10 1.64803e-10 1.65038e-10 -5.28677e-10 -5.29886e-10 -5.33208e-10 -5.34488e-10
          1.04799e-10 1.04849e-10 8.20402e-11 8.23022e-11 -3.55171e-11 -3.56512e-11 -1.97561e-10 -1.98015e-10 -2.67148e-10 -2.67892e-10 -2.36593e-10 -2.37434e-10
          -3.61685e-10 -3.62694e-10 -5.06706e-10 -5.0745e-10 -2.42117e-10 -2.42296e-10 8.29713e-11 8.30416e-11 1.03539e-11 1.04758e-11 -1.10203e-10 -1.09967e-10
          -6.05887e-11 -6.04006e-11 7.56712e-12 7.56671e-12 -3.06962e-11 -3.0695e-11 -5.5557e-11 -5.5568e-11 -8.94444e-12 -8.94748e-12 3.8562e-11 3.85686e-11
          8.88438e-12 8.88366e-12 -1.23517e-11 -1.2349e-11 -5.09114e-11 -5.09688e-11 -7.21888e-11 -7.22498e-11 9.5079e-11 9.49919e-11 1.16285e-10 1.16195e-10
          -5.74371e-11 -5.74518e-11 -5.09065e-11 -5.09205e-11 -2.96405e-11 -2.96488e-11 -4.44216e-11 -4.44228e-11 1.05762e-11 1.05745e-11 3.57873e-11 3.57809e-11
          1.9475e-11 1.94731e-11 3.26608e-12 3.26607e-12 -2.09512e-12 -2.09518e-12 -1.46926e-12 -1.46929e-12
        </DataArray>
        <DataArray type="Float32" Name="Vy" NumberOfComponents="1" format="ascii">
          9.07696e-08 9.44802e-08 -8.05424e-11 4.12113e-09 3.67416e-10 5.21807e-09 -2.69956e-09 2.47068e-09 -1.5105e-10 4.82266e-09 -2.62727e-09 1.61347e-09
          -2.21435e-09 1.81124e-09 -2.46979e-09 1.72398e-09 -2.72438e-09 1.48112e-09 -2.92151e-09 1.16134e-09 9.64624e-08 9.97228e-08 -8.62523e-09 -6.10173e-09
          -9.39262e-09 -7.37087e-09 -9.20073e-09 -7.97692e-09 -9.71362e-09 -9.1991e-09 2.36568e-08 2.40587e-08 -1.57271e-08 -1.52218e-08 -1.40432e-08 -1.36558e-08
          -1.28075e-08 -1.26056e-08 -1.18706e-08 -1.171e-08 -1.07125e-08 -1.05661e-08 -9.6829e-09 -9.63114e-09 -8.81438e-09 -8.83362e-09 -8.20738e-09 -8.1891e-09
          -7.99428e-09 -7.92371e-09 -8.10231e-09 -8.03786e-09 -8.28976e-09 -8.28139e-09 -8.66867e-09 -8.80227e-09 -1.08028e-08 -1.09233e-08 -1.28474e-08 -1.27199e-08
          -1.59032e-08 -1.57212e-08 -2.01707e-08 -2.01176e-08 -2.73881e-08 -2.74048e-08 -3.71388e-08 -3.72339e-08 -5.28734e-08 -5.30066e-08 -7.74845e-08 -7.75635e-08
          -1.194e-07 -1.19423e-07 -1.97437e-07 -1.97438e-07 -4.32485e-07 -4.32487e-07 2.67688e-06 2.67688e-06
        </DataArray>
      </PointData>
      <CellData Scalars="process rank">
        <DataArray type="Float32" Name="process rank" NumberOfComponents="1" format="ascii">
          0 0 0 0 0 0 0 0 0 0 0 0
          0 0 0 0 0 0 0 0 0 0 0 0
          0 0 0 0 0 0 0 0 0 0 0 0
          0 0 0
        </DataArray>
      </CellData>
      <Points>
        <DataArray type="Float32" Name="Coordinates" NumberOfComponents="3" format="ascii">
          0 0 0 0.0254 0 0 0 0.01 0 0.0254 0.01 0
          0 0.02 0 0.0254 0.02 0 0 0.03 0 0.0254 0.03 0
          0 0.04 0 0.0254 0.04 0 0 0.05 0 0.0254 0.05 0
          0 0.06 0 0.0254 0.06 0 0 0.07 0 0.0254 0.07 0
          0 0.08 0 0.0254 0.08 0 0 0.09 0 0.0254 0.09 0
          0 0.1 0 0.0254 0.1 0 0 0.12 0 0.0254 0.12 0
          0 0.14 0 0.0254 0.14 0 0 0.16 0 0.0254 0.16 0
          0 0.18 0 0.0254 0.18 0 0 0.2 0 0.0254 0.2 0
          0 0.225 0 0.0254 0.225 0 0 0.25 0 0.0254 0.25 0
          0 0.275 0 0.0254 0.275 0 0 0.3 0 0.0254 0.3 0
          0 0.325 0 0.0254 0.325 0 0 0.35 0 0.0254 0.35 0
          0 0.375 0 0.0254 0.375 0 0 0.4 0 0.0254 0.4 0
          0 0.425 0 0.0254 0.425 0 0 0.45 0 0.0254 0.45 0
          0 0.475 0 0.0254 0.475 0 0 0.5 0 0.0254 0.5 0
          0 0.525 0 0.0254 0.525 0 0 0.55 0 0.0254 0.55 0
          0 0.575 0 0.0254 0.575 0 0 0.6 0 0.0254 0.6 0
          0 0.625 0 0.0254 0.625 0 0 0.65 0 0.0254 0.65 0
          0 0.675 0 0.0254 0.675 0 0 0.7 0 0.0254 0.7 0
          0 0.725 0 0.0254 0.725 0 0 0.75 0 0.0254 0.75 0
          0 0.775 0 0.0254 0.775 0 0 0.8 0 0.0254 0.8 0
        </DataArray>
      </Points>
      <Cells>
        <DataArray type="Int32" Name="connectivity" NumberOfComponents="1" format="ascii">
          0 1 3 2 2 3 5 4 4 5 7 6
          6 7 9 8 8 9 11 10 10 11 13 12
          12 13 15 14 14 15 17 16 16 17 19 18
          18 19 21 20 20 21 23 22 22 23 25 24
          24 25 27 26 26 27 29 28 28 29 31 30
          30 31 33 32 32 33 35 34 34 35 37 36
          36 37 39 38 38 39 41 40 40 41 43 42
          42 43 45 44 44 45 47 46 46 47 49 48
          48 49 51 50 50 51 53 52 52 53 55 54
          54 55 57 56 56 57 59 58 58 59 61 60
          60 61 63 62 62 63 65 64 64 65 67 66
          66 67 69 68 68 69 71 70 70 71 73 72
          72 73 75 74 74 75 77 76 76 77 79 78
        </DataArray>
        <DataArray type="Int32" Name="offsets" NumberOfComponents="1" format="ascii">
          4 8 12 16 20 24 28 32 36 40 44 48
          52 56 60 64 68 72 76 80 84 88 92 96
          100 104 108 112 116 120 124 128 132 136 140 144
          148 152 156
        </DataArray>
        <DataArray type="UInt8" Name="types" NumberOfComponents="1" format="ascii">
          9 9 9 9 9 9 9 9 9 9 9 9
          9 9 9 9 9 9 9 9 9 9 9 9
          9 9 9 9 9 9 9 9 9 9 9 9
          9 9 9
        </DataArray>
      </Cells>
    </Piece>
  </UnstructuredGrid>
</VTKFile>
