<?xml version="1.0"?>
<VTKFile type="UnstructuredGrid" version="0.1" byte_order="LittleEndian">
  <UnstructuredGrid>
    <Piece NumberOfCells="39" NumberOfPoints="80">
      <PointData Scalars="Sg">
        <DataArray type="Float32" Name="Sg" NumberOfComponents="1" format="ascii">
          0 0 0 0 0 0 0 0 0 0 0 0
          0 0 0 0 0 0 0 0 0 0 0 0
          0 0 0 0 0 0 0 0 0 0 0 0
          0 0 0 0 0 0 0 0 0 0 0 0
          0 0 0 0 0 0 0 0 0 0 0 0
          0 0 0 0 0 0 0 0 0 0 0 0
          0 0 0 0 0 0 0 0
        </DataArray>
        <DataArray type="Float32" Name="Sl" NumberOfComponents="1" format="ascii">
          1 1 1 1 1 1 1 1 1 1 1 1
          1 1 1 1 1 1 1 1 1 1 1 1
          1 1 1 1 1 1 1 1 1 1 1 1
          1 1 1 1 1 1 1 1 1 1 1 1
          1 1 1 1 1 1 1 1 1 1 1 1
          1 1 1 1 1 1 1 1 1 1 1 1
          1 1 1 1 1 1 1 1
        </DataArray>
        <DataArray type="Float32" Name="pg" NumberOfComponents="1" format="ascii">
          117640 117640 117542 117542 117443 117443 117344 117344 117245 117245 117146 117146
          117047 117047 116948 116948 116849 116849 116750 116750 116651 116651 116452 116452
          116253 116253 116054 116054 115855 115855 115656 115656 115406 115406 115157 115157
          114907 114907 114657 114657 114407 114407 114157 114157 113907 113907 113657 113657
          113407 113407 113157 113157 112906 112906 112656 112656 112406 112406 112156 112156
          111906 111906 111656 111656 111406 111406 111157 111157 110907 110907 110658 110658
          110409 110409 110161 110161 109913 109913 109667 109667
        </DataArray>
        <DataArray type="Float32" Name="pl" NumberOfComponents="1" format="ascii">
          107974 107974 107875 107875 107776 107776 107677 107677 107579 107579 107480 107480
          107381 107381 107282 107282 107183 107183 107083 107083 106984 106984 106786 106786
          106587 106587 106388 106388 106189 106189 105989 105989 105740 105740 105490 105490
          105240 105240 104991 104991 104741 104741 104491 104491 104240 104240 103990 103990
          103740 103740 103490 103490 103240 103240 102990 102990 102740 102740 102489 102489
          102239 102239 101989 101989 101740 101740 101490 101490 101240 101240 100991 100991
          100742 100742 100494 100494 100246 100246 100000 100000
        </DataArray>
        <DataArray type="Float32" Name="pc" NumberOfComponents="1" format="ascii">
          9666.67 9666.67 9666.67 9666.67 9666.67 9666.67 9666.67 9666.67 9666.67 9666.67 9666.67 9666.67
          9666.67 9666.67 9666.67 9666.67 9666.67 9666.67 9666.67 9666.67 9666.67 9666.67 9666.67 9666.67
          9666.67 9666.67 9666.67 9666.67 9666.67 9666.67 9666.67 9666.67 9666.67 9666.67 9666.67 9666.67
          9666.67 9666.67 9666.67 9666.67 9666.67 9666.67 9666.67 9666.67 9666.67 9666.67 9666.67 9666.67
          9666.67 9666.67 9666.67 9666.67 9666.67 9666.67 9666.67 9666.67 9666.67 9666.67 9666.67 9666.67
          9666.67 9666.67 9666.67 9666.67 9666.67 9666.67 9666.67 9666.67 9666.67 9666.67 9666.67 9666.67
          9666.67 9666.67 9666.67 9666.67 9666.67 9666.67 9666.67 9666.67
        </DataArray>
        <DataArray type="Float32" Name="rhoL" NumberOfComponents="1" format="ascii">
          1005.44 1005.46 1006 1006.01 1006.63 1006.63 1007.22 1007.21 1007.84 1007.85 1008.49 1008.48
          1009.13 1009.13 1009.79 1009.78 1010.43 1010.42 1011.08 1011.07 1011.72 1011.71 1012.88 1012.88
          1013.96 1013.95 1014.94 1014.94 1015.83 1015.83 1016.62 1016.62 1017.44 1017.44 1018.08 1018.07
          1018.62 1018.62 1019.05 1019.06 1019.4 1019.4 1019.65 1019.65 1019.83 1019.82 1019.95 1019.96
          1020.03 1020.04 1020.06 1020.06 1020.06 1020.02 1019.97 1019.97 1019.87 1019.87 1019.71 1019.69
          1019.43 1019.44 1019.08 1019.09 1018.61 1018.61 1017.94 1017.94 1017.02 1017.02 1015.72 1015.72
          1013.9 1013.9 1011.29 1011.29 1007.44 1007.44 1001.45 1001.45
        </DataArray>
        <DataArray type="Float32" Name="rhoG" NumberOfComponents="1" format="ascii">
          2.06935 2.06941 2.06763 2.06763 2.06585 2.06585 2.06407 2.06407 2.06229 2.06229 2.06051 2.06051
          2.05872 2.05872 2.05694 2.05694 2.05516 2.05516 2.05337 2.05337 2.05158 2.05158 2.048 2.048
          2.04442 2.04442 2.04083 2.04083 2.03723 2.03723 2.03363 2.03363 2.02913 2.02913 2.02462 2.02462
          2.0201 2.0201 2.01558 2.01558 2.01106 2.01106 2.00653 2.00653 2.00201 2.00201 1.99748 1.99748
          1.99295 1.99295 1.98842 1.98842 1.98388 1.98388 1.97935 1.97935 1.97482 1.97482 1.97029 1.97029
          1.96575 1.96575 1.96122 1.96122 1.95668 1.95668 1.95215 1.95215 1.94762 1.94762 1.94308 1.94308
          1.93854 1.93854 1.934 1.934 1.92946 1.92946 1.9249 1.9249
        </DataArray>
        <DataArray type="Float32" Name="mobL" NumberOfComponents="1" format="ascii">
          1081.93 1081.86 1079.26 1079.24 1076.33 1076.36 1073.64 1073.68 1070.9 1070.87 1068.09 1068.14
          1065.36 1065.36 1062.65 1062.67 1060.04 1060.09 1057.47 1057.48 1054.98 1055 1050.58 1050.58
          1046.61 1046.62 1043.09 1043.1 1039.98 1040 1037.3 1037.32 1034.58 1034.57 1032.47 1032.5
          1030.7 1030.73 1029.33 1029.32 1028.24 1028.24 1027.44 1027.46 1026.88 1026.89 1026.49 1026.48
          1026.26 1026.22 1026.15 1026.15 1026.17 1026.26 1026.44 1026.43 1026.75 1026.75 1027.24 1027.31
          1028.12 1028.09 1029.23 1029.21 1030.75 1030.75 1032.9 1032.9 1035.95 1035.95 1040.35 1040.35
          1046.77 1046.78 1056.58 1056.57 1072.63 1072.63 1103.12 1103.12
        </DataArray>
        <DataArray type="Float32" Name="mobG" NumberOfComponents="1" format="ascii">
          0 0 0 0 0 0 0 0 0 0 0 0
          0 0 0 0 0 0 0 0 0 0 0 0
          0 0 0 0 0 0 0 0 0 0 0 0
          0 0 0 0 0 0 0 0 0 0 0 0
          0 0 0 0 0 0 0 0 0 0 0 0
          0 0 0 0 0 0 0 0 0 0 0 0
          0 0 0 0 0 0 0 0
        </DataArray>
        <DataArray type="Float32" Name="porosity" NumberOfComponents="1" format="ascii">
          0.380119 0.380204 0.37629 0.376374 0.374148 0.374208 0.372641 0.372768 0.371345 0.371422 0.370053 0.37034
          0.369013 0.369165 0.367804 0.367967 0.366612 0.366847 0.365593 0.365729 0.364555 0.364746 0.362767 0.363104
          0.361093 0.361452 0.359542 0.359647 0.358247 0.358508 0.357087 0.357211 0.356233 0.35678 0.354756 0.353755
          0.354356 0.353848 0.353933 0.354616 0.354044 0.354019 0.353807 0.353835 0.353892 0.354073 0.353984 0.354108
          0.354461 0.354389 0.354891 0.354864 0.355002 0.35505 0.355641 0.355591 0.35652 0.356548 0.357544 0.357361
          0.358335 0.358341 0.359781 0.359805 0.361564 0.361656 0.364064 0.364039 0.367392 0.367318 0.37168 0.371677
          0.37757 0.377536 0.384993 0.385015 0.393173 0.393178 0.4 0.4
        </DataArray>
        <DataArray type="Float32" Name="temperature" NumberOfComponents="1" format="ascii">
          298.15 298.15 298.15 298.15 298.15 298.15 298.15 298.15 298.15 298.15 298.15 298.15
          298.15 298.15 298.15 298.15 298.15 298.15 298.15 298.15 298.15 298.15 298.15 298.15
          298.15 298.15 298.15 298.15 298.15 298.15 298.15 298.15 298.15 298.15 298.15 298.15
          298.15 298.15 298.15 298.15 298.15 298.15 298.15 298.15 298.15 298.15 298.15 298.15
          298.15 298.15 298.15 298.15 298.15 298.15 298.15 298.15 298.15 298.15 298.15 298.15
          298.15 298.15 298.15 298.15 298.15 298.15 298.15 298.15 298.15 298.15 298.15 298.15
          298.15 298.15 298.15 298.15 298.15 298.15 298.15 298.15
        </DataArray>
        <DataArray type="Float32" Name="phase presence" NumberOfComponents="1" format="ascii">
          1 1 1 1 1 1 1 1 1 1 1 1
          1 1 1 1 1 1 1 1 1 1 1 1
          1 1 1 1 1 1 1 1 1 1 1 1
          1 1 1 1 1 1 1 1 1 1 1 1
          1 1 1 1 1 1 1 1 1 1 1 1
          1 1 1 1 1 1 1 1 1 1 1 1
          1 1 1 1 1 1 1 1
        </DataArray>
        <DataArray type="Float32" Name="potential" NumberOfComponents="1" format="ascii">
          0.00840077 0.00838873 0.00795307 0.00795054 0.00745792 0.00746339 0.00699951 0.00700632 0.00652563 0.00652143 0.00603755 0.00604524
          0.00555768 0.00555781 0.00507958 0.005083 0.00461486 0.00462307 0.00415475 0.00415675 0.00370589 0.00371047 0.00291113 0.00291135
          0.00219416 0.00219578 0.00156094 0.0015628 0.00100612 0.00100847 0.000532706 0.000535478 6.15981e-05 6.1022e-05 -0.000292022 -0.000287252
          -0.000579856 -0.000576319 -0.000795491 -0.000796805 -0.000959184 -0.000958927 -0.00107339 -0.00107127 -0.00114898 -0.00114765 -0.00119898 -0.00120084
          -0.00122752 -0.00123395 -0.00123869 -0.00123901 -0.00123923 -0.00122686 -0.00120948 -0.00121089 -0.00117988 -0.00118018 -0.00113875 -0.00113353
          -0.00107303 -0.00107514 -0.000999963 -0.00100102 -0.000911764 -0.000911744 -0.00080549 -0.000805427 -0.000680423 -0.000680459 -0.00053674 -0.000536719
          -0.000379853 -0.000379752 -0.00021865 -0.000218662 -7.50806e-05 -7.50804e-05 0 0
        </DataArray>
        <DataArray type="Float32" Name="boxVolume" NumberOfComponents="1" format="ascii">
          6.35e-05 6.35e-05 0.000127 0.000127 0.000127 0.000127 0.000127 0.000127 0.000127 0.000127 0.000127 0.000127
          0.000127 0.000127 0.000127 0.000127 0.000127 0.000127 0.000127 0.000127 0.0001905 0.0001905 0.000254 0.000254
          0.000254 0.000254 0.000254 0.000254 0.000254 0.000254 0.00028575 0.00028575 0.0003175 0.0003175 0.0003175 0.0003175
          0.0003175 0.0003175 0.0003175 0.0003175 0.0003175 0.0003175 0.0003175 0.0003175 0.0003175 0.0003175 0.0003175 0.0003175
          0.0003175 0.0003175 0.0003175 0.0003175 0.0003175 0.0003175 0.0003175 0.0003175 0.0003175 0.0003175 0.0003175 0.0003175
          0.0003175 0.0003175 0.0003175 0.0003175 0.0003175 0.0003175 0.0003175 0.0003175 0.0003175 0.0003175 0.0003175 0.0003175
          0.0003175 0.0003175 0.0003175 0.0003175 0.0003175 0.0003175 0.00015875 0.00015875
        </DataArray>
        <DataArray type="Float32" Name="pH" NumberOfComponents="1" format="ascii">
          7.21114 7.21028 7.17687 7.17729 7.14243 7.14276 7.11236 7.11289 7.082 7.08157 7.05196 7.05249
          7.02423 7.02403 6.99766 6.99814 6.9729 6.97318 6.94871 6.94901 6.92572 6.9259 6.88667 6.8867
          6.85288 6.85284 6.82418 6.82438 6.79914 6.79937 6.77932 6.77865 6.75757 6.75749 6.74379 6.74462
          6.73014 6.73081 6.71963 6.71951 6.71066 6.71079 6.70419 6.70987 6.69979 6.70008 6.69636 6.69571
          6.69366 6.84595 6.69106 6.69621 6.95023 6.69152 6.70504 6.76994 6.68855 6.69003 6.68997 6.69175
          6.69481 6.69366 6.69781 6.7372 6.70286 6.70296 6.71002 6.71013 6.72188 6.72208 6.74119 6.74118
          6.77171 6.77177 6.82469 6.82466 6.9285 6.92849 6.19963 6.19963
        </DataArray>
        <DataArray type="Float32" Name="Omega" NumberOfComponents="1" format="ascii">
          12.8401 12.8554 13.4099 13.4079 13.9881 13.9829 14.4959 14.4885 15.0006 15.0065 15.4966 15.4897
          15.9596 15.9615 16.4004 16.3963 16.8145 16.8091 17.2144 17.2123 17.593 17.5901 18.2354 18.2367
          18.7881 18.7887 19.2556 19.2546 19.6535 19.6534 20.0791 19.9819 20.2982 20.3057 20.5287 20.5294
          20.7171 20.7212 20.8489 20.8567 20.9446 20.957 20.999 21.6051 21.0273 21.0369 21.0634 21.0355
          21.0674 47.429 20.9948 21.5854 82.3207 20.9532 22.5639 31.9278 20.6276 20.7903 20.6896 20.7003
          20.5875 20.5577 20.3786 25.2187 20.1709 20.1947 19.7986 19.8145 19.3406 19.3409 18.6575 18.6568
          17.6018 17.6031 15.8492 15.8485 12.4725 12.4713 0 0
        </DataArray>
        <DataArray type="Float32" Name="rurea" NumberOfComponents="1" format="ascii">
          0 0 0 0 0 0 0 0 0 0 0 0
          0 0 0 0 0 0 0 0 0 0 0 0
          0 0 0 0 0 0 0 0 0 0 0 0
          0 0 0 0 0 0 0 0 0 0 0 0
          0 0 0 0 0 0 0 0 0 0 0 0
          0 0 0 0 0 0 0 0 0 0 0 0
          0 0 0 0 0 0 0 0
        </DataArray>
        <DataArray type="Float32" Name="Volume_Fraction_Biofilm" NumberOfComponents="1" format="ascii">
          0.0057512 0.00575354 0.00566284 0.00568202 0.00563112 0.0056311 0.00561301 0.00561755 0.00557386 0.00557003 0.00552831 0.00553472
          0.0055012 0.00549767 0.00546862 0.00547895 0.00544125 0.00544039 0.00540218 0.00540928 0.00536045 0.00536182 0.00529011 0.00529479
          0.00522522 0.00522665 0.0051715 0.00517616 0.00511251 0.00511953 0.00506935 0.00507421 0.00501853 0.00502291 0.00501559 0.00501799
          0.00496069 0.00496684 0.00491277 0.00491924 0.00485518 0.0048549 0.00480504 0.00481355 0.00476929 0.00477568 0.00472183 0.00471483
          0.00467378 0.00467569 0.0046163 0.00461638 0.00458816 0.00459031 0.00452557 0.00452893 0.00444391 0.00444425 0.0043435 0.0043778
          0.00430141 0.00428153 0.00418701 0.00418452 0.00403698 0.00403403 0.00384964 0.00384762 0.0036042 0.00361074 0.00329401 0.00329341
          0.00285087 0.00285176 0.00222229 0.00222165 0.00129932 0.00129891 0 0
        </DataArray>
        <DataArray type="Float32" Name="Volume_Fraction_Calcite" NumberOfComponents="1" format="ascii">
          0.0141297 0.014042 0.0180472 0.0179438 0.0202209 0.0201613 0.0217455 0.0216144 0.0230809 0.023008 0.0244186 0.0241251
          0.0254854 0.0253376 0.0267271 0.0265544 0.0279467 0.0277122 0.0290045 0.0288621 0.0300849 0.0298921 0.0319426 0.0316014
          0.0336816 0.0333211 0.0352864 0.0351764 0.0366404 0.0363727 0.0378436 0.0377145 0.0387483 0.0381971 0.0402282 0.0412269
          0.0406835 0.0411848 0.0411547 0.0404646 0.0411003 0.0411263 0.0413882 0.0413514 0.0413387 0.0411514 0.0412937 0.041177
          0.0408652 0.0409358 0.0404928 0.0405201 0.0404101 0.0403595 0.039833 0.0398797 0.0390365 0.0390073 0.0381123 0.0382608
          0.0373636 0.037377 0.0360317 0.0360104 0.0343994 0.0343104 0.032086 0.0321136 0.0290039 0.029071 0.0250255 0.0250295
          0.019579 0.0196118 0.0127843 0.0127634 0.00552786 0.00552281 0 0
        </DataArray>
        <DataArray type="Float32" Name="Kxx" NumberOfComponents="1" format="ascii">
          1.71636e-10 1.71752e-10 1.66501e-10 1.66613e-10 1.63674e-10 1.63752e-10 1.61705e-10 1.6187e-10 1.60023e-10 1.60123e-10 1.58359e-10 1.58728e-10
          1.57028e-10 1.57221e-10 1.55489e-10 1.55695e-10 1.53982e-10 1.54279e-10 1.52702e-10 1.52872e-10 1.51404e-10 1.51643e-10 1.49188e-10 1.49604e-10
          1.47132e-10 1.47572e-10 1.45244e-10 1.45372e-10 1.43681e-10 1.43994e-10 1.42289e-10 1.42438e-10 1.41271e-10 1.41923e-10 1.39521e-10 1.38343e-10
          1.39049e-10 1.38453e-10 1.38552e-10 1.39356e-10 1.38683e-10 1.38653e-10 1.38404e-10 1.38437e-10 1.38504e-10 1.38717e-10 1.38613e-10 1.38758e-10
          1.39173e-10 1.39088e-10 1.3968e-10 1.39648e-10 1.39811e-10 1.39868e-10 1.40568e-10 1.40509e-10 1.41612e-10 1.41646e-10 1.42836e-10 1.42618e-10
          1.43786e-10 1.43794e-10 1.45534e-10 1.45563e-10 1.47708e-10 1.47821e-10 1.50794e-10 1.50762e-10 1.54967e-10 1.54874e-10 1.60457e-10 1.60453e-10
          1.68207e-10 1.68162e-10 1.78324e-10 1.78354e-10 1.89933e-10 1.89941e-10 2e-10 2e-10
        </DataArray>
        <DataArray type="Float32" Name="X_lBrine" NumberOfComponents="1" format="ascii">
          0.978549 0.978516 0.97732 0.977314 0.975944 0.97596 0.974653 0.974672 0.973299 0.973287 0.971885 0.971907
          0.970475 0.970475 0.96905 0.969061 0.967645 0.96767 0.966233 0.96624 0.964835 0.964849 0.962302 0.962303
          0.959946 0.959952 0.9578 0.957807 0.955856 0.955865 0.954143 0.954153 0.95237 0.952368 0.950987 0.951008
          0.9498 0.949816 0.948867 0.948861 0.94812 0.948121 0.947572 0.947583 0.94719 0.947197 0.946922 0.94691
          0.94676 0.94672 0.946694 0.946693 0.946693 0.946782 0.946913 0.946901 0.947147 0.947146 0.947506 0.947557
          0.948151 0.948126 0.948949 0.948937 0.950044 0.950044 0.95157 0.951571 0.953698 0.953698 0.956696 0.956697
          0.960914 0.960917 0.966998 0.966997 0.976055 0.976055 0.99029 0.99029
        </DataArray>
        <DataArray type="Float32" Name="X_lTotalC" NumberOfComponents="1" format="ascii">
          9.87758e-05 9.87062e-05 9.5229e-05 9.54173e-05 9.20656e-05 9.20829e-05 8.93852e-05 8.94538e-05 8.65336e-05 8.64543e-05 8.37067e-05 8.37719e-05
          8.12529e-05 8.11868e-05 7.89197e-05 7.90291e-05 7.67918e-05 7.67788e-05 7.46125e-05 7.46818e-05 7.25293e-05 7.25334e-05 6.90622e-05 6.90656e-05
          6.61107e-05 6.60785e-05 6.36955e-05 6.37371e-05 6.15274e-05 6.15705e-05 5.99797e-05 5.98799e-05 5.81086e-05 5.80791e-05 5.7407e-05 5.76017e-05
          5.61807e-05 5.63349e-05 5.52535e-05 5.52233e-05 5.43267e-05 5.43446e-05 5.36893e-05 5.45211e-05 5.32889e-05 5.33456e-05 5.2884e-05 5.27563e-05
          5.24795e-05 7.75341e-05 5.19911e-05 5.26887e-05 0.000100432 5.19999e-05 5.35124e-05 6.32533e-05 5.07758e-05 5.09786e-05 5.0275e-05 5.0672e-05
          5.03572e-05 5.01149e-05 4.96567e-05 5.49737e-05 4.87974e-05 4.87871e-05 4.76512e-05 4.7655e-05 4.6287e-05 4.63524e-05 4.47485e-05 4.47446e-05
          4.27002e-05 4.2705e-05 4.03921e-05 4.03844e-05 3.92769e-05 3.92758e-05 5.81077e-07 5.81077e-07
        </DataArray>
        <DataArray type="Float32" Name="X_lNa" NumberOfComponents="1" format="ascii">
          2.96422e-06 2.96116e-06 2.85246e-06 2.85151e-06 2.7271e-06 2.72854e-06 2.60995e-06 2.61163e-06 2.48833e-06 2.48738e-06 2.36217e-06 2.36412e-06
          2.23659e-06 2.23683e-06 2.11034e-06 2.11096e-06 1.98636e-06 1.98875e-06 1.86305e-06 1.86335e-06 1.7418e-06 1.74311e-06 1.5237e-06 1.52376e-06
          1.32263e-06 1.32333e-06 1.14033e-06 1.14065e-06 9.77323e-07 9.778e-07 8.33538e-07 8.34151e-07 6.86137e-07 6.86274e-07 5.65662e-07 5.65738e-07
          4.69103e-07 4.69074e-07 3.93271e-07 3.93123e-07 3.34903e-07 3.34999e-07 2.9156e-07 2.91642e-07 2.60693e-07 2.60837e-07 2.40632e-07 2.40679e-07
          2.29934e-07 2.29971e-07 2.27856e-07 2.27829e-07 2.34187e-07 2.34152e-07 2.4941e-07 2.49418e-07 2.74967e-07 2.74696e-07 3.12707e-07 3.12489e-07
          3.65799e-07 3.66198e-07 4.40028e-07 4.40155e-07 5.41602e-07 5.4209e-07 6.81087e-07 6.81342e-07 8.72975e-07 8.7216e-07 1.1367e-06 1.13679e-06
          1.50239e-06 1.50262e-06 2.01418e-06 2.01418e-06 2.73697e-06 2.73698e-06 3.74885e-06 3.74885e-06
        </DataArray>
        <DataArray type="Float32" Name="X_lCl" NumberOfComponents="1" format="ascii">
          0.0117999 0.0118201 0.0125374 0.0125438 0.0133648 0.0133553 0.0141378 0.0141268 0.0149399 0.0149461 0.0157716 0.0157587
          0.0165993 0.0165977 0.0174313 0.0174274 0.0182481 0.0182324 0.0190601 0.0190582 0.0198581 0.0198494 0.021293 0.0212926
          0.0226151 0.0226104 0.0238135 0.0238114 0.0248841 0.0248811 0.0258286 0.0258247 0.0267963 0.0267953 0.0275894 0.0275896
          0.0282224 0.0282232 0.0287195 0.0287203 0.0291011 0.0291005 0.0293846 0.0293844 0.0295867 0.0295859 0.0297172 0.0297165
          0.0297859 0.0297844 0.0297977 0.0297978 0.0297528 0.029756 0.0296531 0.0296526 0.0294815 0.0294833 0.0292287 0.0292319
          0.0288778 0.0288742 0.0283839 0.0283826 0.0277081 0.0277046 0.0267808 0.026779 0.025506 0.0255117 0.0237565 0.0237559
          0.0213324 0.0213309 0.017946 0.0179459 0.0131786 0.0131786 0.00655617 0.00655617
        </DataArray>
        <DataArray type="Float32" Name="X_lCa" NumberOfComponents="1" format="ascii">
          0.00064774 0.000649844 0.000739113 0.000737244 0.000839972 0.000839062 0.000937496 0.000935597 0.00104726 0.00104919 0.00116732 0.00116502
          0.00128786 0.00128927 0.00141375 0.0014107 0.00154091 0.00153994 0.0016769 0.00167465 0.00181691 0.00181601 0.00207948 0.00207941
          0.00233488 0.00233597 0.00257312 0.00257085 0.00280166 0.00279908 0.00300246 0.00299963 0.00321872 0.00322121 0.00335415 0.00334106
          0.00351266 0.00350203 0.00363779 0.00364092 0.00375309 0.00375284 0.00383541 0.00382838 0.00388977 0.00388598 0.00393942 0.00394726
          0.00398063 0.00400003 0.00401637 0.00401665 0.00405248 0.00400739 0.00402964 0.00403467 0.00405461 0.00405391 0.00408135 0.00404723
          0.00402857 0.00404671 0.00401978 0.00402705 0.00400611 0.00400919 0.00397286 0.00397402 0.00390898 0.00390369 0.00377558 0.0037758
          0.00355243 0.00355196 0.00312622 0.00312675 0.00222993 0.00222988 0 0
        </DataArray>
        <DataArray type="Float32" Name="X_lUrea" NumberOfComponents="1" format="ascii">
          0.000744125 0.000747017 0.000873064 0.000869858 0.0010141 0.00101288 0.00115047 0.00114771 0.00130502 0.00130793 0.00147454 0.00147122
          0.00164436 0.0016466 0.001822 0.00181731 0.00200158 0.00200043 0.00219467 0.00219121 0.00239398 0.00239278 0.00276832 0.00276823
          0.00313327 0.00313506 0.00347391 0.00347047 0.00380199 0.00379809 0.00408968 0.00408562 0.00440077 0.0044046 0.00459139 0.00457132
          0.0048207 0.00480439 0.00500172 0.00500648 0.00517011 0.00516971 0.00529011 0.00527833 0.00536909 0.00536328 0.00544232 0.00545437
          0.00550399 0.00549883 0.0055586 0.00555806 0.00554746 0.00554594 0.0055796 0.0055738 0.00562455 0.00562317 0.00567063 0.00561843
          0.00559755 0.00562537 0.00559477 0.00559846 0.00558827 0.00559302 0.00555734 0.00555911 0.00548697 0.00547878 0.00532073 0.00532107
          0.00503226 0.00503158 0.0044554 0.00445621 0.00319236 0.00319228 0 0
        </DataArray>
        <DataArray type="Float32" Name="X_lTotalNH" NumberOfComponents="1" format="ascii">
          0.00519396 0.00520181 0.00546785 0.00547266 0.00577716 0.00577338 0.00606354 0.00605988 0.00635335 0.00635463 0.00664864 0.00664447
          0.00694193 0.0069399 0.00723279 0.00723358 0.00751546 0.00750869 0.00778824 0.00778931 0.00805098 0.00804757 0.00851442 0.0085143
          0.0089302 0.00892698 0.00930153 0.0093025 0.00961995 0.00962072 0.00990181 0.00990225 0.0101814 0.0101788 0.0104468 0.0104581
          0.0106152 0.0106247 0.0107469 0.0107446 0.0108315 0.0108314 0.0108972 0.0109038 0.0109478 0.0109507 0.010968 0.0109609
          0.0109657 0.0109678 0.0109405 0.0109409 0.0109258 0.0109282 0.010861 0.0108641 0.0107552 0.0107569 0.0106107 0.0106415
          0.010487 0.0104697 0.0102567 0.010254 0.009943 0.00993873 0.00952491 0.00952309 0.0089658 0.00897308 0.00823752 0.00823704
          0.00726114 0.00726081 0.00599477 0.00599429 0.00446553 0.00446555 0.00314947 0.00314947
        </DataArray>
        <DataArray type="Float32" Name="X_lO2" NumberOfComponents="1" format="ascii">
          -7.14172e-08 -7.2372e-08 -7.11287e-08 -8.23005e-08 -9.02722e-08 -8.95284e-08 -1.02297e-07 -1.02752e-07 -1.03159e-07 -1.02431e-07 -1.02498e-07 -1.02679e-07
          -9.75506e-08 -9.94253e-08 -1.79744e-09 -1.16621e-09 -4.09043e-12 -2.60784e-12 1.27132e-12 1.21365e-12 1.22682e-12 1.24703e-12 1.05001e-12 1.05925e-12
          9.06953e-13 9.23667e-13 -2.06198e-11 -2.86588e-12 -6.49127e-09 -8.42874e-09 -2.54236e-08 -2.6522e-08 -3.6004e-08 -3.53355e-08 -2.55132e-10 -1.34134e-09
          -3.25608e-09 -7.63204e-09 -1.03632e-08 -9.88848e-09 -1.04548e-08 -1.04087e-08 -7.6237e-09 -1.4691e-10 -2.86077e-11 -1.8272e-11 1.91561e-15 -1.81499e-14
          -1.81397e-13 -5.24581e-13 -1.22246e-10 -1.00566e-10 -8.23283e-09 -9.06611e-09 -2.23289e-08 -2.55154e-08 -2.28499e-08 -2.41873e-08 -1.77755e-08 -4.37468e-08
          -6.04035e-08 -5.02666e-08 -6.21779e-08 -6.10283e-08 -5.74799e-08 -5.59502e-08 -4.99067e-08 -4.94191e-08 -3.85426e-08 -4.13652e-08 -3.06012e-08 -3.04001e-08
          -1.30483e-08 -1.28889e-08 -1.75897e-10 -1.72736e-10 -6.28985e-15 -3.8329e-14 0 0
        </DataArray>
        <DataArray type="Float32" Name="X_lSubstrate" NumberOfComponents="1" format="ascii">
          0.00296317 0.00296319 0.00296395 0.00296394 0.00296478 0.00296477 0.00296555 0.00296554 0.00296633 0.00296634 0.00296711 0.0029671
          0.00296788 0.00296787 0.00296881 0.00296882 0.00296951 0.00296949 0.00297016 0.00297016 0.00297075 0.00297074 0.00297173 0.00297173
          0.00297251 0.0029725 0.00297312 0.00297313 0.00297349 0.00297349 0.00297367 0.00297367 0.00297359 0.00297358 0.0029735 0.00297356
          0.00297265 0.0029727 0.00297133 0.00297131 0.00296934 0.00296933 0.0029666 0.00296665 0.00296287 0.0029629 0.00295767 0.00295762
          0.00295054 0.00295045 0.00294082 0.00294085 0.00292752 0.00292784 0.00290988 0.00290981 0.00288531 0.00288556 0.00285208 0.00285238
          0.00280739 0.00280698 0.00274561 0.00274546 0.00266144 0.00266103 0.00254589 0.00254567 0.00238667 0.00238737 0.00216752 0.00216744
          0.00186318 0.00186299 0.00143714 0.00143714 0.000836337 0.000836333 0 0
        </DataArray>
        <DataArray type="Float32" Name="X_lSuspended_Biomass" NumberOfComponents="1" format="ascii">
          1.56474e-07 1.56961e-07 1.55177e-07 1.55613e-07 1.5892e-07 1.58474e-07 1.57269e-07 1.59194e-07 1.49919e-07 1.40262e-07 1.68644e-07 1.66936e-07
          1.71501e-07 1.69973e-07 1.7456e-07 1.70147e-07 1.64888e-07 1.69947e-07 1.79754e-07 1.77257e-07 1.65227e-07 1.69417e-07 1.89516e-07 1.88933e-07
          1.8972e-07 1.91002e-07 1.96334e-07 1.96224e-07 1.97496e-07 1.93093e-07 2.01584e-07 1.99927e-07 2.08872e-07 2.08904e-07 2.15492e-07 2.15917e-07
          2.20109e-07 2.20509e-07 2.24191e-07 2.24259e-07 2.28277e-07 2.28607e-07 2.3248e-07 2.32602e-07 2.36457e-07 2.36639e-07 2.40224e-07 2.40191e-07
          2.4359e-07 2.43754e-07 2.46329e-07 2.45658e-07 2.51422e-07 2.51062e-07 2.5451e-07 2.54092e-07 2.5727e-07 2.56841e-07 2.58235e-07 2.5873e-07
          2.59262e-07 2.58722e-07 2.56695e-07 2.56413e-07 2.51036e-07 2.50767e-07 2.41776e-07 2.41556e-07 2.27298e-07 2.27337e-07 2.06451e-07 2.06274e-07
          1.76203e-07 1.76111e-07 1.34051e-07 1.34007e-07 7.61761e-08 7.61576e-08 0 0
        </DataArray>
        <DataArray type="Float32" Name="X_lNH4" NumberOfComponents="1" format="ascii">
          0.00545523 0.00546358 0.0057468 0.00575181 0.00607572 0.0060717 0.00638016 0.00637626 0.00668832 0.00668971 0.00700229 0.00699785
          0.00731399 0.00731187 0.00762308 0.00762386 0.0079234 0.00791624 0.00821329 0.00821439 0.00849251 0.0084889 0.00898494 0.00898481
          0.00942669 0.00942329 0.00982112 0.00982213 0.0101594 0.0101602 0.0104587 0.0104592 0.0107558 0.010753 0.0110371 0.0110491
          0.0112161 0.0112261 0.0113561 0.0113537 0.0114462 0.0114461 0.0115161 0.0115227 0.0115699 0.0115729 0.0115914 0.011584
          0.0115892 0.0115807 0.0115628 0.0115629 0.0115266 0.0115497 0.0114779 0.0114769 0.0113671 0.0113687 0.0112142 0.0112467
          0.0110832 0.0110649 0.0108395 0.0108343 0.0105076 0.0105031 0.0100653 0.0100633 0.00947365 0.00948134 0.00870291 0.00870241
          0.0076696 0.00766925 0.00632921 0.00632871 0.00470977 0.00470981 0.00333307 0.00333307
        </DataArray>
        <DataArray type="Float32" Name="X_lHCO3" NumberOfComponents="1" format="ascii">
          0.000123577 0.00012347 0.000118399 0.000118641 0.000113711 0.000113739 0.000109734 0.00010983 0.00010556 0.000105454 0.000101446 0.000101537
          9.78547e-05 9.77714e-05 9.44529e-05 9.45938e-05 9.13548e-05 9.13462e-05 8.82277e-05 8.83155e-05 8.52595e-05 8.52686e-05 8.03431e-05 8.03476e-05
          7.61894e-05 7.6152e-05 7.27991e-05 7.28505e-05 6.97995e-05 6.98528e-05 6.76387e-05 6.75045e-05 6.50762e-05 6.50426e-05 6.39968e-05 6.42285e-05
          6.23543e-05 6.25373e-05 6.11135e-05 6.10787e-05 5.99122e-05 5.99355e-05 5.90813e-05 6.01529e-05 5.85524e-05 5.86206e-05 5.80431e-05 5.78895e-05
          5.75494e-05 9.06097e-05 5.6964e-05 5.78708e-05 0.000121436 5.69806e-05 5.90287e-05 7.18036e-05 5.55862e-05 5.58476e-05 5.509e-05 5.55532e-05
          5.52775e-05 5.49915e-05 5.45806e-05 6.15292e-05 5.37554e-05 5.37482e-05 5.26492e-05 5.26566e-05 5.13865e-05 5.14612e-05 5.00417e-05 5.00372e-05
          4.82737e-05 4.828e-05 4.64513e-05 4.6442e-05 4.64435e-05 4.64419e-05 3.37056e-07 3.37056e-07
        </DataArray>
        <DataArray type="Float32" Name="X_lCO3" NumberOfComponents="1" format="ascii">
          1.53031e-07 1.52709e-07 1.39806e-07 1.4014e-07 1.28062e-07 1.28155e-07 1.18676e-07 1.1886e-07 1.09712e-07 1.09551e-07 1.01465e-07 1.01623e-07
          9.45129e-08 9.44207e-08 8.82827e-08 8.84531e-08 8.28637e-08 8.2892e-08 7.77843e-08 7.78805e-08 7.32095e-08 7.32355e-08 6.60391e-08 6.60457e-08
          6.03728e-08 6.0347e-08 5.59552e-08 5.60025e-08 5.22893e-08 5.23384e-08 4.97121e-08 4.95191e-08 4.67439e-08 4.67246e-08 4.52674e-08 4.5449e-08
          4.35362e-08 4.3679e-08 4.22411e-08 4.22201e-08 4.10795e-08 4.11067e-08 4.0265e-08 4.15047e-08 3.97306e-08 3.97882e-08 3.92789e-08 3.91475e-08
          3.88677e-08 8.70713e-08 3.83828e-08 3.94597e-08 1.49152e-07 3.83982e-08 4.11274e-08 5.81215e-08 3.7377e-08 3.76783e-08 3.72604e-08 3.75993e-08
          3.76005e-08 3.7375e-08 3.73428e-08 4.61273e-08 3.71465e-08 3.71614e-08 3.68473e-08 3.6866e-08 3.66971e-08 3.67477e-08 3.68157e-08 3.68123e-08
          3.71491e-08 3.71569e-08 3.83663e-08 3.83579e-08 4.29381e-08 4.29349e-08 2.55591e-11 2.55591e-11
        </DataArray>
        <DataArray type="Float32" Name="X_lCO2" NumberOfComponents="1" format="ascii">
          9.5527e-06 9.55997e-06 9.7495e-06 9.76309e-06 9.97525e-06 9.97166e-06 1.01692e-05 1.01685e-05 1.03338e-05 1.03309e-05 1.04798e-05 1.04793e-05
          1.06208e-05 1.06148e-05 1.07452e-05 1.07529e-05 1.08553e-05 1.08484e-05 1.09347e-05 1.09405e-05 1.09952e-05 1.09927e-05 1.10786e-05 1.10787e-05
          1.11265e-05 1.11212e-05 1.11593e-05 1.11638e-05 1.11569e-05 1.11615e-05 1.11692e-05 1.11663e-05 1.1148e-05 1.11428e-05 1.12259e-05 1.12534e-05
          1.11853e-05 1.12074e-05 1.11538e-05 1.11486e-05 1.1094e-05 1.10951e-05 1.10564e-05 1.11146e-05 1.10378e-05 1.10453e-05 1.10005e-05 1.09836e-05
          1.09523e-05 1.21318e-05 1.08864e-05 1.09293e-05 1.27554e-05 1.08832e-05 1.09169e-05 1.14333e-05 1.06654e-05 1.06795e-05 1.05225e-05 1.05851e-05
          1.04691e-05 1.04333e-05 1.02715e-05 1.05714e-05 1.00073e-05 1.00022e-05 9.65898e-06 9.65738e-06 9.20541e-06 9.21693e-06 8.63661e-06 8.63593e-06
          7.86294e-06 7.86313e-06 6.8681e-06 6.86709e-06 5.75511e-06 5.75511e-06 3.38012e-07 3.38012e-07
        </DataArray>
        <DataArray type="Float32" Name="X_lH" NumberOfComponents="1" format="ascii">
          6.10286e-11 6.11492e-11 6.59791e-11 6.59159e-11 7.13517e-11 7.12988e-11 7.63932e-11 7.63019e-11 8.18422e-11 8.19216e-11 8.76089e-11 8.75026e-11
          9.3285e-11 9.33267e-11 9.90622e-11 9.89541e-11 1.0476e-10 1.04695e-10 1.1064e-10 1.10566e-10 1.16529e-10 1.16482e-10 1.27239e-10 1.27232e-10
          1.37279e-10 1.37294e-10 1.46408e-10 1.46341e-10 1.54855e-10 1.54775e-10 1.61864e-10 1.62115e-10 1.69932e-10 1.69965e-10 1.75222e-10 1.7489e-10
          1.80638e-10 1.80364e-10 1.84921e-10 1.8497e-10 1.88664e-10 1.88607e-10 1.91407e-10 1.88921e-10 1.93294e-10 1.93165e-10 1.94779e-10 1.9507e-10
          1.95967e-10 1.37997e-10 1.97123e-10 1.94801e-10 1.08533e-10 1.96933e-10 1.90908e-10 1.64406e-10 1.98325e-10 1.9765e-10 1.97722e-10 1.96926e-10
          1.9563e-10 1.96143e-10 1.94393e-10 1.77536e-10 1.92294e-10 1.92251e-10 1.8936e-10 1.89313e-10 1.84548e-10 1.84462e-10 1.76915e-10 1.76919e-10
          1.65431e-10 1.65409e-10 1.47116e-10 1.47129e-10 1.16671e-10 1.16675e-10 6.32454e-10 6.32454e-10
        </DataArray>
        <DataArray type="Float32" Name="X_lOH" NumberOfComponents="1" format="ascii">
          2.72165e-06 2.71615e-06 2.51283e-06 2.51523e-06 2.31887e-06 2.32064e-06 2.16166e-06 2.16431e-06 2.01362e-06 2.01163e-06 1.87705e-06 1.8794e-06
          1.75906e-06 1.75827e-06 1.65288e-06 1.65472e-06 1.55961e-06 1.56063e-06 1.4735e-06 1.47451e-06 1.396e-06 1.39659e-06 1.27343e-06 1.2735e-06
          1.17591e-06 1.17579e-06 1.09884e-06 1.09936e-06 1.03567e-06 1.03622e-06 9.88101e-07 9.86588e-07 9.38491e-07 9.38302e-07 9.08186e-07 9.09961e-07
          8.79234e-07 8.80613e-07 8.57553e-07 8.57313e-07 8.3948e-07 8.39734e-07 8.26683e-07 8.37589e-07 8.18092e-07 8.18656e-07 8.11476e-07 8.10241e-07
          8.06312e-07 1.14493e-06 8.01451e-07 8.11002e-07 1.45558e-06 8.02345e-07 8.27783e-07 9.61199e-07 7.97048e-07 7.99767e-07 7.99835e-07 8.03184e-07
          8.0921e-07 8.07038e-07 8.15286e-07 8.92673e-07 8.25475e-07 8.25657e-07 8.4012e-07 8.40329e-07 8.64713e-07 8.65123e-07 9.06056e-07 9.06036e-07
          9.75114e-07 9.75245e-07 1.10677e-06 1.10667e-06 1.4157e-06 1.41566e-06 2.67481e-07 2.67481e-07
        </DataArray>
        <DataArray type="Float32" Name="X_gBrine" NumberOfComponents="1" format="ascii">
          0.0112375 0.011219 0.0112257 0.0112257 0.0112319 0.011232 0.0112384 0.0112385 0.0112448 0.0112447 0.011251 0.011251
          0.0112572 0.0112572 0.0112634 0.0112635 0.0112697 0.0112698 0.011276 0.011276 0.0112823 0.0112824 0.0112957 0.0112957
          0.0113095 0.0113095 0.0113239 0.0113239 0.0113389 0.0113389 0.0113545 0.0113545 0.011375 0.011375 0.0113965 0.0113966
          0.0114187 0.0114187 0.0114416 0.0114416 0.0114651 0.0114651 0.0114892 0.0114892 0.0115138 0.0115139 0.0115389 0.0115388
          0.0115643 0.0115642 0.0115901 0.01159 0.0116161 0.0116163 0.0116428 0.0116428 0.0116697 0.0116697 0.011697 0.0116971
          0.011725 0.011725 0.0117536 0.0117536 0.0117831 0.0117831 0.0118137 0.0118137 0.0118458 0.0118458 0.0118802 0.0118802
          0.0119176 0.0119177 0.0119596 0.0119596 0.0120087 0.0120087 0.0120698 0.0120698
        </DataArray>
        <DataArray type="Float32" Name="X_gTotalC" NumberOfComponents="1" format="ascii">
          0.988763 0.988781 0.988774 0.988774 0.988768 0.988768 0.988762 0.988762 0.988755 0.988755 0.988749 0.988749
          0.988743 0.988743 0.988737 0.988737 0.98873 0.98873 0.988724 0.988724 0.988718 0.988718 0.988704 0.988704
          0.98869 0.98869 0.988676 0.988676 0.988661 0.988661 0.988646 0.988645 0.988625 0.988625 0.988603 0.988603
          0.988581 0.988581 0.988558 0.988558 0.988535 0.988535 0.988511 0.988511 0.988486 0.988486 0.988461 0.988461
          0.988436 0.988436 0.98841 0.98841 0.988384 0.988384 0.988357 0.988357 0.98833 0.98833 0.988303 0.988303
          0.988275 0.988275 0.988246 0.988246 0.988217 0.988217 0.988186 0.988186 0.988154 0.988154 0.98812 0.98812
          0.988082 0.988082 0.98804 0.98804 0.987991 0.987991 0.98793 0.98793
        </DataArray>
        <DataArray type="Float32" Name="X_gNa" NumberOfComponents="1" format="ascii">
          0 0 0 0 0 0 0 0 0 0 0 0
          0 0 0 0 0 0 0 0 0 0 0 0
          0 0 0 0 0 0 0 0 0 0 0 0
          0 0 0 0 0 0 0 0 0 0 0 0
          0 0 0 0 0 0 0 0 0 0 0 0
          0 0 0 0 0 0 0 0 0 0 0 0
          0 0 0 0 0 0 0 0
        </DataArray>
        <DataArray type="Float32" Name="X_gCl" NumberOfComponents="1" format="ascii">
          0 0 0 0 0 0 0 0 0 0 0 0
          0 0 0 0 0 0 0 0 0 0 0 0
          0 0 0 0 0 0 0 0 0 0 0 0
          0 0 0 0 0 0 0 0 0 0 0 0
          0 0 0 0 0 0 0 0 0 0 0 0
          0 0 0 0 0 0 0 0 0 0 0 0
          0 0 0 0 0 0 0 0
        </DataArray>
        <DataArray type="Float32" Name="X_gCa" NumberOfComponents="1" format="ascii">
          0 0 0 0 0 0 0 0 0 0 0 0
          0 0 0 0 0 0 0 0 0 0 0 0
          0 0 0 0 0 0 0 0 0 0 0 0
          0 0 0 0 0 0 0 0 0 0 0 0
          0 0 0 0 0 0 0 0 0 0 0 0
          0 0 0 0 0 0 0 0 0 0 0 0
          0 0 0 0 0 0 0 0
        </DataArray>
        <DataArray type="Float32" Name="X_gUrea" NumberOfComponents="1" format="ascii">
          0 0 0 0 0 0 0 0 0 0 0 0
          0 0 0 0 0 0 0 0 0 0 0 0
          0 0 0 0 0 0 0 0 0 0 0 0
          0 0 0 0 0 0 0 0 0 0 0 0
          0 0 0 0 0 0 0 0 0 0 0 0
          0 0 0 0 0 0 0 0 0 0 0 0
          0 0 0 0 0 0 0 0
        </DataArray>
        <DataArray type="Float32" Name="X_gTotalNH" NumberOfComponents="1" format="ascii">
          0 0 0 0 0 0 0 0 0 0 0 0
          0 0 0 0 0 0 0 0 0 0 0 0
          0 0 0 0 0 0 0 0 0 0 0 0
          0 0 0 0 0 0 0 0 0 0 0 0
          0 0 0 0 0 0 0 0 0 0 0 0
          0 0 0 0 0 0 0 0 0 0 0 0
          0 0 0 0 0 0 0 0
        </DataArray>
        <DataArray type="Float32" Name="X_gO2" NumberOfComponents="1" format="ascii">
          0 0 0 0 0 0 0 0 0 0 0 0
          0 0 0 0 0 0 0 0 0 0 0 0
          0 0 0 0 0 0 0 0 0 0 0 0
          0 0 0 0 0 0 0 0 0 0 0 0
          0 0 0 0 0 0 0 0 0 0 0 0
          0 0 0 0 0 0 0 0 0 0 0 0
          0 0 0 0 0 0 0 0
        </DataArray>
        <DataArray type="Float32" Name="X_gSubstrate" NumberOfComponents="1" format="ascii">
          0 0 0 0 0 0 0 0 0 0 0 0
          0 0 0 0 0 0 0 0 0 0 0 0
          0 0 0 0 0 0 0 0 0 0 0 0
          0 0 0 0 0 0 0 0 0 0 0 0
          0 0 0 0 0 0 0 0 0 0 0 0
          0 0 0 0 0 0 0 0 0 0 0 0
          0 0 0 0 0 0 0 0
        </DataArray>
        <DataArray type="Float32" Name="X_gSuspended_Biomass" NumberOfComponents="1" format="ascii">
          0 0 0 0 0 0 0 0 0 0 0 0
          0 0 0 0 0 0 0 0 0 0 0 0
          0 0 0 0 0 0 0 0 0 0 0 0
          0 0 0 0 0 0 0 0 0 0 0 0
          0 0 0 0 0 0 0 0 0 0 0 0
          0 0 0 0 0 0 0 0 0 0 0 0
          0 0 0 0 0 0 0 0
        </DataArray>
        <DataArray type="Float32" Name="X_gNH4" NumberOfComponents="1" format="ascii">
          0 0 0 0 0 0 0 0 0 0 0 0
          0 0 0 0 0 0 0 0 0 0 0 0
          0 0 0 0 0 0 0 0 0 0 0 0
          0 0 0 0 0 0 0 0 0 0 0 0
          0 0 0 0 0 0 0 0 0 0 0 0
          0 0 0 0 0 0 0 0 0 0 0 0
          0 0 0 0 0 0 0 0
        </DataArray>
        <DataArray type="Float32" Name="X_gHCO3" NumberOfComponents="1" format="ascii">
          0 0 0 0 0 0 0 0 0 0 0 0
          0 0 0 0 0 0 0 0 0 0 0 0
          0 0 0 0 0 0 0 0 0 0 0 0
          0 0 0 0 0 0 0 0 0 0 0 0
          0 0 0 0 0 0 0 0 0 0 0 0
          0 0 0 0 0 0 0 0 0 0 0 0
          0 0 0 0 0 0 0 0
        </DataArray>
        <DataArray type="Float32" Name="X_gCO3" NumberOfComponents="1" format="ascii">
          0 0 0 0 0 0 0 0 0 0 0 0
          0 0 0 0 0 0 0 0 0 0 0 0
          0 0 0 0 0 0 0 0 0 0 0 0
          0 0 0 0 0 0 0 0 0 0 0 0
          0 0 0 0 0 0 0 0 0 0 0 0
          0 0 0 0 0 0 0 0 0 0 0 0
          0 0 0 0 0 0 0 0
        </DataArray>
        <DataArray type="Float32" Name="X_gCO2" NumberOfComponents="1" format="ascii">
          0.988763 0.988781 0.988774 0.988774 0.988768 0.988768 0.988762 0.988762 0.988755 0.988755 0.988749 0.988749
          0.988743 0.988743 0.988737 0.988737 0.98873 0.98873 0.988724 0.988724 0.988718 0.988718 0.988704 0.988704
          0.98869 0.98869 0.988676 0.988676 0.988661 0.988661 0.988646 0.988645 0.988625 0.988625 0.988603 0.988603
          0.988581 0.988581 0.988558 0.988558 0.988535 0.988535 0.988511 0.988511 0.988486 0.988486 0.988461 0.988461
          0.988436 0.988436 0.98841 0.98841 0.988384 0.988384 0.988357 0.988357 0.98833 0.98833 0.988303 0.988303
          0.988275 0.988275 0.988246 0.988246 0.988217 0.988217 0.988186 0.988186 0.988154 0.988154 0.98812 0.98812
          0.988082 0.988082 0.98804 0.98804 0.987991 0.987991 0.98793 0.98793
        </DataArray>
        <DataArray type="Float32" Name="X_gH" NumberOfComponents="1" format="ascii">
          0 0 0 0 0 0 0 0 0 0 0 0
          0 0 0 0 0 0 0 0 0 0 0 0
          0 0 0 0 0 0 0 0 0 0 0 0
          0 0 0 0 0 0 0 0 0 0 0 0
          0 0 0 0 0 0 0 0 0 0 0 0
          0 0 0 0 0 0 0 0 0 0 0 0
          0 0 0 0 0 0 0 0
        </DataArray>
        <DataArray type="Float32" Name="X_gOH" NumberOfComponents="1" format="ascii">
          0 0 0 0 0 0 0 0 0 0 0 0
          0 0 0 0 0 0 0 0 0 0 0 0
          0 0 0 0 0 0 0 0 0 0 0 0
          0 0 0 0 0 0 0 0 0 0 0 0
          0 0 0 0 0 0 0 0 0 0 0 0
          0 0 0 0 0 0 0 0 0 0 0 0
          0 0 0 0 0 0 0 0
        </DataArray>
        <DataArray type="Float32" Name="Molarity_Brine" NumberOfComponents="1" format="ascii">
          54613.8 54612.7 54575.6 54575.4 54532.8 54533.3 54492.6 54493.2 54450.3 54449.9 54406 54406.8
          54361.9 54361.9 54317.1 54317.5 54272.9 54273.7 54228.4 54228.6 54184.2 54184.7 54104 54104
          54029.1 54029.3 53960.7 53960.9 53898.5 53898.8 53843.6 53844 53786.7 53786.6 53742.4 53743.1
          53704.1 53704.7 53674 53673.8 53649.8 53649.8 53632.1 53632.5 53619.8 53620 53611.2 53610.7
          53606 53604.6 53603.9 53603.9 53604.1 53607.1 53611.6 53611.2 53619.5 53619.4 53631.5 53633.3
          53653.3 53652.5 53680.2 53679.8 53717 53717 53768.2 53768.2 53839.6 53839.6 53940 53940
          54080.8 54080.9 54283.1 54283.1 54582.5 54582.5 55049.2 55049.2
        </DataArray>
        <DataArray type="Float32" Name="Molarity_TotalC" NumberOfComponents="1" format="ascii">
          2.25713 2.25557 2.17729 2.1816 2.10628 2.10666 2.04616 2.04771 1.9821 1.98029 1.91857 1.92005
          1.86352 1.86201 1.81118 1.81368 1.76347 1.76315 1.71452 1.71611 1.6677 1.66779 1.58981 1.58988
          1.52349 1.52274 1.46926 1.47021 1.42049 1.42148 1.38584 1.38352 1.34368 1.343 1.32829 1.33279
          1.30061 1.30417 1.27969 1.27899 1.25865 1.25906 1.24419 1.26346 1.23512 1.23643 1.22589 1.22293
          1.2166 1.79746 1.20532 1.22149 2.32835 1.20548 1.24048 1.46629 1.17692 1.18162 1.16514 1.17431
          1.16672 1.16112 1.1501 1.27325 1.12967 1.12943 1.10241 1.1025 1.06988 1.07139 1.033 1.03291
          0.983954 0.984062 0.928371 0.928195 0.899296 0.899269 0.0132254 0.0132254
        </DataArray>
        <DataArray type="Float32" Name="Molarity_Na" NumberOfComponents="1" format="ascii">
          0.129637 0.129505 0.124819 0.124778 0.119408 0.11947 0.114345 0.114418 0.109084 0.109043 0.10362 0.103704
          0.0981741 0.0981843 0.0926922 0.0927188 0.0873021 0.087406 0.0819348 0.0819477 0.0766508 0.0767082 0.0671299 0.0671325
          0.0583336 0.0583644 0.0503421 0.0503563 0.0431839 0.0432048 0.0368592 0.0368862 0.0303655 0.0303716 0.0250495 0.0250527
          0.0207847 0.0207832 0.0174321 0.0174256 0.0148499 0.0148541 0.0129313 0.0129348 0.0115643 0.0115706 0.0106757 0.0106778
          0.0102018 0.0102036 0.0101099 0.0101087 0.0103909 0.0103889 0.0110653 0.0110657 0.0121979 0.0121859 0.01387 0.01386
          0.0162204 0.0162383 0.0195053 0.019511 0.0239965 0.0240181 0.0301569 0.0301682 0.0386182 0.0385822 0.0502207 0.0502246
          0.0662585 0.0662685 0.0886006 0.0886008 0.119936 0.119936 0.1633 0.1633
        </DataArray>
        <DataArray type="Float32" Name="Molarity_Cl" NumberOfComponents="1" format="ascii">
          334.643 335.221 355.758 355.941 379.474 379.201 401.657 401.339 424.705 424.884 448.635 448.265
          472.483 472.437 496.485 496.371 520.081 519.625 543.57 543.515 566.687 566.435 608.33 608.319
          646.792 646.655 681.727 681.667 713.005 712.916 740.642 740.526 769.007 768.978 792.265 792.263
          810.877 810.894 825.508 825.533 836.758 836.739 845.119 845.11 851.079 851.055 854.938 854.921
          856.979 856.948 857.344 857.348 856.056 856.116 853.108 853.099 848.087 848.14 840.685 840.76
          830.365 830.27 815.884 815.851 796.085 795.987 768.942 768.891 731.677 731.841 680.619 680.602
          610.077 610.034 511.907 511.906 374.486 374.485 185.193 185.193
        </DataArray>
        <DataArray type="Float32" Name="Molarity_Ca" NumberOfComponents="1" format="ascii">
          16.25 16.303 18.5526 18.5058 21.0975 21.0745 23.5608 23.5128 26.3354 26.3841 29.3734 29.3152
          32.4274 32.4628 35.6201 35.5431 38.8488 38.8238 42.3043 42.2474 45.8655 45.8425 52.5539 52.5522
          59.0714 59.099 65.1621 65.1045 71.0122 70.9464 76.1606 76.0886 81.7117 81.7751 85.2036 84.8701
          89.278 89.0071 92.4973 92.5771 95.4612 95.4546 97.5792 97.3997 98.9794 98.8824 100.255 100.455
          101.311 101.807 102.224 102.231 103.143 101.992 102.553 102.681 103.178 103.16 103.842 102.972
          102.472 102.934 102.213 102.398 101.818 101.896 100.907 100.936 99.1944 99.0602 95.6871 95.6925
          89.8703 89.8585 78.8845 78.8979 56.0536 56.0523 0 0
        </DataArray>
        <DataArray type="Float32" Name="Molarity_Urea" NumberOfComponents="1" format="ascii">
          12.3461 12.3943 14.4935 14.4403 16.8453 16.825 19.1218 19.0758 21.7038 21.7524 24.5389 24.4834
          27.3824 27.4198 30.3602 30.2819 33.3739 33.3543 36.6168 36.5589 39.9675 39.9472 46.2701 46.2685
          52.4257 52.4555 58.1818 58.124 63.7326 63.6669 68.6082 68.5399 73.8862 73.9506 77.1353 76.7974
          81.031 80.7563 84.1093 84.1896 86.9702 86.9634 89.011 88.8123 90.3554 90.2575 91.599 91.8022
          92.644 92.5587 93.5661 93.557 93.3788 93.3498 93.9112 93.814 94.6582 94.6351 95.4191 94.5388
          94.1636 94.6325 94.0848 94.1473 93.9315 94.0113 93.3508 93.3805 92.0851 91.9477 89.1813 89.187
          84.1952 84.1838 74.3518 74.3654 53.0709 53.0697 0 0
        </DataArray>
        <DataArray type="Float32" Name="Molarity_TotalNH" NumberOfComponents="1" format="ascii">
          306.631 307.1 322.981 323.266 341.465 341.239 358.601 358.382 375.972 376.049 393.698 393.447
          411.328 411.208 428.84 428.884 445.883 445.477 462.362 462.425 478.264 478.058 506.374 506.366
          531.668 531.475 554.313 554.37 573.793 573.837 591.064 591.087 608.242 608.085 624.486 625.159
          634.894 635.459 643.043 642.908 648.324 648.319 652.42 652.808 655.561 655.733 656.851 656.428
          656.761 656.901 655.277 655.3 654.397 654.513 650.454 650.64 644.055 644.154 635.301 637.136
          627.727 626.696 613.729 613.572 594.681 594.425 569.304 569.195 535.4 535.835 491.283 491.254
          432.276 432.257 355.967 355.939 264.15 264.151 185.193 185.193
        </DataArray>
        <DataArray type="Float32" Name="Molarity_O2" NumberOfComponents="1" format="ascii">
          -0.00224394 -0.00227397 -0.00223612 -0.00258734 -0.00283972 -0.0028163 -0.00321986 -0.00323417 -0.00324901 -0.0032261 -0.00323025 -0.00323594
          -0.0030763 -0.00313542 -5.67195e-05 -3.68007e-05 -1.29159e-07 -8.2344e-08 4.01687e-08 3.83465e-08 3.87872e-08 3.94261e-08 3.32352e-08 3.35279e-08
          2.87379e-08 2.92674e-08 -6.53997e-07 -9.08967e-08 -0.000206064 -0.000267568 -0.000807693 -0.000842585 -0.00114474 -0.00112349 -8.11702e-06 -4.26743e-05
          -0.000103648 -0.000242942 -0.000330021 -0.000314904 -0.00033305 -0.000331581 -0.000242922 -4.68113e-06 -9.11714e-07 -5.8232e-07 6.1057e-11 -5.78503e-10
          -5.7822e-09 -1.67217e-08 -3.89683e-06 -3.20574e-06 -0.000262438 -0.000288989 -0.000711712 -0.000813284 -0.000728246 -0.00077087 -0.000566433 -0.001394
          -0.00192429 -0.00160137 -0.00198014 -0.00194354 -0.00182967 -0.00178098 -0.00158757 -0.00157206 -0.00122496 -0.00131466 -0.000971324 -0.000964939
          -0.000413428 -0.000408378 -5.55886e-06 -5.45898e-06 -1.9802e-10 -1.20669e-09 0 0
        </DataArray>
        <DataArray type="Float32" Name="Molarity_Substrate" NumberOfComponents="1" format="ascii">
          16.537 16.5374 16.5505 16.5506 16.5655 16.5654 16.5796 16.5794 16.5941 16.5942 16.6091 16.6089
          16.6241 16.624 16.64 16.64 16.6545 16.6542 16.6688 16.6688 16.6827 16.6825 16.7073 16.7073
          16.7296 16.7295 16.7493 16.7493 16.766 16.766 16.7801 16.78 16.7931 16.7931 16.8031 16.8034
          16.8074 16.8075 16.807 16.8069 16.8014 16.8013 16.7901 16.7902 16.7718 16.7719 16.7444 16.7443
          16.7053 16.7051 16.6508 16.651 16.5756 16.5768 16.4742 16.4739 16.3335 16.3348 16.1429 16.1442
          15.8856 15.8834 15.5306 15.5299 15.0475 15.0452 14.3848 14.3836 13.473 13.4769 12.2202 12.2198
          10.4856 10.4845 8.06712 8.06709 4.67671 4.67669 0 0
        </DataArray>
        <DataArray type="Float32" Name="Molarity_Suspended_Biomass" NumberOfComponents="1" format="ascii">
          0.000157326 0.000157818 0.000156108 0.000156548 0.000159974 0.000159524 0.000158405 0.000160342 0.000151095 0.000141363 0.000170076 0.000168351
          0.000173068 0.000171525 0.000176269 0.000171811 0.000166608 0.000171718 0.000181745 0.00017922 0.000167162 0.000171401 0.000191956 0.000191365
          0.000192367 0.000193667 0.000199267 0.000199156 0.000200623 0.00019615 0.000204935 0.000203249 0.000212514 0.000212547 0.000219387 0.000219818
          0.000224209 0.000224614 0.000228462 0.000228533 0.000232705 0.000233042 0.000237048 0.000237172 0.000241145 0.00024133 0.000245017 0.000244984
          0.000248468 0.00024864 0.00025127 0.000250586 0.000256467 0.00025609 0.000259593 0.000259167 0.000262382 0.000261944 0.000263325 0.000263824
          0.0002643 0.000263752 0.000261593 0.000261307 0.000255707 0.000255433 0.000246114 0.00024589 0.000231166 0.000231207 0.000209697 0.000209517
          0.000178653 0.000178559 0.000135565 0.000135521 7.67426e-05 7.67239e-05 0 0
        </DataArray>
        <DataArray type="Float32" Name="Molarity_NH4" NumberOfComponents="1" format="ascii">
          304.059 304.53 320.489 320.77 339.044 338.818 356.242 356.021 373.678 373.757 391.47 391.218
          409.157 409.039 426.724 426.766 443.818 443.412 460.35 460.41 476.302 476.096 504.498 504.49
          529.866 529.673 552.573 552.628 572.109 572.152 589.42 589.446 606.648 606.491 622.91 623.579
          633.351 633.912 641.526 641.391 646.831 646.826 650.945 651.312 654.097 654.268 655.397 654.978
          655.318 654.851 653.847 653.853 651.802 653.083 648.988 648.936 642.657 642.751 633.916 635.74
          626.339 625.314 612.359 612.072 593.332 593.077 567.985 567.876 534.115 534.548 490.036 490.007
          431.079 431.06 354.826 354.797 263.03 263.032 185.037 185.037
        </DataArray>
        <DataArray type="Float32" Name="Molarity_HCO3" NumberOfComponents="1" format="ascii">
          2.0363 2.03458 1.95207 1.95606 1.87595 1.87641 1.8114 1.81297 1.74358 1.74184 1.6767 1.67818
          1.61837 1.61699 1.56312 1.56545 1.51281 1.51265 1.46196 1.46342 1.41367 1.41382 1.33368 1.33376
          1.26608 1.26546 1.21092 1.21177 1.16205 1.16293 1.12695 1.1247 1.08512 1.08456 1.06779 1.07165
          1.04095 1.04399 1.02066 1.02009 1.00094 1.00133 0.987301 1.0052 0.978632 0.979769 0.970238 0.967675
          0.962057 1.51475 0.952301 0.967461 2.03013 0.952546 0.98673 1.20028 0.929092 0.933461 0.920657 0.928379
          0.923538 0.918767 0.911583 1.02764 0.89738 0.89726 0.878342 0.878465 0.856499 0.857744 0.83302 0.832945
          0.802151 0.802255 0.769881 0.769727 0.766816 0.766789 0.00553194 0.00553194
        </DataArray>
        <DataArray type="Float32" Name="Molarity_CO3" NumberOfComponents="1" format="ascii">
          0.00256401 0.00255865 0.00234374 0.00234934 0.00214819 0.00214974 0.00199192 0.00199498 0.0018426 0.0018399 0.00170518 0.00170782
          0.00158936 0.00158781 0.00148555 0.00148841 0.00139525 0.00139571 0.00131056 0.00131218 0.00123426 0.00123469 0.00111465 0.00111476
          0.0010201 0.00101966 0.000946377 0.000947174 0.000885153 0.000885979 0.000842178 0.000838905 0.000792529 0.000792202 0.000767978 0.000771053
          0.000739004 0.000741423 0.000717323 0.000716968 0.000697831 0.000698293 0.000684166 0.000705227 0.000675203 0.00067618 0.000667607 0.000665378
          0.000660667 0.00148005 0.000652447 0.000670752 0.00253535 0.000652686 0.000699038 0.000987889 0.000635229 0.000640349 0.00063315 0.000638895
          0.000638753 0.00063493 0.000634159 0.000783343 0.000630532 0.000630784 0.000625045 0.000625362 0.000621933 0.00062279 0.000623147 0.00062309
          0.000627664 0.000627795 0.000646562 0.000646419 0.000720847 0.000720793 4.26535e-07 4.26535e-07
        </DataArray>
        <DataArray type="Float32" Name="Molarity_CO2" NumberOfComponents="1" format="ascii">
          0.218289 0.218458 0.22291 0.223222 0.228214 0.22813 0.232788 0.232771 0.236701 0.236636 0.240199 0.240184
          0.243586 0.243449 0.246598 0.246775 0.249284 0.249123 0.251268 0.251402 0.252818 0.25276 0.255028 0.25503
          0.256403 0.256282 0.257409 0.257512 0.25758 0.257686 0.258065 0.257996 0.257782 0.257662 0.259747 0.260381
          0.258945 0.259455 0.258326 0.258206 0.257028 0.257053 0.25622 0.257567 0.255833 0.256006 0.255 0.254609
          0.253902 0.28125 0.252381 0.253376 0.295713 0.252299 0.253066 0.265038 0.247211 0.247537 0.243861 0.245308
          0.242558 0.24173 0.237897 0.244845 0.231671 0.231553 0.223461 0.223424 0.212775 0.213041 0.199373 0.199357
          0.181188 0.181192 0.157856 0.157833 0.131771 0.131771 0.00769319 0.00769319
        </DataArray>
        <DataArray type="Float32" Name="Molarity_H" NumberOfComponents="1" format="ascii">
          6.08775e-05 6.09987e-05 6.58524e-05 6.57896e-05 7.12592e-05 7.12059e-05 7.63389e-05 7.6247e-05 8.18343e-05 8.19141e-05 8.76566e-05 8.75493e-05
          9.33954e-05 9.34372e-05 9.92436e-05 9.91348e-05 0.000105019 0.000104953 0.000110984 0.00011091 0.000116966 0.000116918 0.000127862 0.000127855
          0.000138099 0.000138113 0.000147425 0.000147357 0.000156068 0.000155987 0.000163258 0.000163511 0.000171533 0.000171567 0.000176984 0.000176648
          0.000182553 0.000182274 0.00018696 0.00018701 0.000190808 0.000190751 0.000193631 0.000191115 0.000195574 0.000195442 0.0001971 0.000197395
          0.000198317 0.000139654 0.000199494 0.000197144 0.000109838 0.000199294 0.000193186 0.000166369 0.000200671 0.000199989 0.000200031 0.000199221
          0.00019786 0.000198381 0.000196543 0.0001795 0.000194329 0.000194286 0.000191239 0.000191191 0.00018621 0.000186124 0.000178281 0.000178285
          0.00016641 0.000166388 0.000147606 0.000147618 0.000116613 0.000116617 0.000628379 0.000628379
        </DataArray>
        <DataArray type="Float32" Name="Molarity_OH" NumberOfComponents="1" format="ascii">
          0.000160974 0.000160651 0.000148707 0.000148849 0.000137314 0.000137418 0.00012808 0.000128236 0.000119382 0.000119264 0.000111356 0.000111494
          0.000104423 0.000104376 9.81829e-05 9.82917e-05 9.27016e-05 9.27615e-05 8.76397e-05 8.76994e-05 8.30823e-05 8.31171e-05 7.58749e-05 7.58791e-05
          7.01392e-05 7.01319e-05 6.56059e-05 6.56365e-05 6.18885e-05 6.19211e-05 5.90918e-05 5.90011e-05 5.617e-05 5.61587e-05 5.43904e-05 5.44962e-05
          5.26847e-05 5.2767e-05 5.14073e-05 5.1393e-05 5.03408e-05 5.0356e-05 4.95857e-05 5.02396e-05 4.90789e-05 4.91126e-05 4.86879e-05 4.86141e-05
          4.83817e-05 6.87013e-05 4.80916e-05 4.86647e-05 8.73433e-05 4.81436e-05 4.96673e-05 5.76726e-05 4.78183e-05 4.79815e-05 4.79782e-05 4.81781e-05
          4.85273e-05 4.83974e-05 4.88749e-05 5.35144e-05 4.94626e-05 4.94735e-05 5.03073e-05 5.03198e-05 5.1733e-05 5.17576e-05 5.41374e-05 5.41361e-05
          5.81593e-05 5.8167e-05 6.58417e-05 6.5836e-05 8.3899e-05 8.38964e-05 1.57575e-05 1.57575e-05
        </DataArray>
        <DataArray type="Float32" Name="Da_ureolysis" NumberOfComponents="1" format="ascii">
          0 0 0 0 0 0 0 0 0 0 0 0
          0 0 0 0 0 0 0 0 0 0 0 0
          0 0 0 0 0 0 0 0 0 0 0 0
          0 0 0 0 0 0 0 0 0 0 0 0
          0 0 0 0 0 0 0 0 0 0 0 0
          0 0 0 0 0 0 0 0 0 0 0 0
          0 0 0 0 0 0 0 0
        </DataArray>
        <DataArray type="Float32" Name="Da_precipitation" NumberOfComponents="1" format="ascii">
          1014.54 1029.62 16770.9 17157 23030.2 39856.5 79686.1 24363.7 171016 52081.3 93738.9 52056.4
          45085.6 85876 28765.4 100169 43793.9 43214 25053.5 134896 946.081 922.371 8408.72 9700.46
          7514.64 8352.2 7193.73 8228.51 6260.57 7196.58 4845.26 4414.78 3437.83 3660.89 5577.81 6632.42
          4547.9 5112.9 5097.59 5263.41 4873.1 5031.45 5065.75 6065.99 5779.59 5946.52 6093.17 5248.53
          4361.16 56956.4 3438.75 3965.41 230743 2982.26 2722.02 9987.7 1749.94 1884.69 1574.07 1694.81
          1632.78 1613.92 1413.23 2818.5 1174 1163.02 946.193 948.547 727.667 729.044 535.26 536.218
          340.444 341.282 180.881 180.924 65.3825 65.36 0 0
        </DataArray>
        <DataArray type="Float32" Name="Vx" NumberOfComponents="1" format="ascii">
          -1.4881e-09 -1.48717e-09 2.06263e-09 2.06782e-09 2.55188e-09 2.55753e-09 -2.93637e-10 -2.9376e-10 -5.26238e-11 -5.26714e-11 6.7832e-10 6.801e-10
          6.28692e-10 6.30902e-10 1.21996e-09 1.22293e-09 6.46981e-11 6.50581e-11 -1.07818e-09 -1.08099e-09 -1.07772e-09 -1.0811e-09 -6.58243e-10 -6.60144e-10
          1.87862e-10 1.87915e-10 3.41286e-10 3.41633e-10 5.07428e-11 5.07229e-11 -3.72913e-10 -3.73117e-10 5.55534e-10 5.54946e-10 6.02836e-10 6.02878e-10
          -1.24309e-09 -1.24281e-09 -8.24517e-10 -8.24726e-10 7.29958e-10 7.30048e-10 2.65969e-10 2.65841e-10 -1.6447e-09 -1.64569e-09 -1.3582e-09 -1.35899e-09
          5.10144e-09 5.10065e-09 5.58931e-09 5.58847e-09 -4.5307e-09 -4.53066e-09 -3.57943e-09 -3.5794e-09 1.8166e-09 1.81637e-09 -1.03044e-09 -1.03004e-09
          -2.80498e-09 -2.80438e-09 1.04738e-09 1.04759e-09 1.17927e-09 1.17954e-09 1.42951e-10 1.42992e-10 2.81908e-11 2.81843e-11 1.88258e-10 1.88242e-10
          -5.98321e-11 -5.98333e-11 -1.94534e-10 -1.94534e-10 -6.89906e-12 -6.90193e-12 3.33839e-11 3.33844e-11
        </DataArray>
        <DataArray type="Float32" Name="Vy" NumberOfComponents="1" format="ascii">
          1.43675e-07 1.41726e-07 8.57296e-09 8.38703e-09 -6.00905e-09 -2.77232e-09 1.88746e-09 6.24355e-09 -8.94185e-10 2.93977e-09 -1.49086e-09 2.87281e-09
          -3.35384e-09 1.67589e-09 -5.20084e-09 9.30208e-10 -3.50059e-09 3.54733e-09 -5.99052e-09 3.35312e-10 1.60011e-07 1.64171e-07 -1.77187e-08 -1.53692e-08
          -1.95078e-08 -1.75569e-08 -2.00482e-08 -1.75422e-08 -2.263e-08 -1.97143e-08 2.92837e-08 3.16448e-08 -3.9865e-08 -3.74922e-08 -2.44242e-08 -2.0583e-08
          -2.94578e-08 -2.62696e-08 -2.59124e-08 -2.51384e-08 -2.66872e-08 -2.58999e-08 -2.53343e-08 -2.33711e-08 -2.19344e-08 -2.1377e-08 -2.06774e-08 -2.38661e-08
          -2.8234e-08 -3.35683e-08 -3.52212e-08 -3.35474e-08 -5.15637e-08 -4.06932e-08 -5.74512e-08 -5.08236e-08 -6.54983e-08 -6.24909e-08 -7.32455e-08 -6.87044e-08
          -7.03987e-08 -7.05475e-08 -7.89797e-08 -8.19542e-08 -9.24149e-08 -9.36089e-08 -1.08979e-07 -1.08971e-07 -1.33725e-07 -1.33643e-07 -1.67647e-07 -1.67316e-07
          -2.31621e-07 -2.31129e-07 -3.48936e-07 -3.48747e-07 -5.91634e-07 -5.91651e-07 3.15148e-06 3.15148e-06
        </DataArray>
      </PointData>
      <CellData Scalars="process rank">
        <DataArray type="Float32" Name="process rank" NumberOfComponents="1" format="ascii">
          0 0 0 0 0 0 0 0 0 0 0 0
          0 0 0 0 0 0 0 0 0 0 0 0
          0 0 0 0 0 0 0 0 0 0 0 0
          0 0 0
        </DataArray>
      </CellData>
      <Points>
        <DataArray type="Float32" Name="Coordinates" NumberOfComponents="3" format="ascii">
          0 0 0 0.0254 0 0 0 0.01 0 0.0254 0.01 0
          0 0.02 0 0.0254 0.02 0 0 0.03 0 0.0254 0.03 0
          0 0.04 0 0.0254 0.04 0 0 0.05 0 0.0254 0.05 0
          0 0.06 0 0.0254 0.06 0 0 0.07 0 0.0254 0.07 0
          0 0.08 0 0.0254 0.08 0 0 0.09 0 0.0254 0.09 0
          0 0.1 0 0.0254 0.1 0 0 0.12 0 0.0254 0.12 0
          0 0.14 0 0.0254 0.14 0 0 0.16 0 0.0254 0.16 0
          0 0.18 0 0.0254 0.18 0 0 0.2 0 0.0254 0.2 0
          0 0.225 0 0.0254 0.225 0 0 0.25 0 0.0254 0.25 0
          0 0.275 0 0.0254 0.275 0 0 0.3 0 0.0254 0.3 0
          0 0.325 0 0.0254 0.325 0 0 0.35 0 0.0254 0.35 0
          0 0.375 0 0.0254 0.375 0 0 0.4 0 0.0254 0.4 0
          0 0.425 0 0.0254 0.425 0 0 0.45 0 0.0254 0.45 0
          0 0.475 0 0.0254 0.475 0 0 0.5 0 0.0254 0.5 0
          0 0.525 0 0.0254 0.525 0 0 0.55 0 0.0254 0.55 0
          0 0.575 0 0.0254 0.575 0 0 0.6 0 0.0254 0.6 0
          0 0.625 0 0.0254 0.625 0 0 0.65 0 0.0254 0.65 0
          0 0.675 0 0.0254 0.675 0 0 0.7 0 0.0254 0.7 0
          0 0.725 0 0.0254 0.725 0 0 0.75 0 0.0254 0.75 0
          0 0.775 0 0.0254 0.775 0 0 0.8 0 0.0254 0.8 0
        </DataArray>
      </Points>
      <Cells>
        <DataArray type="Int32" Name="connectivity" NumberOfComponents="1" format="ascii">
          0 1 3 2 2 3 5 4 4 5 7 6
          6 7 9 8 8 9 11 10 10 11 13 12
          12 13 15 14 14 15 17 16 16 17 19 18
          18 19 21 20 20 21 23 22 22 23 25 24
          24 25 27 26 26 27 29 28 28 29 31 30
          30 31 33 32 32 33 35 34 34 35 37 36
          36 37 39 38 38 39 41 40 40 41 43 42
          42 43 45 44 44 45 47 46 46 47 49 48
          48 49 51 50 50 51 53 52 52 53 55 54
          54 55 57 56 56 57 59 58 58 59 61 60
          60 61 63 62 62 63 65 64 64 65 67 66
          66 67 69 68 68 69 71 70 70 71 73 72
          72 73 75 74 74 75 77 76 76 77 79 78
        </DataArray>
        <DataArray type="Int32" Name="offsets" NumberOfComponents="1" format="ascii">
          4 8 12 16 20 24 28 32 36 40 44 48
          52 56 60 64 68 72 76 80 84 88 92 96
          100 104 108 112 116 120 124 128 132 136 140 144
          148 152 156
        </DataArray>
        <DataArray type="UInt8" Name="types" NumberOfComponents="1" format="ascii">
          9 9 9 9 9 9 9 9 9 9 9 9
          9 9 9 9 9 9 9 9 9 9 9 9
          9 9 9 9 9 9 9 9 9 9 9 9
          9 9 9
        </DataArray>
      </Cells>
    </Piece>
  </UnstructuredGrid>
</VTKFile>
