<?xml version="1.0"?>
<VTKFile type="UnstructuredGrid" version="0.1" byte_order="LittleEndian">
  <UnstructuredGrid>
    <Piece NumberOfCells="39" NumberOfPoints="80">
      <PointData Scalars="Sg">
        <DataArray type="Float32" Name="Sg" NumberOfComponents="1" format="ascii">
          0 0 0 0 0 0 0 0 0 0 0 0
          0 0 0 0 0 0 0 0 0 0 0 0
          0 0 0 0 0 0 0 0 0 0 0 0
          0 0 0 0 0 0 0 0 0 0 0 0
          0 0 0 0 0 0 0 0 0 0 0 0
          0 0 0 0 0 0 0 0 0 0 0 0
          0 0 0 0 0 0 0 0
        </DataArray>
        <DataArray type="Float32" Name="Sl" NumberOfComponents="1" format="ascii">
          1 1 1 1 1 1 1 1 1 1 1 1
          1 1 1 1 1 1 1 1 1 1 1 1
          1 1 1 1 1 1 1 1 1 1 1 1
          1 1 1 1 1 1 1 1 1 1 1 1
          1 1 1 1 1 1 1 1 1 1 1 1
          1 1 1 1 1 1 1 1 1 1 1 1
          1 1 1 1 1 1 1 1
        </DataArray>
        <DataArray type="Float32" Name="pg" NumberOfComponents="1" format="ascii">
          117627 117627 117528 117528 117430 117430 117331 117331 117232 117232 117133 117133
          117034 117034 116935 116935 116836 116836 116737 116737 116638 116638 116440 116440
          116241 116241 116042 116042 115844 115844 115644 115644 115395 115395 115146 115146
          114897 114897 114648 114648 114398 114398 114149 114149 113899 113899 113649 113649
          113400 113400 113150 113150 112901 112901 112651 112651 112401 112401 112152 112152
          111902 111902 111653 111653 111404 111404 111154 111154 110905 110905 110657 110657
          110408 110408 110160 110160 109913 109913 109667 109667
        </DataArray>
        <DataArray type="Float32" Name="pl" NumberOfComponents="1" format="ascii">
          107960 107960 107862 107862 107763 107763 107664 107664 107566 107566 107467 107467
          107368 107368 107269 107269 107170 107170 107071 107071 106972 106972 106773 106773
          106575 106575 106376 106376 106177 106177 105978 105978 105729 105729 105480 105480
          105230 105230 104981 104981 104731 104731 104482 104482 104232 104232 103983 103983
          103733 103733 103484 103484 103234 103234 102984 102984 102735 102735 102485 102485
          102236 102236 101986 101986 101737 101737 101488 101488 101239 101239 100990 100990
          100741 100741 100494 100494 100246 100246 100000 100000
        </DataArray>
        <DataArray type="Float32" Name="pc" NumberOfComponents="1" format="ascii">
          9666.67 9666.67 9666.67 9666.67 9666.67 9666.67 9666.67 9666.67 9666.67 9666.67 9666.67 9666.67
          9666.67 9666.67 9666.67 9666.67 9666.67 9666.67 9666.67 9666.67 9666.67 9666.67 9666.67 9666.67
          9666.67 9666.67 9666.67 9666.67 9666.67 9666.67 9666.67 9666.67 9666.67 9666.67 9666.67 9666.67
          9666.67 9666.67 9666.67 9666.67 9666.67 9666.67 9666.67 9666.67 9666.67 9666.67 9666.67 9666.67
          9666.67 9666.67 9666.67 9666.67 9666.67 9666.67 9666.67 9666.67 9666.67 9666.67 9666.67 9666.67
          9666.67 9666.67 9666.67 9666.67 9666.67 9666.67 9666.67 9666.67 9666.67 9666.67 9666.67 9666.67
          9666.67 9666.67 9666.67 9666.67 9666.67 9666.67 9666.67 9666.67
        </DataArray>
        <DataArray type="Float32" Name="rhoL" NumberOfComponents="1" format="ascii">
          1005.24 1005.27 1005.69 1005.67 1006.26 1006.26 1006.79 1006.78 1007.35 1007.34 1007.92 1007.91
          1008.5 1008.48 1009.08 1009.06 1009.64 1009.62 1010.2 1010.18 1010.75 1010.74 1011.77 1011.76
          1012.7 1012.69 1013.55 1013.55 1014.31 1014.31 1014.98 1014.98 1015.68 1015.68 1016.24 1016.24
          1016.69 1016.69 1017.05 1017.05 1017.33 1017.33 1017.54 1017.54 1017.69 1017.69 1017.79 1017.79
          1017.84 1017.84 1017.86 1017.86 1017.83 1017.83 1017.76 1017.76 1017.65 1017.65 1017.48 1017.48
          1017.24 1017.24 1016.9 1016.9 1016.44 1016.44 1015.81 1015.81 1014.95 1014.95 1013.76 1013.76
          1012.12 1012.12 1009.85 1009.85 1006.61 1006.61 1001.45 1001.45
        </DataArray>
        <DataArray type="Float32" Name="rhoG" NumberOfComponents="1" format="ascii">
          2.06911 2.06916 2.06738 2.06738 2.0656 2.0656 2.06382 2.06382 2.06204 2.06204 2.06026 2.06026
          2.05848 2.05848 2.0567 2.0567 2.05491 2.05491 2.05313 2.05313 2.05134 2.05134 2.04776 2.04776
          2.04418 2.04418 2.04059 2.04059 2.037 2.037 2.0334 2.0334 2.0289 2.0289 2.0244 2.0244
          2.01989 2.01989 2.01538 2.01538 2.01086 2.01086 2.00635 2.00635 2.00183 2.00183 1.99731 1.99731
          1.99279 1.99279 1.98826 1.98826 1.98374 1.98374 1.97922 1.97922 1.9747 1.9747 1.97017 1.97017
          1.96565 1.96565 1.96112 1.96112 1.9566 1.9566 1.95208 1.95208 1.94755 1.94755 1.94303 1.94303
          1.9385 1.9385 1.93397 1.93397 1.92944 1.92944 1.9249 1.9249
        </DataArray>
        <DataArray type="Float32" Name="mobL" NumberOfComponents="1" format="ascii">
          1082.98 1082.82 1080.8 1080.86 1078.1 1078.12 1075.64 1075.71 1073.12 1073.17 1070.58 1070.66
          1068.1 1068.17 1065.65 1065.72 1063.31 1063.39 1061.02 1061.09 1058.79 1058.84 1054.82 1054.85
          1051.27 1051.31 1048.13 1048.15 1045.38 1045.39 1043 1043.01 1040.58 1040.59 1038.65 1038.66
          1037.12 1037.11 1035.9 1035.9 1034.97 1034.98 1034.29 1034.29 1033.8 1033.8 1033.48 1033.47
          1033.29 1033.3 1033.24 1033.24 1033.34 1033.34 1033.55 1033.55 1033.92 1033.91 1034.46 1034.47
          1035.27 1035.28 1036.4 1036.4 1037.95 1037.95 1040.1 1040.1 1043.1 1043.1 1047.35 1047.35
          1053.42 1053.42 1062.36 1062.36 1076.38 1076.38 1103.12 1103.12
        </DataArray>
        <DataArray type="Float32" Name="mobG" NumberOfComponents="1" format="ascii">
          0 0 0 0 0 0 0 0 0 0 0 0
          0 0 0 0 0 0 0 0 0 0 0 0
          0 0 0 0 0 0 0 0 0 0 0 0
          0 0 0 0 0 0 0 0 0 0 0 0
          0 0 0 0 0 0 0 0 0 0 0 0
          0 0 0 0 0 0 0 0 0 0 0 0
          0 0 0 0 0 0 0 0
        </DataArray>
        <DataArray type="Float32" Name="porosity" NumberOfComponents="1" format="ascii">
          0.379977 0.380062 0.376124 0.376209 0.373953 0.374013 0.372419 0.372546 0.371091 0.371167 0.369764 0.370052
          0.368689 0.368841 0.367444 0.367607 0.366215 0.366451 0.365157 0.365293 0.364078 0.364269 0.362215 0.362551
          0.360467 0.360826 0.358848 0.358954 0.357488 0.357749 0.356271 0.356396 0.355355 0.3559 0.353843 0.352846
          0.353396 0.352893 0.352937 0.353618 0.353016 0.352991 0.352755 0.352786 0.352824 0.353007 0.352904 0.353025
          0.353368 0.353289 0.353788 0.353761 0.353886 0.35395 0.354535 0.354483 0.355405 0.355435 0.356423 0.356249
          0.357227 0.35723 0.358677 0.358698 0.360465 0.360556 0.362977 0.362952 0.366329 0.366256 0.370668 0.370664
          0.376649 0.376615 0.384252 0.384273 0.392781 0.392786 0.4 0.4
        </DataArray>
        <DataArray type="Float32" Name="temperature" NumberOfComponents="1" format="ascii">
          298.15 298.15 298.15 298.15 298.15 298.15 298.15 298.15 298.15 298.15 298.15 298.15
          298.15 298.15 298.15 298.15 298.15 298.15 298.15 298.15 298.15 298.15 298.15 298.15
          298.15 298.15 298.15 298.15 298.15 298.15 298.15 298.15 298.15 298.15 298.15 298.15
          298.15 298.15 298.15 298.15 298.15 298.15 298.15 298.15 298.15 298.15 298.15 298.15
          298.15 298.15 298.15 298.15 298.15 298.15 298.15 298.15 298.15 298.15 298.15 298.15
          298.15 298.15 298.15 298.15 298.15 298.15 298.15 298.15 298.15 298.15 298.15 298.15
          298.15 298.15 298.15 298.15 298.15 298.15 298.15 298.15
        </DataArray>
        <DataArray type="Float32" Name="phase presence" NumberOfComponents="1" format="ascii">
          1 1 1 1 1 1 1 1 1 1 1 1
          1 1 1 1 1 1 1 1 1 1 1 1
          1 1 1 1 1 1 1 1 1 1 1 1
          1 1 1 1 1 1 1 1 1 1 1 1
          1 1 1 1 1 1 1 1 1 1 1 1
          1 1 1 1 1 1 1 1 1 1 1 1
          1 1 1 1 1 1 1 1
        </DataArray>
        <DataArray type="Float32" Name="potential" NumberOfComponents="1" format="ascii">
          0.00722885 0.00720274 0.00686886 0.00687949 0.00641833 0.00642185 0.0060054 0.00601601 0.0055784 0.0055867 0.00514444 0.00515852
          0.00471861 0.00473096 0.00429482 0.00430794 0.00388908 0.00390361 0.00349042 0.00350148 0.0031004 0.00310856 0.00240421 0.00240971
          0.00178497 0.00179084 0.00123936 0.00124225 0.0007652 0.000768212 0.000361821 0.000364343 -3.9942e-05 -3.83404e-05 -0.000349791 -0.000348629
          -0.000589613 -0.000590321 -0.000771602 -0.00077194 -0.000905167 -0.000904682 -0.000999055 -0.000998713 -0.00106227 -0.00106217 -0.00110229 -0.00110248
          -0.0011231 -0.00112289 -0.00112848 -0.0011285 -0.00111907 -0.00111914 -0.00109908 -0.0010989 -0.00106743 -0.00106829 -0.00102471 -0.00102422
          -0.000967763 -0.000967227 -0.000897436 -0.00089735 -0.000812901 -0.000812863 -0.000712563 -0.000712459 -0.000596026 -0.00059607 -0.000464703 -0.000464707
          -0.000324181 -0.000324183 -0.000184398 -0.000184398 -6.42116e-05 -6.42119e-05 0 0
        </DataArray>
        <DataArray type="Float32" Name="boxVolume" NumberOfComponents="1" format="ascii">
          6.35e-05 6.35e-05 0.000127 0.000127 0.000127 0.000127 0.000127 0.000127 0.000127 0.000127 0.000127 0.000127
          0.000127 0.000127 0.000127 0.000127 0.000127 0.000127 0.000127 0.000127 0.0001905 0.0001905 0.000254 0.000254
          0.000254 0.000254 0.000254 0.000254 0.000254 0.000254 0.00028575 0.00028575 0.0003175 0.0003175 0.0003175 0.0003175
          0.0003175 0.0003175 0.0003175 0.0003175 0.0003175 0.0003175 0.0003175 0.0003175 0.0003175 0.0003175 0.0003175 0.0003175
          0.0003175 0.0003175 0.0003175 0.0003175 0.0003175 0.0003175 0.0003175 0.0003175 0.0003175 0.0003175 0.0003175 0.0003175
          0.0003175 0.0003175 0.0003175 0.0003175 0.0003175 0.0003175 0.0003175 0.0003175 0.0003175 0.0003175 0.0003175 0.0003175
          0.0003175 0.0003175 0.0003175 0.0003175 0.0003175 0.0003175 0.00015875 0.00015875
        </DataArray>
        <DataArray type="Float32" Name="pH" NumberOfComponents="1" format="ascii">
          7.29786 7.29655 7.28023 7.28071 7.25894 7.25911 7.24028 7.24075 7.22178 7.22215 7.20369 7.20428
          7.18653 7.18703 7.16999 7.17051 7.15463 7.15518 7.13993 7.14034 7.12585 7.12615 7.10138 7.10158
          7.08011 7.0803 7.06166 7.06179 7.0456 7.04574 7.03197 7.03209 7.0181 7.01813 7.00791 7.00814
          6.99887 6.99903 6.99164 6.9916 6.98555 6.98557 6.98096 6.98114 6.97762 6.9777 6.97477 6.97455
          6.97253 6.97261 6.97065 6.97066 6.97048 6.97051 6.96963 6.96976 6.96873 6.9687 6.96789 6.96927
          6.97066 6.9699 6.97182 6.97172 6.97317 6.97301 6.97507 6.975 6.97735 6.97772 6.98122 6.98117
          6.98487 6.98494 6.99291 6.99286 7.02974 7.02972 6.19963 6.19963
        </DataArray>
        <DataArray type="Float32" Name="Omega" NumberOfComponents="1" format="ascii">
          5.53331 5.54388 5.70386 5.69213 5.89154 5.89077 6.05861 6.05332 6.24233 6.2421 6.43178 6.42595
          6.6083 6.60749 6.78386 6.7748 6.95074 6.94813 7.12681 7.11966 7.30403 7.30203 7.6238 7.62218
          7.91637 7.91792 8.17365 8.16968 8.42015 8.41642 8.62527 8.62104 8.84933 8.8551 8.94995 8.92663
          9.1264 9.10905 9.27231 9.27879 9.42284 9.42228 9.53308 9.52134 9.6137 9.6091 9.70259 9.7166
          9.78961 9.78447 9.88006 9.8793 9.90366 9.90204 9.99045 9.98391 10.1064 10.1051 10.2386 10.1796
          10.2533 10.285 10.3788 10.3826 10.5405 10.5456 10.7288 10.7308 10.9464 10.939 11.1565 11.1575
          11.3498 11.3492 11.2974 11.2974 10.1378 10.137 0 0
        </DataArray>
        <DataArray type="Float32" Name="rurea" NumberOfComponents="1" format="ascii">
          0 0 0 0 0 0 0 0 0 0 0 0
          0 0 0 0 0 0 0 0 0 0 0 0
          0 0 0 0 0 0 0 0 0 0 0 0
          0 0 0 0 0 0 0 0 0 0 0 0
          0 0 0 0 0 0 0 0 0 0 0 0
          0 0 0 0 0 0 0 0 0 0 0 0
          0 0 0 0 0 0 0 0
        </DataArray>
        <DataArray type="Float32" Name="Volume_Fraction_Biofilm" NumberOfComponents="1" format="ascii">
          0.00573571 0.00573803 0.0056467 0.00566584 0.00561457 0.00561455 0.00559612 0.00560066 0.00555657 0.00555274 0.00551066 0.00551706
          0.00548311 0.00547958 0.00545008 0.0054604 0.00542224 0.0054214 0.00538271 0.0053898 0.00534069 0.00534206 0.00526912 0.00527378
          0.00520343 0.00520484 0.00514898 0.00515359 0.00508933 0.00509624 0.00504563 0.00505042 0.00499409 0.00499844 0.00499069 0.00499311
          0.00493548 0.00494163 0.00488736 0.00489378 0.00482968 0.00482939 0.00478052 0.00478803 0.00474488 0.00475019 0.0046965 0.00468951
          0.00464903 0.00465044 0.00459142 0.00459148 0.00456417 0.0045656 0.0045011 0.00450443 0.00441977 0.00442013 0.00431982 0.00435405
          0.004279 0.0042583 0.00416438 0.00416188 0.00401523 0.00401231 0.00382904 0.00382704 0.00358518 0.00359169 0.00327709 0.0032765
          0.00283695 0.00283783 0.00221248 0.00221185 0.00129471 0.00129431 0 0
        </DataArray>
        <DataArray type="Float32" Name="Volume_Fraction_Calcite" NumberOfComponents="1" format="ascii">
          0.0142871 0.0142004 0.0182291 0.0181251 0.0204322 0.0203725 0.021985 0.0218534 0.0233525 0.0232799 0.0247252 0.0244312
          0.0258274 0.0256799 0.0271059 0.0269325 0.0283626 0.0281278 0.0294601 0.0293171 0.0305814 0.0303884 0.032516 0.0321751
          0.0343293 0.0339694 0.0360029 0.0358925 0.0374228 0.037155 0.0386836 0.038554 0.0396512 0.0391016 0.0411667 0.0421605
          0.0416682 0.0421656 0.0421751 0.0414879 0.0421543 0.0421801 0.0424649 0.0424262 0.0424309 0.0422431 0.0423996 0.0422853
          0.0419833 0.0420603 0.0416207 0.041648 0.0415501 0.0414846 0.0409642 0.0410127 0.0401748 0.0401452 0.039257 0.039397
          0.0384943 0.0385114 0.0371587 0.0371396 0.0355202 0.035432 0.0331938 0.0332213 0.0300855 0.0301518 0.0260551 0.0260592
          0.0205143 0.0205471 0.0135359 0.013515 0.00592442 0.00591926 0 0
        </DataArray>
        <DataArray type="Float32" Name="Kxx" NumberOfComponents="1" format="ascii">
          1.71444e-10 1.71558e-10 1.66281e-10 1.66394e-10 1.63419e-10 1.63497e-10 1.61415e-10 1.61581e-10 1.59695e-10 1.59794e-10 1.57988e-10 1.58357e-10
          1.56615e-10 1.56807e-10 1.55033e-10 1.55239e-10 1.53482e-10 1.53779e-10 1.52156e-10 1.52326e-10 1.50811e-10 1.51049e-10 1.48508e-10 1.48922e-10
          1.46369e-10 1.46806e-10 1.44405e-10 1.44533e-10 1.42769e-10 1.43082e-10 1.41316e-10 1.41464e-10 1.40228e-10 1.40875e-10 1.38446e-10 1.3728e-10
          1.37923e-10 1.37334e-10 1.37386e-10 1.38183e-10 1.37478e-10 1.37448e-10 1.37173e-10 1.37209e-10 1.37254e-10 1.37467e-10 1.37347e-10 1.37489e-10
          1.37889e-10 1.37797e-10 1.38382e-10 1.3835e-10 1.38497e-10 1.38572e-10 1.3926e-10 1.39199e-10 1.40289e-10 1.40323e-10 1.41497e-10 1.4129e-10
          1.42456e-10 1.42461e-10 1.44198e-10 1.44224e-10 1.46365e-10 1.46476e-10 1.49447e-10 1.49416e-10 1.53626e-10 1.53534e-10 1.59149e-10 1.59145e-10
          1.66978e-10 1.66933e-10 1.77295e-10 1.77325e-10 1.89366e-10 1.89374e-10 2e-10 2e-10
        </DataArray>
        <DataArray type="Float32" Name="X_lBrine" NumberOfComponents="1" format="ascii">
          0.979086 0.979016 0.978109 0.978138 0.97687 0.976879 0.975719 0.975749 0.974513 0.974537 0.973272 0.973312
          0.972036 0.972072 0.97079 0.970829 0.96958 0.969624 0.968375 0.968408 0.967178 0.967203 0.964995 0.965013
          0.962995 0.963014 0.961177 0.961187 0.959547 0.959558 0.958114 0.958124 0.956632 0.956638 0.955439 0.955444
          0.954472 0.954469 0.953702 0.9537 0.953108 0.95311 0.952669 0.95267 0.952357 0.952358 0.95215 0.952149
          0.952039 0.95204 0.952014 0.952014 0.952086 0.952086 0.95224 0.952242 0.952501 0.952493 0.952883 0.952888
          0.953447 0.953452 0.954223 0.954224 0.95528 0.955281 0.95673 0.956731 0.958721 0.95872 0.961466 0.961466
          0.965244 0.965244 0.970509 0.970509 0.978068 0.978068 0.99029 0.99029
        </DataArray>
        <DataArray type="Float32" Name="X_lTotalC" NumberOfComponents="1" format="ascii">
          0.000134398 0.000134474 0.000135435 0.000135399 0.000136591 0.000136584 0.00013756 0.000137537 0.00013848 0.000138465 0.000139321 0.0001393
          0.000140063 0.000140042 0.000140718 0.000140707 0.000141281 0.000141259 0.000141756 0.000141752 0.000142149 0.000142141 0.000142684 0.000142683
          0.000142969 0.000142959 0.000143091 0.000143104 0.000143025 0.000143043 0.000142914 0.000142932 0.000142652 0.000142638 0.000142727 0.000142819
          0.000142315 0.000142402 0.00014191 0.000141895 0.000141341 0.000141342 0.00014087 0.000140943 0.000140494 0.000140529 0.00013998 0.000139886
          0.00013941 0.000139441 0.000138718 0.000138723 0.00013845 0.000138462 0.000137631 0.000137684 0.000136465 0.000136474 0.000134953 0.000135509
          0.00013437 0.000134043 0.000132449 0.000132406 0.000129698 0.000129633 0.000125878 0.000125844 0.000120369 0.000120508 0.000112757 0.000112741
          0.000101082 0.000101104 8.44435e-05 8.44289e-05 6.40332e-05 6.40288e-05 5.81077e-07 5.81077e-07
        </DataArray>
        <DataArray type="Float32" Name="X_lNa" NumberOfComponents="1" format="ascii">
          2.94901e-06 2.94188e-06 2.85039e-06 2.85333e-06 2.7253e-06 2.7263e-06 2.60915e-06 2.61216e-06 2.48752e-06 2.48992e-06 2.36228e-06 2.36638e-06
          2.2377e-06 2.24136e-06 2.11204e-06 2.11593e-06 1.99006e-06 1.99447e-06 1.86861e-06 1.87197e-06 1.74815e-06 1.75069e-06 1.5285e-06 1.53027e-06
          1.32739e-06 1.32935e-06 1.14475e-06 1.14571e-06 9.81196e-07 9.82224e-07 8.37448e-07 8.38327e-07 6.88968e-07 6.89626e-07 5.68602e-07 5.68832e-07
          4.72106e-07 4.71617e-07 3.95414e-07 3.95326e-07 3.36723e-07 3.36945e-07 2.93268e-07 2.93286e-07 2.6238e-07 2.62362e-07 2.42112e-07 2.42196e-07
          2.31404e-07 2.31462e-07 2.29378e-07 2.29353e-07 2.35844e-07 2.35775e-07 2.51227e-07 2.51259e-07 2.77307e-07 2.7661e-07 3.15432e-07 3.14871e-07
          3.68624e-07 3.69715e-07 4.44029e-07 4.4419e-07 5.46946e-07 5.47105e-07 6.87885e-07 6.8809e-07 8.8167e-07 8.8135e-07 1.14849e-06 1.14851e-06
          1.51788e-06 1.51783e-06 2.03346e-06 2.03349e-06 2.75799e-06 2.758e-06 3.74885e-06 3.74885e-06
        </DataArray>
        <DataArray type="Float32" Name="X_lCl" NumberOfComponents="1" format="ascii">
          0.0119236 0.0119709 0.012578 0.0125585 0.013408 0.0134014 0.0141788 0.0141588 0.0149858 0.0149699 0.0158168 0.0157896
          0.0166434 0.0166191 0.0174772 0.0174514 0.0182865 0.0182573 0.0190923 0.01907 0.0198915 0.0198747 0.0213488 0.0213371
          0.022683 0.02267 0.0238946 0.0238883 0.0249796 0.0249727 0.0259331 0.0259273 0.0269179 0.0269135 0.0277165 0.0277151
          0.0283564 0.0283597 0.0288649 0.0288654 0.0292538 0.0292523 0.0295417 0.0295416 0.0297462 0.0297464 0.0298802 0.0298796
          0.0299507 0.0299503 0.0299634 0.0299636 0.0299201 0.0299205 0.029817 0.0298168 0.0296426 0.0296473 0.0293879 0.029392
          0.0290336 0.0290261 0.0285307 0.0285296 0.0278443 0.0278432 0.0269042 0.0269028 0.0256116 0.0256139 0.023832 0.0238318
          0.0213674 0.0213678 0.0179272 0.017927 0.013098 0.013098 0.00655617 0.00655617
        </DataArray>
        <DataArray type="Float32" Name="X_lCa" NumberOfComponents="1" format="ascii">
          0.000205956 0.000206772 0.00021804 0.000217481 0.000232824 0.000232723 0.000246556 0.000246161 0.000261475 0.00026129 0.000277165 0.000276643
          0.000292645 0.000292349 0.000308488 0.000307826 0.000323997 0.000323572 0.000340165 0.000339593 0.00035666 0.000356384 0.000387532 0.000387305
          0.000416944 0.000416879 0.000444205 0.000443881 0.000470475 0.000470118 0.000493582 0.000493207 0.000519107 0.0005194 0.000534503 0.000532835
          0.000554316 0.000552993 0.00057102 0.00057144 0.00058754 0.000587486 0.000600208 0.000599137 0.000609694 0.000609232 0.000619623 0.000620969
          0.000629028 0.000628545 0.000638726 0.000638656 0.000641224 0.000641061 0.000650073 0.000649352 0.000662019 0.000661961 0.000676384 0.000669123
          0.000675978 0.000680058 0.000689354 0.000689882 0.000708473 0.000709266 0.000734039 0.000734421 0.000770752 0.000769044 0.000819666 0.000819898
          0.000902122 0.000901808 0.00102294 0.00102318 0.00109095 0.001091 0 0
        </DataArray>
        <DataArray type="Float32" Name="X_lUrea" NumberOfComponents="1" format="ascii">
          2.47919e-05 2.50169e-05 2.9133e-05 2.87095e-05 3.40375e-05 3.4022e-05 3.87436e-05 3.85594e-05 4.46164e-05 4.46628e-05 5.13079e-05 5.1067e-05
          5.79033e-05 5.79479e-05 6.503e-05 6.45365e-05 7.22456e-05 7.21915e-05 8.0647e-05 8.02126e-05 8.97833e-05 8.96979e-05 0.000107899 0.000107779
          0.000126502 0.000126667 0.000144425 0.000144038 0.000163534 0.000163099 0.000180438 0.000179957 0.00020062 0.000201168 0.00020859 0.000205969
          0.000226951 0.000224769 0.00024312 0.000243766 0.000261531 0.000261476 0.000275923 0.000274204 0.000286974 0.000286225 0.000300244 0.000302421
          0.000314023 0.000313256 0.000329523 0.000329407 0.000334632 0.00033436 0.000351246 0.000350089 0.000374389 0.000374197 0.000403193 0.000391369
          0.000410275 0.00041704 0.000442862 0.000443742 0.000488751 0.000490062 0.00055066 0.000551311 0.00063842 0.000635604 0.000756741 0.000757118
          0.000944336 0.000943823 0.00121524 0.00121563 0.00143783 0.0014379 0 0
        </DataArray>
        <DataArray type="Float32" Name="X_lTotalNH" NumberOfComponents="1" format="ascii">
          0.00565642 0.00567851 0.00596132 0.00595241 0.00634837 0.00634527 0.00670771 0.00669843 0.00708344 0.00707592 0.00746993 0.0074573
          0.00785444 0.007843 0.00824203 0.00823017 0.00861807 0.00860436 0.00899179 0.00898156 0.009362 0.00935414 0.0100362 0.0100308
          0.0106523 0.0106461 0.0112113 0.0112086 0.0117101 0.0117072 0.0121485 0.012146 0.0125997 0.0125973 0.0129703 0.0129711
          0.0132605 0.0132633 0.0134902 0.0134901 0.0136626 0.0136619 0.0137898 0.0137907 0.0138797 0.0138802 0.0139352 0.0139337
          0.0139606 0.0139609 0.013958 0.0139581 0.0139348 0.0139352 0.0138771 0.0138777 0.0137823 0.0137846 0.0136466 0.0136551
          0.0134763 0.013469 0.0132218 0.0132208 0.0128737 0.0128724 0.0123974 0.0123964 0.011741 0.0117437 0.0108387 0.0108384
          0.00957561 0.00957607 0.00780743 0.0078071 0.00541396 0.00541391 0.00314947 0.00314947
        </DataArray>
        <DataArray type="Float32" Name="X_lO2" NumberOfComponents="1" format="ascii">
          -7.24004e-08 -7.33368e-08 -7.41107e-08 -8.10608e-08 -9.07056e-08 -9.01326e-08 -1.00955e-07 -1.01257e-07 -1.0276e-07 -1.02375e-07 -1.00382e-07 -1.00901e-07
          -8.31152e-08 -8.60751e-08 -1.59109e-08 -1.58119e-08 -1.74459e-09 -1.84717e-09 -1.18199e-10 -1.38399e-10 -3.37021e-12 -4.02906e-12 -6.35215e-13 -1.48407e-13
          -4.46904e-12 -1.87188e-11 -2.85433e-10 -1.72794e-10 -7.31019e-09 -8.39927e-09 -2.54338e-08 -2.61411e-08 -3.48583e-08 -3.47995e-08 -1.44057e-09 -1.88135e-09
          -3.7906e-09 -7.18778e-09 -1.03271e-08 -9.85117e-09 -1.03028e-08 -1.03574e-08 -7.1632e-09 -6.98845e-10 -1.15095e-10 -1.39232e-10 -1.652e-12 -1.71553e-12
          -5.92828e-12 -6.00422e-12 -3.67151e-10 -3.55857e-10 -8.56385e-09 -9.33211e-09 -2.22002e-08 -2.51094e-08 -2.32844e-08 -2.43903e-08 -2.07434e-08 -4.26189e-08
          -5.91998e-08 -5.10472e-08 -6.19708e-08 -6.11932e-08 -5.7434e-08 -5.6369e-08 -4.99602e-08 -4.95907e-08 -3.92704e-08 -4.09051e-08 -3.03733e-08 -3.01616e-08
          -1.30962e-08 -1.30608e-08 -5.64523e-10 -5.68775e-10 -8.74687e-12 -8.49568e-12 0 0
        </DataArray>
        <DataArray type="Float32" Name="X_lSubstrate" NumberOfComponents="1" format="ascii">
          0.0029655 0.00296557 0.00296651 0.00296647 0.00296777 0.00296776 0.00296895 0.00296892 0.0029702 0.00297017 0.00297148 0.00297144
          0.00297279 0.00297274 0.0029742 0.00297416 0.00297546 0.00297541 0.00297668 0.00297664 0.00297787 0.00297785 0.00298002 0.00298
          0.00298193 0.00298191 0.00298359 0.00298358 0.00298496 0.00298495 0.00298602 0.00298602 0.0029869 0.0029869 0.00298739 0.00298741
          0.00298724 0.00298724 0.00298645 0.00298644 0.00298492 0.00298493 0.00298251 0.00298253 0.00297899 0.00297897 0.00297391 0.0029739
          0.00296686 0.00296692 0.00295718 0.00295721 0.00294395 0.00294401 0.00292593 0.00292588 0.00290095 0.00290157 0.00286746 0.00286791
          0.00282242 0.00282149 0.00275953 0.00275939 0.00267407 0.00267394 0.002557 0.00255683 0.00239567 0.00239594 0.00217298 0.00217296
          0.00186396 0.001864 0.0014319 0.00143187 0.000824628 0.000824625 0 0
        </DataArray>
        <DataArray type="Float32" Name="X_lSuspended_Biomass" NumberOfComponents="1" format="ascii">
          1.56913e-07 1.5756e-07 1.71845e-07 1.72255e-07 1.76834e-07 1.76756e-07 1.73838e-07 1.74947e-07 1.71354e-07 1.65192e-07 1.8365e-07 1.82449e-07
          1.88192e-07 1.87092e-07 1.89878e-07 1.87583e-07 1.85832e-07 1.88371e-07 1.92847e-07 1.9163e-07 1.80304e-07 1.82605e-07 2.12719e-07 2.12284e-07
          2.12743e-07 2.13766e-07 2.16733e-07 2.17583e-07 2.15767e-07 2.15192e-07 2.16218e-07 2.16772e-07 2.25783e-07 2.2583e-07 2.29746e-07 2.30063e-07
          2.31787e-07 2.32214e-07 2.33403e-07 2.33601e-07 2.35245e-07 2.35627e-07 2.37233e-07 2.3755e-07 2.39068e-07 2.39612e-07 2.40873e-07 2.41262e-07
          2.41747e-07 2.42356e-07 2.42111e-07 2.42188e-07 2.48364e-07 2.47119e-07 2.53085e-07 2.52077e-07 2.57692e-07 2.56548e-07 2.60255e-07 2.60088e-07
          2.6284e-07 2.62101e-07 2.61576e-07 2.61054e-07 2.57439e-07 2.56963e-07 2.50291e-07 2.49935e-07 2.37921e-07 2.37829e-07 2.19049e-07 2.18864e-07
          1.89947e-07 1.89875e-07 1.476e-07 1.4756e-07 8.60082e-08 8.59985e-08 0 0
        </DataArray>
        <DataArray type="Float32" Name="X_lNH4" NumberOfComponents="1" format="ascii">
          0.00592952 0.00595288 0.00625192 0.0062425 0.00666125 0.00665797 0.00704133 0.00703151 0.00743879 0.00743083 0.00784767 0.00783431
          0.00825452 0.00824242 0.00866467 0.00865211 0.00906262 0.00904811 0.00945816 0.00944733 0.00985003 0.00984172 0.0105638 0.010558
          0.0112161 0.0112096 0.011808 0.0118051 0.0123363 0.0123332 0.0128006 0.012798 0.0132785 0.013276 0.013671 0.0136718
          0.0139786 0.0139815 0.0142221 0.014222 0.0144048 0.0144041 0.0145397 0.0145407 0.0146351 0.0146356 0.0146942 0.0146926
          0.0147213 0.0147216 0.0147188 0.014719 0.0146944 0.0146948 0.0146337 0.0146343 0.0145338 0.0145362 0.0143907 0.0143996
          0.0142106 0.014203 0.013942 0.013941 0.0135745 0.0135732 0.0130718 0.0130708 0.0123791 0.0123818 0.0114268 0.0114265
          0.0100943 0.0100947 0.00822898 0.00822864 0.0057031 0.00570304 0.00333307 0.00333307
        </DataArray>
        <DataArray type="Float32" Name="X_lHCO3" NumberOfComponents="1" format="ascii">
          0.000169613 0.000169668 0.000170366 0.000170334 0.000171118 0.000171116 0.000171692 0.00017168 0.000172187 0.000172182 0.000172573 0.000172569
          0.000172846 0.000172839 0.000173012 0.000173019 0.000173094 0.00017309 0.00017308 0.000173092 0.000172978 0.00017298 0.000172587 0.000172596
          0.000172004 0.000172 0.000171323 0.000171344 0.000170515 0.000170542 0.000169752 0.000169778 0.000168796 0.000168781 0.000168382 0.000168495
          0.000167475 0.00016758 0.000166662 0.000166644 0.000165721 0.000165723 0.000164961 0.000165052 0.000164371 0.000164414 0.00016365 0.000163533
          0.000162896 0.000162935 0.000162024 0.000162029 0.000161712 0.000161727 0.000160746 0.000160812 0.000159385 0.000159393 0.000157633 0.00015833
          0.000157106 0.000156698 0.00015498 0.000154925 0.000151908 0.000151827 0.000147628 0.000147587 0.000141407 0.000141583 0.000132794 0.000132773
          0.000119406 0.000119434 0.000100256 0.000100238 7.69984e-05 7.69927e-05 3.37056e-07 3.37056e-07
        </DataArray>
        <DataArray type="Float32" Name="X_lCO3" NumberOfComponents="1" format="ascii">
          2.07748e-07 2.07303e-07 2.02014e-07 2.02125e-07 1.95083e-07 1.95144e-07 1.89146e-07 1.89291e-07 1.8346e-07 1.8359e-07 1.78027e-07 1.78211e-07
          1.72945e-07 1.73108e-07 1.68135e-07 1.68281e-07 1.63754e-07 1.63918e-07 1.59658e-07 1.59774e-07 1.55805e-07 1.55889e-07 1.49223e-07 1.49282e-07
          1.43623e-07 1.43677e-07 1.38842e-07 1.38877e-07 1.34738e-07 1.34783e-07 1.31298e-07 1.31335e-07 1.27822e-07 1.27834e-07 1.25345e-07 1.25411e-07
          1.23081e-07 1.23141e-07 1.2126e-07 1.21256e-07 1.19663e-07 1.19668e-07 1.18435e-07 1.18501e-07 1.17526e-07 1.17559e-07 1.16677e-07 1.16592e-07
          1.15944e-07 1.15973e-07 1.15233e-07 1.15237e-07 1.1507e-07 1.1508e-07 1.14521e-07 1.14573e-07 1.13798e-07 1.13793e-07 1.12895e-07 1.13465e-07
          1.13214e-07 1.12883e-07 1.12495e-07 1.1245e-07 1.11323e-07 1.11253e-07 1.09581e-07 1.09545e-07 1.06765e-07 1.0693e-07 1.02701e-07 1.02681e-07
          9.5412e-08 9.54408e-08 8.4345e-08 8.43251e-08 7.17003e-08 7.16921e-08 2.55591e-11 2.55591e-11
        </DataArray>
        <DataArray type="Float32" Name="X_lCO2" NumberOfComponents="1" format="ascii">
          1.1938e-05 1.19746e-05 1.24365e-05 1.24227e-05 1.3055e-05 1.305e-05 1.3614e-05 1.36e-05 1.41816e-05 1.41699e-05 1.47483e-05 1.47302e-05
          1.52976e-05 1.52809e-05 1.58355e-05 1.58202e-05 1.63433e-05 1.63245e-05 1.68318e-05 1.68193e-05 1.73012e-05 1.72911e-05 1.81216e-05 1.81152e-05
          1.88326e-05 1.88245e-05 1.94487e-05 1.94469e-05 1.99683e-05 1.99666e-05 2.04099e-05 2.04089e-05 2.08406e-05 2.08363e-05 2.12154e-05 2.12257e-05
          2.14587e-05 2.14697e-05 2.16413e-05 2.16391e-05 2.17524e-05 2.17519e-05 2.18297e-05 2.18372e-05 2.18804e-05 2.18838e-05 2.18869e-05 2.18771e-05
          2.18607e-05 2.18638e-05 2.1799e-05 2.17996e-05 2.17558e-05 2.17572e-05 2.16338e-05 2.16388e-05 2.14495e-05 2.14524e-05 2.12013e-05 2.12546e-05
          2.09984e-05 2.09655e-05 2.06113e-05 2.0607e-05 2.00752e-05 2.00691e-05 1.93426e-05 1.93392e-05 1.8322e-05 1.83344e-05 1.69247e-05 1.69232e-05
          1.49088e-05 1.49107e-05 1.2087e-05 1.20858e-05 8.4572e-06 8.45695e-06 3.38012e-07 3.38012e-07
        </DataArray>
        <DataArray type="Float32" Name="X_lH" NumberOfComponents="1" format="ascii">
          5.00232e-11 5.01725e-11 5.20618e-11 5.20051e-11 5.46312e-11 5.461e-11 5.69857e-11 5.69249e-11 5.94161e-11 5.93668e-11 6.18916e-11 6.18091e-11
          6.43312e-11 6.42591e-11 6.67714e-11 6.66934e-11 6.91177e-11 6.90334e-11 7.14395e-11 7.13725e-11 7.37317e-11 7.36837e-11 7.789e-11 7.78551e-11
          8.1686e-11 8.16521e-11 8.5124e-11 8.51002e-11 8.82319e-11 8.82038e-11 9.09548e-11 9.09295e-11 9.38094e-11 9.3804e-11 9.59583e-11 9.59081e-11
          9.79106e-11 9.78734e-11 9.95008e-11 9.95099e-11 1.00862e-10 1.00857e-10 1.01902e-10 1.0186e-10 1.02667e-10 1.02648e-10 1.03327e-10 1.0338e-10
          1.03853e-10 1.03834e-10 1.043e-10 1.04298e-10 1.04346e-10 1.0434e-10 1.04562e-10 1.0453e-10 1.04796e-10 1.04803e-10 1.05026e-10 1.04693e-10
          1.044e-10 1.04583e-10 1.04175e-10 1.04199e-10 1.03926e-10 1.03964e-10 1.03575e-10 1.03592e-10 1.03171e-10 1.03084e-10 1.02445e-10 1.02457e-10
          1.01846e-10 1.0183e-10 1.0033e-10 1.00341e-10 9.26452e-11 9.26499e-11 6.32454e-10 6.32454e-10
        </DataArray>
        <DataArray type="Float32" Name="X_lOH" NumberOfComponents="1" format="ascii">
          3.32591e-06 3.31569e-06 3.19143e-06 3.19504e-06 3.03622e-06 3.03744e-06 2.90623e-06 2.90945e-06 2.78278e-06 2.78518e-06 2.66695e-06 2.67067e-06
          2.5615e-06 2.5645e-06 2.46369e-06 2.46671e-06 2.37613e-06 2.37917e-06 2.29511e-06 2.29737e-06 2.22011e-06 2.22163e-06 2.0953e-06 2.09629e-06
          1.99243e-06 1.99331e-06 1.90718e-06 1.90773e-06 1.83585e-06 1.83646e-06 1.77736e-06 1.77788e-06 1.71974e-06 1.71985e-06 1.67846e-06 1.67935e-06
          1.64277e-06 1.64339e-06 1.61477e-06 1.61462e-06 1.59165e-06 1.59172e-06 1.57442e-06 1.57507e-06 1.56199e-06 1.5623e-06 1.55155e-06 1.55075e-06
          1.54344e-06 1.54373e-06 1.53675e-06 1.53678e-06 1.53622e-06 1.53631e-06 1.53336e-06 1.53384e-06 1.53046e-06 1.53033e-06 1.52787e-06 1.53276e-06
          1.53825e-06 1.53556e-06 1.5432e-06 1.54284e-06 1.54911e-06 1.54854e-06 1.55742e-06 1.55715e-06 1.56772e-06 1.56905e-06 1.58469e-06 1.58452e-06
          1.60211e-06 1.60236e-06 1.63778e-06 1.63759e-06 1.79191e-06 1.79182e-06 2.67481e-07 2.67481e-07
        </DataArray>
        <DataArray type="Float32" Name="X_gBrine" NumberOfComponents="1" format="ascii">
          0.0112384 0.0112213 0.0112287 0.0112287 0.0112352 0.0112352 0.011242 0.0112421 0.0112487 0.0112487 0.0112553 0.0112554
          0.0112619 0.011262 0.0112685 0.0112686 0.0112752 0.0112753 0.011282 0.011282 0.0112887 0.0112888 0.0113028 0.0113029
          0.0113175 0.0113175 0.0113326 0.0113326 0.0113482 0.0113483 0.0113645 0.0113645 0.0113856 0.0113856 0.0114076 0.0114076
          0.0114302 0.0114302 0.0114535 0.0114535 0.0114773 0.0114773 0.0115016 0.0115017 0.0115264 0.0115264 0.0115516 0.0115516
          0.0115771 0.0115771 0.0116029 0.0116029 0.0116291 0.0116291 0.0116556 0.0116556 0.0116825 0.0116825 0.0117098 0.0117098
          0.0117377 0.0117377 0.0117662 0.0117662 0.0117955 0.0117955 0.0118259 0.0118259 0.0118577 0.0118577 0.0118914 0.0118914
          0.0119278 0.0119278 0.0119678 0.0119678 0.0120134 0.0120134 0.0120698 0.0120698
        </DataArray>
        <DataArray type="Float32" Name="X_gTotalC" NumberOfComponents="1" format="ascii">
          0.988762 0.988779 0.988771 0.988771 0.988765 0.988765 0.988758 0.988758 0.988751 0.988751 0.988745 0.988745
          0.988738 0.988738 0.988732 0.988731 0.988725 0.988725 0.988718 0.988718 0.988711 0.988711 0.988697 0.988697
          0.988683 0.988683 0.988667 0.988667 0.988652 0.988652 0.988636 0.988636 0.988614 0.988614 0.988592 0.988592
          0.98857 0.98857 0.988546 0.988546 0.988523 0.988523 0.988498 0.988498 0.988474 0.988474 0.988448 0.988448
          0.988423 0.988423 0.988397 0.988397 0.988371 0.988371 0.988344 0.988344 0.988317 0.988317 0.98829 0.98829
          0.988262 0.988262 0.988234 0.988234 0.988204 0.988204 0.988174 0.988174 0.988142 0.988142 0.988109 0.988109
          0.988072 0.988072 0.988032 0.988032 0.987987 0.987987 0.98793 0.98793
        </DataArray>
        <DataArray type="Float32" Name="X_gNa" NumberOfComponents="1" format="ascii">
          0 0 0 0 0 0 0 0 0 0 0 0
          0 0 0 0 0 0 0 0 0 0 0 0
          0 0 0 0 0 0 0 0 0 0 0 0
          0 0 0 0 0 0 0 0 0 0 0 0
          0 0 0 0 0 0 0 0 0 0 0 0
          0 0 0 0 0 0 0 0 0 0 0 0
          0 0 0 0 0 0 0 0
        </DataArray>
        <DataArray type="Float32" Name="X_gCl" NumberOfComponents="1" format="ascii">
          0 0 0 0 0 0 0 0 0 0 0 0
          0 0 0 0 0 0 0 0 0 0 0 0
          0 0 0 0 0 0 0 0 0 0 0 0
          0 0 0 0 0 0 0 0 0 0 0 0
          0 0 0 0 0 0 0 0 0 0 0 0
          0 0 0 0 0 0 0 0 0 0 0 0
          0 0 0 0 0 0 0 0
        </DataArray>
        <DataArray type="Float32" Name="X_gCa" NumberOfComponents="1" format="ascii">
          0 0 0 0 0 0 0 0 0 0 0 0
          0 0 0 0 0 0 0 0 0 0 0 0
          0 0 0 0 0 0 0 0 0 0 0 0
          0 0 0 0 0 0 0 0 0 0 0 0
          0 0 0 0 0 0 0 0 0 0 0 0
          0 0 0 0 0 0 0 0 0 0 0 0
          0 0 0 0 0 0 0 0
        </DataArray>
        <DataArray type="Float32" Name="X_gUrea" NumberOfComponents="1" format="ascii">
          0 0 0 0 0 0 0 0 0 0 0 0
          0 0 0 0 0 0 0 0 0 0 0 0
          0 0 0 0 0 0 0 0 0 0 0 0
          0 0 0 0 0 0 0 0 0 0 0 0
          0 0 0 0 0 0 0 0 0 0 0 0
          0 0 0 0 0 0 0 0 0 0 0 0
          0 0 0 0 0 0 0 0
        </DataArray>
        <DataArray type="Float32" Name="X_gTotalNH" NumberOfComponents="1" format="ascii">
          0 0 0 0 0 0 0 0 0 0 0 0
          0 0 0 0 0 0 0 0 0 0 0 0
          0 0 0 0 0 0 0 0 0 0 0 0
          0 0 0 0 0 0 0 0 0 0 0 0
          0 0 0 0 0 0 0 0 0 0 0 0
          0 0 0 0 0 0 0 0 0 0 0 0
          0 0 0 0 0 0 0 0
        </DataArray>
        <DataArray type="Float32" Name="X_gO2" NumberOfComponents="1" format="ascii">
          0 0 0 0 0 0 0 0 0 0 0 0
          0 0 0 0 0 0 0 0 0 0 0 0
          0 0 0 0 0 0 0 0 0 0 0 0
          0 0 0 0 0 0 0 0 0 0 0 0
          0 0 0 0 0 0 0 0 0 0 0 0
          0 0 0 0 0 0 0 0 0 0 0 0
          0 0 0 0 0 0 0 0
        </DataArray>
        <DataArray type="Float32" Name="X_gSubstrate" NumberOfComponents="1" format="ascii">
          0 0 0 0 0 0 0 0 0 0 0 0
          0 0 0 0 0 0 0 0 0 0 0 0
          0 0 0 0 0 0 0 0 0 0 0 0
          0 0 0 0 0 0 0 0 0 0 0 0
          0 0 0 0 0 0 0 0 0 0 0 0
          0 0 0 0 0 0 0 0 0 0 0 0
          0 0 0 0 0 0 0 0
        </DataArray>
        <DataArray type="Float32" Name="X_gSuspended_Biomass" NumberOfComponents="1" format="ascii">
          0 0 0 0 0 0 0 0 0 0 0 0
          0 0 0 0 0 0 0 0 0 0 0 0
          0 0 0 0 0 0 0 0 0 0 0 0
          0 0 0 0 0 0 0 0 0 0 0 0
          0 0 0 0 0 0 0 0 0 0 0 0
          0 0 0 0 0 0 0 0 0 0 0 0
          0 0 0 0 0 0 0 0
        </DataArray>
        <DataArray type="Float32" Name="X_gNH4" NumberOfComponents="1" format="ascii">
          0 0 0 0 0 0 0 0 0 0 0 0
          0 0 0 0 0 0 0 0 0 0 0 0
          0 0 0 0 0 0 0 0 0 0 0 0
          0 0 0 0 0 0 0 0 0 0 0 0
          0 0 0 0 0 0 0 0 0 0 0 0
          0 0 0 0 0 0 0 0 0 0 0 0
          0 0 0 0 0 0 0 0
        </DataArray>
        <DataArray type="Float32" Name="X_gHCO3" NumberOfComponents="1" format="ascii">
          0 0 0 0 0 0 0 0 0 0 0 0
          0 0 0 0 0 0 0 0 0 0 0 0
          0 0 0 0 0 0 0 0 0 0 0 0
          0 0 0 0 0 0 0 0 0 0 0 0
          0 0 0 0 0 0 0 0 0 0 0 0
          0 0 0 0 0 0 0 0 0 0 0 0
          0 0 0 0 0 0 0 0
        </DataArray>
        <DataArray type="Float32" Name="X_gCO3" NumberOfComponents="1" format="ascii">
          0 0 0 0 0 0 0 0 0 0 0 0
          0 0 0 0 0 0 0 0 0 0 0 0
          0 0 0 0 0 0 0 0 0 0 0 0
          0 0 0 0 0 0 0 0 0 0 0 0
          0 0 0 0 0 0 0 0 0 0 0 0
          0 0 0 0 0 0 0 0 0 0 0 0
          0 0 0 0 0 0 0 0
        </DataArray>
        <DataArray type="Float32" Name="X_gCO2" NumberOfComponents="1" format="ascii">
          0.988762 0.988779 0.988771 0.988771 0.988765 0.988765 0.988758 0.988758 0.988751 0.988751 0.988745 0.988745
          0.988738 0.988738 0.988732 0.988731 0.988725 0.988725 0.988718 0.988718 0.988711 0.988711 0.988697 0.988697
          0.988683 0.988683 0.988667 0.988667 0.988652 0.988652 0.988636 0.988636 0.988614 0.988614 0.988592 0.988592
          0.98857 0.98857 0.988546 0.988546 0.988523 0.988523 0.988498 0.988498 0.988474 0.988474 0.988448 0.988448
          0.988423 0.988423 0.988397 0.988397 0.988371 0.988371 0.988344 0.988344 0.988317 0.988317 0.98829 0.98829
          0.988262 0.988262 0.988234 0.988234 0.988204 0.988204 0.988174 0.988174 0.988142 0.988142 0.988109 0.988109
          0.988072 0.988072 0.988032 0.988032 0.987987 0.987987 0.98793 0.98793
        </DataArray>
        <DataArray type="Float32" Name="X_gH" NumberOfComponents="1" format="ascii">
          0 0 0 0 0 0 0 0 0 0 0 0
          0 0 0 0 0 0 0 0 0 0 0 0
          0 0 0 0 0 0 0 0 0 0 0 0
          0 0 0 0 0 0 0 0 0 0 0 0
          0 0 0 0 0 0 0 0 0 0 0 0
          0 0 0 0 0 0 0 0 0 0 0 0
          0 0 0 0 0 0 0 0
        </DataArray>
        <DataArray type="Float32" Name="X_gOH" NumberOfComponents="1" format="ascii">
          0 0 0 0 0 0 0 0 0 0 0 0
          0 0 0 0 0 0 0 0 0 0 0 0
          0 0 0 0 0 0 0 0 0 0 0 0
          0 0 0 0 0 0 0 0 0 0 0 0
          0 0 0 0 0 0 0 0 0 0 0 0
          0 0 0 0 0 0 0 0 0 0 0 0
          0 0 0 0 0 0 0 0
        </DataArray>
        <DataArray type="Float32" Name="Molarity_Brine" NumberOfComponents="1" format="ascii">
          54632.4 54630.2 54602.4 54603.3 54564.2 54564.5 54528.8 54529.7 54491.6 54492.3 54453.2 54454.5
          54415 54416.1 54376.4 54377.6 54338.9 54340.2 54301.4 54302.5 54264.2 54265 54196.2 54196.7
          54133.7 54134.3 54076.8 54077.1 54025.7 54026 53980.7 53981 53934 53934.2 53896.4 53896.6
          53865.9 53865.8 53841.6 53841.6 53822.9 53822.9 53809 53809.1 53799.2 53799.2 53792.8 53792.7
          53789.4 53789.4 53788.8 53788.8 53791.4 53791.3 53796.6 53796.7 53805.4 53805.1 53818.2 53818.4
          53837 53837.2 53863 53863 53898.3 53898.3 53946.6 53946.7 54012.9 54012.9 54104 54104
          54229.1 54229.1 54402.6 54402.6 54650.4 54650.4 55049.2 55049.2
        </DataArray>
        <DataArray type="Float32" Name="Molarity_TotalC" NumberOfComponents="1" format="ascii">
          3.07049 3.07233 3.09558 3.0947 3.12378 3.12361 3.14759 3.14702 3.17041 3.17002 3.19148 3.19094
          3.2103 3.20976 3.22715 3.22686 3.24188 3.24132 3.25459 3.25445 3.26541 3.26517 3.28098 3.28094
          3.29058 3.29031 3.29615 3.29643 3.29709 3.29749 3.29671 3.29712 3.29293 3.29258 3.29647 3.29859
          3.28841 3.29043 3.28023 3.27988 3.26798 3.268 3.25774 3.25943 3.24953 3.25033 3.23795 3.23578
          3.22494 3.22565 3.20899 3.2091 3.2027 3.20298 3.18355 3.18476 3.15623 3.15644 3.12074 3.13359
          3.10652 3.09893 3.06109 3.06008 2.99614 2.99464 2.90609 2.90531 2.77655 2.77976 2.59793 2.59754
          2.32517 2.32568 1.93808 1.93775 1.46492 1.46482 0.0132254 0.0132254
        </DataArray>
        <DataArray type="Float32" Name="Molarity_Na" NumberOfComponents="1" format="ascii">
          0.128945 0.128638 0.124689 0.124816 0.119285 0.119328 0.114261 0.114392 0.108995 0.109099 0.103567 0.103745
          0.0981609 0.0983198 0.0927013 0.0928707 0.0873962 0.0875881 0.0821081 0.0822546 0.0768574 0.0769679 0.0672682 0.0673452
          0.0584713 0.0585571 0.0504684 0.0505101 0.0432902 0.0433353 0.0369725 0.0370111 0.030438 0.030467 0.0251342 0.0251443
          0.0208781 0.0208565 0.0174927 0.0174889 0.0149004 0.0149102 0.0129801 0.0129809 0.0116147 0.0116139 0.0107185 0.0107222
          0.010245 0.0102475 0.0101555 0.0101544 0.0104414 0.0104384 0.0111218 0.0111232 0.012275 0.0122442 0.0139603 0.0139355
          0.0163105 0.0163588 0.0196405 0.0196476 0.0241818 0.0241888 0.0303942 0.0304032 0.0389234 0.0389093 0.0506432 0.0506443
          0.066824 0.0668218 0.0893214 0.0893228 0.120758 0.120758 0.1633 0.1633
        </DataArray>
        <DataArray type="Float32" Name="Molarity_Cl" NumberOfComponents="1" format="ascii">
          338.081 339.434 356.797 356.239 380.558 380.368 402.647 402.074 425.802 425.344 449.669 448.888
          473.438 472.739 497.442 496.698 520.767 519.924 544.017 543.373 567.102 566.615 609.259 608.921
          647.932 647.554 683.113 682.93 714.668 714.469 742.439 742.269 771.161 771.033 794.478 794.435
          813.182 813.278 828.058 828.075 839.445 839.402 847.879 847.876 853.874 853.878 857.804 857.786
          859.873 859.862 860.251 860.256 858.982 858.996 855.969 855.964 850.869 851.005 843.42 843.536
          833.052 832.835 818.349 818.318 798.298 798.267 770.87 770.829 733.21 733.273 681.463 681.458
          610.005 610.015 510.644 510.638 371.89 371.889 185.193 185.193
        </DataArray>
        <DataArray type="Float32" Name="Molarity_Ca" NumberOfComponents="1" format="ascii">
          5.16578 5.18641 5.47134 5.45723 5.84563 5.84308 6.19369 6.18368 6.57211 6.56739 6.97043 6.95718
          7.36394 7.35635 7.76706 7.75024 8.16208 8.15121 8.57414 8.55957 8.99486 8.98777 9.78327 9.77746
          10.5355 10.5337 11.2337 11.2255 11.907 11.8979 12.5001 12.4905 13.1555 13.1629 13.5531 13.5108
          14.0618 14.0283 14.4907 14.5014 14.914 14.9126 15.2387 15.2115 15.4818 15.47 15.7354 15.7696
          15.9751 15.9629 16.2217 16.2199 16.2846 16.2805 16.5083 16.49 16.8098 16.8084 17.1718 16.9874
          17.1573 17.2609 17.491 17.5044 17.968 17.9881 18.6049 18.6145 19.5188 19.4755 20.7332 20.739
          22.7821 22.7741 25.7753 25.7813 27.4007 27.4018 0 0
        </DataArray>
        <DataArray type="Float32" Name="Molarity_Urea" NumberOfComponents="1" format="ascii">
          0.411249 0.414994 0.483477 0.476442 0.565191 0.56493 0.643676 0.640606 0.741655 0.742418 0.853375 0.849353
          0.96362 0.964345 1.08284 1.0746 1.20366 1.20274 1.34438 1.33712 1.49751 1.49606 1.80146 1.79946
          2.11402 2.11675 2.41555 2.40907 2.73721 2.72992 3.02213 3.01407 3.36246 3.37164 3.49798 3.45401
          3.80758 3.77097 4.08029 4.09114 4.3905 4.38956 4.63305 4.60419 4.81931 4.80672 5.04265 5.07921
          5.27435 5.26147 5.53478 5.53283 5.62043 5.61587 5.8991 5.87966 6.28708 6.28388 6.76968 6.57114
          6.88694 7.00048 7.43148 7.44624 8.19781 8.21979 9.23048 9.24138 10.6925 10.6453 12.6593 12.6656
          15.772 15.7635 20.2512 20.2576 23.8835 23.8847 0 0
        </DataArray>
        <DataArray type="Float32" Name="Molarity_TotalNH" NumberOfComponents="1" format="ascii">
          333.864 335.179 352.018 351.488 375.087 374.902 396.528 395.974 418.972 418.522 442.084 441.328
          465.104 464.419 488.335 487.624 510.899 510.076 533.35 532.735 555.615 555.142 596.227 595.9
          633.414 633.039 667.21 667.044 697.419 697.24 724.003 723.854 751.407 751.264 773.936 773.982
          791.606 791.774 805.608 805.603 816.124 816.084 823.888 823.943 829.38 829.409 832.779 832.689
          834.343 834.359 834.197 834.205 832.789 832.811 829.29 829.324 823.532 823.671 815.288 815.799
          804.921 804.482 789.461 789.4 768.326 768.251 739.443 739.382 699.697 699.853 645.164 645.146
          569.063 569.09 462.942 462.923 319.991 319.988 185.193 185.193
        </DataArray>
        <DataArray type="Float32" Name="Molarity_O2" NumberOfComponents="1" format="ascii">
          -0.00227436 -0.00230385 -0.00232913 -0.00254752 -0.00285229 -0.00283426 -0.00317628 -0.00318572 -0.00323486 -0.00322271 -0.0031618 -0.00317808
          -0.00261942 -0.00271266 -0.000501727 -0.000498596 -5.5044e-05 -5.82793e-05 -3.7314e-06 -4.36899e-06 -1.06452e-07 -1.27261e-07 -2.00841e-08 -4.69227e-09
          -1.41432e-07 -5.92387e-07 -9.04068e-06 -5.47296e-06 -0.000231713 -0.000266233 -0.000806717 -0.000829147 -0.0011064 -0.00110453 -4.57489e-05 -5.97468e-05
          -0.000120434 -0.000228368 -0.000328226 -0.000313099 -0.000327542 -0.000329278 -0.000227776 -2.2222e-05 -3.66033e-06 -4.42796e-06 -5.25433e-08 -5.45639e-08
          -1.88564e-07 -1.9098e-07 -1.16784e-05 -1.13191e-05 -0.000272392 -0.000296828 -0.000706079 -0.000798605 -0.000740483 -0.000775653 -0.000659565 -0.00135513
          -0.00188189 -0.00162272 -0.00196932 -0.00194461 -0.00182432 -0.00179049 -0.00158594 -0.00157421 -0.00124554 -0.00129739 -0.000962224 -0.000955518
          -0.00041422 -0.000413098 -1.78152e-05 -1.79494e-05 -2.75147e-07 -2.67246e-07 0 0
        </DataArray>
        <DataArray type="Float32" Name="Molarity_Substrate" NumberOfComponents="1" format="ascii">
          16.5465 16.5475 16.5596 16.5592 16.5761 16.576 16.5914 16.591 16.6076 16.6073 16.6243 16.6237
          16.641 16.6405 16.6585 16.658 16.6748 16.6742 16.6909 16.6905 16.7068 16.7065 16.7357 16.7354
          16.7618 16.7616 16.7852 16.7851 16.8055 16.8054 16.8226 16.8225 16.8391 16.8391 16.8512 16.8512
          16.8578 16.8578 16.8594 16.8593 16.8554 16.8554 16.8452 16.8453 16.8277 16.8276 16.8007 16.8006
          16.7618 16.7621 16.7073 16.7075 16.6321 16.6325 16.5292 16.5289 16.3863 16.3899 16.1945 16.197
          15.9363 15.931 15.576 15.5752 15.0868 15.0861 14.4174 14.4164 13.4962 13.4978 12.2274 12.2272
          10.4716 10.4718 8.02626 8.0261 4.60747 4.60746 0 0
        </DataArray>
        <DataArray type="Float32" Name="Molarity_Suspended_Biomass" NumberOfComponents="1" format="ascii">
          0.000157735 0.00015839 0.000172822 0.000173232 0.000177941 0.000177861 0.000175018 0.000176132 0.000172613 0.000166404 0.000185105 0.000183891
          0.000189791 0.000188678 0.000191601 0.000189282 0.000187623 0.000190182 0.000194814 0.000193581 0.000182244 0.000184567 0.000215223 0.000214781
          0.000215445 0.000216479 0.000219671 0.000220531 0.000218856 0.000218271 0.000219458 0.000220019 0.000229323 0.00022937 0.000233477 0.000233798
          0.000235656 0.00023609 0.000237383 0.000237585 0.000239323 0.000239711 0.000241394 0.000241716 0.000243297 0.00024385 0.000245158 0.000245554
          0.000246061 0.00024668 0.000246434 0.000246513 0.000252792 0.000251525 0.00025758 0.000256555 0.000262241 0.000261077 0.000264806 0.000264635
          0.000267372 0.000266619 0.000265997 0.000265466 0.000261672 0.000261188 0.000254249 0.000253887 0.000241478 0.000241384 0.000222062 0.000221875
          0.00019225 0.000192177 0.000149055 0.000149014 8.6577e-05 8.65673e-05 0 0
        </DataArray>
        <DataArray type="Float32" Name="Molarity_NH4" NumberOfComponents="1" format="ascii">
          330.427 331.739 348.549 348.019 371.581 371.396 392.99 392.437 415.403 414.954 438.487 437.732
          461.481 460.797 484.689 483.978 507.232 506.41 529.664 529.05 551.913 551.441 592.5 592.173
          629.67 629.296 663.455 663.288 693.659 693.479 720.239 720.089 747.643 747.5 770.165 770.209
          787.843 788.008 801.852 801.847 812.38 812.34 820.154 820.208 825.655 825.683 829.067 828.979
          830.644 830.659 830.515 830.524 829.115 829.137 825.637 825.669 819.91 820.049 811.705 812.202
          801.354 800.924 785.945 785.885 764.883 764.809 736.101 736.04 696.498 696.651 642.164 642.147
          566.365 566.392 460.673 460.654 318.245 318.242 185.037 185.037
        </DataArray>
        <DataArray type="Float32" Name="Molarity_HCO3" NumberOfComponents="1" format="ascii">
          2.79432 2.79531 2.80798 2.80742 2.82199 2.82193 2.83294 2.8327 2.84269 2.84257 2.85069 2.85057
          2.85681 2.85666 2.8612 2.86126 2.86415 2.86402 2.86551 2.86565 2.86539 2.86539 2.8618 2.86192
          2.85475 2.85467 2.84584 2.84616 2.83454 2.83498 2.82372 2.82415 2.80974 2.80948 2.80439 2.80627
          2.79053 2.79229 2.77798 2.77768 2.76305 2.76308 2.75095 2.75246 2.74151 2.74222 2.72974 2.72779
          2.71731 2.71796 2.7028 2.70289 2.69753 2.69777 2.68124 2.68233 2.65825 2.65839 2.62859 2.64021
          2.61918 2.61236 2.58287 2.58196 2.53054 2.52918 2.45772 2.45702 2.35214 2.35507 2.20628 2.20593
          1.98065 1.98112 1.65928 1.65897 1.27026 1.27017 0.00553194 0.00553194
        </DataArray>
        <DataArray type="Float32" Name="Molarity_CO3" NumberOfComponents="1" format="ascii">
          0.00348006 0.00347273 0.00338553 0.00338735 0.00327124 0.00327225 0.00317335 0.00317575 0.00307968 0.00308181 0.00299017 0.0029932
          0.00290647 0.00290915 0.00282725 0.00282966 0.00275512 0.00275781 0.00268769 0.00268961 0.00262427 0.00262565 0.00251593 0.00251691
          0.00242375 0.00242465 0.00234503 0.00234562 0.00227743 0.00227818 0.00222076 0.00222138 0.00216344 0.00216364 0.00212269 0.0021238
          0.00208528 0.00208629 0.00205516 0.00205508 0.00202865 0.00202872 0.00200823 0.00200935 0.00199311 0.00199367 0.00197891 0.00197746
          0.00196658 0.00196706 0.00195454 0.00195461 0.00195172 0.0019519 0.00194229 0.00194317 0.00192982 0.00192973 0.00191418 0.00192385
          0.00191913 0.00191352 0.00190631 0.00190555 0.00188561 0.00188441 0.00185494 0.00185433 0.00180574 0.00180852 0.00173496 0.00173462
          0.00160923 0.00160972 0.00141939 0.00141905 0.00120272 0.00120259 4.26535e-07 4.26535e-07
        </DataArray>
        <DataArray type="Float32" Name="Molarity_CO2" NumberOfComponents="1" format="ascii">
          0.272738 0.273585 0.284254 0.283936 0.298562 0.298447 0.311511 0.311185 0.324677 0.324407 0.337846 0.337424
          0.350628 0.350238 0.363165 0.362806 0.375019 0.374578 0.386443 0.38615 0.397438 0.3972 0.416703 0.416552
          0.433451 0.43326 0.448007 0.447962 0.460321 0.460279 0.470812 0.470788 0.481077 0.480976 0.489999 0.490234
          0.495839 0.496094 0.500235 0.500186 0.502943 0.50293 0.504832 0.505004 0.506078 0.506156 0.506278 0.506051
          0.505698 0.50577 0.504279 0.504292 0.503265 0.503297 0.500412 0.500527 0.496092 0.496162 0.490274 0.491504
          0.485465 0.484702 0.476356 0.476256 0.463756 0.463616 0.446557 0.446478 0.422635 0.422919 0.389943 0.38991
          0.342944 0.342988 0.277412 0.277384 0.19348 0.193475 0.00769319 0.00769319
        </DataArray>
        <DataArray type="Float32" Name="Molarity_H" NumberOfComponents="1" format="ascii">
          4.9889e-05 5.00395e-05 5.19454e-05 5.18882e-05 5.45401e-05 5.45187e-05 5.69208e-05 5.68592e-05 5.93813e-05 5.93314e-05 6.18907e-05 6.1807e-05
          6.43667e-05 6.42935e-05 6.68466e-05 6.67674e-05 6.92341e-05 6.91483e-05 7.15996e-05 7.15313e-05 7.39376e-05 7.38886e-05 7.8186e-05 7.81504e-05
          8.2072e-05 8.20373e-05 8.5598e-05 8.55737e-05 8.87899e-05 8.87612e-05 9.15904e-05 9.15647e-05 9.45296e-05 9.45239e-05 9.67484e-05 9.66975e-05
          9.87608e-05 9.87235e-05 0.000100401 0.00010041 0.000101802 0.000101797 0.000102873 0.00010283 0.00010366 0.00010364 0.000104337 0.00010439
          0.000104873 0.000104854 0.000105326 0.000105324 0.00010537 0.000105364 0.000105581 0.000105548 0.000105805 0.000105814 0.00010602 0.000105685
          0.000105363 0.000105547 0.000105101 0.000105125 0.000104803 0.000104841 0.000104384 0.000104401 0.000103889 0.000103801 0.000103037 0.000103048
          0.000102269 0.000102253 0.00010052 0.000100532 9.25233e-05 9.2528e-05 0.000628379 0.000628379
        </DataArray>
        <DataArray type="Float32" Name="Molarity_OH" NumberOfComponents="1" format="ascii">
          0.000196673 0.000196075 0.000188806 0.000189017 0.000179726 0.000179797 0.000172122 0.00017231 0.000164902 0.000165042 0.000158129 0.000158346
          0.000151962 0.000152138 0.000146244 0.00014642 0.000141124 0.000141302 0.000136388 0.00013652 0.000132004 0.000132093 0.000124708 0.000124766
          0.000118695 0.000118746 0.000113711 0.000113744 0.000109541 0.000109577 0.000106121 0.000106152 0.000102751 0.000102757 0.00010034 0.000100393
          9.825e-05 9.82873e-05 9.66099e-05 9.66009e-05 9.52525e-05 9.52569e-05 9.42407e-05 9.42797e-05 9.35105e-05 9.35286e-05 9.28945e-05 9.28464e-05
          9.24137e-05 9.24308e-05 9.20143e-05 9.20164e-05 9.19804e-05 9.19857e-05 9.18032e-05 9.18316e-05 9.16191e-05 9.16118e-05 9.14495e-05 9.17419e-05
          9.20483e-05 9.18871e-05 9.23139e-05 9.22923e-05 9.26256e-05 9.25913e-05 9.30646e-05 9.30488e-05 9.36006e-05 9.36798e-05 9.45032e-05 9.4493e-05
          9.53879e-05 9.54027e-05 9.72931e-05 9.72818e-05 0.000106107 0.000106102 1.57575e-05 1.57575e-05
        </DataArray>
        <DataArray type="Float32" Name="Da_ureolysis" NumberOfComponents="1" format="ascii">
          0 0 0 0 0 0 0 0 0 0 0 0
          0 0 0 0 0 0 0 0 0 0 0 0
          0 0 0 0 0 0 0 0 0 0 0 0
          0 0 0 0 0 0 0 0 0 0 0 0
          0 0 0 0 0 0 0 0 0 0 0 0
          0 0 0 0 0 0 0 0 0 0 0 0
          0 0 0 0 0 0 0 0
        </DataArray>
        <DataArray type="Float32" Name="Da_precipitation" NumberOfComponents="1" format="ascii">
          179.773 181.299 1193.11 1014.62 1944.71 4730.12 5793.17 2197.89 3435.6 2564.71 2801.94 2724.36
          2811.08 2662.56 2320.58 3536.51 2991.96 3000.85 3195.08 3714.59 237.618 218.371 1841.43 3237.58
          2170.17 3472.1 2254.65 3130.89 2411.54 3120.12 1549.31 1393.61 1745.35 1907.83 2324.78 2430.34
          2720.41 2692.61 3158.8 3127.14 3669.8 3755.73 4357.98 4514.03 5317.37 5399.44 5727.94 5751.7
          6486.28 6541.42 5897.86 5925.24 6692 6666.25 5891.57 5662.6 4778.45 4600.42 3704.16 3796.3
          3080.82 3294.25 2429.4 2498.7 1844.51 1864 1386.68 1393.18 1010.6 1010.31 730.778 730.205
          476.843 476.795 258.408 258.338 78.1464 78.1217 0 0
        </DataArray>
        <DataArray type="Float32" Name="Vx" NumberOfComponents="1" format="ascii">
          1.40302e-09 1.4009e-09 4.75745e-09 4.76308e-09 4.39398e-09 4.40419e-09 3.01833e-09 3.0251e-09 2.5451e-09 2.55155e-09 1.80349e-09 1.80855e-09
          7.69443e-10 7.71838e-10 1.44362e-11 1.42679e-11 -1.36798e-09 -1.37168e-09 -2.59588e-09 -2.60243e-09 -2.30345e-09 -2.30984e-09 -1.21986e-09 -1.22435e-09
          -9.18179e-10 -9.21056e-10 -7.83042e-10 -7.84979e-10 -3.71112e-10 -3.72091e-10 -3.7654e-10 -3.77423e-10 -4.74817e-10 -4.75339e-10 -6.41279e-10 -6.40255e-10
          -3.71499e-10 -3.70501e-10 2.22079e-10 2.22312e-10 2.1168e-10 2.1192e-10 -8.49448e-11 -8.49864e-11 -1.52456e-10 -1.52523e-10 1.12528e-11 1.12305e-11
          3.0566e-11 3.05728e-11 -5.0568e-11 -5.05646e-11 -5.14291e-11 -5.14323e-11 -2.56446e-10 -2.56446e-10 2.53452e-10 2.5336e-10 6.24246e-10 6.24086e-10
          -6.80249e-11 -6.80989e-11 -2.9523e-10 -2.9526e-10 -6.15547e-11 -6.15771e-11 -8.62216e-11 -8.62105e-11 -9.93451e-11 -9.93288e-11 1.55985e-11 1.56003e-11
          1.63883e-11 1.63868e-11 3.39345e-12 3.39347e-12 1.70192e-12 1.70199e-12 6.01625e-13 6.01633e-13
        </DataArray>
        <DataArray type="Float32" Name="Vy" NumberOfComponents="1" format="ascii">
          1.10437e-07 1.09921e-07 1.6953e-08 2.00356e-08 -1.05698e-08 -1.65888e-09 -2.6802e-09 1.01829e-08 -6.72539e-09 9.2956e-09 -9.1376e-09 9.39622e-09
          -9.70668e-09 1.02597e-08 -1.23408e-08 8.07636e-09 -9.87946e-09 9.85234e-09 -9.40955e-09 7.96596e-09 1.37041e-07 1.49138e-07 -1.90109e-08 -1.07701e-08
          -1.72075e-08 -1.07479e-08 -1.74576e-08 -1.25489e-08 -1.71661e-08 -1.32604e-08 2.7765e-08 3.08425e-08 -2.56965e-08 -2.35746e-08 -1.94604e-08 -1.84596e-08
          -1.72108e-08 -1.72927e-08 -1.52329e-08 -1.5435e-08 -1.35138e-08 -1.32022e-08 -1.16155e-08 -1.11843e-08 -9.66257e-09 -9.50961e-09 -9.12836e-09 -9.12074e-09
          -8.20909e-09 -8.12941e-09 -9.19968e-09 -9.15516e-09 -8.14803e-09 -8.17773e-09 -9.43085e-09 -9.79911e-09 -1.1927e-08 -1.23848e-08 -1.58065e-08 -1.52625e-08
          -1.91617e-08 -1.80126e-08 -2.49696e-08 -2.42913e-08 -3.39584e-08 -3.36301e-08 -4.67007e-08 -4.64885e-08 -6.60333e-08 -6.60284e-08 -9.27174e-08 -9.27929e-08
          -1.38891e-07 -1.38922e-07 -2.25532e-07 -2.25547e-07 -4.80861e-07 -4.80871e-07 2.77089e-06 2.77088e-06
        </DataArray>
      </PointData>
      <CellData Scalars="process rank">
        <DataArray type="Float32" Name="process rank" NumberOfComponents="1" format="ascii">
          0 0 0 0 0 0 0 0 0 0 0 0
          0 0 0 0 0 0 0 0 0 0 0 0
          0 0 0 0 0 0 0 0 0 0 0 0
          0 0 0
        </DataArray>
      </CellData>
      <Points>
        <DataArray type="Float32" Name="Coordinates" NumberOfComponents="3" format="ascii">
          0 0 0 0.0254 0 0 0 0.01 0 0.0254 0.01 0
          0 0.02 0 0.0254 0.02 0 0 0.03 0 0.0254 0.03 0
          0 0.04 0 0.0254 0.04 0 0 0.05 0 0.0254 0.05 0
          0 0.06 0 0.0254 0.06 0 0 0.07 0 0.0254 0.07 0
          0 0.08 0 0.0254 0.08 0 0 0.09 0 0.0254 0.09 0
          0 0.1 0 0.0254 0.1 0 0 0.12 0 0.0254 0.12 0
          0 0.14 0 0.0254 0.14 0 0 0.16 0 0.0254 0.16 0
          0 0.18 0 0.0254 0.18 0 0 0.2 0 0.0254 0.2 0
          0 0.225 0 0.0254 0.225 0 0 0.25 0 0.0254 0.25 0
          0 0.275 0 0.0254 0.275 0 0 0.3 0 0.0254 0.3 0
          0 0.325 0 0.0254 0.325 0 0 0.35 0 0.0254 0.35 0
          0 0.375 0 0.0254 0.375 0 0 0.4 0 0.0254 0.4 0
          0 0.425 0 0.0254 0.425 0 0 0.45 0 0.0254 0.45 0
          0 0.475 0 0.0254 0.475 0 0 0.5 0 0.0254 0.5 0
          0 0.525 0 0.0254 0.525 0 0 0.55 0 0.0254 0.55 0
          0 0.575 0 0.0254 0.575 0 0 0.6 0 0.0254 0.6 0
          0 0.625 0 0.0254 0.625 0 0 0.65 0 0.0254 0.65 0
          0 0.675 0 0.0254 0.675 0 0 0.7 0 0.0254 0.7 0
          0 0.725 0 0.0254 0.725 0 0 0.75 0 0.0254 0.75 0
          0 0.775 0 0.0254 0.775 0 0 0.8 0 0.0254 0.8 0
        </DataArray>
      </Points>
      <Cells>
        <DataArray type="Int32" Name="connectivity" NumberOfComponents="1" format="ascii">
          0 1 3 2 2 3 5 4 4 5 7 6
          6 7 9 8 8 9 11 10 10 11 13 12
          12 13 15 14 14 15 17 16 16 17 19 18
          18 19 21 20 20 21 23 22 22 23 25 24
          24 25 27 26 26 27 29 28 28 29 31 30
          30 31 33 32 32 33 35 34 34 35 37 36
          36 37 39 38 38 39 41 40 40 41 43 42
          42 43 45 44 44 45 47 46 46 47 49 48
          48 49 51 50 50 51 53 52 52 53 55 54
          54 55 57 56 56 57 59 58 58 59 61 60
          60 61 63 62 62 63 65 64 64 65 67 66
          66 67 69 68 68 69 71 70 70 71 73 72
          72 73 75 74 74 75 77 76 76 77 79 78
        </DataArray>
        <DataArray type="Int32" Name="offsets" NumberOfComponents="1" format="ascii">
          4 8 12 16 20 24 28 32 36 40 44 48
          52 56 60 64 68 72 76 80 84 88 92 96
          100 104 108 112 116 120 124 128 132 136 140 144
          148 152 156
        </DataArray>
        <DataArray type="UInt8" Name="types" NumberOfComponents="1" format="ascii">
          9 9 9 9 9 9 9 9 9 9 9 9
          9 9 9 9 9 9 9 9 9 9 9 9
          9 9 9 9 9 9 9 9 9 9 9 9
          9 9 9
        </DataArray>
      </Cells>
    </Piece>
  </UnstructuredGrid>
</VTKFile>
