<?xml version="1.0"?>
<VTKFile type="UnstructuredGrid" version="0.1" byte_order="LittleEndian">
  <UnstructuredGrid>
    <Piece NumberOfCells="39" NumberOfPoints="80">
      <PointData Scalars="Sg">
        <DataArray type="Float32" Name="Sg" NumberOfComponents="1" format="ascii">
          0 0 0 0 0 0 0 0 0 0 0 0
          0 0 0 0 0 0 0 0 0 0 0 0
          0 0 0 0 0 0 0 0 0 0 0 0
          0 0 0 0 0 0 0 0 0 0 0 0
          0 0 0 0 0 0 0 0 0 0 0 0
          0 0 0 0 0 0 0 0 0 0 0 0
          0 0 0 0 0 0 0 0
        </DataArray>
        <DataArray type="Float32" Name="Sl" NumberOfComponents="1" format="ascii">
          1 1 1 1 1 1 1 1 1 1 1 1
          1 1 1 1 1 1 1 1 1 1 1 1
          1 1 1 1 1 1 1 1 1 1 1 1
          1 1 1 1 1 1 1 1 1 1 1 1
          1 1 1 1 1 1 1 1 1 1 1 1
          1 1 1 1 1 1 1 1 1 1 1 1
          1 1 1 1 1 1 1 1
        </DataArray>
        <DataArray type="Float32" Name="pg" NumberOfComponents="1" format="ascii">
          121000 121000 120863 120863 120723 120723 120582 120582 120440 120440 120297 120297
          120154 120154 120010 120010 119865 119865 119720 119720 119574 119574 119281 119281
          118987 118987 118690 118690 118392 118392 118093 118093 117718 117718 117342 117342
          116965 116965 116588 116588 116213 116213 115840 115839 115467 115467 115096 115096
          114727 114727 114361 114361 113996 113996 113634 113634 113275 113275 112920 112919
          112567 112567 112218 112218 111874 111874 111535 111535 111202 111202 110876 110876
          110559 110559 110252 110252 109955 109955 109667 109667
        </DataArray>
        <DataArray type="Float32" Name="pl" NumberOfComponents="1" format="ascii">
          111333 111333 111196 111196 111056 111056 110915 110915 110773 110773 110630 110630
          110487 110487 110343 110343 110199 110199 110053 110053 109908 109908 109615 109615
          109320 109320 109024 109024 108726 108726 108426 108426 108051 108052 107675 107675
          107298 107298 106922 106922 106547 106547 106173 106173 105800 105800 105429 105429
          105061 105061 104694 104694 104330 104330 103968 103968 103608 103609 103253 103253
          102900 102900 102552 102552 102208 102208 101868 101868 101535 101535 101210 101210
          100892 100892 100585 100585 100288 100288 100000 100000
        </DataArray>
        <DataArray type="Float32" Name="pc" NumberOfComponents="1" format="ascii">
          9666.67 9666.67 9666.67 9666.67 9666.67 9666.67 9666.67 9666.67 9666.67 9666.67 9666.67 9666.67
          9666.67 9666.67 9666.67 9666.67 9666.67 9666.67 9666.67 9666.67 9666.67 9666.67 9666.67 9666.67
          9666.67 9666.67 9666.67 9666.67 9666.67 9666.67 9666.67 9666.67 9666.67 9666.67 9666.67 9666.67
          9666.67 9666.67 9666.67 9666.67 9666.67 9666.67 9666.67 9666.67 9666.67 9666.67 9666.67 9666.67
          9666.67 9666.67 9666.67 9666.67 9666.67 9666.67 9666.67 9666.67 9666.67 9666.67 9666.67 9666.67
          9666.67 9666.67 9666.67 9666.67 9666.67 9666.67 9666.67 9666.67 9666.67 9666.67 9666.67 9666.67
          9666.67 9666.67 9666.67 9666.67 9666.67 9666.67 9666.67 9666.67
        </DataArray>
        <DataArray type="Float32" Name="rhoL" NumberOfComponents="1" format="ascii">
          1026.04 1026.04 1025.96 1025.96 1025.89 1025.89 1025.82 1025.82 1025.75 1025.75 1025.68 1025.68
          1025.61 1025.61 1025.54 1025.54 1025.47 1025.47 1025.41 1025.41 1025.34 1025.34 1025.22 1025.22
          1025.1 1025.1 1024.98 1024.98 1024.86 1024.86 1024.75 1024.75 1024.61 1024.61 1024.47 1024.47
          1024.33 1024.33 1024.19 1024.19 1024.05 1024.05 1023.9 1023.9 1023.75 1023.75 1023.59 1023.59
          1023.41 1023.41 1023.21 1023.21 1022.99 1022.99 1022.74 1022.74 1022.44 1022.44 1022.09 1022.09
          1021.65 1021.65 1021.1 1021.1 1020.41 1020.41 1019.51 1019.51 1018.34 1018.34 1016.78 1016.78
          1014.66 1014.66 1011.71 1011.71 1007.49 1007.49 1001.45 1001.45
        </DataArray>
        <DataArray type="Float32" Name="rhoG" NumberOfComponents="1" format="ascii">
          2.13035 2.13059 2.12811 2.12811 2.12557 2.12557 2.12302 2.12302 2.12044 2.12044 2.11786 2.11786
          2.11526 2.11526 2.11265 2.11265 2.11003 2.11003 2.1074 2.1074 2.10476 2.10476 2.09945 2.09945
          2.09411 2.09411 2.08874 2.08874 2.08334 2.08334 2.07791 2.07791 2.07112 2.07112 2.0643 2.06431
          2.05747 2.05747 2.05065 2.05065 2.04385 2.04385 2.03708 2.03708 2.03033 2.03033 2.02361 2.02361
          2.01692 2.01692 2.01028 2.01028 2.00368 2.00367 1.99711 1.99711 1.9906 1.9906 1.98415 1.98415
          1.97776 1.97776 1.97144 1.97144 1.96519 1.96519 1.95903 1.95903 1.95298 1.95298 1.94705 1.94705
          1.94127 1.94127 1.93566 1.93566 1.93022 1.93022 1.9249 1.9249
        </DataArray>
        <DataArray type="Float32" Name="mobL" NumberOfComponents="1" format="ascii">
          1008.58 1008.58 1008.79 1008.79 1008.99 1008.99 1009.19 1009.19 1009.39 1009.39 1009.58 1009.58
          1009.78 1009.78 1009.97 1009.97 1010.16 1010.16 1010.34 1010.34 1010.53 1010.53 1010.88 1010.88
          1011.22 1011.22 1011.55 1011.55 1011.88 1011.88 1012.21 1012.21 1012.61 1012.61 1013 1013
          1013.4 1013.4 1013.8 1013.8 1014.21 1014.2 1014.63 1014.63 1015.07 1015.07 1015.54 1015.54
          1016.06 1016.06 1016.63 1016.63 1017.27 1017.27 1018.01 1018.01 1018.9 1018.9 1019.96 1019.96
          1021.28 1021.28 1022.94 1022.93 1025.06 1025.06 1027.85 1027.85 1031.59 1031.59 1036.73 1036.73
          1044.05 1044.05 1054.98 1054.98 1072.37 1072.37 1103.12 1103.12
        </DataArray>
        <DataArray type="Float32" Name="mobG" NumberOfComponents="1" format="ascii">
          0 0 0 0 0 0 0 0 0 0 0 0
          0 0 0 0 0 0 0 0 0 0 0 0
          0 0 0 0 0 0 0 0 0 0 0 0
          0 0 0 0 0 0 0 0 0 0 0 0
          0 0 0 0 0 0 0 0 0 0 0 0
          0 0 0 0 0 0 0 0 0 0 0 0
          0 0 0 0 0 0 0 0
        </DataArray>
        <DataArray type="Float32" Name="porosity" NumberOfComponents="1" format="ascii">
          0.314469 0.314551 0.302302 0.302165 0.298483 0.298416 0.296065 0.296011 0.294268 0.294251 0.292721 0.292909
          0.291215 0.291387 0.289797 0.2899 0.28835 0.288627 0.287164 0.287264 0.285813 0.285969 0.284173 0.284491
          0.282201 0.282384 0.280485 0.280451 0.279097 0.27931 0.278037 0.278054 0.27755 0.278106 0.276434 0.275488
          0.276556 0.276023 0.276846 0.277397 0.278042 0.278002 0.278696 0.278763 0.279852 0.280046 0.281192 0.281307
          0.282958 0.282894 0.284742 0.284761 0.28651 0.286409 0.287946 0.288532 0.291676 0.291421 0.294386 0.29416
          0.297255 0.297358 0.301171 0.301176 0.305817 0.305963 0.311806 0.311773 0.319487 0.3194 0.329446 0.329379
          0.343393 0.343377 0.362572 0.362598 0.382226 0.382236 0.4 0.4
        </DataArray>
        <DataArray type="Float32" Name="temperature" NumberOfComponents="1" format="ascii">
          298.15 298.15 298.15 298.15 298.15 298.15 298.15 298.15 298.15 298.15 298.15 298.15
          298.15 298.15 298.15 298.15 298.15 298.15 298.15 298.15 298.15 298.15 298.15 298.15
          298.15 298.15 298.15 298.15 298.15 298.15 298.15 298.15 298.15 298.15 298.15 298.15
          298.15 298.15 298.15 298.15 298.15 298.15 298.15 298.15 298.15 298.15 298.15 298.15
          298.15 298.15 298.15 298.15 298.15 298.15 298.15 298.15 298.15 298.15 298.15 298.15
          298.15 298.15 298.15 298.15 298.15 298.15 298.15 298.15 298.15 298.15 298.15 298.15
          298.15 298.15 298.15 298.15 298.15 298.15 298.15 298.15
        </DataArray>
        <DataArray type="Float32" Name="phase presence" NumberOfComponents="1" format="ascii">
          1 1 1 1 1 1 1 1 1 1 1 1
          1 1 1 1 1 1 1 1 1 1 1 1
          1 1 1 1 1 1 1 1 1 1 1 1
          1 1 1 1 1 1 1 1 1 1 1 1
          1 1 1 1 1 1 1 1 1 1 1 1
          1 1 1 1 1 1 1 1 1 1 1 1
          1 1 1 1 1 1 1 1
        </DataArray>
        <DataArray type="Float32" Name="potential" NumberOfComponents="1" format="ascii">
          0.325969 0.325972 0.322434 0.322436 0.318608 0.318607 0.314656 0.314654 0.310617 0.310612 0.306507 0.306503
          0.302331 0.30233 0.29809 0.298088 0.293784 0.293783 0.289416 0.289417 0.28499 0.284987 0.275984 0.275984
          0.266798 0.266803 0.257421 0.257421 0.247882 0.24788 0.238216 0.23821 0.226021 0.226038 0.213695 0.213713
          0.201286 0.20126 0.188923 0.188915 0.176677 0.176685 0.164552 0.164549 0.152548 0.152547 0.140708 0.140712
          0.129064 0.129065 0.11764 0.117641 0.106442 0.106433 0.0954481 0.0954501 0.0847556 0.0847672 0.0744229 0.0744182
          0.0644024 0.0643993 0.0547499 0.0547495 0.0455331 0.0455335 0.0368189 0.0368215 0.0286976 0.0286979 0.0212656 0.021265
          0.0146461 0.0146454 0.00896135 0.00896118 0.00415905 0.00415918 0 0
        </DataArray>
        <DataArray type="Float32" Name="boxVolume" NumberOfComponents="1" format="ascii">
          6.35e-05 6.35e-05 0.000127 0.000127 0.000127 0.000127 0.000127 0.000127 0.000127 0.000127 0.000127 0.000127
          0.000127 0.000127 0.000127 0.000127 0.000127 0.000127 0.000127 0.000127 0.0001905 0.0001905 0.000254 0.000254
          0.000254 0.000254 0.000254 0.000254 0.000254 0.000254 0.00028575 0.00028575 0.0003175 0.0003175 0.0003175 0.0003175
          0.0003175 0.0003175 0.0003175 0.0003175 0.0003175 0.0003175 0.0003175 0.0003175 0.0003175 0.0003175 0.0003175 0.0003175
          0.0003175 0.0003175 0.0003175 0.0003175 0.0003175 0.0003175 0.0003175 0.0003175 0.0003175 0.0003175 0.0003175 0.0003175
          0.0003175 0.0003175 0.0003175 0.0003175 0.0003175 0.0003175 0.0003175 0.0003175 0.0003175 0.0003175 0.0003175 0.0003175
          0.0003175 0.0003175 0.0003175 0.0003175 0.0003175 0.0003175 0.00015875 0.00015875
        </DataArray>
        <DataArray type="Float32" Name="pH" NumberOfComponents="1" format="ascii">
          6.69366 6.6937 6.6988 6.69885 6.69687 6.69706 6.69495 6.69511 6.69279 6.69287 6.69056 6.69064
          6.6886 6.68853 6.68658 6.68657 6.68467 6.68452 6.68269 6.68268 6.68094 6.68091 6.67745 6.6775
          6.67466 6.67464 6.67224 6.67229 6.66999 6.67001 6.66806 6.66805 6.66582 6.66582 6.66439 6.66446
          6.66301 6.6631 6.6618 6.66176 6.66091 6.66081 6.66019 6.66023 6.66008 6.65998 6.66013 6.65995
          6.66047 6.66038 6.66133 6.66134 6.66245 6.66503 6.66442 6.66463 6.6666 6.66668 6.67004 6.67021
          6.67519 6.67498 6.6819 6.68193 6.69096 6.69092 6.70362 6.70362 6.72146 6.72152 6.747 6.74701
          6.78126 6.78126 6.80822 6.80819 6.74183 6.74176 6.19963 6.19963
        </DataArray>
        <DataArray type="Float32" Name="Omega" NumberOfComponents="1" format="ascii">
          38.3711 38.3804 39.8404 39.8519 39.8417 39.8825 39.8139 39.8469 39.7087 39.7248 39.5631 39.5785
          39.4472 39.4335 39.2978 39.2961 39.1505 39.1194 38.9681 38.965 38.814 38.8061 38.437 38.4466
          38.1436 38.1377 37.8674 37.877 37.5783 37.582 37.3071 37.3056 36.9407 36.9424 36.6748 36.6879
          36.3614 36.3787 36.0279 36.0212 35.702 35.682 35.3514 35.3586 35.0561 35.0387 34.7253 34.6925
          34.3717 34.3559 34.026 34.028 33.6201 34.0847 33.2365 33.2726 32.7205 32.7333 32.2068 32.2362
          31.6994 31.6639 31.0716 31.0758 30.307 30.302 29.392 29.3922 28.234 28.2432 26.6611 26.6619
          23.8964 23.8967 17.0151 17.0122 4.48974 4.48808 0 0
        </DataArray>
        <DataArray type="Float32" Name="rurea" NumberOfComponents="1" format="ascii">
          0 0 0 0 0 0 0 0 0 0 0 0
          0 0 0 0 0 0 0 0 0 0 0 0
          0 0 0 0 0 0 0 0 0 0 0 0
          0 0 0 0 0 0 0 0 0 0 0 0
          0 0 0 0 0 0 0 0 0 0 0 0
          0 0 0 0 0 0 0 0 0 0 0 0
          0 0 0 0 0 0 0 0
        </DataArray>
        <DataArray type="Float32" Name="Volume_Fraction_Biofilm" NumberOfComponents="1" format="ascii">
          0.0180003 0.0180156 0.0171444 0.0171536 0.0167207 0.0167838 0.0166883 0.016736 0.0165428 0.0165629 0.0163432 0.0163764
          0.0162199 0.0161995 0.0160333 0.0160409 0.0158591 0.0158152 0.0156284 0.0156332 0.0154621 0.0154547 0.01502 0.0150459
          0.0147068 0.0147031 0.0144258 0.0144386 0.0141341 0.0141457 0.0138871 0.0138851 0.0135534 0.0135729 0.013351 0.0133385
          0.0131149 0.0131218 0.0128584 0.0128673 0.0126444 0.0126201 0.012385 0.0123978 0.0122179 0.012201 0.0120065 0.0119674
          0.0117825 0.0117615 0.0115486 0.0115523 0.0113173 0.0113504 0.011068 0.0110795 0.0107328 0.0107251 0.0104086 0.010442
          0.0101291 0.0100893 0.00977293 0.0097758 0.00931844 0.00931431 0.00881889 0.00881837 0.00821004 0.00821999 0.00747304 0.00747194
          0.00651196 0.00651219 0.00515634 0.00515424 0.00304796 0.003046 0 0
        </DataArray>
        <DataArray type="Float32" Name="Volume_Fraction_Calcite" NumberOfComponents="1" format="ascii">
          0.0675311 0.0674337 0.0805532 0.0806812 0.084796 0.0848002 0.0872466 0.0872525 0.0891894 0.0891864 0.0909357 0.0907143
          0.0925647 0.0924139 0.0941694 0.0940589 0.0957906 0.0955576 0.0972077 0.0971029 0.0987247 0.0985759 0.100807 0.100463
          0.103093 0.102913 0.105089 0.10511 0.106769 0.106545 0.108076 0.108061 0.108897 0.108321 0.110215 0.111174
          0.110329 0.110855 0.110296 0.109736 0.109314 0.109378 0.108919 0.108839 0.10793 0.107753 0.106801 0.106726
          0.10526 0.105345 0.103709 0.103687 0.102172 0.10224 0.100986 0.100388 0.0975916 0.0978539 0.0952056 0.0953977
          0.0926157 0.0925525 0.0890565 0.0890486 0.0848651 0.0847229 0.0793749 0.0794082 0.0723031 0.0723796 0.0630809 0.0631486
          0.050095 0.050111 0.0322718 0.0322478 0.0147257 0.0147185 0 0
        </DataArray>
        <DataArray type="Float32" Name="Kxx" NumberOfComponents="1" format="ascii">
          9.71812e-11 9.72572e-11 8.63326e-11 8.62151e-11 8.31017e-11 8.30455e-11 8.10983e-11 8.10542e-11 7.96303e-11 7.96164e-11 7.83812e-11 7.85325e-11
          7.71779e-11 7.73141e-11 7.60559e-11 7.6137e-11 7.49224e-11 7.51384e-11 7.40013e-11 7.40787e-11 7.2962e-11 7.30817e-11 7.17129e-11 7.19539e-11
          7.02302e-11 7.03674e-11 6.89572e-11 6.89322e-11 6.79386e-11 6.80939e-11 6.7167e-11 6.71799e-11 6.68147e-11 6.72171e-11 6.60123e-11 6.53367e-11
          6.60999e-11 6.57181e-11 6.63076e-11 6.67045e-11 6.71709e-11 6.71418e-11 6.7646e-11 6.76951e-11 6.84916e-11 6.86339e-11 6.94801e-11 6.95652e-11
          7.0797e-11 7.0749e-11 7.21451e-11 7.2159e-11 7.34971e-11 7.34195e-11 7.46075e-11 7.50644e-11 7.75444e-11 7.73415e-11 7.97262e-11 7.9543e-11
          8.20802e-11 8.21655e-11 8.53665e-11 8.53708e-11 8.93784e-11 8.95068e-11 9.47336e-11 9.47038e-11 1.01908e-10 1.01826e-10 1.11739e-10 1.11671e-10
          1.26539e-10 1.26521e-10 1.48947e-10 1.48979e-10 1.74507e-10 1.74519e-10 2e-10 2e-10
        </DataArray>
        <DataArray type="Float32" Name="X_lBrine" NumberOfComponents="1" format="ascii">
          0.932458 0.932458 0.932636 0.932637 0.93281 0.93281 0.93298 0.932981 0.933149 0.933149 0.933315 0.933315
          0.933479 0.933479 0.933642 0.933641 0.933802 0.933802 0.933961 0.933961 0.934119 0.934119 0.934414 0.934413
          0.934702 0.934702 0.934985 0.934984 0.935263 0.935263 0.935539 0.935538 0.935871 0.935871 0.9362 0.9362
          0.936528 0.936529 0.936859 0.936859 0.937196 0.937196 0.937543 0.937543 0.937905 0.937905 0.93829 0.938289
          0.938704 0.938704 0.939162 0.939161 0.939676 0.939675 0.940266 0.940266 0.94096 0.94096 0.941793 0.941793
          0.942811 0.942811 0.94408 0.94408 0.945689 0.945689 0.947763 0.947764 0.950483 0.950484 0.954115 0.954115
          0.959068 0.959068 0.966 0.966 0.975926 0.975926 0.99029 0.99029
        </DataArray>
        <DataArray type="Float32" Name="X_lTotalC" NumberOfComponents="1" format="ascii">
          1.74215e-05 1.74242e-05 1.80881e-05 1.80914e-05 1.84308e-05 1.84406e-05 1.87638e-05 1.87719e-05 1.90765e-05 1.90805e-05 1.93769e-05 1.93806e-05
          1.96817e-05 1.96781e-05 1.99757e-05 1.99748e-05 2.02678e-05 2.02593e-05 2.05487e-05 2.05471e-05 2.08348e-05 2.08318e-05 2.13465e-05 2.13483e-05
          2.18692e-05 2.1867e-05 2.23865e-05 2.23888e-05 2.28915e-05 2.28921e-05 2.33941e-05 2.33932e-05 2.39849e-05 2.3986e-05 2.45942e-05 2.45998e-05
          2.51766e-05 2.5183e-05 2.57413e-05 2.57392e-05 2.62985e-05 2.62912e-05 2.68365e-05 2.68387e-05 2.73856e-05 2.73782e-05 2.79129e-05 2.78991e-05
          2.84233e-05 2.84161e-05 2.89306e-05 2.8931e-05 2.94092e-05 2.96035e-05 2.98957e-05 2.99113e-05 3.03296e-05 3.03357e-05 3.07796e-05 3.07936e-05
          3.12633e-05 3.1246e-05 3.17427e-05 3.17445e-05 3.22428e-05 3.22399e-05 3.2813e-05 3.28132e-05 3.35016e-05 3.35072e-05 3.43866e-05 3.43873e-05
          3.52865e-05 3.52867e-05 3.40763e-05 3.40734e-05 2.30825e-05 2.30782e-05 5.81077e-07 5.81077e-07
        </DataArray>
        <DataArray type="Float32" Name="X_lNa" NumberOfComponents="1" format="ascii">
          1.2071e-07 1.2071e-07 1.20898e-07 1.20898e-07 1.21098e-07 1.21098e-07 1.21314e-07 1.21313e-07 1.21547e-07 1.21547e-07 1.218e-07 1.218e-07
          1.22074e-07 1.22074e-07 1.22372e-07 1.22372e-07 1.22696e-07 1.22695e-07 1.23047e-07 1.23047e-07 1.23429e-07 1.23429e-07 1.24251e-07 1.24251e-07
          1.25217e-07 1.25216e-07 1.26352e-07 1.26351e-07 1.27689e-07 1.27689e-07 1.29269e-07 1.29269e-07 1.31599e-07 1.31601e-07 1.34469e-07 1.34472e-07
          1.38017e-07 1.38015e-07 1.42427e-07 1.42425e-07 1.47933e-07 1.47933e-07 1.54831e-07 1.54829e-07 1.63501e-07 1.63499e-07 1.74442e-07 1.74442e-07
          1.88307e-07 1.88306e-07 2.05944e-07 2.05942e-07 2.28458e-07 2.28447e-07 2.57267e-07 2.57268e-07 2.94354e-07 2.94371e-07 3.42359e-07 3.42352e-07
          4.04648e-07 4.04639e-07 4.85917e-07 4.8591e-07 5.92641e-07 5.92642e-07 7.33848e-07 7.3387e-07 9.22499e-07 9.22515e-07 1.17759e-06 1.17759e-06
          1.52826e-06 1.52825e-06 2.02113e-06 2.02114e-06 2.72721e-06 2.72721e-06 3.74885e-06 3.74885e-06
        </DataArray>
        <DataArray type="Float32" Name="X_lCl" NumberOfComponents="1" format="ascii">
          0.0300739 0.0300739 0.0300785 0.0300785 0.0300828 0.0300829 0.030087 0.030087 0.0300909 0.0300909 0.0300947 0.0300947
          0.0300982 0.0300982 0.0301015 0.0301015 0.0301046 0.0301046 0.0301074 0.0301074 0.03011 0.0301099 0.030114 0.030114
          0.0301168 0.0301168 0.0301182 0.0301182 0.0301181 0.0301181 0.0301162 0.0301162 0.0301109 0.0301109 0.0301017 0.0301017
          0.0300877 0.0300878 0.0300678 0.0300678 0.0300404 0.0300404 0.0300036 0.0300036 0.0299549 0.0299549 0.029891 0.0298909
          0.0298076 0.0298076 0.0296991 0.0296991 0.0295584 0.0295585 0.0293761 0.029376 0.0291391 0.029139 0.0288302 0.0288303
          0.0284274 0.0284274 0.0278997 0.0278998 0.0272049 0.0272049 0.0262838 0.0262836 0.0250514 0.0250513 0.0233835 0.0233834
          0.0210892 0.0210892 0.0178636 0.0178636 0.0132425 0.0132424 0.00655617 0.00655617
        </DataArray>
        <DataArray type="Float32" Name="X_lCa" NumberOfComponents="1" format="ascii">
          0.0123389 0.0123387 0.0122273 0.012227 0.0121189 0.0121187 0.0120125 0.0120123 0.0119076 0.0119075 0.0118042 0.0118042
          0.0117022 0.0117022 0.0116014 0.0116016 0.011502 0.0115022 0.0114037 0.011404 0.0113065 0.0113068 0.0111259 0.0111261
          0.01095 0.0109502 0.0107787 0.0107788 0.0106114 0.0106115 0.0104477 0.0104479 0.0102531 0.010253 0.0100639 0.0100636
          0.00987972 0.00987956 0.00969965 0.00969962 0.00952305 0.00952312 0.0093494 0.00934952 0.00917784 0.00917806 0.00900754 0.0090078
          0.00883727 0.00883747 0.00866545 0.00866553 0.00849004 0.00849025 0.00830864 0.00830865 0.00811725 0.00811716 0.00791044 0.00791037
          0.00768157 0.00768164 0.00742125 0.00742132 0.0071161 0.00711615 0.00674706 0.00674702 0.00628641 0.00628635 0.00569305 0.00569302
          0.004903 0.004903 0.0038115 0.0038115 0.00225397 0.00225395 0 0
        </DataArray>
        <DataArray type="Float32" Name="X_lUrea" NumberOfComponents="1" format="ascii">
          0.0181822 0.0181819 0.0180124 0.018012 0.0178481 0.0178477 0.0176866 0.0176863 0.0175276 0.0175274 0.0173707 0.0173707
          0.017216 0.0172161 0.0170633 0.0170635 0.0169125 0.0169128 0.0167635 0.0167638 0.016616 0.0166165 0.0163422 0.0163425
          0.0160755 0.0160758 0.0158158 0.015816 0.0155622 0.0155624 0.0153141 0.0153143 0.0150192 0.015019 0.0147326 0.014732
          0.0144535 0.0144533 0.0141809 0.0141809 0.0139137 0.0139138 0.0136512 0.0136514 0.013392 0.0133924 0.0131351 0.0131355
          0.0128786 0.0128789 0.0126203 0.0126204 0.0123571 0.0123572 0.0120857 0.0120857 0.0118004 0.0118002 0.011493 0.0114929
          0.0111541 0.0111542 0.01077 0.0107701 0.0103212 0.0103213 0.00978011 0.00978006 0.00910627 0.00910618 0.0082398 0.00823975
          0.00708787 0.00708786 0.00550084 0.00550083 0.00324927 0.00324925 0 0
        </DataArray>
        <DataArray type="Float32" Name="X_lTotalNH" NumberOfComponents="1" format="ascii">
          0.00397322 0.0039734 0.00407085 0.00407107 0.00416526 0.00416549 0.00425799 0.00425818 0.00434926 0.00434934 0.00443917 0.00443918
          0.00452783 0.00452776 0.00461524 0.00461509 0.00470146 0.00470125 0.00478654 0.00478633 0.00487062 0.00487037 0.00502647 0.00502628
          0.00517769 0.00517754 0.0053244 0.00532428 0.00546688 0.00546678 0.00560545 0.00560534 0.00576875 0.0057689 0.0059256 0.00592592
          0.00607593 0.00607607 0.00621984 0.00621987 0.0063572 0.00635714 0.00648752 0.00648741 0.00661034 0.00661014 0.00672478 0.00672454
          0.00682982 0.00682965 0.00692416 0.00692409 0.007006 0.007006 0.00707295 0.00707295 0.00712212 0.00712214 0.00714985 0.00714995
          0.00715122 0.00715117 0.00711937 0.00711933 0.00704532 0.00704528 0.00691691 0.00691687 0.00671693 0.00671694 0.00642067 0.00642069
          0.0059907 0.00599072 0.00536789 0.00536789 0.00446323 0.00446322 0.00314947 0.00314947
        </DataArray>
        <DataArray type="Float32" Name="X_lO2" NumberOfComponents="1" format="ascii">
          6.70304e-06 6.70279e-06 6.56889e-06 6.56859e-06 6.43846e-06 6.43816e-06 6.30967e-06 6.30943e-06 6.18223e-06 6.18213e-06 6.05601e-06 6.05601e-06
          5.93088e-06 5.93099e-06 5.80685e-06 5.80706e-06 5.68384e-06 5.68414e-06 5.56179e-06 5.56209e-06 5.44053e-06 5.44089e-06 5.21383e-06 5.21411e-06
          4.99144e-06 4.99164e-06 4.77322e-06 4.77339e-06 4.55882e-06 4.55898e-06 4.34779e-06 4.34796e-06 4.09546e-06 4.09522e-06 3.84893e-06 3.84845e-06
          3.60818e-06 3.60797e-06 3.37277e-06 3.37274e-06 3.14251e-06 3.14261e-06 2.91763e-06 2.9178e-06 2.69813e-06 2.69844e-06 2.48437e-06 2.48475e-06
          2.27662e-06 2.2769e-06 2.07517e-06 2.07528e-06 1.88049e-06 1.88052e-06 1.6934e-06 1.6934e-06 1.5142e-06 1.51411e-06 1.34294e-06 1.3428e-06
          1.18025e-06 1.18036e-06 1.02695e-06 1.02703e-06 8.83396e-07 8.83472e-07 7.49567e-07 7.49578e-07 6.25029e-07 6.24968e-07 5.08429e-07 5.08386e-07
          3.96855e-07 3.96829e-07 2.84251e-07 2.8425e-07 1.59303e-07 1.59311e-07 0 0
        </DataArray>
        <DataArray type="Float32" Name="X_lSubstrate" NumberOfComponents="1" format="ascii">
          0.00294958 0.00294958 0.00294979 0.00294979 0.00294999 0.00294999 0.00295017 0.00295017 0.00295033 0.00295033 0.00295048 0.00295048
          0.00295061 0.00295061 0.00295072 0.00295072 0.00295081 0.00295081 0.00295088 0.00295088 0.00295093 0.00295093 0.00295094 0.00295094
          0.00295084 0.00295084 0.00295061 0.00295061 0.00295023 0.00295023 0.00294966 0.00294966 0.00294866 0.00294866 0.00294725 0.00294724
          0.0029453 0.0029453 0.00294269 0.00294269 0.00293921 0.00293921 0.00293463 0.00293463 0.00292863 0.00292863 0.00292082 0.00292081
          0.00291064 0.00291064 0.00289739 0.00289739 0.00288018 0.00288018 0.00285781 0.00285781 0.00282866 0.00282865 0.00279054 0.00279054
          0.00274066 0.00274067 0.00267516 0.00267516 0.00258867 0.00258867 0.00247377 0.00247375 0.00231976 0.00231974 0.00211101 0.002111
          0.00182354 0.00182354 0.00141903 0.00141903 0.000839195 0.00083919 0 0
        </DataArray>
        <DataArray type="Float32" Name="X_lSuspended_Biomass" NumberOfComponents="1" format="ascii">
          1.62217e-07 1.62263e-07 1.81032e-07 1.81087e-07 1.99359e-07 1.9942e-07 2.17476e-07 2.17529e-07 2.35404e-07 2.35435e-07 2.53154e-07 2.53168e-07
          2.70742e-07 2.70735e-07 2.88159e-07 2.88135e-07 3.05412e-07 3.05373e-07 3.22506e-07 3.22466e-07 3.39461e-07 3.39414e-07 3.7106e-07 3.71028e-07
          4.01943e-07 4.01919e-07 4.32104e-07 4.32088e-07 4.61567e-07 4.61552e-07 4.90372e-07 4.90352e-07 5.24497e-07 5.24536e-07 5.57454e-07 5.57523e-07
          5.89161e-07 5.89192e-07 6.19603e-07 6.19611e-07 6.48749e-07 6.48733e-07 6.76477e-07 6.76455e-07 7.02691e-07 7.02646e-07 7.27185e-07 7.27126e-07
          7.49737e-07 7.49692e-07 7.70069e-07 7.70055e-07 7.8781e-07 7.87816e-07 8.0245e-07 8.02457e-07 8.13388e-07 8.13398e-07 8.19886e-07 8.19913e-07
          8.20942e-07 8.20932e-07 8.15132e-07 8.15127e-07 8.00609e-07 8.00604e-07 7.7487e-07 7.7487e-07 7.34373e-07 7.34385e-07 6.74006e-07 6.74021e-07
          5.86002e-07 5.86021e-07 4.58058e-07 4.58075e-07 2.71568e-07 2.71579e-07 0 0
        </DataArray>
        <DataArray type="Float32" Name="X_lNH4" NumberOfComponents="1" format="ascii">
          0.00420047 0.00420067 0.00430357 0.00430381 0.0044034 0.00440364 0.00450146 0.00450165 0.00459797 0.00459806 0.00469306 0.00469306
          0.00478681 0.00478673 0.00487924 0.00487908 0.00497041 0.0049702 0.0050604 0.00506017 0.0051493 0.00514904 0.00531412 0.00531391
          0.00547402 0.00547386 0.00562915 0.00562903 0.00577981 0.0057797 0.00592633 0.00592621 0.00609899 0.00609915 0.00626482 0.00626515
          0.00642375 0.0064239 0.00657589 0.00657592 0.0067211 0.00672103 0.00685885 0.00685874 0.00698866 0.00698846 0.0071096 0.00710936
          0.0072206 0.00722041 0.00732025 0.00732018 0.00740668 0.0074066 0.00747734 0.00747733 0.00752917 0.0075292 0.0075583 0.00755839
          0.00755947 0.00755943 0.00752545 0.00752541 0.00744672 0.00744667 0.00731034 0.0073103 0.0070981 0.0070981 0.00678375 0.00678377
          0.00632771 0.00632773 0.00566824 0.00566825 0.00471437 0.00471436 0.00333307 0.00333307
        </DataArray>
        <DataArray type="Float32" Name="X_lHCO3" NumberOfComponents="1" format="ascii">
          1.99599e-05 1.99633e-05 2.07593e-05 2.07635e-05 2.11304e-05 2.11433e-05 2.14895e-05 2.15001e-05 2.18224e-05 2.18277e-05 2.21397e-05 2.21445e-05
          2.24634e-05 2.24588e-05 2.27737e-05 2.27725e-05 2.30818e-05 2.30708e-05 2.33758e-05 2.33739e-05 2.3677e-05 2.36733e-05 2.42096e-05 2.42122e-05
          2.47594e-05 2.47566e-05 2.53047e-05 2.53078e-05 2.58359e-05 2.58369e-05 2.63663e-05 2.63652e-05 2.6987e-05 2.69884e-05 2.76361e-05 2.76431e-05
          2.82534e-05 2.82617e-05 2.88514e-05 2.88485e-05 2.94433e-05 2.94337e-05 3.00144e-05 3.00173e-05 3.06046e-05 3.0595e-05 3.11713e-05 3.11534e-05
          3.17218e-05 3.17125e-05 3.22749e-05 3.22755e-05 3.27981e-05 3.30529e-05 3.3341e-05 3.33614e-05 3.38258e-05 3.38336e-05 3.43443e-05 3.43625e-05
          3.49223e-05 3.48997e-05 3.55136e-05 3.5516e-05 3.61555e-05 3.61518e-05 3.69191e-05 3.69193e-05 3.78767e-05 3.7884e-05 3.91444e-05 3.91453e-05
          4.05044e-05 4.05048e-05 3.91892e-05 3.91855e-05 2.53197e-05 2.53143e-05 3.37056e-07 3.37056e-07
        </DataArray>
        <DataArray type="Float32" Name="X_lCO3" NumberOfComponents="1" format="ascii">
          2.19933e-08 2.19989e-08 2.30552e-08 2.30624e-08 2.32731e-08 2.32975e-08 2.3474e-08 2.34939e-08 2.36291e-08 2.36388e-08 2.37594e-08 2.37687e-08
          2.39072e-08 2.38987e-08 2.40341e-08 2.40326e-08 2.41616e-08 2.41419e-08 2.42668e-08 2.42643e-08 2.43891e-08 2.43835e-08 2.4564e-08 2.45696e-08
          2.47873e-08 2.47831e-08 2.50181e-08 2.50241e-08 2.52373e-08 2.52395e-08 2.54664e-08 2.5465e-08 2.57175e-08 2.57191e-08 2.60349e-08 2.60451e-08
          2.63162e-08 2.63292e-08 2.65814e-08 2.65766e-08 2.68522e-08 2.6837e-08 2.71056e-08 2.71107e-08 2.74055e-08 2.73912e-08 2.76851e-08 2.76581e-08
          2.79576e-08 2.7944e-08 2.82536e-08 2.8255e-08 2.85246e-08 2.89181e-08 2.88499e-08 2.88811e-08 2.91118e-08 2.91235e-08 2.94513e-08 2.94784e-08
          2.99083e-08 2.98745e-08 3.04152e-08 3.04191e-08 3.10289e-08 3.10236e-08 3.18554e-08 3.18557e-08 3.29999e-08 3.3011e-08 3.46275e-08 3.46287e-08
          3.63472e-08 3.63476e-08 3.36896e-08 3.36839e-08 1.52881e-08 1.52825e-08 2.55591e-11 2.55591e-11
        </DataArray>
        <DataArray type="Float32" Name="X_lCO2" NumberOfComponents="1" format="ascii">
          3.01237e-06 3.01259e-06 3.10166e-06 3.10193e-06 3.17667e-06 3.17721e-06 3.25059e-06 3.25104e-06 3.32312e-06 3.32333e-06 3.39461e-06 3.39476e-06
          3.4658e-06 3.46561e-06 3.53608e-06 3.53594e-06 3.60583e-06 3.60533e-06 3.6747e-06 3.67448e-06 3.74344e-06 3.74314e-06 3.87097e-06 3.87093e-06
          3.99708e-06 3.99686e-06 4.12104e-06 4.12106e-06 4.24273e-06 4.24268e-06 4.36278e-06 4.36265e-06 4.50576e-06 4.50593e-06 4.64687e-06 4.64737e-06
          4.78385e-06 4.78428e-06 4.91718e-06 4.9171e-06 5.04732e-06 5.0469e-06 5.17335e-06 5.17339e-06 5.29665e-06 5.29614e-06 5.41504e-06 5.41415e-06
          5.5283e-06 5.52779e-06 5.63656e-06 5.63653e-06 5.73767e-06 5.74793e-06 5.83248e-06 5.8333e-06 5.91662e-06 5.91697e-06 5.99245e-06 5.99327e-06
          6.05904e-06 6.05806e-06 6.11169e-06 6.11175e-06 6.14844e-06 6.14825e-06 6.16741e-06 6.1674e-06 6.16463e-06 6.16494e-06 6.13432e-06 6.13437e-06
          6.05218e-06 6.05221e-06 5.79233e-06 5.79219e-06 4.81331e-06 4.81297e-06 3.38012e-07 3.38012e-07
        </DataArray>
        <DataArray type="Float32" Name="X_lH" NumberOfComponents="1" format="ascii">
          1.92306e-10 1.92287e-10 1.9009e-10 1.90068e-10 1.90982e-10 1.90897e-10 1.91873e-10 1.91805e-10 1.92874e-10 1.9284e-10 1.93911e-10 1.93877e-10
          1.94835e-10 1.94864e-10 1.95786e-10 1.95789e-10 1.9669e-10 1.96758e-10 1.97632e-10 1.97637e-10 1.98472e-10 1.98488e-10 2.00154e-10 2.00132e-10
          2.01521e-10 2.01534e-10 2.02728e-10 2.02705e-10 2.03856e-10 2.03846e-10 2.04838e-10 2.04841e-10 2.0599e-10 2.05986e-10 2.06757e-10 2.06725e-10
          2.07505e-10 2.07462e-10 2.08172e-10 2.08188e-10 2.08685e-10 2.08736e-10 2.09122e-10 2.09104e-10 2.09267e-10 2.09313e-10 2.09336e-10 2.09423e-10
          2.09274e-10 2.09317e-10 2.08965e-10 2.0896e-10 2.08541e-10 2.07304e-10 2.07719e-10 2.07622e-10 2.06823e-10 2.06787e-10 2.05356e-10 2.05275e-10
          2.03131e-10 2.0323e-10 2.0025e-10 2.00239e-10 1.96404e-10 1.96418e-10 1.91114e-10 1.91112e-10 1.8386e-10 1.83833e-10 1.73905e-10 1.73902e-10
          1.61404e-10 1.61403e-10 1.5259e-10 1.52601e-10 1.79303e-10 1.79328e-10 6.32454e-10 6.32454e-10
        </DataArray>
        <DataArray type="Float32" Name="X_lOH" NumberOfComponents="1" format="ascii">
          7.9127e-07 7.91348e-07 8.00885e-07 8.0098e-07 7.97525e-07 7.9788e-07 7.94193e-07 7.94479e-07 7.90437e-07 7.90576e-07 7.86569e-07 7.86704e-07
          7.83191e-07 7.83072e-07 7.79731e-07 7.79719e-07 7.76488e-07 7.7622e-07 7.73124e-07 7.73101e-07 7.70181e-07 7.70116e-07 7.64318e-07 7.64403e-07
          7.59728e-07 7.59679e-07 7.55781e-07 7.55866e-07 7.52161e-07 7.52196e-07 7.49106e-07 7.49093e-07 7.45572e-07 7.45587e-07 7.43451e-07 7.43566e-07
          7.41402e-07 7.41555e-07 7.39656e-07 7.39595e-07 7.38462e-07 7.38282e-07 7.3755e-07 7.37613e-07 7.37682e-07 7.3752e-07 7.38104e-07 7.37798e-07
          7.39021e-07 7.3887e-07 7.40862e-07 7.40879e-07 7.4318e-07 7.47613e-07 7.47027e-07 7.47379e-07 7.51302e-07 7.51433e-07 7.57888e-07 7.58187e-07
          7.67661e-07 7.67286e-07 7.80527e-07 7.80569e-07 7.98127e-07 7.98069e-07 8.23251e-07 8.23258e-07 8.59832e-07 8.59957e-07 9.14812e-07 9.14827e-07
          9.94128e-07 9.94132e-07 1.06411e-06 1.06403e-06 9.20975e-07 9.20842e-07 2.67481e-07 2.67481e-07
        </DataArray>
        <DataArray type="Float32" Name="X_gBrine" NumberOfComponents="1" format="ascii">
          0.0108774 0.0107983 0.0108111 0.0108111 0.0108241 0.0108241 0.0108373 0.0108373 0.0108506 0.0108506 0.010864 0.010864
          0.0108775 0.0108775 0.0108911 0.0108911 0.0109047 0.0109047 0.0109184 0.0109184 0.0109323 0.0109323 0.0109601 0.0109601
          0.0109882 0.0109882 0.0110166 0.0110166 0.0110453 0.0110453 0.0110743 0.0110743 0.0111107 0.0111107 0.0111476 0.0111475
          0.0111847 0.0111847 0.011222 0.0112221 0.0112595 0.0112595 0.0112971 0.0112972 0.0113349 0.0113349 0.0113729 0.0113728
          0.0114109 0.0114109 0.0114491 0.0114491 0.0114874 0.0114874 0.0115259 0.0115259 0.0115646 0.0115646 0.0116036 0.0116036
          0.0116429 0.0116429 0.0116826 0.0116826 0.011723 0.011723 0.0117642 0.0117642 0.0118065 0.0118065 0.0118505 0.0118505
          0.0118969 0.0118969 0.0119472 0.0119472 0.0120037 0.0120037 0.0120698 0.0120698
        </DataArray>
        <DataArray type="Float32" Name="X_gTotalC" NumberOfComponents="1" format="ascii">
          0.989123 0.989202 0.989189 0.989189 0.989176 0.989176 0.989163 0.989163 0.989149 0.989149 0.989136 0.989136
          0.989123 0.989123 0.989109 0.989109 0.989095 0.989095 0.989082 0.989082 0.989068 0.989068 0.98904 0.98904
          0.989012 0.989012 0.988983 0.988983 0.988955 0.988955 0.988926 0.988926 0.988889 0.988889 0.988852 0.988852
          0.988815 0.988815 0.988778 0.988778 0.988741 0.988741 0.988703 0.988703 0.988665 0.988665 0.988627 0.988627
          0.988589 0.988589 0.988551 0.988551 0.988513 0.988513 0.988474 0.988474 0.988435 0.988435 0.988396 0.988396
          0.988357 0.988357 0.988317 0.988317 0.988277 0.988277 0.988236 0.988236 0.988194 0.988194 0.98815 0.98815
          0.988103 0.988103 0.988053 0.988053 0.987996 0.987996 0.98793 0.98793
        </DataArray>
        <DataArray type="Float32" Name="X_gNa" NumberOfComponents="1" format="ascii">
          0 0 0 0 0 0 0 0 0 0 0 0
          0 0 0 0 0 0 0 0 0 0 0 0
          0 0 0 0 0 0 0 0 0 0 0 0
          0 0 0 0 0 0 0 0 0 0 0 0
          0 0 0 0 0 0 0 0 0 0 0 0
          0 0 0 0 0 0 0 0 0 0 0 0
          0 0 0 0 0 0 0 0
        </DataArray>
        <DataArray type="Float32" Name="X_gCl" NumberOfComponents="1" format="ascii">
          0 0 0 0 0 0 0 0 0 0 0 0
          0 0 0 0 0 0 0 0 0 0 0 0
          0 0 0 0 0 0 0 0 0 0 0 0
          0 0 0 0 0 0 0 0 0 0 0 0
          0 0 0 0 0 0 0 0 0 0 0 0
          0 0 0 0 0 0 0 0 0 0 0 0
          0 0 0 0 0 0 0 0
        </DataArray>
        <DataArray type="Float32" Name="X_gCa" NumberOfComponents="1" format="ascii">
          0 0 0 0 0 0 0 0 0 0 0 0
          0 0 0 0 0 0 0 0 0 0 0 0
          0 0 0 0 0 0 0 0 0 0 0 0
          0 0 0 0 0 0 0 0 0 0 0 0
          0 0 0 0 0 0 0 0 0 0 0 0
          0 0 0 0 0 0 0 0 0 0 0 0
          0 0 0 0 0 0 0 0
        </DataArray>
        <DataArray type="Float32" Name="X_gUrea" NumberOfComponents="1" format="ascii">
          0 0 0 0 0 0 0 0 0 0 0 0
          0 0 0 0 0 0 0 0 0 0 0 0
          0 0 0 0 0 0 0 0 0 0 0 0
          0 0 0 0 0 0 0 0 0 0 0 0
          0 0 0 0 0 0 0 0 0 0 0 0
          0 0 0 0 0 0 0 0 0 0 0 0
          0 0 0 0 0 0 0 0
        </DataArray>
        <DataArray type="Float32" Name="X_gTotalNH" NumberOfComponents="1" format="ascii">
          0 0 0 0 0 0 0 0 0 0 0 0
          0 0 0 0 0 0 0 0 0 0 0 0
          0 0 0 0 0 0 0 0 0 0 0 0
          0 0 0 0 0 0 0 0 0 0 0 0
          0 0 0 0 0 0 0 0 0 0 0 0
          0 0 0 0 0 0 0 0 0 0 0 0
          0 0 0 0 0 0 0 0
        </DataArray>
        <DataArray type="Float32" Name="X_gO2" NumberOfComponents="1" format="ascii">
          0 0 0 0 0 0 0 0 0 0 0 0
          0 0 0 0 0 0 0 0 0 0 0 0
          0 0 0 0 0 0 0 0 0 0 0 0
          0 0 0 0 0 0 0 0 0 0 0 0
          0 0 0 0 0 0 0 0 0 0 0 0
          0 0 0 0 0 0 0 0 0 0 0 0
          0 0 0 0 0 0 0 0
        </DataArray>
        <DataArray type="Float32" Name="X_gSubstrate" NumberOfComponents="1" format="ascii">
          0 0 0 0 0 0 0 0 0 0 0 0
          0 0 0 0 0 0 0 0 0 0 0 0
          0 0 0 0 0 0 0 0 0 0 0 0
          0 0 0 0 0 0 0 0 0 0 0 0
          0 0 0 0 0 0 0 0 0 0 0 0
          0 0 0 0 0 0 0 0 0 0 0 0
          0 0 0 0 0 0 0 0
        </DataArray>
        <DataArray type="Float32" Name="X_gSuspended_Biomass" NumberOfComponents="1" format="ascii">
          0 0 0 0 0 0 0 0 0 0 0 0
          0 0 0 0 0 0 0 0 0 0 0 0
          0 0 0 0 0 0 0 0 0 0 0 0
          0 0 0 0 0 0 0 0 0 0 0 0
          0 0 0 0 0 0 0 0 0 0 0 0
          0 0 0 0 0 0 0 0 0 0 0 0
          0 0 0 0 0 0 0 0
        </DataArray>
        <DataArray type="Float32" Name="X_gNH4" NumberOfComponents="1" format="ascii">
          0 0 0 0 0 0 0 0 0 0 0 0
          0 0 0 0 0 0 0 0 0 0 0 0
          0 0 0 0 0 0 0 0 0 0 0 0
          0 0 0 0 0 0 0 0 0 0 0 0
          0 0 0 0 0 0 0 0 0 0 0 0
          0 0 0 0 0 0 0 0 0 0 0 0
          0 0 0 0 0 0 0 0
        </DataArray>
        <DataArray type="Float32" Name="X_gHCO3" NumberOfComponents="1" format="ascii">
          0 0 0 0 0 0 0 0 0 0 0 0
          0 0 0 0 0 0 0 0 0 0 0 0
          0 0 0 0 0 0 0 0 0 0 0 0
          0 0 0 0 0 0 0 0 0 0 0 0
          0 0 0 0 0 0 0 0 0 0 0 0
          0 0 0 0 0 0 0 0 0 0 0 0
          0 0 0 0 0 0 0 0
        </DataArray>
        <DataArray type="Float32" Name="X_gCO3" NumberOfComponents="1" format="ascii">
          0 0 0 0 0 0 0 0 0 0 0 0
          0 0 0 0 0 0 0 0 0 0 0 0
          0 0 0 0 0 0 0 0 0 0 0 0
          0 0 0 0 0 0 0 0 0 0 0 0
          0 0 0 0 0 0 0 0 0 0 0 0
          0 0 0 0 0 0 0 0 0 0 0 0
          0 0 0 0 0 0 0 0
        </DataArray>
        <DataArray type="Float32" Name="X_gCO2" NumberOfComponents="1" format="ascii">
          0.989123 0.989202 0.989189 0.989189 0.989176 0.989176 0.989163 0.989163 0.989149 0.989149 0.989136 0.989136
          0.989123 0.989123 0.989109 0.989109 0.989095 0.989095 0.989082 0.989082 0.989068 0.989068 0.98904 0.98904
          0.989012 0.989012 0.988983 0.988983 0.988955 0.988955 0.988926 0.988926 0.988889 0.988889 0.988852 0.988852
          0.988815 0.988815 0.988778 0.988778 0.988741 0.988741 0.988703 0.988703 0.988665 0.988665 0.988627 0.988627
          0.988589 0.988589 0.988551 0.988551 0.988513 0.988513 0.988474 0.988474 0.988435 0.988435 0.988396 0.988396
          0.988357 0.988357 0.988317 0.988317 0.988277 0.988277 0.988236 0.988236 0.988194 0.988194 0.98815 0.98815
          0.988103 0.988103 0.988053 0.988053 0.987996 0.987996 0.98793 0.98793
        </DataArray>
        <DataArray type="Float32" Name="X_gH" NumberOfComponents="1" format="ascii">
          0 0 0 0 0 0 0 0 0 0 0 0
          0 0 0 0 0 0 0 0 0 0 0 0
          0 0 0 0 0 0 0 0 0 0 0 0
          0 0 0 0 0 0 0 0 0 0 0 0
          0 0 0 0 0 0 0 0 0 0 0 0
          0 0 0 0 0 0 0 0 0 0 0 0
          0 0 0 0 0 0 0 0
        </DataArray>
        <DataArray type="Float32" Name="X_gOH" NumberOfComponents="1" format="ascii">
          0 0 0 0 0 0 0 0 0 0 0 0
          0 0 0 0 0 0 0 0 0 0 0 0
          0 0 0 0 0 0 0 0 0 0 0 0
          0 0 0 0 0 0 0 0 0 0 0 0
          0 0 0 0 0 0 0 0 0 0 0 0
          0 0 0 0 0 0 0 0 0 0 0 0
          0 0 0 0 0 0 0 0
        </DataArray>
        <DataArray type="Float32" Name="Molarity_Brine" NumberOfComponents="1" format="ascii">
          53107.2 53107.2 53113.5 53113.5 53119.6 53119.6 53125.6 53125.6 53131.5 53131.6 53137.4 53137.4
          53143.2 53143.2 53148.9 53148.9 53154.6 53154.6 53160.2 53160.2 53165.7 53165.7 53176.1 53176.1
          53186.2 53186.2 53196.2 53196.2 53206 53206 53215.6 53215.6 53227.3 53227.3 53238.8 53238.8
          53250.3 53250.3 53261.9 53261.9 53273.6 53273.6 53285.7 53285.7 53298.3 53298.3 53311.7 53311.7
          53326.1 53326 53341.9 53341.9 53359.6 53359.6 53379.9 53379.9 53403.7 53403.7 53432.3 53432.3
          53467.1 53467.1 53510.5 53510.5 53565.3 53565.3 53635.8 53635.8 53728 53728 53850.7 53850.7
          54017.3 54017.3 54249.1 54249.1 54578.3 54578.3 55049.2 55049.2
        </DataArray>
        <DataArray type="Float32" Name="Molarity_TotalC" NumberOfComponents="1" format="ascii">
          0.406253 0.406314 0.421765 0.421842 0.429726 0.429956 0.437461 0.43765 0.44472 0.444814 0.451693 0.451777
          0.458765 0.458682 0.46559 0.465567 0.472365 0.472168 0.478882 0.478845 0.485517 0.485447 0.497381 0.497424
          0.509501 0.509449 0.521493 0.521545 0.533195 0.533209 0.544842 0.54482 0.558524 0.558551 0.572637 0.572766
          0.586118 0.586267 0.599182 0.599132 0.612067 0.611896 0.6245 0.624549 0.637182 0.637009 0.649345 0.649024
          0.661105 0.660938 0.672777 0.672788 0.68376 0.688278 0.6949 0.695262 0.70478 0.70492 0.714986 0.71531
          0.725911 0.725509 0.736648 0.736689 0.747745 0.747679 0.760303 0.760306 0.775367 0.775497 0.794631 0.794648
          0.813725 0.813731 0.783527 0.783461 0.528534 0.528435 0.0132254 0.0132254
        </DataArray>
        <DataArray type="Float32" Name="Molarity_Na" NumberOfComponents="1" format="ascii">
          0.00538726 0.00538726 0.00539525 0.00539525 0.00540379 0.00540379 0.00541303 0.00541303 0.00542307 0.00542306 0.00543399 0.00543397
          0.00544587 0.00544585 0.0054588 0.00545878 0.00547287 0.00547285 0.00548819 0.00548817 0.00550488 0.00550486 0.00554087 0.00554085
          0.00558326 0.00558325 0.00563322 0.0056332 0.00569221 0.00569219 0.00576199 0.00576196 0.00586504 0.00586514 0.00599214 0.00599228
          0.00614941 0.00614932 0.00634502 0.00634494 0.00658939 0.0065894 0.0068957 0.00689559 0.00728073 0.00728064 0.00776671 0.00776671
          0.00838254 0.00838252 0.00916595 0.00916585 0.0101658 0.0101653 0.0114448 0.0114449 0.0130909 0.0130917 0.0152205 0.0152202
          0.017982 0.0179816 0.021582 0.0215817 0.0263042 0.0263043 0.0325432 0.0325442 0.0408622 0.0408629 0.0520814 0.0520816
          0.0674497 0.0674495 0.0889427 0.0889428 0.119515 0.119515 0.1633 0.1633
        </DataArray>
        <DataArray type="Float32" Name="Molarity_Cl" NumberOfComponents="1" format="ascii">
          870.36 870.361 870.43 870.431 870.495 870.495 870.554 870.554 870.609 870.609 870.658 870.658
          870.702 870.702 870.739 870.739 870.771 870.771 870.796 870.796 870.814 870.814 870.825 870.825
          870.804 870.804 870.745 870.744 870.642 870.642 870.488 870.488 870.216 870.216 869.834 869.833
          869.313 869.314 868.62 868.62 867.708 867.708 866.521 866.521 864.984 864.984 863 863
          860.444 860.444 857.151 857.151 852.906 852.907 847.435 847.434 840.354 840.351 831.155 831.156
          819.189 819.191 803.555 803.556 783.011 783.011 755.836 755.832 719.57 719.568 670.633 670.632
          603.572 603.573 509.764 509.764 376.321 376.32 185.193 185.193
        </DataArray>
        <DataArray type="Float32" Name="Molarity_Ca" NumberOfComponents="1" format="ascii">
          315.888 315.883 313.007 313 310.212 310.206 307.466 307.46 304.761 304.758 302.093 302.093
          299.462 299.464 296.865 296.869 294.301 294.307 291.768 291.774 289.262 289.269 284.606 284.612
          280.074 280.078 275.66 275.663 271.351 271.355 267.136 267.139 262.125 262.12 257.253 257.244
          252.51 252.506 247.874 247.873 243.327 243.329 238.856 238.859 234.438 234.444 230.051 230.058
          225.664 225.669 221.234 221.236 216.709 216.714 212.026 212.026 207.082 207.08 201.735 201.734
          195.814 195.816 189.077 189.079 181.18 181.181 171.633 171.632 159.732 159.73 144.434 144.433
          124.13 124.13 96.2154 96.2152 56.6609 56.6605 0 0
        </DataArray>
        <DataArray type="Float32" Name="Molarity_Urea" NumberOfComponents="1" format="ascii">
          307.848 307.843 304.951 304.944 302.148 302.141 299.393 299.388 296.68 296.678 294.006 294.006
          291.367 291.37 288.763 288.768 286.193 286.199 283.653 283.659 281.14 281.148 276.473 276.479
          271.93 271.934 267.505 267.508 263.187 263.19 258.962 258.965 253.941 253.936 249.06 249.051
          244.31 244.306 239.67 239.669 235.121 235.123 230.651 230.655 226.239 226.245 221.863 221.87
          217.493 217.498 213.089 213.092 208.602 208.603 203.97 203.97 199.096 199.094 193.843 193.841
          188.045 188.047 181.472 181.474 173.793 173.794 164.537 164.536 153.025 153.023 138.253 138.252
          118.677 118.676 91.8354 91.8353 54.0201 54.0198 0 0
        </DataArray>
        <DataArray type="Float32" Name="Molarity_TotalNH" NumberOfComponents="1" format="ascii">
          239.367 239.378 245.231 245.244 250.901 250.915 256.469 256.48 261.948 261.953 267.345 267.346
          272.666 272.662 277.912 277.903 283.085 283.072 288.189 288.177 293.233 293.218 302.579 302.568
          311.645 311.636 320.439 320.432 328.976 328.97 337.277 337.27 347.055 347.064 356.444 356.462
          365.437 365.446 374.042 374.043 382.249 382.245 390.029 390.023 397.353 397.342 404.168 404.154
          410.41 410.4 416 415.996 420.827 420.826 424.743 424.743 427.571 427.573 429.086 429.091
          428.984 428.981 426.845 426.842 422.118 422.116 414.062 414.059 401.629 401.63 383.327 383.328
          356.911 356.912 318.873 318.873 264.029 264.028 185.193 185.193
        </DataArray>
        <DataArray type="Float32" Name="Molarity_O2" NumberOfComponents="1" format="ascii">
          0.214924 0.214916 0.210607 0.210598 0.206411 0.206401 0.202268 0.20226 0.198169 0.198166 0.19411 0.19411
          0.190086 0.19009 0.186099 0.186106 0.182145 0.182154 0.178222 0.178231 0.174325 0.174336 0.167041 0.16705
          0.159897 0.159904 0.152889 0.152894 0.146005 0.14601 0.139231 0.139236 0.131132 0.131125 0.123222 0.123207
          0.115499 0.115492 0.107949 0.107948 0.100565 0.100568 0.0933553 0.0933608 0.0863189 0.0863289 0.0794676 0.0794797
          0.0728098 0.0728189 0.0663544 0.0663579 0.0601166 0.0601175 0.0541221 0.0541221 0.0483806 0.0483778 0.0428937 0.0428893
          0.0376813 0.0376848 0.0327694 0.032772 0.0281695 0.0281719 0.0238811 0.0238814 0.0198905 0.0198885 0.0161551 0.0161537
          0.0125836 0.0125828 0.00898682 0.00898677 0.00501553 0.00501576 0 0
        </DataArray>
        <DataArray type="Float32" Name="Molarity_Substrate" NumberOfComponents="1" format="ascii">
          16.7983 16.7983 16.7983 16.7983 16.7982 16.7982 16.798 16.798 16.7978 16.7978 16.7975 16.7975
          16.7971 16.7971 16.7967 16.7967 16.7961 16.7961 16.7954 16.7954 16.7946 16.7946 16.7926 16.7926
          16.7901 16.7901 16.7868 16.7868 16.7827 16.7827 16.7776 16.7776 16.7696 16.7696 16.7593 16.7593
          16.746 16.746 16.7289 16.7289 16.7068 16.7068 16.6783 16.6784 16.6418 16.6418 16.5947 16.5947
          16.534 16.534 16.4557 16.4557 16.3544 16.3544 16.2234 16.2234 16.0532 16.0531 15.8313 15.8313
          15.5417 15.5417 15.1621 15.1621 14.662 14.662 13.9989 13.9988 13.1123 13.1122 11.9141 11.9141
          10.2702 10.2702 7.96869 7.96869 4.69296 4.69293 0 0
        </DataArray>
        <DataArray type="Float32" Name="Molarity_Suspended_Biomass" NumberOfComponents="1" format="ascii">
          0.00016644 0.000166488 0.000185731 0.000185788 0.000204521 0.000204583 0.000223091 0.000223145 0.000241465 0.000241496 0.000259655 0.000259668
          0.000277675 0.000277668 0.000295519 0.000295494 0.000313192 0.000313152 0.000330699 0.000330659 0.000348063 0.000348015 0.000380417 0.000380385
          0.00041203 0.000412006 0.000442897 0.00044288 0.000473042 0.000473027 0.000502506 0.000502487 0.000537403 0.000537443 0.000571094 0.000571164
          0.000603495 0.000603527 0.000634592 0.0006346 0.000664351 0.000664334 0.000692646 0.000692624 0.000719379 0.000719332 0.000744336 0.000744276
          0.000767287 0.000767242 0.000787945 0.000787931 0.000805925 0.000805931 0.000820699 0.000820706 0.000831643 0.000831654 0.000837994 0.000838021
          0.000838712 0.000838703 0.000832331 0.000832327 0.000816947 0.000816942 0.000789991 0.00078999 0.000747844 0.000747857 0.000685319 0.000685335
          0.000594595 0.000594614 0.00046342 0.000463437 0.000273603 0.000273615 0 0
        </DataArray>
        <DataArray type="Float32" Name="Molarity_NH4" NumberOfComponents="1" format="ascii">
          238.918 238.929 244.764 244.777 250.424 250.438 255.983 255.994 261.453 261.458 266.842 266.842
          272.154 272.15 277.391 277.382 282.556 282.544 287.652 287.64 292.687 292.673 302.019 302.008
          311.07 311.062 319.849 319.842 328.372 328.366 336.658 336.652 346.42 346.429 355.791 355.809
          364.767 364.776 373.356 373.357 381.547 381.543 389.312 389.305 396.62 396.609 403.42 403.406
          409.647 409.637 415.221 415.218 420.034 420.029 423.936 423.936 426.751 426.752 428.251 428.256
          428.134 428.132 425.979 425.977 421.236 421.234 413.16 413.158 400.704 400.705 382.372 382.373
          355.923 355.924 317.9 317.9 263.302 263.301 185.037 185.037
        </DataArray>
        <DataArray type="Float32" Name="Molarity_HCO3" NumberOfComponents="1" format="ascii">
          0.335636 0.335693 0.349054 0.349124 0.355267 0.355484 0.361281 0.361459 0.366852 0.36694 0.372161 0.372242
          0.377577 0.377499 0.382767 0.382747 0.38792 0.387735 0.392836 0.392803 0.397872 0.397809 0.406773 0.406817
          0.415962 0.415914 0.425073 0.425125 0.433948 0.433963 0.442806 0.442787 0.453169 0.453192 0.464005 0.464123
          0.474307 0.474446 0.484279 0.484231 0.494146 0.493986 0.503659 0.503707 0.513486 0.513325 0.52291 0.52261
          0.532053 0.531898 0.541227 0.541238 0.549882 0.554155 0.558846 0.559189 0.566807 0.566939 0.575294 0.575599
          0.584725 0.584346 0.594307 0.594347 0.604638 0.604577 0.616868 0.616871 0.632142 0.632265 0.652299 0.652314
          0.673555 0.67356 0.649784 0.649722 0.418071 0.41798 0.00553194 0.00553194
        </DataArray>
        <DataArray type="Float32" Name="Molarity_CO3" NumberOfComponents="1" format="ascii">
          0.00037604 0.000376137 0.000394169 0.000394292 0.000397866 0.000398283 0.000401273 0.000401612 0.000403896 0.000404062 0.000406096 0.000406254
          0.000408594 0.000408449 0.000410736 0.000410711 0.000412887 0.000412551 0.000414658 0.000414616 0.000416722 0.000416626 0.00041966 0.000419756
          0.000423425 0.000423353 0.000427318 0.00042742 0.000431012 0.00043105 0.000434877 0.000434853 0.000439105 0.000439133 0.000444464 0.000444639
          0.000449206 0.000449427 0.000453671 0.000453588 0.000458229 0.00045797 0.000462487 0.000462574 0.000467534 0.00046729 0.000472229 0.000471769
          0.000476794 0.000476563 0.000481751 0.000481774 0.000486267 0.000492974 0.00049169 0.000492223 0.00049601 0.00049621 0.000501618 0.00050208
          0.000509184 0.000508608 0.000517537 0.000517603 0.000527621 0.000527531 0.000541201 0.000541207 0.000560002 0.00056019 0.000586721 0.000586743
          0.000614575 0.000614582 0.000567978 0.000567883 0.000256671 0.000256578 4.26535e-07 4.26535e-07
        </DataArray>
        <DataArray type="Float32" Name="Molarity_CO2" NumberOfComponents="1" format="ascii">
          0.0702455 0.0702507 0.0723224 0.0723287 0.0740661 0.0740787 0.0757844 0.0757948 0.0774699 0.077475 0.0791312 0.0791348
          0.0807854 0.0807808 0.0824181 0.0824149 0.0840383 0.0840266 0.0856377 0.0856327 0.0872342 0.0872272 0.0901951 0.0901943
          0.0931225 0.0931176 0.0959994 0.0959999 0.098823 0.0988217 0.101608 0.101605 0.104923 0.104927 0.108195 0.108206
          0.111369 0.111379 0.114458 0.114456 0.11747 0.117461 0.120387 0.120387 0.123237 0.123225 0.125972 0.125951
          0.128584 0.128573 0.131077 0.131077 0.1334 0.133639 0.135571 0.13559 0.137487 0.137495 0.1392 0.139219
          0.140686 0.140664 0.141833 0.141834 0.142589 0.142584 0.142904 0.142903 0.142675 0.142683 0.141756 0.141758
          0.139567 0.139567 0.133185 0.133182 0.110213 0.110205 0.00769319 0.00769319
        </DataArray>
        <DataArray type="Float32" Name="Molarity_H" NumberOfComponents="1" format="ascii">
          0.000195758 0.000195739 0.000193489 0.000193467 0.000194383 0.000194297 0.000195277 0.000195206 0.000196281 0.000196247 0.000197323 0.000197289
          0.00019825 0.00019828 0.000199205 0.000199208 0.000200112 0.00020018 0.000201056 0.000201062 0.000201898 0.000201915 0.000203585 0.000203562
          0.000204951 0.000204964 0.000206155 0.000206131 0.000207278 0.000207269 0.000208253 0.000208257 0.000209396 0.000209392 0.000210147 0.000210115
          0.000210879 0.000210836 0.000211528 0.000211545 0.00021202 0.000212072 0.000212434 0.000212415 0.000212549 0.000212596 0.000212586 0.000212674
          0.000212486 0.000212529 0.000212131 0.000212126 0.000211656 0.000210401 0.00021077 0.00021067 0.000209799 0.000209762 0.000208238 0.000208156
          0.000205894 0.000205994 0.000202864 0.000202853 0.000198833 0.000198847 0.000193308 0.000193307 0.000185757 0.00018573 0.000175431 0.000175428
          0.000162481 0.00016248 0.00015316 0.000153171 0.000179223 0.000179249 0.000628379 0.000628379
        </DataArray>
        <DataArray type="Float32" Name="Molarity_OH" NumberOfComponents="1" format="ascii">
          4.77589e-05 4.77635e-05 4.83357e-05 4.83414e-05 4.81294e-05 4.81509e-05 4.7925e-05 4.79423e-05 4.76951e-05 4.77035e-05 4.74585e-05 4.74667e-05
          4.72515e-05 4.72443e-05 4.70396e-05 4.70389e-05 4.68409e-05 4.68248e-05 4.6635e-05 4.66336e-05 4.64545e-05 4.64506e-05 4.60953e-05 4.61004e-05
          4.5813e-05 4.58101e-05 4.55698e-05 4.55749e-05 4.53463e-05 4.53485e-05 4.51571e-05 4.51563e-05 4.49379e-05 4.49388e-05 4.4804e-05 4.4811e-05
          4.46745e-05 4.46838e-05 4.45632e-05 4.45596e-05 4.44851e-05 4.44743e-05 4.44238e-05 4.44277e-05 4.44252e-05 4.44154e-05 4.44435e-05 4.4425e-05
          4.4491e-05 4.4482e-05 4.45934e-05 4.45944e-05 4.47233e-05 4.499e-05 4.49437e-05 4.49648e-05 4.51877e-05 4.51956e-05 4.55679e-05 4.55858e-05
          4.61356e-05 4.61131e-05 4.68838e-05 4.68863e-05 4.79084e-05 4.79049e-05 4.93733e-05 4.93737e-05 5.1508e-05 5.15155e-05 5.47176e-05 5.47185e-05
          5.93377e-05 5.93379e-05 6.33294e-05 6.33249e-05 5.45829e-05 5.4575e-05 1.57575e-05 1.57575e-05
        </DataArray>
        <DataArray type="Float32" Name="Da_ureolysis" NumberOfComponents="1" format="ascii">
          0 0 0 0 0 0 0 0 0 0 0 0
          0 0 0 0 0 0 0 0 0 0 0 0
          0 0 0 0 0 0 0 0 0 0 0 0
          0 0 0 0 0 0 0 0 0 0 0 0
          0 0 0 0 0 0 0 0 0 0 0 0
          0 0 0 0 0 0 0 0 0 0 0 0
          0 0 0 0 0 0 0 0
        </DataArray>
        <DataArray type="Float32" Name="Da_precipitation" NumberOfComponents="1" format="ascii">
          0.852145 0.853167 0.971918 0.97291 0.967811 0.971503 0.968768 0.971611 0.964733 0.965791 0.95768 0.958651
          0.953502 0.951685 0.946459 0.945395 0.939454 0.936196 0.929893 0.928625 0.921405 0.919856 0.902544 0.902805
          0.889852 0.888885 0.878555 0.878721 0.866108 0.866223 0.856947 0.856021 0.840066 0.841342 0.836341 0.837332
          0.825894 0.827666 0.816096 0.816342 0.807977 0.805781 0.797599 0.797896 0.791399 0.789836 0.783369 0.780629
          0.773831 0.772429 0.765257 0.765481 0.753256 0.788376 0.744121 0.747203 0.725834 0.726438 0.710674 0.713004
          0.698473 0.695978 0.681371 0.681499 0.659665 0.659302 0.635196 0.635159 0.604395 0.605138 0.561101 0.561234
          0.461093 0.461143 0.189923 0.189815 0.00227707 0.00227346 0 0
        </DataArray>
        <DataArray type="Float32" Name="Vx" NumberOfComponents="1" format="ascii">
          -9.98999e-08 -9.98755e-08 -6.02389e-08 -6.02198e-08 2.41703e-08 2.41635e-08 9.55165e-08 9.5486e-08 1.50603e-07 1.50637e-07 1.23528e-07 1.23632e-07
          5.39781e-08 5.40512e-08 3.93032e-08 3.93465e-08 1.17524e-08 1.17701e-08 9.3875e-09 9.40003e-09 5.62647e-08 5.63229e-08 -9.38719e-09 -9.41044e-09
          -1.01012e-07 -1.0109e-07 -2.09203e-08 -2.0932e-08 5.58257e-08 5.58664e-08 1.94832e-08 1.93983e-08 -3.4377e-07 -3.43617e-07 -2.62611e-07 -2.62541e-07
          3.78112e-07 3.77926e-07 2.32494e-07 2.32506e-07 -7.50168e-08 -7.50148e-08 2.77046e-08 2.77248e-08 1.17293e-08 1.17322e-08 -7.67384e-08 -7.67636e-08
          -5.27779e-08 -5.27818e-08 2.83834e-08 2.83729e-08 1.40214e-07 1.40262e-07 -5.58436e-08 -5.58785e-08 -2.08412e-07 -2.08439e-07 4.47957e-08 4.48416e-08
          9.60823e-08 9.60694e-08 2.6651e-08 2.66596e-08 -2.23999e-08 -2.24075e-08 -6.49472e-08 -6.49472e-08 -2.23529e-08 -2.23462e-08 2.06721e-08 2.06679e-08
          2.90763e-08 2.90734e-08 1.21533e-08 1.21534e-08 -3.7187e-09 -3.7187e-09 -3.94398e-09 -3.94407e-09
        </DataArray>
        <DataArray type="Float32" Name="Vy" NumberOfComponents="1" format="ascii">
          0.000341719 0.000341657 0.000333986 0.000333887 0.000335457 0.000335337 0.00033558 0.000335529 0.000335574 0.000335666 0.000335588 0.000335846
          0.000335508 0.000335863 0.000335476 0.000335879 0.00033546 0.000335896 0.000335492 0.000335931 0.000335877 0.000336314 0.000335716 0.000336151
          0.000335505 0.000335827 0.000335423 0.000335624 0.000335581 0.000335816 0.00033524 0.000335564 0.000336511 0.0003365 0.000335134 0.000334409
          0.000335826 0.000335242 0.000335674 0.000335799 0.000335742 0.000335974 0.000335467 0.000335628 0.000335634 0.000335863 0.000335548 0.000335703
          0.000335727 0.000335743 0.000335867 0.000335847 0.000335693 0.000335862 0.000335028 0.000335315 0.000336114 0.000336088 0.000335817 0.000335612
          0.00033553 0.000335503 0.0003355 0.000335593 0.000335414 0.000335511 0.000335322 0.000335326 0.000335302 0.000335212 0.000334959 0.000334871
          0.000335038 0.000335004 0.000337053 0.000337062 0.000337658 0.000337673 0.000355048 0.000355057
        </DataArray>
      </PointData>
      <CellData Scalars="process rank">
        <DataArray type="Float32" Name="process rank" NumberOfComponents="1" format="ascii">
          0 0 0 0 0 0 0 0 0 0 0 0
          0 0 0 0 0 0 0 0 0 0 0 0
          0 0 0 0 0 0 0 0 0 0 0 0
          0 0 0
        </DataArray>
      </CellData>
      <Points>
        <DataArray type="Float32" Name="Coordinates" NumberOfComponents="3" format="ascii">
          0 0 0 0.0254 0 0 0 0.01 0 0.0254 0.01 0
          0 0.02 0 0.0254 0.02 0 0 0.03 0 0.0254 0.03 0
          0 0.04 0 0.0254 0.04 0 0 0.05 0 0.0254 0.05 0
          0 0.06 0 0.0254 0.06 0 0 0.07 0 0.0254 0.07 0
          0 0.08 0 0.0254 0.08 0 0 0.09 0 0.0254 0.09 0
          0 0.1 0 0.0254 0.1 0 0 0.12 0 0.0254 0.12 0
          0 0.14 0 0.0254 0.14 0 0 0.16 0 0.0254 0.16 0
          0 0.18 0 0.0254 0.18 0 0 0.2 0 0.0254 0.2 0
          0 0.225 0 0.0254 0.225 0 0 0.25 0 0.0254 0.25 0
          0 0.275 0 0.0254 0.275 0 0 0.3 0 0.0254 0.3 0
          0 0.325 0 0.0254 0.325 0 0 0.35 0 0.0254 0.35 0
          0 0.375 0 0.0254 0.375 0 0 0.4 0 0.0254 0.4 0
          0 0.425 0 0.0254 0.425 0 0 0.45 0 0.0254 0.45 0
          0 0.475 0 0.0254 0.475 0 0 0.5 0 0.0254 0.5 0
          0 0.525 0 0.0254 0.525 0 0 0.55 0 0.0254 0.55 0
          0 0.575 0 0.0254 0.575 0 0 0.6 0 0.0254 0.6 0
          0 0.625 0 0.0254 0.625 0 0 0.65 0 0.0254 0.65 0
          0 0.675 0 0.0254 0.675 0 0 0.7 0 0.0254 0.7 0
          0 0.725 0 0.0254 0.725 0 0 0.75 0 0.0254 0.75 0
          0 0.775 0 0.0254 0.775 0 0 0.8 0 0.0254 0.8 0
        </DataArray>
      </Points>
      <Cells>
        <DataArray type="Int32" Name="connectivity" NumberOfComponents="1" format="ascii">
          0 1 3 2 2 3 5 4 4 5 7 6
          6 7 9 8 8 9 11 10 10 11 13 12
          12 13 15 14 14 15 17 16 16 17 19 18
          18 19 21 20 20 21 23 22 22 23 25 24
          24 25 27 26 26 27 29 28 28 29 31 30
          30 31 33 32 32 33 35 34 34 35 37 36
          36 37 39 38 38 39 41 40 40 41 43 42
          42 43 45 44 44 45 47 46 46 47 49 48
          48 49 51 50 50 51 53 52 52 53 55 54
          54 55 57 56 56 57 59 58 58 59 61 60
          60 61 63 62 62 63 65 64 64 65 67 66
          66 67 69 68 68 69 71 70 70 71 73 72
          72 73 75 74 74 75 77 76 76 77 79 78
        </DataArray>
        <DataArray type="Int32" Name="offsets" NumberOfComponents="1" format="ascii">
          4 8 12 16 20 24 28 32 36 40 44 48
          52 56 60 64 68 72 76 80 84 88 92 96
          100 104 108 112 116 120 124 128 132 136 140 144
          148 152 156
        </DataArray>
        <DataArray type="UInt8" Name="types" NumberOfComponents="1" format="ascii">
          9 9 9 9 9 9 9 9 9 9 9 9
          9 9 9 9 9 9 9 9 9 9 9 9
          9 9 9 9 9 9 9 9 9 9 9 9
          9 9 9
        </DataArray>
      </Cells>
    </Piece>
  </UnstructuredGrid>
</VTKFile>
