<?xml version="1.0"?>
<VTKFile type="UnstructuredGrid" version="0.1" byte_order="LittleEndian">
  <UnstructuredGrid>
    <Piece NumberOfCells="39" NumberOfPoints="80">
      <PointData Scalars="Sg">
        <DataArray type="Float32" Name="Sg" NumberOfComponents="1" format="ascii">
          0 0 0 0 0 0 0 0 0 0 0 0
          0 0 0 0 0 0 0 0 0 0 0 0
          0 0 0 0 0 0 0 0 0 0 0 0
          0 0 0 0 0 0 0 0 0 0 0 0
          0 0 0 0 0 0 0 0 0 0 0 0
          0 0 0 0 0 0 0 0 0 0 0 0
          0 0 0 0 0 0 0 0
        </DataArray>
        <DataArray type="Float32" Name="Sl" NumberOfComponents="1" format="ascii">
          1 1 1 1 1 1 1 1 1 1 1 1
          1 1 1 1 1 1 1 1 1 1 1 1
          1 1 1 1 1 1 1 1 1 1 1 1
          1 1 1 1 1 1 1 1 1 1 1 1
          1 1 1 1 1 1 1 1 1 1 1 1
          1 1 1 1 1 1 1 1 1 1 1 1
          1 1 1 1 1 1 1 1
        </DataArray>
        <DataArray type="Float32" Name="pg" NumberOfComponents="1" format="ascii">
          117630 117630 117531 117531 117433 117433 117334 117334 117235 117235 117136 117136
          117037 117037 116938 116938 116839 116839 116740 116740 116641 116641 116443 116443
          116244 116244 116045 116045 115846 115846 115647 115647 115398 115398 115149 115149
          114899 114899 114650 114650 114400 114400 114151 114151 113901 113901 113651 113651
          113402 113402 113152 113152 112902 112902 112652 112652 112403 112403 112153 112153
          111903 111903 111654 111654 111404 111404 111155 111155 110906 110906 110657 110657
          110408 110408 110160 110160 109913 109913 109667 109667
        </DataArray>
        <DataArray type="Float32" Name="pl" NumberOfComponents="1" format="ascii">
          107963 107963 107865 107865 107766 107766 107667 107667 107568 107568 107469 107469
          107371 107371 107272 107272 107173 107173 107073 107073 106974 106974 106776 106776
          106577 106577 106378 106378 106179 106179 105980 105980 105731 105731 105482 105482
          105233 105233 104983 104983 104734 104734 104484 104484 104234 104234 103985 103985
          103735 103735 103485 103485 103235 103235 102986 102986 102736 102736 102486 102486
          102237 102237 101987 101987 101738 101738 101488 101488 101239 101239 100990 100990
          100742 100742 100494 100494 100246 100246 100000 100000
        </DataArray>
        <DataArray type="Float32" Name="pc" NumberOfComponents="1" format="ascii">
          9666.67 9666.67 9666.67 9666.67 9666.67 9666.67 9666.67 9666.67 9666.67 9666.67 9666.67 9666.67
          9666.67 9666.67 9666.67 9666.67 9666.67 9666.67 9666.67 9666.67 9666.67 9666.67 9666.67 9666.67
          9666.67 9666.67 9666.67 9666.67 9666.67 9666.67 9666.67 9666.67 9666.67 9666.67 9666.67 9666.67
          9666.67 9666.67 9666.67 9666.67 9666.67 9666.67 9666.67 9666.67 9666.67 9666.67 9666.67 9666.67
          9666.67 9666.67 9666.67 9666.67 9666.67 9666.67 9666.67 9666.67 9666.67 9666.67 9666.67 9666.67
          9666.67 9666.67 9666.67 9666.67 9666.67 9666.67 9666.67 9666.67 9666.67 9666.67 9666.67 9666.67
          9666.67 9666.67 9666.67 9666.67 9666.67 9666.67 9666.67 9666.67
        </DataArray>
        <DataArray type="Float32" Name="rhoL" NumberOfComponents="1" format="ascii">
          1005.25 1005.27 1005.73 1005.72 1006.31 1006.31 1006.85 1006.84 1007.42 1007.42 1008.01 1008
          1008.59 1008.59 1009.19 1009.18 1009.76 1009.75 1010.34 1010.33 1010.91 1010.91 1011.95 1011.95
          1012.91 1012.91 1013.79 1013.79 1014.58 1014.57 1015.27 1015.27 1015.99 1015.99 1016.57 1016.56
          1017.04 1017.04 1017.42 1017.42 1017.72 1017.72 1017.94 1017.94 1018.1 1018.1 1018.21 1018.21
          1018.28 1018.27 1018.3 1018.3 1018.27 1018.27 1018.22 1018.22 1018.12 1018.12 1017.97 1017.96
          1017.72 1017.72 1017.4 1017.4 1016.95 1016.95 1016.34 1016.34 1015.49 1015.49 1014.31 1014.31
          1012.68 1012.68 1010.36 1010.36 1006.94 1006.94 1001.45 1001.45
        </DataArray>
        <DataArray type="Float32" Name="rhoG" NumberOfComponents="1" format="ascii">
          2.06916 2.06922 2.06744 2.06744 2.06566 2.06566 2.06388 2.06388 2.0621 2.0621 2.06031 2.06031
          2.05853 2.05853 2.05675 2.05675 2.05496 2.05496 2.05318 2.05318 2.05139 2.05139 2.04781 2.04781
          2.04423 2.04423 2.04064 2.04064 2.03705 2.03705 2.03345 2.03345 2.02895 2.02895 2.02445 2.02445
          2.01994 2.01994 2.01542 2.01542 2.01091 2.01091 2.00639 2.00639 2.00187 2.00187 1.99735 1.99735
          1.99282 1.99282 1.9883 1.9883 1.98378 1.98378 1.97925 1.97925 1.97473 1.97473 1.9702 1.9702
          1.96568 1.96568 1.96115 1.96115 1.95662 1.95662 1.9521 1.9521 1.94757 1.94757 1.94304 1.94304
          1.93851 1.93851 1.93398 1.93398 1.92945 1.92945 1.9249 1.9249
        </DataArray>
        <DataArray type="Float32" Name="mobL" NumberOfComponents="1" format="ascii">
          1082.92 1082.79 1080.62 1080.64 1077.84 1077.86 1075.37 1075.41 1072.81 1072.82 1070.21 1070.27
          1067.68 1067.71 1065.18 1065.22 1062.78 1062.84 1060.43 1060.47 1058.15 1058.18 1054.1 1054.12
          1050.47 1050.5 1047.25 1047.26 1044.42 1044.43 1041.97 1041.98 1039.47 1039.48 1037.52 1037.54
          1035.92 1035.93 1034.66 1034.65 1033.67 1033.68 1032.95 1032.95 1032.43 1032.43 1032.07 1032.06
          1031.86 1031.86 1031.77 1031.77 1031.86 1031.86 1032.04 1032.04 1032.36 1032.35 1032.85 1032.89
          1033.66 1033.65 1034.73 1034.73 1036.21 1036.21 1038.27 1038.27 1041.18 1041.18 1045.33 1045.33
          1051.31 1051.32 1060.31 1060.31 1074.89 1074.89 1103.12 1103.12
        </DataArray>
        <DataArray type="Float32" Name="mobG" NumberOfComponents="1" format="ascii">
          0 0 0 0 0 0 0 0 0 0 0 0
          0 0 0 0 0 0 0 0 0 0 0 0
          0 0 0 0 0 0 0 0 0 0 0 0
          0 0 0 0 0 0 0 0 0 0 0 0
          0 0 0 0 0 0 0 0 0 0 0 0
          0 0 0 0 0 0 0 0 0 0 0 0
          0 0 0 0 0 0 0 0
        </DataArray>
        <DataArray type="Float32" Name="porosity" NumberOfComponents="1" format="ascii">
          0.379996 0.380081 0.376146 0.376231 0.37398 0.37404 0.37245 0.372577 0.371127 0.371203 0.369805 0.370093
          0.368736 0.368888 0.367497 0.36766 0.366274 0.36651 0.365223 0.365359 0.364151 0.364342 0.362302 0.362638
          0.360568 0.360927 0.358962 0.359068 0.357615 0.357876 0.35641 0.356535 0.355508 0.356054 0.354003 0.353005
          0.353568 0.353063 0.353118 0.3538 0.353207 0.353181 0.352952 0.352983 0.353027 0.35321 0.353113 0.353235
          0.353582 0.353503 0.354008 0.353981 0.354107 0.354171 0.354761 0.354709 0.355639 0.355668 0.356665 0.356487
          0.357468 0.357474 0.358925 0.358947 0.360722 0.360813 0.363244 0.363219 0.366607 0.366534 0.370953 0.370949
          0.376934 0.376901 0.384511 0.384533 0.39294 0.392945 0.4 0.4
        </DataArray>
        <DataArray type="Float32" Name="temperature" NumberOfComponents="1" format="ascii">
          298.15 298.15 298.15 298.15 298.15 298.15 298.15 298.15 298.15 298.15 298.15 298.15
          298.15 298.15 298.15 298.15 298.15 298.15 298.15 298.15 298.15 298.15 298.15 298.15
          298.15 298.15 298.15 298.15 298.15 298.15 298.15 298.15 298.15 298.15 298.15 298.15
          298.15 298.15 298.15 298.15 298.15 298.15 298.15 298.15 298.15 298.15 298.15 298.15
          298.15 298.15 298.15 298.15 298.15 298.15 298.15 298.15 298.15 298.15 298.15 298.15
          298.15 298.15 298.15 298.15 298.15 298.15 298.15 298.15 298.15 298.15 298.15 298.15
          298.15 298.15 298.15 298.15 298.15 298.15 298.15 298.15
        </DataArray>
        <DataArray type="Float32" Name="phase presence" NumberOfComponents="1" format="ascii">
          1 1 1 1 1 1 1 1 1 1 1 1
          1 1 1 1 1 1 1 1 1 1 1 1
          1 1 1 1 1 1 1 1 1 1 1 1
          1 1 1 1 1 1 1 1 1 1 1 1
          1 1 1 1 1 1 1 1 1 1 1 1
          1 1 1 1 1 1 1 1 1 1 1 1
          1 1 1 1 1 1 1 1
        </DataArray>
        <DataArray type="Float32" Name="potential" NumberOfComponents="1" format="ascii">
          0.00750683 0.00748539 0.00712531 0.00712891 0.00666222 0.00666559 0.00624511 0.00625227 0.00581018 0.00581193 0.00536603 0.00537536
          0.00493035 0.00493576 0.00449574 0.00450266 0.00407854 0.00408856 0.00366737 0.003673 0.00326625 0.00327217 0.00255402 0.00255636
          0.00191612 0.00192046 0.00135376 0.00135531 0.000863461 0.000865861 0.000445239 0.000447682 2.79721e-05 2.90342e-05 -0.000289782 -0.000287155
          -0.000540966 -0.000540225 -0.000731933 -0.000732821 -0.000874601 -0.000874223 -0.000974974 -0.00097387 -0.00104246 -0.00104199 -0.00108679 -0.00108768
          -0.0011115 -0.00111105 -0.0011206 -0.00112059 -0.00111176 -0.00111174 -0.00109461 -0.00109422 -0.00106659 -0.00106737 -0.00102775 -0.00102498
          -0.000970259 -0.000970594 -0.000902404 -0.000902506 -0.000820788 -0.000820814 -0.000723131 -0.000723032 -0.000608855 -0.000608865 -0.000478685 -0.000478716
          -0.000337955 -0.000337942 -0.000195043 -0.000195044 -6.82549e-05 -6.82547e-05 0 0
        </DataArray>
        <DataArray type="Float32" Name="boxVolume" NumberOfComponents="1" format="ascii">
          6.35e-05 6.35e-05 0.000127 0.000127 0.000127 0.000127 0.000127 0.000127 0.000127 0.000127 0.000127 0.000127
          0.000127 0.000127 0.000127 0.000127 0.000127 0.000127 0.000127 0.000127 0.0001905 0.0001905 0.000254 0.000254
          0.000254 0.000254 0.000254 0.000254 0.000254 0.000254 0.00028575 0.00028575 0.0003175 0.0003175 0.0003175 0.0003175
          0.0003175 0.0003175 0.0003175 0.0003175 0.0003175 0.0003175 0.0003175 0.0003175 0.0003175 0.0003175 0.0003175 0.0003175
          0.0003175 0.0003175 0.0003175 0.0003175 0.0003175 0.0003175 0.0003175 0.0003175 0.0003175 0.0003175 0.0003175 0.0003175
          0.0003175 0.0003175 0.0003175 0.0003175 0.0003175 0.0003175 0.0003175 0.0003175 0.0003175 0.0003175 0.0003175 0.0003175
          0.0003175 0.0003175 0.0003175 0.0003175 0.0003175 0.0003175 0.00015875 0.00015875
        </DataArray>
        <DataArray type="Float32" Name="pH" NumberOfComponents="1" format="ascii">
          7.3054 7.3042 7.28337 7.28386 7.25815 7.25831 7.23635 7.23677 7.21383 7.21381 7.19131 7.19182
          7.17014 7.17025 7.14948 7.15003 7.13017 7.1305 7.11104 7.11145 7.09251 7.09273 7.06022 7.06033
          7.03166 7.0317 7.00691 7.00711 6.98472 6.98498 6.96615 6.9664 6.9469 6.94676 6.93483 6.93579
          6.92149 6.92222 6.91082 6.91063 6.90109 6.90111 6.8939 6.89443 6.88877 6.88901 6.88389 6.8833
          6.87967 6.87988 6.87574 6.87577 6.87512 6.8752 6.87233 6.87262 6.8689 6.86891 6.86528 6.86797
          6.86786 6.86642 6.86667 6.86647 6.86541 6.86516 6.86504 6.86494 6.86608 6.86655 6.8714 6.87136
          6.88183 6.8819 6.9074 6.90735 6.97773 6.97771 6.19963 6.19963
        </DataArray>
        <DataArray type="Float32" Name="Omega" NumberOfComponents="1" format="ascii">
          8.01465 8.03065 8.34617 8.33308 8.69967 8.698 9.00956 9.00287 9.34236 9.34531 9.68062 9.67338
          9.99552 9.99713 10.305 10.2947 10.5974 10.5947 10.8971 10.8895 11.1919 11.1896 11.711 11.7104
          12.1764 12.1782 12.5802 12.5763 12.9507 12.9469 13.2583 13.2539 13.5805 13.5869 13.7562 13.7307
          13.9846 13.9669 14.1655 14.1732 14.3352 14.3345 14.4538 14.4424 14.5344 14.53 14.6124 14.6247
          14.6818 14.6768 14.7449 14.7443 14.7455 14.7438 14.7912 14.7855 14.8524 14.8505 14.9128 14.8666
          14.8692 14.893 14.8913 14.8943 14.9119 14.9155 14.9088 14.9098 14.8584 14.8542 14.6985 14.6989
          14.3444 14.3445 13.5035 13.5032 11.271 11.2702 0 0
        </DataArray>
        <DataArray type="Float32" Name="rurea" NumberOfComponents="1" format="ascii">
          0 0 0 0 0 0 0 0 0 0 0 0
          0 0 0 0 0 0 0 0 0 0 0 0
          0 0 0 0 0 0 0 0 0 0 0 0
          0 0 0 0 0 0 0 0 0 0 0 0
          0 0 0 0 0 0 0 0 0 0 0 0
          0 0 0 0 0 0 0 0 0 0 0 0
          0 0 0 0 0 0 0 0
        </DataArray>
        <DataArray type="Float32" Name="Volume_Fraction_Biofilm" NumberOfComponents="1" format="ascii">
          0.00574266 0.00574499 0.00565384 0.005673 0.00562178 0.00562175 0.00560335 0.00560788 0.00556384 0.00556 0.00551793 0.00552434
          0.00549043 0.0054869 0.00545745 0.00546777 0.00542966 0.00542882 0.00539019 0.00539728 0.00534813 0.0053495 0.00527684 0.0052815
          0.00521124 0.00521265 0.00515688 0.00516148 0.00509731 0.00510422 0.00505366 0.00505845 0.00500226 0.00500663 0.00499893 0.00500133
          0.00494374 0.00494989 0.00489565 0.00490209 0.00483797 0.00483769 0.00478881 0.00479632 0.00475314 0.00475846 0.00470473 0.00469774
          0.00465721 0.00465862 0.00459953 0.00459959 0.00457227 0.0045737 0.00450916 0.00451249 0.0044278 0.00442815 0.00432777 0.00436201
          0.00428689 0.00426617 0.00417214 0.00416964 0.00402283 0.0040199 0.0038364 0.0038344 0.00359218 0.00359871 0.00328357 0.00328298
          0.00284257 0.00284346 0.00221673 0.0022161 0.00129688 0.00129648 0 0
        </DataArray>
        <DataArray type="Float32" Name="Volume_Fraction_Calcite" NumberOfComponents="1" format="ascii">
          0.0142612 0.0141744 0.0181997 0.0180959 0.0203984 0.0203387 0.021947 0.0218155 0.0233095 0.0232368 0.0246766 0.0243827
          0.0257732 0.0256255 0.0270456 0.0268724 0.0282963 0.0280615 0.0293869 0.0292441 0.030501 0.0303081 0.0324215 0.0320807
          0.0342207 0.0338607 0.0358809 0.0357707 0.0372873 0.0370195 0.038536 0.0384066 0.0394898 0.0389397 0.0409984 0.041994
          0.0414887 0.0419873 0.0419861 0.0412982 0.0419554 0.0419812 0.0422588 0.0422209 0.0422195 0.0420319 0.0421825 0.0420672
          0.0417606 0.041838 0.0413924 0.0414197 0.0413207 0.0412553 0.0407296 0.0407786 0.0399331 0.0399037 0.0390073 0.0391514
          0.038245 0.03826 0.0369026 0.0368832 0.0352554 0.0351668 0.0329192 0.0329466 0.0298009 0.0298677 0.0257638 0.0257678
          0.0202231 0.0202559 0.013272 0.0132511 0.00576334 0.00575822 0 0
        </DataArray>
        <DataArray type="Float32" Name="Kxx" NumberOfComponents="1" format="ascii">
          1.7147e-10 1.71584e-10 1.66311e-10 1.66423e-10 1.63454e-10 1.63532e-10 1.61455e-10 1.61621e-10 1.59741e-10 1.5984e-10 1.58041e-10 1.5841e-10
          1.56674e-10 1.56867e-10 1.551e-10 1.55306e-10 1.53557e-10 1.53853e-10 1.52238e-10 1.52408e-10 1.50902e-10 1.5114e-10 1.48614e-10 1.49029e-10
          1.46491e-10 1.46929e-10 1.44543e-10 1.4467e-10 1.42922e-10 1.43235e-10 1.41482e-10 1.4163e-10 1.4041e-10 1.41058e-10 1.38634e-10 1.37465e-10
          1.38123e-10 1.37533e-10 1.37597e-10 1.38396e-10 1.37701e-10 1.37671e-10 1.37404e-10 1.37439e-10 1.37491e-10 1.37704e-10 1.37591e-10 1.37734e-10
          1.38141e-10 1.38048e-10 1.3864e-10 1.38608e-10 1.38757e-10 1.38832e-10 1.39527e-10 1.39465e-10 1.40565e-10 1.406e-10 1.41785e-10 1.41573e-10
          1.42745e-10 1.42752e-10 1.44498e-10 1.44525e-10 1.46679e-10 1.4679e-10 1.49778e-10 1.49746e-10 1.53976e-10 1.53883e-10 1.59516e-10 1.59512e-10
          1.67358e-10 1.67313e-10 1.77655e-10 1.77685e-10 1.89595e-10 1.89603e-10 2e-10 2e-10
        </DataArray>
        <DataArray type="Float32" Name="X_lBrine" NumberOfComponents="1" format="ascii">
          0.979047 0.978989 0.978009 0.97802 0.976734 0.976743 0.97557 0.97559 0.974339 0.974344 0.973066 0.973093
          0.971799 0.971815 0.970518 0.970539 0.969271 0.969301 0.968024 0.968041 0.96679 0.966808 0.964549 0.964557
          0.962481 0.962495 0.960601 0.960606 0.958908 0.958916 0.957416 0.957425 0.955869 0.955872 0.954641 0.954653
          0.953621 0.953625 0.952808 0.952804 0.952168 0.95217 0.951694 0.9517 0.951359 0.951361 0.951125 0.95112
          0.950989 0.950992 0.950938 0.950938 0.951006 0.951006 0.951137 0.951141 0.951366 0.951359 0.95171 0.951738
          0.952279 0.952274 0.953025 0.953024 0.954043 0.954043 0.955451 0.955453 0.9574 0.9574 0.960118 0.960117
          0.9639 0.963901 0.969287 0.969287 0.977279 0.977279 0.99029 0.99029
        </DataArray>
        <DataArray type="Float32" Name="X_lTotalC" NumberOfComponents="1" format="ascii">
          0.00013488 0.000134894 0.000134597 0.000134719 0.00013437 0.000134365 0.000134092 0.000134121 0.00013348 0.000133435 0.000132661 0.000132696
          0.000131893 0.000131839 0.000131009 0.000131112 0.000130111 0.000130082 0.00012896 0.000129038 0.000127702 0.0001277 0.000125312 0.000125321
          0.00012296 0.000122918 0.000120845 0.000120905 0.000118657 0.000118721 0.000116875 0.000116939 0.000114835 0.000114769 0.000114284 0.000114607
          0.00011251 0.000112767 0.000111046 0.000110984 0.000109392 0.000109396 0.000108175 0.000108347 0.000107303 0.00010738 0.000106243 0.00010605
          0.000105159 0.000105225 0.000103957 0.000103967 0.000103607 0.000103632 0.000102345 0.000102438 0.00010063 0.000100652 9.85803e-05 9.94139e-05
          9.80542e-05 9.75838e-05 9.58109e-05 9.57502e-05 9.28546e-05 9.27739e-05 8.91678e-05 8.9132e-05 8.44446e-05 8.45874e-05 7.8771e-05 7.87589e-05
          7.10893e-05 7.11059e-05 6.14909e-05 6.14784e-05 5.13346e-05 5.1331e-05 5.81077e-07 5.81077e-07
        </DataArray>
        <DataArray type="Float32" Name="X_lNa" NumberOfComponents="1" format="ascii">
          2.95676e-06 2.95095e-06 2.85378e-06 2.85469e-06 2.72703e-06 2.72798e-06 2.61144e-06 2.61342e-06 2.48963e-06 2.49017e-06 2.36378e-06 2.36644e-06
          2.23867e-06 2.24031e-06 2.11231e-06 2.11425e-06 1.98945e-06 1.99248e-06 1.86705e-06 1.86865e-06 1.7462e-06 1.74802e-06 1.5274e-06 1.52813e-06
          1.3262e-06 1.32769e-06 1.14368e-06 1.1441e-06 9.80364e-07 9.81082e-07 8.3649e-07 8.37234e-07 6.88146e-07 6.88711e-07 5.67844e-07 5.68097e-07
          4.71515e-07 4.71174e-07 3.95e-07 3.94803e-07 3.36336e-07 3.36501e-07 2.92875e-07 2.92927e-07 2.62017e-07 2.62036e-07 2.41782e-07 2.41862e-07
          2.31074e-07 2.31134e-07 2.29034e-07 2.29011e-07 2.35474e-07 2.35407e-07 2.50827e-07 2.50817e-07 2.76788e-07 2.7613e-07 3.14693e-07 3.14374e-07
          3.67805e-07 3.68979e-07 4.43051e-07 4.43149e-07 5.45562e-07 5.45814e-07 6.86048e-07 6.86315e-07 8.79318e-07 8.78756e-07 1.14512e-06 1.1451e-06
          1.51322e-06 1.51319e-06 2.0273e-06 2.02735e-06 2.75121e-06 2.75122e-06 3.74885e-06 3.74885e-06
        </DataArray>
        <DataArray type="Float32" Name="X_lCl" NumberOfComponents="1" format="ascii">
          0.0118684 0.0119068 0.0125511 0.0125451 0.0133915 0.0133852 0.0141578 0.0141447 0.0149654 0.0149617 0.0157995 0.0157819
          0.0166288 0.0166179 0.0174663 0.0174535 0.0182806 0.0182604 0.0190916 0.019081 0.0198923 0.0198802 0.0213417 0.0213368
          0.0226742 0.0226643 0.0238829 0.0238802 0.0249641 0.0249594 0.0259166 0.0259117 0.0268983 0.0268945 0.0276954 0.027694
          0.0283323 0.0283348 0.0288381 0.0288394 0.0292253 0.0292242 0.0295121 0.0295119 0.0297157 0.0297156 0.0298486 0.0298478
          0.0299182 0.0299179 0.0299302 0.0299303 0.0298868 0.0298873 0.0297832 0.0297834 0.0296086 0.029613 0.0293542 0.0293574
          0.0290006 0.0289922 0.0284979 0.0284971 0.0278129 0.0278112 0.0268747 0.0268729 0.0255843 0.0255883 0.0238109 0.023811
          0.0213556 0.0213558 0.0179299 0.0179295 0.0131194 0.0131193 0.00655617 0.00655617
        </DataArray>
        <DataArray type="Float32" Name="X_lCa" NumberOfComponents="1" format="ascii">
          0.000278078 0.000279224 0.000301877 0.000300931 0.000329904 0.000329749 0.000356008 0.000355411 0.000385843 0.000386074 0.000418336 0.000417544
          0.000450673 0.000450796 0.000484613 0.000483363 0.000518518 0.000518165 0.00055532 0.000554269 0.000593705 0.000593355 0.000666931 0.000666715
          0.000739298 0.00073953 0.000807708 0.000806856 0.000875757 0.000874732 0.000936041 0.000934915 0.00100385 0.00100495 0.00104161 0.00103585
          0.00109585 0.00109125 0.00114136 0.00114277 0.00118747 0.00118734 0.00122222 0.00121871 0.00124739 0.00124583 0.00127412 0.0012782
          0.0012995 0.00129799 0.0013255 0.00132529 0.00133068 0.00133011 0.00135396 0.00135187 0.00138546 0.00138505 0.00142217 0.00140238
          0.0014183 0.00142927 0.0014494 0.00145087 0.00149076 0.00149275 0.00153981 0.00154067 0.00159957 0.00159575 0.00165825 0.00165862
          0.00172848 0.00172797 0.00176042 0.00176082 0.00154791 0.00154796 0 0
        </DataArray>
        <DataArray type="Float32" Name="X_lUrea" NumberOfComponents="1" format="ascii">
          0.00013422 0.000135198 0.000157549 0.000156064 0.000184182 0.000184076 0.000209392 0.000208701 0.000239918 0.000240398 0.000274239 0.00027333
          0.000308346 0.000308815 0.000344883 0.000343095 0.000381829 0.000381719 0.000423564 0.00042207 0.00046804 0.000467745 0.000554367 0.000554121
          0.000641576 0.000642174 0.000724847 0.00072353 0.000810114 0.000808565 0.000885545 0.000883847 0.000972169 0.000973983 0.00101484 0.00100571
          0.00108718 0.00107982 0.0011484 0.0011506 0.00121308 0.0012129 0.0012619 0.00125636 0.00129736 0.00129491 0.0013368 0.00134326
          0.00137546 0.0013731 0.00141633 0.00141599 0.0014256 0.00142471 0.00146466 0.00146136 0.00151812 0.00151738 0.00158144 0.00155031
          0.00158319 0.0016006 0.00164302 0.00164534 0.00172278 0.00172594 0.00181998 0.00182136 0.00194146 0.00193542 0.00207176 0.00207234
          0.00223519 0.0022344 0.00236176 0.00236239 0.00214576 0.00214584 0 0
        </DataArray>
        <DataArray type="Float32" Name="X_lTotalNH" NumberOfComponents="1" format="ascii">
          0.00556898 0.0055865 0.00587649 0.00587452 0.00625621 0.00625332 0.00660196 0.00659618 0.00696404 0.00696206 0.00733649 0.00732875
          0.0077068 0.00770142 0.00807958 0.00807457 0.00844123 0.00843185 0.00879868 0.00879454 0.00914971 0.0091442 0.00978189 0.00977975
          0.0103587 0.0103537 0.0108796 0.010879 0.0113394 0.0113381 0.0117443 0.011743 0.0121567 0.0121539 0.0125071 0.0125116
          0.0127656 0.0127709 0.0129688 0.0129681 0.0131143 0.0131139 0.0132216 0.0132246 0.0132973 0.0132987 0.0133376 0.0133336
          0.0133487 0.0133498 0.0133314 0.0133316 0.0133059 0.0133066 0.0132354 0.0132373 0.0131234 0.0131259 0.0129684 0.0129874
          0.0128014 0.0127877 0.0125317 0.0125301 0.0121653 0.0121627 0.01167 0.0116684 0.0109957 0.0110009 0.0100895 0.0100892
          0.00884438 0.00884492 0.00716416 0.00716365 0.00502604 0.00502596 0.00314947 0.00314947
        </DataArray>
        <DataArray type="Float32" Name="X_lO2" NumberOfComponents="1" format="ascii">
          -7.19271e-08 -7.29245e-08 -7.26341e-08 -8.14865e-08 -9.05803e-08 -8.99036e-08 -1.01686e-07 -1.02045e-07 -1.03104e-07 -1.02541e-07 -1.01978e-07 -1.02246e-07
          -9.06486e-08 -9.3162e-08 -8.77172e-09 -7.9017e-09 -4.67886e-10 -4.61385e-10 -1.89561e-11 -2.04733e-11 -3.40259e-13 -3.59786e-13 -3.50923e-13 -7.99501e-14
          -1.66463e-12 -1.64044e-11 -1.48798e-10 -5.5718e-11 -6.96418e-09 -8.39423e-09 -2.54762e-08 -2.63738e-08 -3.5265e-08 -3.51226e-08 -1.02965e-09 -1.63888e-09
          -3.56036e-09 -7.39081e-09 -1.03501e-08 -9.87744e-09 -1.03807e-08 -1.03717e-08 -7.37314e-09 -4.54102e-10 -8.71959e-11 -8.59562e-11 -7.16084e-13 -7.96765e-13
          -3.15721e-12 -3.30714e-12 -2.81793e-10 -2.7105e-10 -8.46044e-09 -9.26348e-09 -2.22455e-08 -2.52868e-08 -2.31055e-08 -2.43789e-08 -1.95685e-08 -4.32615e-08
          -5.97009e-08 -5.07822e-08 -6.21284e-08 -6.11151e-08 -5.75013e-08 -5.62292e-08 -4.99646e-08 -4.95426e-08 -3.89873e-08 -4.11165e-08 -3.0443e-08 -3.02343e-08
          -1.30731e-08 -1.29944e-08 -4.34173e-10 -4.36214e-10 -5.00378e-12 -4.99424e-12 0 0
        </DataArray>
        <DataArray type="Float32" Name="X_lSubstrate" NumberOfComponents="1" format="ascii">
          0.00296505 0.00296511 0.00296606 0.00296604 0.00296727 0.00296727 0.00296838 0.00296836 0.00296956 0.00296955 0.00297077 0.00297074
          0.00297199 0.00297196 0.00297334 0.00297333 0.00297451 0.00297448 0.00297564 0.00297563 0.00297673 0.00297671 0.00297866 0.00297865
          0.00298036 0.00298034 0.00298181 0.00298182 0.00298298 0.00298298 0.00298386 0.00298386 0.00298453 0.00298453 0.00298491 0.00298495
          0.00298459 0.0029846 0.00298366 0.00298365 0.00298199 0.00298199 0.00297948 0.00297951 0.00297588 0.00297587 0.00297074 0.00297072
          0.00296363 0.00296369 0.00295389 0.00295392 0.00294068 0.00294075 0.00292261 0.00292261 0.00289765 0.00289824 0.00286423 0.00286454
          0.00281927 0.00281824 0.00275642 0.00275634 0.00267119 0.00267098 0.00255438 0.00255415 0.00239336 0.00239384 0.00217147 0.00217148
          0.00186359 0.00186362 0.00143324 0.0014332 0.000827943 0.000827935 0 0
        </DataArray>
        <DataArray type="Float32" Name="X_lSuspended_Biomass" NumberOfComponents="1" format="ascii">
          1.56468e-07 1.56979e-07 1.64049e-07 1.64408e-07 1.68114e-07 1.67839e-07 1.65551e-07 1.67057e-07 1.60642e-07 1.52904e-07 1.76315e-07 1.74998e-07
          1.80242e-07 1.7898e-07 1.82458e-07 1.79236e-07 1.75781e-07 1.79424e-07 1.86606e-07 1.84864e-07 1.72872e-07 1.759e-07 2.01856e-07 2.01571e-07
          2.01902e-07 2.03295e-07 2.07183e-07 2.08309e-07 2.07255e-07 2.06629e-07 2.09512e-07 2.10241e-07 2.1803e-07 2.17948e-07 2.23306e-07 2.23656e-07
          2.26829e-07 2.27261e-07 2.29461e-07 2.29652e-07 2.32588e-07 2.32997e-07 2.35569e-07 2.35872e-07 2.38491e-07 2.38983e-07 2.41276e-07 2.41598e-07
          2.43478e-07 2.4402e-07 2.45126e-07 2.44991e-07 2.50533e-07 2.49442e-07 2.54559e-07 2.53574e-07 2.58088e-07 2.57015e-07 2.6002e-07 2.60021e-07
          2.61694e-07 2.60999e-07 2.59845e-07 2.5934e-07 2.54905e-07 2.54445e-07 2.46577e-07 2.46203e-07 2.33138e-07 2.33038e-07 2.13199e-07 2.1297e-07
          1.83484e-07 1.83374e-07 1.41104e-07 1.4104e-07 8.11765e-08 8.11568e-08 0 0
        </DataArray>
        <DataArray type="Float32" Name="X_lNH4" NumberOfComponents="1" format="ascii">
          0.00583686 0.00585541 0.00616258 0.00616046 0.00656476 0.0065617 0.00693098 0.00692485 0.00731466 0.00731257 0.0077094 0.00770119
          0.00810186 0.00809619 0.008497 0.00849165 0.00888036 0.00887044 0.00925939 0.00925498 0.00963167 0.00962585 0.0103022 0.0102999
          0.0109141 0.0109088 0.0114666 0.0114661 0.0119546 0.0119532 0.0123843 0.0123828 0.012822 0.012819 0.0131933 0.0131979
          0.0134679 0.0134734 0.0136837 0.013683 0.0138386 0.0138381 0.0139528 0.0139559 0.0140333 0.0140348 0.0140765 0.0140724
          0.0140887 0.0140899 0.0140709 0.0140712 0.0140441 0.0140448 0.01397 0.013972 0.0138521 0.0138547 0.0136889 0.0137086
          0.0135123 0.013498 0.0132276 0.0132259 0.0128408 0.0128381 0.0123179 0.0123162 0.0116059 0.0116114 0.0106487 0.0106484
          0.00933332 0.00933388 0.00755801 0.00755747 0.00529793 0.00529785 0.00333307 0.00333307
        </DataArray>
        <DataArray type="Float32" Name="X_lHCO3" NumberOfComponents="1" format="ascii">
          0.000170809 0.000170791 0.000169806 0.000169973 0.00016875 0.000168749 0.000167715 0.000167764 0.000166224 0.000166168 0.000164461 0.000164522
          0.000162793 0.000162731 0.000160989 0.000161132 0.000159205 0.000159182 0.000157117 0.000157225 0.000154918 0.000154924 0.000150846 0.000150862
          0.000146965 0.000146917 0.000143515 0.000143592 0.000140089 0.000140175 0.000137287 0.000137372 0.000134171 0.000134091 0.000133051 0.000133458
          0.000130491 0.000130812 0.000128398 0.00012832 0.000126135 0.000126141 0.000124474 0.000124689 0.000123287 0.000123382 0.0001219 0.00012166
          0.000120516 0.000120598 0.000119014 0.000119025 0.000118595 0.000118626 0.000117073 0.000117188 0.000115022 0.000115047 0.000112593 0.000113625
          0.000112099 0.00011152 0.000109545 0.00010947 0.00010619 0.000106091 0.000102046 0.000102002 9.67782e-05 9.69533e-05 9.05504e-05 9.05354e-05
          8.21367e-05 8.21573e-05 7.17531e-05 7.17377e-05 6.11628e-05 6.11582e-05 3.37056e-07 3.37056e-07
        </DataArray>
        <DataArray type="Float32" Name="X_lCO3" NumberOfComponents="1" format="ascii">
          2.22821e-07 2.22332e-07 2.13439e-07 2.13777e-07 2.03221e-07 2.03279e-07 1.94714e-07 1.94902e-07 1.85977e-07 1.85925e-07 1.77428e-07 1.77638e-07
          1.69755e-07 1.69739e-07 1.62463e-07 1.62725e-07 1.55876e-07 1.5595e-07 1.494e-07 1.49583e-07 1.43273e-07 1.43331e-07 1.33035e-07 1.33072e-07
          1.24416e-07 1.24398e-07 1.1734e-07 1.17428e-07 1.11139e-07 1.11238e-07 1.06223e-07 1.06317e-07 1.01227e-07 1.01166e-07 9.86482e-08 9.90159e-08
          9.51801e-08 9.54614e-08 9.24562e-08 9.23909e-08 8.98433e-08 8.98494e-08 8.79488e-08 8.81339e-08 8.66106e-08 8.66929e-08 8.52169e-08 8.50146e-08
          8.39296e-08 8.39985e-08 8.26271e-08 8.26365e-08 8.2316e-08 8.23412e-08 8.1162e-08 8.12576e-08 7.96653e-08 7.96787e-08 7.79565e-08 7.88181e-08
          7.80031e-08 7.7526e-08 7.65175e-08 7.6455e-08 7.45974e-08 7.45155e-08 7.23403e-08 7.23051e-08 6.95828e-08 6.97298e-08 6.66412e-08 6.66278e-08
          6.27126e-08 6.27316e-08 5.8395e-08 5.83805e-08 5.60699e-08 5.60637e-08 2.55591e-11 2.55591e-11
        </DataArray>
        <DataArray type="Float32" Name="X_lCO2" NumberOfComponents="1" format="ascii">
          1.15466e-05 1.15735e-05 1.19938e-05 1.19952e-05 1.25354e-05 1.25311e-05 1.30105e-05 1.30036e-05 1.34799e-05 1.34753e-05 1.3938e-05 1.39293e-05
          1.4379e-05 1.43696e-05 1.48017e-05 1.48004e-05 1.51945e-05 1.51817e-05 1.55543e-05 1.55535e-05 1.5886e-05 1.58797e-05 1.64394e-05 1.64376e-05
          1.68933e-05 1.68855e-05 1.72711e-05 1.72744e-05 1.75571e-05 1.75602e-05 1.77992e-05 1.78026e-05 1.80104e-05 1.80027e-05 1.82684e-05 1.82981e-05
          1.83437e-05 1.83689e-05 1.83906e-05 1.83845e-05 1.837e-05 1.837e-05 1.83524e-05 1.83696e-05 1.83378e-05 1.83454e-05 1.82786e-05 1.82587e-05
          1.81937e-05 1.82005e-05 1.80765e-05 1.80776e-05 1.8028e-05 1.80308e-05 1.78648e-05 1.78745e-05 1.76296e-05 1.76336e-05 1.73325e-05 1.74211e-05
          1.71625e-05 1.71104e-05 1.67625e-05 1.67559e-05 1.62267e-05 1.62176e-05 1.55297e-05 1.55253e-05 1.46071e-05 1.46235e-05 1.34265e-05 1.34252e-05
          1.18148e-05 1.18165e-05 9.70712e-06 9.70575e-06 7.18915e-06 7.1889e-06 3.38012e-07 3.38012e-07
        </DataArray>
        <DataArray type="Float32" Name="X_lH" NumberOfComponents="1" format="ascii">
          4.91576e-11 4.92917e-11 5.16782e-11 5.16203e-11 5.47209e-11 5.47004e-11 5.74911e-11 5.74358e-11 6.04985e-11 6.05018e-11 6.36621e-11 6.35884e-11
          6.67832e-11 6.67679e-11 6.99745e-11 6.98883e-11 7.30927e-11 7.30383e-11 7.63183e-11 7.62468e-11 7.95747e-11 7.95357e-11 8.55816e-11 8.55603e-11
          9.12654e-11 9.12568e-11 9.64878e-11 9.64422e-11 1.01421e-10 1.01362e-10 1.0574e-10 1.05679e-10 1.10408e-10 1.10443e-10 1.13419e-10 1.13171e-10
          1.1687e-10 1.16675e-10 1.19705e-10 1.19759e-10 1.2236e-10 1.22353e-10 1.24357e-10 1.24207e-10 1.25802e-10 1.25734e-10 1.272e-10 1.27372e-10
          1.28427e-10 1.28365e-10 1.29588e-10 1.2958e-10 1.29777e-10 1.29755e-10 1.30623e-10 1.30536e-10 1.31677e-10 1.31671e-10 1.32804e-10 1.3199e-10
          1.32071e-10 1.3251e-10 1.325e-10 1.32559e-10 1.32973e-10 1.3305e-10 1.33209e-10 1.3324e-10 1.33063e-10 1.32921e-10 1.31682e-10 1.31697e-10
          1.28887e-10 1.28868e-10 1.21967e-10 1.21981e-10 1.04327e-10 1.04332e-10 6.32454e-10 6.32454e-10
        </DataArray>
        <DataArray type="Float32" Name="X_lOH" NumberOfComponents="1" format="ascii">
          3.38379e-06 3.37432e-06 3.21414e-06 3.2178e-06 3.03009e-06 3.03126e-06 2.87944e-06 2.8823e-06 2.73164e-06 2.73151e-06 2.5913e-06 2.5944e-06
          2.46585e-06 2.46647e-06 2.34918e-06 2.35216e-06 2.24505e-06 2.24681e-06 2.1464e-06 2.14847e-06 2.05499e-06 2.05605e-06 1.90471e-06 1.9052e-06
          1.78085e-06 1.78105e-06 1.67995e-06 1.68076e-06 1.59436e-06 1.59531e-06 1.52596e-06 1.52686e-06 1.45817e-06 1.45772e-06 1.41699e-06 1.42013e-06
          1.37309e-06 1.37541e-06 1.33896e-06 1.33835e-06 1.30865e-06 1.30873e-06 1.28671e-06 1.28829e-06 1.27128e-06 1.27198e-06 1.25685e-06 1.25513e-06
          1.24455e-06 1.24515e-06 1.23325e-06 1.23333e-06 1.23156e-06 1.23177e-06 1.22375e-06 1.22457e-06 1.21427e-06 1.21431e-06 1.20445e-06 1.21197e-06
          1.21211e-06 1.20806e-06 1.20937e-06 1.20882e-06 1.20668e-06 1.20597e-06 1.20678e-06 1.2065e-06 1.21124e-06 1.21254e-06 1.22842e-06 1.22829e-06
          1.26149e-06 1.26168e-06 1.34294e-06 1.34279e-06 1.58807e-06 1.588e-06 2.67481e-07 2.67481e-07
        </DataArray>
        <DataArray type="Float32" Name="X_gBrine" NumberOfComponents="1" format="ascii">
          0.0112383 0.011221 0.0112282 0.0112282 0.0112347 0.0112347 0.0112414 0.0112415 0.011248 0.011248 0.0112546 0.0112546
          0.0112611 0.0112611 0.0112676 0.0112677 0.0112743 0.0112743 0.0112809 0.011281 0.0112876 0.0112876 0.0113016 0.0113016
          0.011316 0.0113161 0.011331 0.0113311 0.0113466 0.0113466 0.0113626 0.0113627 0.0113836 0.0113837 0.0114055 0.0114056
          0.0114281 0.0114281 0.0114512 0.0114512 0.011475 0.011475 0.0114992 0.0114992 0.0115239 0.0115239 0.011549 0.011549
          0.0115745 0.0115745 0.0116003 0.0116003 0.0116265 0.0116265 0.0116529 0.0116529 0.0116798 0.0116797 0.011707 0.0117071
          0.0117349 0.0117349 0.0117633 0.0117633 0.0117925 0.0117925 0.0118228 0.0118228 0.0118546 0.0118546 0.0118883 0.0118883
          0.0119246 0.0119246 0.011965 0.011965 0.0120115 0.0120115 0.0120698 0.0120698
        </DataArray>
        <DataArray type="Float32" Name="X_gTotalC" NumberOfComponents="1" format="ascii">
          0.988762 0.988779 0.988772 0.988772 0.988765 0.988765 0.988759 0.988759 0.988752 0.988752 0.988745 0.988745
          0.988739 0.988739 0.988732 0.988732 0.988726 0.988726 0.988719 0.988719 0.988712 0.988712 0.988698 0.988698
          0.988684 0.988684 0.988669 0.988669 0.988653 0.988653 0.988637 0.988637 0.988616 0.988616 0.988594 0.988594
          0.988572 0.988572 0.988549 0.988549 0.988525 0.988525 0.988501 0.988501 0.988476 0.988476 0.988451 0.988451
          0.988425 0.988425 0.9884 0.9884 0.988374 0.988374 0.988347 0.988347 0.98832 0.98832 0.988293 0.988293
          0.988265 0.988265 0.988237 0.988237 0.988207 0.988207 0.988177 0.988177 0.988145 0.988145 0.988112 0.988112
          0.988075 0.988075 0.988035 0.988035 0.987988 0.987988 0.98793 0.98793
        </DataArray>
        <DataArray type="Float32" Name="X_gNa" NumberOfComponents="1" format="ascii">
          0 0 0 0 0 0 0 0 0 0 0 0
          0 0 0 0 0 0 0 0 0 0 0 0
          0 0 0 0 0 0 0 0 0 0 0 0
          0 0 0 0 0 0 0 0 0 0 0 0
          0 0 0 0 0 0 0 0 0 0 0 0
          0 0 0 0 0 0 0 0 0 0 0 0
          0 0 0 0 0 0 0 0
        </DataArray>
        <DataArray type="Float32" Name="X_gCl" NumberOfComponents="1" format="ascii">
          0 0 0 0 0 0 0 0 0 0 0 0
          0 0 0 0 0 0 0 0 0 0 0 0
          0 0 0 0 0 0 0 0 0 0 0 0
          0 0 0 0 0 0 0 0 0 0 0 0
          0 0 0 0 0 0 0 0 0 0 0 0
          0 0 0 0 0 0 0 0 0 0 0 0
          0 0 0 0 0 0 0 0
        </DataArray>
        <DataArray type="Float32" Name="X_gCa" NumberOfComponents="1" format="ascii">
          0 0 0 0 0 0 0 0 0 0 0 0
          0 0 0 0 0 0 0 0 0 0 0 0
          0 0 0 0 0 0 0 0 0 0 0 0
          0 0 0 0 0 0 0 0 0 0 0 0
          0 0 0 0 0 0 0 0 0 0 0 0
          0 0 0 0 0 0 0 0 0 0 0 0
          0 0 0 0 0 0 0 0
        </DataArray>
        <DataArray type="Float32" Name="X_gUrea" NumberOfComponents="1" format="ascii">
          0 0 0 0 0 0 0 0 0 0 0 0
          0 0 0 0 0 0 0 0 0 0 0 0
          0 0 0 0 0 0 0 0 0 0 0 0
          0 0 0 0 0 0 0 0 0 0 0 0
          0 0 0 0 0 0 0 0 0 0 0 0
          0 0 0 0 0 0 0 0 0 0 0 0
          0 0 0 0 0 0 0 0
        </DataArray>
        <DataArray type="Float32" Name="X_gTotalNH" NumberOfComponents="1" format="ascii">
          0 0 0 0 0 0 0 0 0 0 0 0
          0 0 0 0 0 0 0 0 0 0 0 0
          0 0 0 0 0 0 0 0 0 0 0 0
          0 0 0 0 0 0 0 0 0 0 0 0
          0 0 0 0 0 0 0 0 0 0 0 0
          0 0 0 0 0 0 0 0 0 0 0 0
          0 0 0 0 0 0 0 0
        </DataArray>
        <DataArray type="Float32" Name="X_gO2" NumberOfComponents="1" format="ascii">
          0 0 0 0 0 0 0 0 0 0 0 0
          0 0 0 0 0 0 0 0 0 0 0 0
          0 0 0 0 0 0 0 0 0 0 0 0
          0 0 0 0 0 0 0 0 0 0 0 0
          0 0 0 0 0 0 0 0 0 0 0 0
          0 0 0 0 0 0 0 0 0 0 0 0
          0 0 0 0 0 0 0 0
        </DataArray>
        <DataArray type="Float32" Name="X_gSubstrate" NumberOfComponents="1" format="ascii">
          0 0 0 0 0 0 0 0 0 0 0 0
          0 0 0 0 0 0 0 0 0 0 0 0
          0 0 0 0 0 0 0 0 0 0 0 0
          0 0 0 0 0 0 0 0 0 0 0 0
          0 0 0 0 0 0 0 0 0 0 0 0
          0 0 0 0 0 0 0 0 0 0 0 0
          0 0 0 0 0 0 0 0
        </DataArray>
        <DataArray type="Float32" Name="X_gSuspended_Biomass" NumberOfComponents="1" format="ascii">
          0 0 0 0 0 0 0 0 0 0 0 0
          0 0 0 0 0 0 0 0 0 0 0 0
          0 0 0 0 0 0 0 0 0 0 0 0
          0 0 0 0 0 0 0 0 0 0 0 0
          0 0 0 0 0 0 0 0 0 0 0 0
          0 0 0 0 0 0 0 0 0 0 0 0
          0 0 0 0 0 0 0 0
        </DataArray>
        <DataArray type="Float32" Name="X_gNH4" NumberOfComponents="1" format="ascii">
          0 0 0 0 0 0 0 0 0 0 0 0
          0 0 0 0 0 0 0 0 0 0 0 0
          0 0 0 0 0 0 0 0 0 0 0 0
          0 0 0 0 0 0 0 0 0 0 0 0
          0 0 0 0 0 0 0 0 0 0 0 0
          0 0 0 0 0 0 0 0 0 0 0 0
          0 0 0 0 0 0 0 0
        </DataArray>
        <DataArray type="Float32" Name="X_gHCO3" NumberOfComponents="1" format="ascii">
          0 0 0 0 0 0 0 0 0 0 0 0
          0 0 0 0 0 0 0 0 0 0 0 0
          0 0 0 0 0 0 0 0 0 0 0 0
          0 0 0 0 0 0 0 0 0 0 0 0
          0 0 0 0 0 0 0 0 0 0 0 0
          0 0 0 0 0 0 0 0 0 0 0 0
          0 0 0 0 0 0 0 0
        </DataArray>
        <DataArray type="Float32" Name="X_gCO3" NumberOfComponents="1" format="ascii">
          0 0 0 0 0 0 0 0 0 0 0 0
          0 0 0 0 0 0 0 0 0 0 0 0
          0 0 0 0 0 0 0 0 0 0 0 0
          0 0 0 0 0 0 0 0 0 0 0 0
          0 0 0 0 0 0 0 0 0 0 0 0
          0 0 0 0 0 0 0 0 0 0 0 0
          0 0 0 0 0 0 0 0
        </DataArray>
        <DataArray type="Float32" Name="X_gCO2" NumberOfComponents="1" format="ascii">
          0.988762 0.988779 0.988772 0.988772 0.988765 0.988765 0.988759 0.988759 0.988752 0.988752 0.988745 0.988745
          0.988739 0.988739 0.988732 0.988732 0.988726 0.988726 0.988719 0.988719 0.988712 0.988712 0.988698 0.988698
          0.988684 0.988684 0.988669 0.988669 0.988653 0.988653 0.988637 0.988637 0.988616 0.988616 0.988594 0.988594
          0.988572 0.988572 0.988549 0.988549 0.988525 0.988525 0.988501 0.988501 0.988476 0.988476 0.988451 0.988451
          0.988425 0.988425 0.9884 0.9884 0.988374 0.988374 0.988347 0.988347 0.98832 0.98832 0.988293 0.988293
          0.988265 0.988265 0.988237 0.988237 0.988207 0.988207 0.988177 0.988177 0.988145 0.988145 0.988112 0.988112
          0.988075 0.988075 0.988035 0.988035 0.987988 0.987988 0.98793 0.98793
        </DataArray>
        <DataArray type="Float32" Name="X_gH" NumberOfComponents="1" format="ascii">
          0 0 0 0 0 0 0 0 0 0 0 0
          0 0 0 0 0 0 0 0 0 0 0 0
          0 0 0 0 0 0 0 0 0 0 0 0
          0 0 0 0 0 0 0 0 0 0 0 0
          0 0 0 0 0 0 0 0 0 0 0 0
          0 0 0 0 0 0 0 0 0 0 0 0
          0 0 0 0 0 0 0 0
        </DataArray>
        <DataArray type="Float32" Name="X_gOH" NumberOfComponents="1" format="ascii">
          0 0 0 0 0 0 0 0 0 0 0 0
          0 0 0 0 0 0 0 0 0 0 0 0
          0 0 0 0 0 0 0 0 0 0 0 0
          0 0 0 0 0 0 0 0 0 0 0 0
          0 0 0 0 0 0 0 0 0 0 0 0
          0 0 0 0 0 0 0 0 0 0 0 0
          0 0 0 0 0 0 0 0
        </DataArray>
        <DataArray type="Float32" Name="Molarity_Brine" NumberOfComponents="1" format="ascii">
          54630.9 54629.1 54598.9 54599.2 54559.6 54559.9 54523.7 54524.3 54485.6 54485.8 54446.2 54447
          54406.9 54407.4 54367.1 54367.8 54328.3 54329.3 54289.5 54290 54251 54251.6 54180.9 54181.2
          54116.1 54116.5 54057 54057.2 54003.7 54003.9 53956.6 53956.9 53907.7 53907.8 53868.9 53869.3
          53836.5 53836.6 53810.7 53810.5 53790.3 53790.3 53775.2 53775.4 53764.6 53764.7 53757.2 53757
          53752.9 53753 53751.4 53751.4 53753.9 53753.9 53758.3 53758.5 53766 53765.8 53777.5 53778.5
          53796.6 53796.4 53821.5 53821.5 53855.5 53855.5 53902.4 53902.5 53967.4 53967.4 54057.7 54057.7
          54183.1 54183.1 54361.1 54361 54623.8 54623.8 55049.2 55049.2
        </DataArray>
        <DataArray type="Float32" Name="Molarity_TotalC" NumberOfComponents="1" format="ascii">
          3.08154 3.08194 3.07655 3.07932 3.07315 3.07301 3.06843 3.06905 3.05615 3.05511 3.03916 3.03994
          3.02334 3.02206 3.00484 3.00716 2.98595 2.98523 2.96123 2.96299 2.934 2.93393 2.88204 2.88224
          2.83064 2.82965 2.78436 2.78571 2.73605 2.73753 2.69681 2.69829 2.65162 2.65011 2.64039 2.64785
          2.60063 2.60657 2.56774 2.56631 2.53023 2.53032 2.50263 2.50662 2.48285 2.48462 2.45858 2.45411
          2.43365 2.43518 2.40591 2.40613 2.39774 2.39832 2.36841 2.37054 2.32848 2.329 2.28072 2.29998
          2.268 2.25712 2.2154 2.214 2.14611 2.14424 2.05965 2.05882 1.94893 1.95222 1.81587 1.81559
          1.63615 1.63653 1.41199 1.41171 1.17479 1.17471 0.0132254 0.0132254
        </DataArray>
        <DataArray type="Float32" Name="Molarity_Na" NumberOfComponents="1" format="ascii">
          0.129285 0.129035 0.124842 0.124881 0.119367 0.119408 0.114368 0.114454 0.109095 0.109119 0.103641 0.103756
          0.0982125 0.0982837 0.0927236 0.0928077 0.0873802 0.0875121 0.082051 0.0821208 0.0767836 0.0768629 0.0672317 0.0672637
          0.058431 0.0584963 0.050433 0.0504511 0.0432647 0.0432962 0.0369406 0.0369733 0.0304111 0.030436 0.0251088 0.0251199
          0.0208591 0.020844 0.0174807 0.017472 0.0148889 0.0148962 0.0129678 0.0129701 0.0116033 0.0116041 0.0107083 0.0107119
          0.0102348 0.0102374 0.0101447 0.0101436 0.0104296 0.0104267 0.011109 0.0111086 0.0122576 0.0122285 0.0139342 0.0139199
          0.016282 0.016334 0.0196067 0.0196111 0.0241327 0.0241438 0.0303287 0.0303405 0.0388404 0.0388156 0.0505223 0.0505217
          0.066655 0.0666538 0.089095 0.0890971 0.1205 0.1205 0.1633 0.1633
        </DataArray>
        <DataArray type="Float32" Name="Molarity_Cl" NumberOfComponents="1" format="ascii">
          336.52 337.62 356.046 355.876 380.109 379.929 402.077 401.701 425.25 425.145 449.215 448.71
          473.069 472.755 497.186 496.817 520.662 520.082 544.074 543.768 567.212 566.864 609.167 609.026
          647.817 647.53 682.94 682.861 714.412 714.274 742.177 742.034 770.838 770.728 794.128 794.084
          812.772 812.843 827.591 827.628 838.948 838.916 847.365 847.358 853.342 853.34 857.25 857.231
          859.306 859.295 859.671 859.676 858.404 858.418 855.382 855.386 850.284 850.413 842.853 842.934
          832.499 832.26 817.804 817.784 797.801 797.75 770.423 770.37 732.82 732.933 681.232 681.235
          609.999 610.004 510.973 510.963 372.616 372.614 185.193 185.193
        </DataArray>
        <DataArray type="Float32" Name="Molarity_Ca" NumberOfComponents="1" format="ascii">
          6.97483 7.00375 7.57535 7.55158 8.28351 8.2796 8.94373 8.92865 9.69872 9.7045 10.5216 10.5016
          11.3415 11.3445 12.2028 12.1712 13.0641 13.055 13.9993 13.9727 14.9754 14.9665 16.8397 16.8342
          18.6847 18.6905 20.4313 20.4097 22.1698 22.1438 23.7122 23.6836 25.4481 25.4758 26.4202 26.274
          27.809 27.6923 28.9746 29.0105 30.1541 30.1507 31.0431 30.9539 31.6873 31.6478 32.3698 32.4737
          33.0168 32.9786 33.6783 33.6729 33.8089 33.7947 34.3987 34.3454 35.1955 35.185 36.1226 35.6197
          36.0156 36.2944 36.7936 36.831 37.8269 37.8775 39.0481 39.0698 40.5297 40.433 41.9678 41.9772
          43.6745 43.6618 44.3797 44.3898 38.8902 38.8915 0 0
        </DataArray>
        <DataArray type="Float32" Name="Molarity_Urea" NumberOfComponents="1" format="ascii">
          2.22647 2.24275 2.6147 2.59005 3.05849 3.05672 3.47899 3.46747 3.98841 3.99639 4.56164 4.54646
          5.13195 5.13972 5.74341 5.71359 6.36232 6.36041 7.0618 7.03683 7.80773 7.80274 9.25733 9.25318
          10.7238 10.7337 12.1261 12.104 13.5631 13.5371 14.8361 14.8076 16.299 16.3294 17.024 16.8708
          18.246 18.1225 19.2807 19.3176 20.3726 20.3695 21.197 21.1039 21.7961 21.7548 22.4612 22.5697
          23.1122 23.0725 23.7995 23.7938 23.9546 23.9396 24.6096 24.5542 25.5055 25.493 26.5652 26.0422
          26.5883 26.8806 27.5842 27.6232 28.9106 28.9637 30.5234 30.5465 32.5336 32.4323 34.6768 34.6865
          37.3518 37.3387 39.3765 39.387 35.6542 35.6555 0 0
        </DataArray>
        <DataArray type="Float32" Name="Molarity_TotalNH" NumberOfComponents="1" format="ascii">
          328.707 329.749 347.022 346.905 369.662 369.489 390.299 389.954 411.938 411.819 434.222 433.759
          456.405 456.083 478.762 478.461 500.479 499.915 521.97 521.721 543.102 542.771 581.224 581.094
          616.081 615.78 647.617 647.584 675.516 675.433 700.118 700.035 725.216 725.048 746.539 746.803
          762.326 762.642 774.748 774.71 783.671 783.646 790.255 790.435 794.904 794.984 797.399 797.163
          798.11 798.179 797.097 797.113 795.553 795.596 791.292 791.407 784.521 784.672 775.14 776.266
          764.975 764.156 748.619 748.521 726.41 726.254 696.417 696.319 655.63 655.943 600.9 600.883
          525.894 525.926 425.01 424.98 297.158 297.154 185.193 185.193
        </DataArray>
        <DataArray type="Float32" Name="Molarity_O2" NumberOfComponents="1" format="ascii">
          -0.00225952 -0.00229091 -0.00228281 -0.00256102 -0.00284851 -0.00282721 -0.00319947 -0.00321071 -0.00324589 -0.00322818 -0.00321235 -0.00322074
          -0.00285711 -0.00293631 -0.000276635 -0.000249194 -1.47642e-05 -1.45589e-05 -5.98503e-07 -6.46401e-07 -1.07491e-08 -1.13659e-08 -1.10974e-08 -2.5283e-09
          -5.26914e-08 -5.19254e-07 -4.71406e-06 -1.76519e-06 -0.000220803 -0.000266143 -0.00080829 -0.000836766 -0.00111966 -0.00111513 -3.27098e-05 -5.20633e-05
          -0.000113157 -0.000234899 -0.000329075 -0.000314049 -0.000330147 -0.000329858 -0.000234545 -1.44453e-05 -2.77419e-06 -2.73475e-06 -2.27851e-08 -2.53524e-08
          -1.00466e-07 -1.05237e-07 -8.96719e-06 -8.62534e-06 -0.000269221 -0.000294774 -0.000707839 -0.000804607 -0.000735129 -0.000775649 -0.000622505 -0.0013762
          -0.00189872 -0.00161507 -0.00197529 -0.00194307 -0.00182738 -0.00178695 -0.00158691 -0.0015735 -0.00123723 -0.0013048 -0.000964959 -0.000958345
          -0.000413713 -0.000411223 -1.37084e-05 -1.37729e-05 -1.57453e-07 -1.57153e-07 0 0
        </DataArray>
        <DataArray type="Float32" Name="Molarity_Substrate" NumberOfComponents="1" format="ascii">
          16.5443 16.545 16.5578 16.5575 16.5742 16.5741 16.5893 16.589 16.6052 16.6051 16.6217 16.6213
          16.6381 16.6379 16.6555 16.6553 16.6716 16.6712 16.6875 16.6873 16.703 16.7028 16.731 16.731
          16.7565 16.7563 16.7791 16.7791 16.7988 16.7987 16.8152 16.8151 16.831 16.8309 16.8426 16.8427
          16.8487 16.8487 16.8497 16.8497 16.8452 16.8452 16.8347 16.8348 16.817 16.8169 16.7897 16.7896
          16.7506 16.7509 16.696 16.6962 16.6209 16.6213 16.5179 16.5178 16.3752 16.3786 16.184 16.1855
          15.926 15.9203 15.566 15.5656 15.0781 15.0769 14.4101 14.4088 13.4904 13.4932 12.2255 12.2256
          10.4752 10.4754 8.03776 8.03753 4.62747 4.62743 0 0
        </DataArray>
        <DataArray type="Float32" Name="Molarity_Suspended_Biomass" NumberOfComponents="1" format="ascii">
          0.000157289 0.000157807 0.000164989 0.000165348 0.000169176 0.000168898 0.000166685 0.0001682 0.000161833 0.000154038 0.000177726 0.000176397
          0.000181791 0.000180517 0.000184134 0.000180881 0.000177497 0.000181173 0.000188536 0.000186774 0.000174758 0.000177819 0.000204269 0.00020398
          0.000204509 0.000205919 0.00021004 0.000211181 0.000210276 0.00020964 0.000212712 0.000213451 0.000221517 0.000221433 0.000227005 0.000227361
          0.000230695 0.000231134 0.000233459 0.000233653 0.00023671 0.000237125 0.000239795 0.000240103 0.000242808 0.000243308 0.00024567 0.000245998
          0.000247927 0.000248479 0.000249612 0.000249475 0.000255112 0.000254 0.000259197 0.000258194 0.000262765 0.000261673 0.000264692 0.000264691
          0.000266332 0.000265625 0.000264366 0.000263852 0.000259227 0.000258758 0.000250606 0.000250226 0.000236749 0.000236648 0.00021625 0.000216018
          0.00018581 0.000185698 0.000142565 0.000142501 8.17395e-05 8.17197e-05 0 0
        </DataArray>
        <DataArray type="Float32" Name="Molarity_NH4" NumberOfComponents="1" format="ascii">
          325.267 326.309 343.582 343.461 366.218 366.046 386.854 386.509 408.5 408.382 430.796 430.332
          452.99 452.67 475.362 475.058 497.094 496.531 518.607 518.356 539.763 539.432 577.934 577.805
          612.841 612.542 644.424 644.389 672.371 672.287 697.013 696.928 722.159 721.991 743.492 743.748
          759.321 759.631 771.778 771.742 780.742 780.717 787.356 787.531 792.026 792.104 794.548 794.316
          795.286 795.354 794.304 794.32 792.768 792.811 788.54 788.653 781.813 781.963 772.485 773.59
          762.334 761.527 746.036 745.94 723.905 723.751 694.008 693.911 653.344 653.653 598.762 598.745
          523.955 523.987 423.32 423.29 295.73 295.726 185.037 185.037
        </DataArray>
        <DataArray type="Float32" Name="Molarity_HCO3" NumberOfComponents="1" format="ascii">
          2.81405 2.81384 2.79886 2.8016 2.78309 2.78305 2.76748 2.76826 2.74443 2.7435 2.71691 2.71789
          2.69092 2.68987 2.66265 2.665 2.63467 2.63424 2.60159 2.60337 2.56664 2.56672 2.50174 2.50199
          2.43968 2.43888 2.38448 2.38575 2.32936 2.33078 2.28434 2.28574 2.23407 2.23274 2.21668 2.22345
          2.17504 2.1804 2.14096 2.13966 2.10385 2.10393 2.07658 2.08017 2.0571 2.05869 2.03418 2.03018
          2.01121 2.01259 1.98619 1.98638 1.97916 1.97968 1.95365 1.95556 1.91923 1.91965 1.87843 1.89563
          1.86974 1.86007 1.82654 1.82529 1.76983 1.76818 1.69974 1.69901 1.61065 1.61357 1.50526 1.50501
          1.36319 1.36353 1.18813 1.18787 1.00934 1.00926 0.00553194 0.00553194
        </DataArray>
        <DataArray type="Float32" Name="Molarity_CO3" NumberOfComponents="1" format="ascii">
          0.0037326 0.00372451 0.00357714 0.00358279 0.00340787 0.00340884 0.00326697 0.00327009 0.00312213 0.00312126 0.00298035 0.00298384
          0.00285312 0.00285284 0.00273218 0.00273655 0.0026229 0.0026241 0.00251537 0.00251843 0.00241357 0.00241453 0.0022434 0.00224403
          0.00210006 0.00209974 0.00198233 0.00198381 0.00187904 0.0018807 0.00179715 0.00179873 0.00171384 0.0017128 0.00167112 0.00167734
          0.00161312 0.00161789 0.00156754 0.00156644 0.00152369 0.00152379 0.00149189 0.00149502 0.00146941 0.00147081 0.00144592 0.00144249
          0.00142417 0.00142534 0.00140211 0.00140227 0.00139679 0.00139722 0.00137713 0.00137875 0.00135161 0.00135184 0.00132242 0.00133702
          0.00132289 0.0013148 0.00129728 0.00129622 0.00126417 0.00126278 0.00122518 0.00122459 0.0011775 0.00117999 0.00112641 0.00112618
          0.0010583 0.00105862 0.000983177 0.000982933 0.000940835 0.000940732 4.26535e-07 4.26535e-07
        </DataArray>
        <DataArray type="Float32" Name="Molarity_CO2" NumberOfComponents="1" format="ascii">
          0.263801 0.264422 0.274147 0.274178 0.286695 0.286594 0.297719 0.297558 0.308634 0.308528 0.319309 0.319106
          0.329603 0.329385 0.339493 0.33946 0.348701 0.348404 0.357163 0.357142 0.364986 0.364837 0.378089 0.378045
          0.388897 0.388714 0.397937 0.398014 0.404842 0.404912 0.410706 0.410783 0.415875 0.415694 0.422071 0.422753
          0.424008 0.424591 0.425249 0.42511 0.424898 0.424897 0.424584 0.42498 0.424313 0.424487 0.422987 0.422527
          0.421049 0.421206 0.418348 0.418373 0.417215 0.41728 0.413415 0.413639 0.407933 0.408026 0.401 0.403043
          0.396968 0.395764 0.387593 0.38744 0.37504 0.374829 0.358714 0.358613 0.337122 0.3375 0.309514 0.309485
          0.271921 0.271962 0.222901 0.222869 0.164523 0.164517 0.00769319 0.00769319
        </DataArray>
        <DataArray type="Float32" Name="Molarity_H" NumberOfComponents="1" format="ascii">
          4.90263e-05 4.91614e-05 5.15646e-05 5.15066e-05 5.46326e-05 5.46119e-05 5.7429e-05 5.73732e-05 6.04673e-05 6.04704e-05 6.36664e-05 6.35918e-05
          6.68265e-05 6.68107e-05 7.0061e-05 6.9974e-05 7.3225e-05 7.31695e-05 7.65001e-05 7.64279e-05 7.98095e-05 7.97697e-05 8.59224e-05 8.59007e-05
          9.17158e-05 9.17066e-05 9.70477e-05 9.70016e-05 0.000102089 0.000102029 0.000106509 0.000106447 0.000111291 0.000111325 0.00011439 0.000114139
          0.000117926 0.000117729 0.000120831 0.000120886 0.000123547 0.00012354 0.000125591 0.000125439 0.000127071 0.000127002 0.000128496 0.00012867
          0.000129743 0.000129681 0.00013092 0.000130912 0.000131108 0.000131085 0.000131956 0.000131868 0.000133007 0.000133001 0.000134125 0.000133302
          0.000133353 0.000133796 0.000133743 0.000133802 0.000134161 0.000134239 0.000134319 0.00013435 0.00013406 0.000133917 0.000132515 0.000132529
          0.000129493 0.000129474 0.00012226 0.000122273 0.000104223 0.000104228 0.000628379 0.000628379
        </DataArray>
        <DataArray type="Float32" Name="Molarity_OH" NumberOfComponents="1" format="ascii">
          0.000200098 0.000199543 0.000190156 0.000190372 0.000179372 0.000179441 0.000170546 0.000170713 0.000161883 0.000161874 0.000153655 0.000153838
          0.000146301 0.000146337 0.000139462 0.000139637 0.000133356 0.000133459 0.000127569 0.000127691 0.000122205 0.000122267 0.000113385 0.000113414
          0.000106112 0.000106124 0.000100187 0.000100235 9.51563e-05 9.52124e-05 9.11365e-05 9.11901e-05 8.71495e-05 8.71223e-05 8.4736e-05 8.49238e-05
          8.21494e-05 8.2288e-05 8.01377e-05 8.01011e-05 7.83463e-05 7.83509e-05 7.70496e-05 7.71439e-05 7.61375e-05 7.61792e-05 7.52811e-05 7.51784e-05
          7.45493e-05 7.45855e-05 7.38743e-05 7.38791e-05 7.37712e-05 7.37839e-05 7.32992e-05 7.33486e-05 7.27243e-05 7.2727e-05 7.21257e-05 7.25753e-05
          7.25666e-05 7.23243e-05 7.23794e-05 7.23469e-05 7.21869e-05 7.21447e-05 7.21494e-05 7.21325e-05 7.23558e-05 7.24333e-05 7.3297e-05 7.3289e-05
          7.51485e-05 7.51597e-05 7.98173e-05 7.98086e-05 9.40671e-05 9.40629e-05 1.57575e-05 1.57575e-05
        </DataArray>
        <DataArray type="Float32" Name="Da_ureolysis" NumberOfComponents="1" format="ascii">
          0 0 0 0 0 0 0 0 0 0 0 0
          0 0 0 0 0 0 0 0 0 0 0 0
          0 0 0 0 0 0 0 0 0 0 0 0
          0 0 0 0 0 0 0 0 0 0 0 0
          0 0 0 0 0 0 0 0 0 0 0 0
          0 0 0 0 0 0 0 0 0 0 0 0
          0 0 0 0 0 0 0 0
        </DataArray>
        <DataArray type="Float32" Name="Da_precipitation" NumberOfComponents="1" format="ascii">
          510.719 521.484 4143.99 4045.56 7311.48 12752.3 45465.5 9180.44 24208.7 13805.3 17217.1 14911.4
          15930.4 15006.9 10916.4 23925.9 16006.6 14551.2 13561.9 22226.9 659.927 628.035 5723.74 8056.71
          6145.71 8149.95 6039.5 7482.44 6066.97 7325.05 3720.73 3407.4 3707.31 4034.4 5597.93 6273.2
          5684.86 5999.27 6482.14 6495.51 6839.61 7027.68 7723.64 8315.53 9477.72 9838.14 9278.92 9102.48
          10515.4 10528.6 7981.71 8109.82 10880.8 11127.6 8821 8956.7 6395.15 6961.97 4873.18 5603.4
          4749.4 5047.39 3751.22 3721.26 2686.1 2681.58 1932.88 1938.16 1318.19 1320.47 885.381 884.596
          513.385 513.526 245.59 245.548 74.3643 74.342 0 0
        </DataArray>
        <DataArray type="Float32" Name="Vx" NumberOfComponents="1" format="ascii">
          -1.22197e-09 -1.2217e-09 2.78909e-09 2.79453e-09 3.25e-09 3.2574e-09 1.36687e-09 1.37018e-09 1.23236e-09 1.23553e-09 1.14237e-09 1.14551e-09
          6.35937e-10 6.37995e-10 6.06727e-10 6.08076e-10 -4.56961e-10 -4.58134e-10 -1.50133e-09 -1.50511e-09 -1.38801e-09 -1.3919e-09 -7.0481e-10 -7.07379e-10
          -4.21013e-10 -4.22436e-10 -3.67617e-10 -3.68447e-10 -3.18299e-11 -3.20955e-11 -1.6956e-10 -1.69819e-10 -1.98218e-11 -2.00006e-11 -2.65569e-10 -2.64789e-10
          -7.7632e-10 -7.75659e-10 -1.42008e-10 -1.41896e-10 4.63105e-10 4.6334e-10 1.13529e-11 1.12649e-11 -5.09619e-10 -5.09841e-10 -6.47717e-11 -6.48928e-11
          2.18087e-10 2.18086e-10 -1.15172e-11 -1.1528e-11 8.63502e-12 8.63348e-12 7.20147e-11 7.19951e-11 1.06892e-09 1.06875e-09 6.46082e-11 6.46388e-11
          -1.25172e-09 -1.25156e-09 -1.92659e-10 -1.92656e-10 1.92698e-10 1.92736e-10 1.09015e-11 1.09191e-11 -1.08828e-10 -1.08813e-10 1.16361e-11 1.16395e-11
          4.12563e-11 4.1254e-11 -1.33631e-11 -1.33637e-11 -2.75503e-12 -2.75549e-12 3.64013e-12 3.64018e-12
        </DataArray>
        <DataArray type="Float32" Name="Vy" NumberOfComponents="1" format="ascii">
          1.20019e-07 1.17949e-07 1.54826e-08 1.58293e-08 -8.89721e-09 -4.34462e-09 8.33095e-10 7.80175e-09 -2.90915e-09 5.40467e-09 -4.50959e-09 5.24614e-09
          -5.19174e-09 5.51887e-09 -7.88272e-09 3.55285e-09 -5.54133e-09 6.10036e-09 -6.58965e-09 3.83777e-09 1.42627e-07 1.499e-07 -1.71295e-08 -1.21683e-08
          -1.64784e-08 -1.24338e-08 -1.71715e-08 -1.38603e-08 -1.7421e-08 -1.4438e-08 2.87937e-08 3.14493e-08 -2.9259e-08 -2.69302e-08 -1.94741e-08 -1.73282e-08
          -1.92759e-08 -1.82423e-08 -1.69732e-08 -1.69712e-08 -1.61127e-08 -1.56796e-08 -1.4265e-08 -1.3252e-08 -1.16028e-08 -1.11828e-08 -1.18336e-08 -1.20625e-08
          -1.04153e-08 -1.04002e-08 -1.36683e-08 -1.34517e-08 -9.99044e-09 -9.77016e-09 -1.22574e-08 -1.20731e-08 -1.67562e-08 -1.53849e-08 -2.18134e-08 -1.90257e-08
          -2.22153e-08 -2.0855e-08 -2.77874e-08 -2.80036e-08 -3.80445e-08 -3.80963e-08 -5.13981e-08 -5.12395e-08 -7.21605e-08 -7.21275e-08 -1.00614e-07 -1.00689e-07
          -1.54559e-07 -1.54559e-07 -2.60132e-07 -2.60107e-07 -5.21956e-07 -5.21954e-07 2.93811e-06 2.93812e-06
        </DataArray>
      </PointData>
      <CellData Scalars="process rank">
        <DataArray type="Float32" Name="process rank" NumberOfComponents="1" format="ascii">
          0 0 0 0 0 0 0 0 0 0 0 0
          0 0 0 0 0 0 0 0 0 0 0 0
          0 0 0 0 0 0 0 0 0 0 0 0
          0 0 0
        </DataArray>
      </CellData>
      <Points>
        <DataArray type="Float32" Name="Coordinates" NumberOfComponents="3" format="ascii">
          0 0 0 0.0254 0 0 0 0.01 0 0.0254 0.01 0
          0 0.02 0 0.0254 0.02 0 0 0.03 0 0.0254 0.03 0
          0 0.04 0 0.0254 0.04 0 0 0.05 0 0.0254 0.05 0
          0 0.06 0 0.0254 0.06 0 0 0.07 0 0.0254 0.07 0
          0 0.08 0 0.0254 0.08 0 0 0.09 0 0.0254 0.09 0
          0 0.1 0 0.0254 0.1 0 0 0.12 0 0.0254 0.12 0
          0 0.14 0 0.0254 0.14 0 0 0.16 0 0.0254 0.16 0
          0 0.18 0 0.0254 0.18 0 0 0.2 0 0.0254 0.2 0
          0 0.225 0 0.0254 0.225 0 0 0.25 0 0.0254 0.25 0
          0 0.275 0 0.0254 0.275 0 0 0.3 0 0.0254 0.3 0
          0 0.325 0 0.0254 0.325 0 0 0.35 0 0.0254 0.35 0
          0 0.375 0 0.0254 0.375 0 0 0.4 0 0.0254 0.4 0
          0 0.425 0 0.0254 0.425 0 0 0.45 0 0.0254 0.45 0
          0 0.475 0 0.0254 0.475 0 0 0.5 0 0.0254 0.5 0
          0 0.525 0 0.0254 0.525 0 0 0.55 0 0.0254 0.55 0
          0 0.575 0 0.0254 0.575 0 0 0.6 0 0.0254 0.6 0
          0 0.625 0 0.0254 0.625 0 0 0.65 0 0.0254 0.65 0
          0 0.675 0 0.0254 0.675 0 0 0.7 0 0.0254 0.7 0
          0 0.725 0 0.0254 0.725 0 0 0.75 0 0.0254 0.75 0
          0 0.775 0 0.0254 0.775 0 0 0.8 0 0.0254 0.8 0
        </DataArray>
      </Points>
      <Cells>
        <DataArray type="Int32" Name="connectivity" NumberOfComponents="1" format="ascii">
          0 1 3 2 2 3 5 4 4 5 7 6
          6 7 9 8 8 9 11 10 10 11 13 12
          12 13 15 14 14 15 17 16 16 17 19 18
          18 19 21 20 20 21 23 22 22 23 25 24
          24 25 27 26 26 27 29 28 28 29 31 30
          30 31 33 32 32 33 35 34 34 35 37 36
          36 37 39 38 38 39 41 40 40 41 43 42
          42 43 45 44 44 45 47 46 46 47 49 48
          48 49 51 50 50 51 53 52 52 53 55 54
          54 55 57 56 56 57 59 58 58 59 61 60
          60 61 63 62 62 63 65 64 64 65 67 66
          66 67 69 68 68 69 71 70 70 71 73 72
          72 73 75 74 74 75 77 76 76 77 79 78
        </DataArray>
        <DataArray type="Int32" Name="offsets" NumberOfComponents="1" format="ascii">
          4 8 12 16 20 24 28 32 36 40 44 48
          52 56 60 64 68 72 76 80 84 88 92 96
          100 104 108 112 116 120 124 128 132 136 140 144
          148 152 156
        </DataArray>
        <DataArray type="UInt8" Name="types" NumberOfComponents="1" format="ascii">
          9 9 9 9 9 9 9 9 9 9 9 9
          9 9 9 9 9 9 9 9 9 9 9 9
          9 9 9 9 9 9 9 9 9 9 9 9
          9 9 9
        </DataArray>
      </Cells>
    </Piece>
  </UnstructuredGrid>
</VTKFile>
