<?xml version="1.0"?>
<VTKFile type="Collection"
         version="0.1"
         byte_order="LittleEndian"
         compressor="vtkZLibDataCompressor">
 <Collection>
   <DataSet timestep="349201" file="Column-00001.vtu"/>
   <DataSet timestep="351001" file="Column-00002.vtu"/>
   <DataSet timestep="352801" file="Column-00003.vtu"/>
   <DataSet timestep="356401" file="Column-00004.vtu"/>
   <DataSet timestep="360001" file="Column-00005.vtu"/>
   <DataSet timestep="363601" file="Column-00006.vtu"/>
   <DataSet timestep="608401" file="Column-00007.vtu"/>
   <DataSet timestep="610201" file="Column-00008.vtu"/>
   <DataSet timestep="612001" file="Column-00009.vtu"/>
   <DataSet timestep="615601" file="Column-00010.vtu"/>
   <DataSet timestep="619201" file="Column-00011.vtu"/>
   <DataSet timestep="622801" file="Column-00012.vtu"/>
   <DataSet timestep="954001" file="Column-00013.vtu"/>
   <DataSet timestep="955801" file="Column-00014.vtu"/>
   <DataSet timestep="957601" file="Column-00015.vtu"/>
   <DataSet timestep="961201" file="Column-00016.vtu"/>
   <DataSet timestep="964801" file="Column-00017.vtu"/>
   <DataSet timestep="968401" file="Column-00018.vtu"/>
   <DataSet timestep="1558801" file="Column-00019.vtu"/>
   <DataSet timestep="1560601" file="Column-00020.vtu"/>
   <DataSet timestep="1562401" file="Column-00021.vtu"/>
   <DataSet timestep="1566001" file="Column-00022.vtu"/>
   <DataSet timestep="1569601" file="Column-00023.vtu"/>
   <DataSet timestep="1573201" file="Column-00024.vtu"/>
   <DataSet timestep="1920601" file="Column-00025.vtu"/>
   <DataSet timestep="1922401" file="Column-00026.vtu"/>
   <DataSet timestep="1924201" file="Column-00027.vtu"/>
   <DataSet timestep="1927801" file="Column-00028.vtu"/>
   <DataSet timestep="1931401" file="Column-00029.vtu"/>
   <DataSet timestep="1935001" file="Column-00030.vtu"/>
   <DataSet timestep="2163601" file="Column-00031.vtu"/>
   <DataSet timestep="2165401" file="Column-00032.vtu"/>
   <DataSet timestep="2167201" file="Column-00033.vtu"/>
   <DataSet timestep="2170801" file="Column-00034.vtu"/>
   <DataSet timestep="2174401" file="Column-00035.vtu"/>
   <DataSet timestep="2178001" file="Column-00036.vtu"/>
   <DataSet timestep="2768401" file="Column-00037.vtu"/>
   <DataSet timestep="2770201" file="Column-00038.vtu"/>
   <DataSet timestep="2772001" file="Column-00039.vtu"/>
   <DataSet timestep="2775601" file="Column-00040.vtu"/>
   <DataSet timestep="2779201" file="Column-00041.vtu"/>
   <DataSet timestep="2782801" file="Column-00042.vtu"/>
   <DataSet timestep="2957519.99" file="Column-00043.vtu"/>
 </Collection>
</VTKFile>
