<?xml version="1.0"?>
<VTKFile type="UnstructuredGrid" version="0.1" byte_order="LittleEndian">
  <UnstructuredGrid>
    <Piece NumberOfCells="39" NumberOfPoints="80">
      <PointData Scalars="Sg">
        <DataArray type="Float32" Name="Sg" NumberOfComponents="1" format="ascii">
          0 0 0 0 0 0 0 0 0 0 0 0
          0 0 0 0 0 0 0 0 0 0 0 0
          0 0 0 0 0 0 0 0 0 0 0 0
          0 0 0 0 0 0 0 0 0 0 0 0
          0 0 0 0 0 0 0 0 0 0 0 0
          0 0 0 0 0 0 0 0 0 0 0 0
          0 0 0 0 0 0 0 0
        </DataArray>
        <DataArray type="Float32" Name="Sl" NumberOfComponents="1" format="ascii">
          1 1 1 1 1 1 1 1 1 1 1 1
          1 1 1 1 1 1 1 1 1 1 1 1
          1 1 1 1 1 1 1 1 1 1 1 1
          1 1 1 1 1 1 1 1 1 1 1 1
          1 1 1 1 1 1 1 1 1 1 1 1
          1 1 1 1 1 1 1 1 1 1 1 1
          1 1 1 1 1 1 1 1
        </DataArray>
        <DataArray type="Float32" Name="pg" NumberOfComponents="1" format="ascii">
          117655 117655 117557 117557 117458 117458 117359 117359 117260 117260 117161 117161
          117062 117062 116963 116963 116864 116864 116764 116764 116665 116665 116466 116466
          116267 116267 116067 116067 115868 115868 115668 115668 115418 115418 115168 115168
          114917 114917 114667 114667 114416 114416 114166 114166 113915 113915 113664 113664
          113414 113414 113163 113163 112912 112912 112661 112661 112411 112411 112160 112160
          111909 111909 111659 111659 111409 111409 111158 111158 110908 110908 110659 110659
          110409 110409 110161 110161 109913 109913 109667 109667
        </DataArray>
        <DataArray type="Float32" Name="pl" NumberOfComponents="1" format="ascii">
          107989 107989 107890 107890 107791 107791 107692 107692 107593 107593 107494 107494
          107395 107395 107296 107296 107197 107197 107098 107098 106998 106998 106799 106799
          106600 106600 106401 106401 106201 106201 106001 106001 105751 105751 105501 105501
          105251 105251 105000 105000 104750 104750 104499 104499 104248 104248 103998 103998
          103747 103747 103496 103496 103245 103245 102995 102995 102744 102744 102493 102493
          102243 102243 101992 101992 101742 101742 101492 101492 101242 101242 100992 100992
          100743 100743 100494 100494 100246 100246 100000 100000
        </DataArray>
        <DataArray type="Float32" Name="pc" NumberOfComponents="1" format="ascii">
          9666.67 9666.67 9666.67 9666.67 9666.67 9666.67 9666.67 9666.67 9666.67 9666.67 9666.67 9666.67
          9666.67 9666.67 9666.67 9666.67 9666.67 9666.67 9666.67 9666.67 9666.67 9666.67 9666.67 9666.67
          9666.67 9666.67 9666.67 9666.67 9666.67 9666.67 9666.67 9666.67 9666.67 9666.67 9666.67 9666.67
          9666.67 9666.67 9666.67 9666.67 9666.67 9666.67 9666.67 9666.67 9666.67 9666.67 9666.67 9666.67
          9666.67 9666.67 9666.67 9666.67 9666.67 9666.67 9666.67 9666.67 9666.67 9666.67 9666.67 9666.67
          9666.67 9666.67 9666.67 9666.67 9666.67 9666.67 9666.67 9666.67 9666.67 9666.67 9666.67 9666.67
          9666.67 9666.67 9666.67 9666.67 9666.67 9666.67 9666.67 9666.67
        </DataArray>
        <DataArray type="Float32" Name="rhoL" NumberOfComponents="1" format="ascii">
          1005.95 1005.85 1006.4 1006.42 1007.18 1007.17 1007.89 1007.9 1008.62 1008.62 1009.32 1009.35
          1010.17 1010.16 1010.96 1010.96 1011.75 1011.72 1012.48 1012.47 1013.25 1013.23 1014.62 1014.61
          1015.9 1015.89 1017.06 1017.05 1018.09 1018.08 1018.98 1018.97 1019.88 1019.87 1020.54 1020.54
          1021.1 1021.1 1021.53 1021.53 1021.87 1021.87 1022.09 1022.09 1022.24 1022.23 1022.32 1022.33
          1022.38 1022.38 1022.39 1022.39 1022.3 1022.31 1022.22 1022.22 1022.11 1022.11 1021.95 1021.91
          1021.6 1021.62 1021.21 1021.21 1020.66 1020.66 1019.92 1019.92 1018.86 1018.85 1017.35 1017.36
          1015.25 1015.25 1012.27 1012.26 1007.95 1007.94 1001.45 1001.45
        </DataArray>
        <DataArray type="Float32" Name="rhoG" NumberOfComponents="1" format="ascii">
          2.06962 2.06968 2.06791 2.06791 2.06613 2.06613 2.06435 2.06435 2.06257 2.06257 2.06079 2.06079
          2.05901 2.05901 2.05722 2.05722 2.05544 2.05544 2.05365 2.05365 2.05186 2.05186 2.04828 2.04828
          2.04469 2.04469 2.0411 2.0411 2.0375 2.0375 2.03389 2.03389 2.02938 2.02938 2.02486 2.02486
          2.02033 2.02033 2.0158 2.0158 2.01127 2.01127 2.00673 2.00673 2.00219 2.00219 1.99765 1.99765
          1.99311 1.99311 1.98857 1.98857 1.98402 1.98402 1.97948 1.97948 1.97494 1.97494 1.97039 1.97039
          1.96585 1.96585 1.9613 1.9613 1.95676 1.95676 1.95221 1.95221 1.94767 1.94767 1.94312 1.94312
          1.93857 1.93857 1.93402 1.93402 1.92947 1.92947 1.9249 1.9249
        </DataArray>
        <DataArray type="Float32" Name="mobL" NumberOfComponents="1" format="ascii">
          1079.5 1079.96 1077.37 1077.26 1073.79 1073.84 1070.65 1070.61 1067.5 1067.5 1064.53 1064.43
          1061.07 1061.1 1057.9 1057.89 1054.83 1054.94 1052.04 1052.07 1049.18 1049.23 1044.2 1044.25
          1039.76 1039.79 1035.82 1035.86 1032.42 1032.46 1029.55 1029.58 1026.71 1026.74 1024.64 1024.65
          1022.94 1022.95 1021.64 1021.64 1020.61 1020.62 1019.95 1019.96 1019.51 1019.52 1019.25 1019.23
          1019.07 1019.08 1019.05 1019.04 1019.3 1019.3 1019.56 1019.56 1019.9 1019.9 1020.35 1020.5
          1021.43 1021.36 1022.59 1022.6 1024.28 1024.27 1026.59 1026.59 1029.94 1029.96 1034.82 1034.82
          1041.97 1041.97 1052.83 1052.84 1070.37 1070.42 1103.12 1103.12
        </DataArray>
        <DataArray type="Float32" Name="mobG" NumberOfComponents="1" format="ascii">
          0 0 0 0 0 0 0 0 0 0 0 0
          0 0 0 0 0 0 0 0 0 0 0 0
          0 0 0 0 0 0 0 0 0 0 0 0
          0 0 0 0 0 0 0 0 0 0 0 0
          0 0 0 0 0 0 0 0 0 0 0 0
          0 0 0 0 0 0 0 0 0 0 0 0
          0 0 0 0 0 0 0 0
        </DataArray>
        <DataArray type="Float32" Name="porosity" NumberOfComponents="1" format="ascii">
          0.395013 0.39517 0.394498 0.394552 0.394045 0.394102 0.393542 0.393688 0.393151 0.393351 0.392807 0.392939
          0.392474 0.392689 0.392156 0.392324 0.391844 0.392049 0.391568 0.391773 0.391294 0.391567 0.390857 0.391141
          0.390414 0.390565 0.390068 0.390305 0.389645 0.389868 0.389404 0.389606 0.389213 0.389362 0.388604 0.38881
          0.3885 0.388575 0.388328 0.388485 0.388484 0.38848 0.38826 0.388297 0.388287 0.38845 0.388257 0.388338
          0.388377 0.388402 0.388506 0.388514 0.388384 0.388435 0.388509 0.388514 0.38888 0.388806 0.389121 0.389076
          0.38919 0.389192 0.389627 0.389688 0.390098 0.390159 0.390801 0.39076 0.391754 0.391715 0.39293 0.392908
          0.394473 0.39445 0.396272 0.396291 0.398393 0.398397 0.4 0.4
        </DataArray>
        <DataArray type="Float32" Name="temperature" NumberOfComponents="1" format="ascii">
          298.15 298.15 298.15 298.15 298.15 298.15 298.15 298.15 298.15 298.15 298.15 298.15
          298.15 298.15 298.15 298.15 298.15 298.15 298.15 298.15 298.15 298.15 298.15 298.15
          298.15 298.15 298.15 298.15 298.15 298.15 298.15 298.15 298.15 298.15 298.15 298.15
          298.15 298.15 298.15 298.15 298.15 298.15 298.15 298.15 298.15 298.15 298.15 298.15
          298.15 298.15 298.15 298.15 298.15 298.15 298.15 298.15 298.15 298.15 298.15 298.15
          298.15 298.15 298.15 298.15 298.15 298.15 298.15 298.15 298.15 298.15 298.15 298.15
          298.15 298.15 298.15 298.15 298.15 298.15 298.15 298.15
        </DataArray>
        <DataArray type="Float32" Name="phase presence" NumberOfComponents="1" format="ascii">
          1 1 1 1 1 1 1 1 1 1 1 1
          1 1 1 1 1 1 1 1 1 1 1 1
          1 1 1 1 1 1 1 1 1 1 1 1
          1 1 1 1 1 1 1 1 1 1 1 1
          1 1 1 1 1 1 1 1 1 1 1 1
          1 1 1 1 1 1 1 1 1 1 1 1
          1 1 1 1 1 1 1 1
        </DataArray>
        <DataArray type="Float32" Name="potential" NumberOfComponents="1" format="ascii">
          0.00952061 0.00959855 0.00915843 0.00913913 0.00853962 0.00854948 0.00799003 0.00798269 0.00743094 0.007432 0.00689967 0.00688192
          0.00627164 0.00627713 0.00569028 0.00568767 0.00512113 0.00514237 0.00460197 0.00460673 0.00406358 0.00407403 0.00312324 0.00313216
          0.00227964 0.00228548 0.0015344 0.00154197 0.000894778 0.000902166 0.000360486 0.000365824 -0.000158212 -0.000152088 -0.000523751 -0.00052317
          -0.000815821 -0.000814446 -0.00102997 -0.00103069 -0.00119228 -0.00119211 -0.00129281 -0.00129136 -0.00135586 -0.00135416 -0.00139098 -0.00139278
          -0.00141292 -0.00141235 -0.00141515 -0.00141708 -0.00138756 -0.00138863 -0.00136166 -0.00136155 -0.00132988 -0.00133008 -0.00129059 -0.00127907
          -0.00120792 -0.00121278 -0.00112837 -0.00112779 -0.00102767 -0.00102825 -0.000910093 -0.000910088 -0.000768072 -0.00076699 -0.000603234 -0.000603394
          -0.000423364 -0.000423384 -0.000240236 -0.000240107 -8.06344e-05 -8.03565e-05 0 0
        </DataArray>
        <DataArray type="Float32" Name="boxVolume" NumberOfComponents="1" format="ascii">
          6.35e-05 6.35e-05 0.000127 0.000127 0.000127 0.000127 0.000127 0.000127 0.000127 0.000127 0.000127 0.000127
          0.000127 0.000127 0.000127 0.000127 0.000127 0.000127 0.000127 0.000127 0.0001905 0.0001905 0.000254 0.000254
          0.000254 0.000254 0.000254 0.000254 0.000254 0.000254 0.00028575 0.00028575 0.0003175 0.0003175 0.0003175 0.0003175
          0.0003175 0.0003175 0.0003175 0.0003175 0.0003175 0.0003175 0.0003175 0.0003175 0.0003175 0.0003175 0.0003175 0.0003175
          0.0003175 0.0003175 0.0003175 0.0003175 0.0003175 0.0003175 0.0003175 0.0003175 0.0003175 0.0003175 0.0003175 0.0003175
          0.0003175 0.0003175 0.0003175 0.0003175 0.0003175 0.0003175 0.0003175 0.0003175 0.0003175 0.0003175 0.0003175 0.0003175
          0.0003175 0.0003175 0.0003175 0.0003175 0.0003175 0.0003175 0.00015875 0.00015875
        </DataArray>
        <DataArray type="Float32" Name="pH" NumberOfComponents="1" format="ascii">
          7.03917 7.04483 7.01295 7.01219 6.97248 6.97293 6.93916 6.94657 6.90737 6.90739 6.87888 6.878
          6.84749 6.84769 6.82001 6.81984 6.79443 6.79533 6.77212 6.77225 6.75003 6.75034 6.7127 6.71309
          6.68362 6.68132 6.65133 6.65737 6.62925 6.63369 6.61702 6.61399 6.64865 6.59654 6.58434 6.58606
          6.57152 6.58277 6.56584 6.56833 6.56846 6.56353 6.55702 6.55721 6.55675 6.55441 6.55327 6.54797
          6.55181 6.55056 6.5518 6.54764 6.54957 6.65092 6.5557 6.55041 6.55387 6.55279 6.54995 6.55779
          6.56576 6.60953 6.56526 6.5821 6.57249 6.57168 6.58151 6.58316 6.60751 6.59202 6.62608 6.62604
          6.66589 6.6653 6.72859 6.74024 6.84066 6.84094 6.19963 6.19963
        </DataArray>
        <DataArray type="Float32" Name="Omega" NumberOfComponents="1" format="ascii">
          11.5107 11.4376 11.8347 11.8595 12.3521 12.3459 12.7721 13.3347 13.1668 13.166 13.5165 13.5285
          13.9075 13.9028 14.2462 14.2465 14.5596 14.5477 14.8315 14.8275 15.1051 15.0969 15.5342 15.5325
          16.1104 15.8943 15.9301 16.4338 16.205 16.5774 16.9584 16.6607 22.4315 16.8763 17.0203 17.1823
          16.897 17.9595 17.1775 17.4158 18.0967 17.6165 17.4141 17.4244 17.6637 17.4313 17.4943 17.0067
          17.4756 17.3531 17.4962 17.1167 17.1239 29.6016 17.5616 17.0615 17.2071 17.107 16.6068 17.2281
          17.4229 22.1579 16.6972 18.298 16.3794 16.3138 15.8642 16.0077 16.1986 14.8598 14.9236 14.9239
          14.0026 13.957 12.4352 13.2589 9.65157 9.6405 0 0
        </DataArray>
        <DataArray type="Float32" Name="rurea" NumberOfComponents="1" format="ascii">
          0 0 0 0 0 0 0 0 0 0 0 0
          0 0 0 0 0 0 0 0 0 0 0 0
          0 0 0 0 0 0 0 0 0 0 0 0
          0 0 0 0 0 0 0 0 0 0 0 0
          0 0 0 0 0 0 0 0 0 0 0 0
          0 0 0 0 0 0 0 0 0 0 0 0
          0 0 0 0 0 0 0 0
        </DataArray>
        <DataArray type="Float32" Name="Volume_Fraction_Biofilm" NumberOfComponents="1" format="ascii">
          0.00165302 0.00165251 0.00164463 0.00165348 0.00164619 0.00164308 0.00164401 0.00164297 0.00163983 0.00164002 0.00163438 0.00163523
          0.00163248 0.00163196 0.0016293 0.0016288 0.00162591 0.00162599 0.00162279 0.00162214 0.00162221 0.00162085 0.00160768 0.00160977
          0.00160064 0.00159799 0.00159233 0.00159588 0.00158099 0.00158239 0.00157662 0.00157766 0.00156919 0.00156901 0.00159278 0.0015911
          0.00158225 0.00158471 0.00156989 0.00157031 0.00154788 0.00154732 0.00153707 0.00153878 0.001529 0.00153116 0.0015205 0.0015183
          0.00150006 0.00150127 0.00148349 0.00148008 0.00149082 0.00149246 0.0014733 0.00147322 0.00144122 0.00144008 0.00139036 0.00141978
          0.00140234 0.00139321 0.00136291 0.00136274 0.00131484 0.00131508 0.00124345 0.00124302 0.00115935 0.00116487 0.00105431 0.00105454
          0.000905602 0.000905323 0.000697888 0.000697766 0.000399258 0.000399201 0 0
        </DataArray>
        <DataArray type="Float32" Name="Volume_Fraction_Calcite" NumberOfComponents="1" format="ascii">
          0.00333358 0.00317793 0.00385772 0.00379401 0.00430886 0.00425496 0.00481404 0.00466918 0.00520967 0.00500862 0.00555898 0.00542574
          0.0058931 0.00567946 0.00621481 0.00604703 0.00653038 0.00632509 0.00680901 0.00660528 0.00708346 0.00681244 0.00753518 0.00724918
          0.00798551 0.00783712 0.00833938 0.00809944 0.00877353 0.00854949 0.00901946 0.00881624 0.00921821 0.00906913 0.00980333 0.00959902
          0.00991754 0.00984018 0.0101023 0.00994422 0.00996798 0.00997263 0.0102032 0.0101643 0.0101844 0.0100192 0.0102221 0.010144
          0.0101226 0.0100964 0.0100107 0.0100063 0.0101256 0.0100721 0.0100176 0.0100125 0.00967875 0.00975393 0.0094888 0.00950382
          0.00940769 0.00941529 0.00900975 0.00894936 0.00858702 0.00852572 0.00795538 0.00799689 0.00708628 0.00711983 0.00601578 0.00603762
          0.00462108 0.00464441 0.00303024 0.00301088 0.00120786 0.00120388 0 0
        </DataArray>
        <DataArray type="Float32" Name="Kxx" NumberOfComponents="1" format="ascii">
          1.92613e-10 1.92841e-10 1.91859e-10 1.9194e-10 1.912e-10 1.91283e-10 1.90468e-10 1.9068e-10 1.89901e-10 1.90192e-10 1.89403e-10 1.89594e-10
          1.88923e-10 1.89232e-10 1.88463e-10 1.88706e-10 1.88013e-10 1.88309e-10 1.87617e-10 1.87911e-10 1.87224e-10 1.87615e-10 1.86597e-10 1.87004e-10
          1.85963e-10 1.86179e-10 1.85469e-10 1.85807e-10 1.84867e-10 1.85184e-10 1.84523e-10 1.84811e-10 1.84251e-10 1.84463e-10 1.83388e-10 1.8368e-10
          1.83241e-10 1.83347e-10 1.82998e-10 1.83221e-10 1.83219e-10 1.83213e-10 1.82901e-10 1.82954e-10 1.82939e-10 1.8317e-10 1.82898e-10 1.83012e-10
          1.83068e-10 1.83103e-10 1.83249e-10 1.8326e-10 1.83076e-10 1.8315e-10 1.83254e-10 1.83261e-10 1.83779e-10 1.83674e-10 1.84121e-10 1.84058e-10
          1.84219e-10 1.84221e-10 1.84841e-10 1.84927e-10 1.85512e-10 1.85599e-10 1.86517e-10 1.86458e-10 1.87885e-10 1.87829e-10 1.89581e-10 1.89549e-10
          1.91824e-10 1.9179e-10 1.9446e-10 1.94488e-10 1.97599e-10 1.97605e-10 2e-10 2e-10
        </DataArray>
        <DataArray type="Float32" Name="X_lBrine" NumberOfComponents="1" format="ascii">
          0.977334 0.97755 0.976329 0.976275 0.97459 0.974617 0.973023 0.973002 0.971408 0.971411 0.969851 0.969798
          0.967984 0.968001 0.966232 0.966224 0.964491 0.964556 0.962879 0.962893 0.961183 0.961216 0.958151 0.95818
          0.955347 0.955366 0.952791 0.952818 0.950524 0.95055 0.948568 0.948588 0.946594 0.946618 0.945154 0.945155
          0.943937 0.943943 0.943 0.942997 0.942249 0.942249 0.941762 0.941769 0.94144 0.941449 0.941251 0.94124
          0.941124 0.941127 0.941113 0.941099 0.941312 0.941305 0.941508 0.941509 0.941765 0.941765 0.942111 0.942224
          0.942939 0.942885 0.943823 0.94383 0.945094 0.945086 0.946806 0.946807 0.949257 0.949278 0.952741 0.952736
          0.957636 0.957636 0.964625 0.964633 0.974799 0.974824 0.99029 0.99029
        </DataArray>
        <DataArray type="Float32" Name="X_lTotalC" NumberOfComponents="1" format="ascii">
          5.5712e-05 5.61767e-05 5.34267e-05 5.34672e-05 5.03099e-05 5.03035e-05 4.78604e-05 4.88402e-05 4.56114e-05 4.56055e-05 4.36634e-05 4.36118e-05
          4.16683e-05 4.16658e-05 3.99707e-05 3.9948e-05 3.84418e-05 3.8485e-05 3.71489e-05 3.71403e-05 3.59316e-05 3.59241e-05 3.38068e-05 3.38373e-05
          3.236e-05 3.21277e-05 3.05294e-05 3.10375e-05 2.94229e-05 2.97669e-05 2.90349e-05 2.87995e-05 3.20845e-05 2.79848e-05 2.77581e-05 2.78587e-05
          2.70785e-05 2.78977e-05 2.68167e-05 2.69876e-05 2.69846e-05 2.66402e-05 2.625e-05 2.62749e-05 2.6262e-05 2.61184e-05 2.60296e-05 2.56536e-05
          2.58092e-05 2.57326e-05 2.56935e-05 2.5392e-05 2.56262e-05 3.32762e-05 2.58692e-05 2.55164e-05 2.54139e-05 2.53365e-05 2.46526e-05 2.54051e-05
          2.56562e-05 2.86613e-05 2.50896e-05 2.62084e-05 2.48458e-05 2.47989e-05 2.4381e-05 2.44837e-05 2.4703e-05 2.37395e-05 2.40297e-05 2.40289e-05
          2.3875e-05 2.38351e-05 2.39704e-05 2.47605e-05 2.58036e-05 2.58211e-05 5.81077e-07 5.81077e-07
        </DataArray>
        <DataArray type="Float32" Name="X_lNa" NumberOfComponents="1" format="ascii">
          2.94526e-06 2.96284e-06 2.86477e-06 2.85982e-06 2.72483e-06 2.72735e-06 2.59994e-06 2.59851e-06 2.47216e-06 2.47246e-06 2.34999e-06 2.34583e-06
          2.2038e-06 2.20527e-06 2.0676e-06 2.06715e-06 1.93314e-06 1.93831e-06 1.80934e-06 1.81069e-06 1.67933e-06 1.68221e-06 1.45091e-06 1.45296e-06
          1.2404e-06 1.2424e-06 1.05005e-06 1.05159e-06 8.832e-07 8.85131e-07 7.38713e-07 7.40114e-07 5.94527e-07 5.95853e-07 4.79073e-07 4.79915e-07
          3.91222e-07 3.91305e-07 3.24951e-07 3.24847e-07 2.7579e-07 2.75877e-07 2.41714e-07 2.41831e-07 2.19289e-07 2.19425e-07 2.06493e-07 2.06479e-07
          2.01838e-07 2.01843e-07 2.04467e-07 2.04455e-07 2.14138e-07 2.14165e-07 2.31592e-07 2.31659e-07 2.58218e-07 2.5838e-07 2.96006e-07 2.95375e-07
          3.48662e-07 3.47745e-07 4.20196e-07 4.20979e-07 5.211e-07 5.20436e-07 6.58669e-07 6.58822e-07 8.49468e-07 8.49693e-07 1.11511e-06 1.11478e-06
          1.4844e-06 1.48442e-06 2.00083e-06 2.00152e-06 2.72727e-06 2.72891e-06 3.74885e-06 3.74885e-06
        </DataArray>
        <DataArray type="Float32" Name="X_lCl" NumberOfComponents="1" format="ascii">
          0.0118916 0.0117763 0.0124189 0.0124515 0.0133357 0.0133191 0.0141535 0.0141627 0.0149898 0.0149878 0.015789 0.0158162
          0.0167451 0.0167355 0.0176356 0.0176384 0.0185142 0.0184803 0.0193229 0.019314 0.0201721 0.0201531 0.0216622 0.0216489
          0.0230353 0.023022 0.0242761 0.0242663 0.0253629 0.0253503 0.0263042 0.0262951 0.0272429 0.0272344 0.0279991 0.0279933
          0.0285705 0.0285701 0.0290009 0.0290015 0.0293182 0.0293177 0.0295393 0.0295387 0.0296846 0.029684 0.0297672 0.029767
          0.0297951 0.0297952 0.029776 0.0297756 0.0297146 0.0297142 0.0295987 0.0295982 0.0294206 0.0294194 0.0291671 0.0291753
          0.0288255 0.0288302 0.0283535 0.0283482 0.0276883 0.0276927 0.0267807 0.0267796 0.0255243 0.0255234 0.0237774 0.0237795
          0.0213505 0.0213504 0.0179614 0.0179568 0.0132053 0.0131947 0.00655617 0.00655617
        </DataArray>
        <DataArray type="Float32" Name="X_lCa" NumberOfComponents="1" format="ascii">
          0.00130962 0.00128111 0.00145142 0.00145496 0.00169251 0.0016906 0.00191636 0.00192094 0.00215369 0.00215371 0.00238832 0.00239579
          0.00267092 0.00266942 0.00294304 0.00294519 0.00321849 0.00320887 0.00347753 0.00347664 0.00375158 0.00374862 0.00426664 0.00426066
          0.00474689 0.00474726 0.00519465 0.00518687 0.00560364 0.00559857 0.0059531 0.00594917 0.00631515 0.00630911 0.00651851 0.00652281
          0.00674883 0.00674512 0.00693501 0.0069365 0.00710897 0.00710906 0.00720906 0.00720482 0.0072766 0.00727142 0.00731976 0.0073268
          0.00737547 0.00737319 0.00740355 0.00741223 0.00734383 0.00734688 0.00733698 0.00733692 0.00735194 0.00735342 0.00738491 0.00730875
          0.00721148 0.00723894 0.00712904 0.00712924 0.00699796 0.00699863 0.00683284 0.00683342 0.00655696 0.00654535 0.0061291 0.00612977
          0.00550216 0.00550236 0.00453537 0.00453481 0.00295896 0.00295362 0 0
        </DataArray>
        <DataArray type="Float32" Name="X_lUrea" NumberOfComponents="1" format="ascii">
          0.00180237 0.00176082 0.00200982 0.00201448 0.00236109 0.00235853 0.00268727 0.00269268 0.0030332 0.00303327 0.00337535 0.00338619
          0.00378709 0.003785 0.00418382 0.00418706 0.00458559 0.00457164 0.00496357 0.0049624 0.00536336 0.00535925 0.00611653 0.00610771
          0.0068184 0.00681953 0.0074742 0.00746193 0.00807333 0.00806544 0.00858428 0.00857883 0.00910958 0.00910627 0.00940866 0.00941513
          0.009747 0.00974026 0.0100207 0.0100227 0.0102776 0.0102782 0.0104259 0.0104195 0.0105254 0.0105178 0.0105896 0.0106008
          0.0106739 0.0106705 0.0107171 0.0107306 0.0106284 0.0106224 0.0106202 0.0106206 0.0106471 0.0106495 0.0107032 0.0105868
          0.0104464 0.0104837 0.0103318 0.0103307 0.0101469 0.0101479 0.00991532 0.00991608 0.00952177 0.00950556 0.00890902 0.00891
          0.00800734 0.00800769 0.00660957 0.00660771 0.00431343 0.00430554 0 0
        </DataArray>
        <DataArray type="Float32" Name="X_lTotalNH" NumberOfComponents="1" format="ascii">
          0.00464216 0.00461138 0.00477315 0.00478587 0.00500627 0.00499991 0.00520698 0.00520829 0.00540527 0.00540431 0.00558828 0.00559498
          0.00580586 0.00580251 0.00600103 0.00600054 0.00618782 0.00617977 0.00635513 0.00635162 0.00652922 0.0065226 0.00680566 0.00680438
          0.00705598 0.00704909 0.00727007 0.00727236 0.00744369 0.00744222 0.00759858 0.00759738 0.00774416 0.00774206 0.00793124 0.00792487
          0.00800946 0.00801308 0.00805778 0.00805694 0.00806251 0.0080619 0.00808306 0.00808642 0.00809549 0.00809947 0.00809832 0.00809191
          0.00806418 0.0080661 0.00803104 0.00802325 0.00805227 0.00805539 0.00800259 0.00800215 0.00790395 0.00790207 0.00775361 0.00782286
          0.00773768 0.00771889 0.00758052 0.00757871 0.0073722 0.00737371 0.00707618 0.00707526 0.00670737 0.00671606 0.00623131 0.00623176
          0.00559818 0.00559792 0.00479184 0.00479073 0.00384832 0.00384776 0.00314947 0.00314947
        </DataArray>
        <DataArray type="Float32" Name="X_lO2" NumberOfComponents="1" format="ascii">
          2.78827e-07 2.82304e-07 2.93779e-07 2.66369e-07 2.7792e-07 2.89294e-07 2.7286e-07 2.77674e-07 2.76936e-07 2.78897e-07 2.87497e-07 2.86172e-07
          2.83336e-07 2.8799e-07 2.85608e-07 2.89183e-07 2.88084e-07 2.9051e-07 2.89609e-07 2.94196e-07 2.84114e-07 2.91504e-07 3.20208e-07 3.16807e-07
          3.30857e-07 3.40911e-07 3.44724e-07 3.35647e-07 3.68516e-07 3.67071e-07 3.6764e-07 3.67007e-07 3.73985e-07 3.754e-07 2.46631e-07 2.56061e-07
          2.61058e-07 2.54811e-07 2.86628e-07 2.88179e-07 3.55014e-07 3.55896e-07 3.69027e-07 3.63099e-07 3.75858e-07 3.69031e-07 3.80594e-07 3.91514e-07
          4.31254e-07 4.28012e-07 4.63699e-07 4.77193e-07 3.84219e-07 3.78661e-07 4.031e-07 4.03611e-07 4.77719e-07 4.80444e-07 6.06811e-07 4.87467e-07
          4.48349e-07 4.84518e-07 4.72363e-07 4.72741e-07 4.85208e-07 4.84889e-07 5.30703e-07 5.3185e-07 5.30599e-07 5.13329e-07 4.87225e-07 4.87479e-07
          4.3357e-07 4.3399e-07 3.51777e-07 3.52012e-07 2.57825e-07 2.57173e-07 0 0
        </DataArray>
        <DataArray type="Float32" Name="X_lSubstrate" NumberOfComponents="1" format="ascii">
          0.00296089 0.00296084 0.0029611 0.00296108 0.00296141 0.00296142 0.00296167 0.00296167 0.0029619 0.0029619 0.00296209 0.0029621
          0.00296228 0.00296228 0.00296242 0.00296242 0.00296252 0.00296252 0.00296258 0.00296258 0.00296261 0.00296261 0.00296258 0.00296258
          0.00296243 0.00296243 0.0029622 0.00296221 0.00296188 0.00296188 0.00296149 0.00296149 0.00296089 0.00296091 0.00296034 0.00296033
          0.00295941 0.00295941 0.00295818 0.00295817 0.00295646 0.00295646 0.00295425 0.00295426 0.00295123 0.00295126 0.00294705 0.00294704
          0.0029412 0.00294123 0.00293319 0.00293318 0.00292226 0.00292221 0.00290675 0.0029067 0.00288502 0.00288489 0.00285493 0.00285559
          0.00281351 0.00281417 0.00275644 0.0027558 0.00267508 0.00267562 0.00256298 0.00256285 0.00240625 0.00240609 0.00218672 0.00218698
          0.00188021 0.0018802 0.00145069 0.00145011 0.000846562 0.000845204 0 0
        </DataArray>
        <DataArray type="Float32" Name="X_lSuspended_Biomass" NumberOfComponents="1" format="ascii">
          4.10511e-08 4.04594e-08 4.5085e-08 4.53345e-08 4.69419e-08 4.68134e-08 4.8302e-08 4.81778e-08 4.84332e-08 4.83102e-08 4.2635e-08 4.47283e-08
          5.50392e-08 5.46183e-08 5.22022e-08 5.22337e-08 5.19734e-08 5.18605e-08 5.36633e-08 5.25517e-08 5.20646e-08 5.17376e-08 5.8398e-08 5.76918e-08
          5.86392e-08 5.82292e-08 5.72582e-08 5.80904e-08 5.98551e-08 5.94598e-08 6.03972e-08 6.0154e-08 6.2048e-08 6.19182e-08 6.37419e-08 6.34045e-08
          6.49148e-08 6.48331e-08 6.15976e-08 6.22782e-08 6.36786e-08 6.38895e-08 6.63578e-08 6.61346e-08 6.61816e-08 6.46156e-08 6.62719e-08 6.6352e-08
          6.83098e-08 6.83708e-08 6.87494e-08 6.90981e-08 7.06616e-08 7.04375e-08 7.25637e-08 7.2647e-08 7.30734e-08 7.3131e-08 7.2738e-08 7.38566e-08
          7.47483e-08 7.45087e-08 7.41403e-08 7.41364e-08 7.23714e-08 7.23202e-08 7.0326e-08 7.03029e-08 6.66138e-08 6.68157e-08 6.09109e-08 6.09363e-08
          5.23966e-08 5.23979e-08 4.01843e-08 4.01726e-08 2.28605e-08 2.28298e-08 0 0
        </DataArray>
        <DataArray type="Float32" Name="X_lNH4" NumberOfComponents="1" format="ascii">
          0.00488943 0.00485662 0.00502919 0.00504264 0.0052775 0.00527076 0.0054912 0.00549217 0.00570226 0.00570124 0.005897 0.00590412
          0.00612841 0.00612486 0.00633595 0.00633544 0.00653454 0.00652599 0.0067124 0.00670868 0.0068974 0.00689039 0.0071913 0.00718993
          0.00745721 0.00745002 0.00768492 0.00768712 0.00786943 0.00786772 0.00803377 0.0080326 0.00818674 0.00818631 0.00838686 0.00838006
          0.00847008 0.00847354 0.00852142 0.00852046 0.00852642 0.00852591 0.00854853 0.00855208 0.00856171 0.00856599 0.00856482 0.0085582
          0.00852877 0.00853084 0.00849373 0.00848561 0.00851623 0.00851619 0.0084635 0.00846319 0.00835923 0.00835727 0.00820033 0.00827332
          0.00818296 0.00816175 0.00801672 0.00801431 0.00779614 0.00779775 0.00748274 0.00748172 0.00709187 0.00710151 0.00658781 0.00658828
          0.00591709 0.00591684 0.00506273 0.00506122 0.00406216 0.00406155 0.00333307 0.00333307
        </DataArray>
        <DataArray type="Float32" Name="X_lHCO3" NumberOfComponents="1" format="ascii">
          6.74076e-05 6.8053e-05 6.42717e-05 6.43087e-05 5.99618e-05 5.99614e-05 5.65869e-05 5.78917e-05 5.35006e-05 5.34942e-05 5.08386e-05 5.07667e-05
          4.81071e-05 4.81071e-05 4.5795e-05 4.57669e-05 4.37205e-05 4.37812e-05 4.19721e-05 4.19644e-05 4.03249e-05 4.03207e-05 3.7499e-05 3.75375e-05
          3.55669e-05 3.52731e-05 3.31629e-05 3.38132e-05 3.17171e-05 3.21591e-05 3.11911e-05 3.08886e-05 3.51107e-05 2.98253e-05 2.94387e-05 2.95736e-05
          2.85679e-05 2.96117e-05 2.82423e-05 2.84615e-05 2.84955e-05 2.80557e-05 2.75649e-05 2.75931e-05 2.75865e-05 2.73989e-05 2.72976e-05 2.68247e-05
          2.70549e-05 2.69552e-05 2.69385e-05 2.65619e-05 2.68232e-05 3.66956e-05 2.71692e-05 2.67194e-05 2.66663e-05 2.65692e-05 2.58162e-05 2.6707e-05
          2.70712e-05 3.09538e-05 2.64502e-05 2.7883e-05 2.62719e-05 2.6211e-05 2.58752e-05 2.60072e-05 2.65252e-05 2.52821e-05 2.59651e-05 2.59639e-05
          2.61804e-05 2.61293e-05 2.6838e-05 2.78636e-05 2.98017e-05 2.98235e-05 3.37056e-07 3.37056e-07
        </DataArray>
        <DataArray type="Float32" Name="X_lCO3" NumberOfComponents="1" format="ascii">
          6.7648e-08 6.87382e-08 6.26545e-08 6.26281e-08 5.59203e-08 5.59573e-08 5.09368e-08 5.30515e-08 4.65999e-08 4.65968e-08 4.30268e-08 4.29271e-08
          3.94647e-08 3.94746e-08 3.65808e-08 3.65541e-08 3.4086e-08 3.41639e-08 3.20487e-08 3.2049e-08 3.01689e-08 3.01778e-08 2.71393e-08 2.71758e-08
          2.51766e-08 2.48375e-08 2.26484e-08 2.34008e-08 2.12734e-08 2.17829e-08 2.0884e-08 2.05317e-08 2.59501e-08 1.9543e-08 1.90299e-08 1.91982e-08
          1.82079e-08 1.93638e-08 1.79829e-08 1.82284e-08 1.84557e-08 1.79657e-08 1.74975e-08 1.75185e-08 1.75733e-08 1.73548e-08 1.7296e-08 1.67974e-08
          1.7142e-08 1.70273e-08 1.7096e-08 1.67049e-08 1.68751e-08 2.9159e-08 1.73276e-08 1.68344e-08 1.6949e-08 1.6847e-08 1.62915e-08 1.70826e-08
          1.75299e-08 2.22066e-08 1.70183e-08 1.86495e-08 1.70422e-08 1.69722e-08 1.69518e-08 1.71037e-08 1.81101e-08 1.66436e-08 1.79527e-08 1.79511e-08
          1.89176e-08 1.88554e-08 2.06214e-08 2.19905e-08 2.496e-08 2.49776e-08 2.55591e-11 2.55591e-11
        </DataArray>
        <DataArray type="Float32" Name="X_lCO2" NumberOfComponents="1" format="ascii">
          7.05498e-06 7.05343e-06 7.03461e-06 7.04838e-06 7.03057e-06 7.02451e-06 7.01831e-06 7.05575e-06 6.99806e-06 6.99684e-06 6.9722e-06 6.97261e-06
          6.94945e-06 6.94697e-06 6.92127e-06 6.91879e-06 6.89007e-06 6.88939e-06 6.85945e-06 6.85647e-06 6.83135e-06 6.82679e-06 6.74646e-06 6.74922e-06
          6.69436e-06 6.67419e-06 6.59913e-06 6.63773e-06 6.53623e-06 6.56112e-06 6.52784e-06 6.51073e-06 6.74724e-06 6.46352e-06 6.51601e-06 6.51915e-06
          6.46498e-06 6.53058e-06 6.43811e-06 6.45069e-06 6.42305e-06 6.39612e-06 6.36023e-06 6.36476e-06 6.35661e-06 6.34837e-06 6.33271e-06 6.2981e-06
          6.28749e-06 6.28284e-06 6.25575e-06 6.22614e-06 6.27166e-06 6.79368e-06 6.26492e-06 6.23674e-06 6.17258e-06 6.16514e-06 6.02464e-06 6.1343e-06
          6.12244e-06 6.32436e-06 6.0039e-06 6.08839e-06 5.88873e-06 5.88582e-06 5.7101e-06 5.71742e-06 5.56255e-06 5.49645e-06 5.29315e-06 5.29326e-06
          4.98248e-06 4.97949e-06 4.60248e-06 4.65198e-06 4.29536e-06 4.29713e-06 3.38012e-07 3.38012e-07
        </DataArray>
        <DataArray type="Float32" Name="X_lH" NumberOfComponents="1" format="ascii">
          9.05418e-11 8.93854e-11 9.60979e-11 9.62632e-11 1.05335e-10 1.05227e-10 1.13589e-10 1.11664e-10 1.22053e-10 1.22047e-10 1.30159e-10 1.30419e-10
          1.39699e-10 1.39636e-10 1.48607e-10 1.48664e-10 1.5739e-10 1.57074e-10 1.65461e-10 1.65413e-10 1.73848e-10 1.73726e-10 1.88961e-10 1.88797e-10
          2.0156e-10 2.02632e-10 2.16634e-10 2.1365e-10 2.27482e-10 2.25173e-10 2.33583e-10 2.35223e-10 2.16796e-10 2.4444e-10 2.51096e-10 2.50105e-10
          2.58342e-10 2.51738e-10 2.6152e-10 2.60024e-10 2.59766e-10 2.62733e-10 2.66581e-10 2.66468e-10 2.66669e-10 2.6811e-10 2.68767e-10 2.72062e-10
          2.69632e-10 2.70412e-10 2.69632e-10 2.72222e-10 2.71072e-10 2.14654e-10 2.67312e-10 2.70589e-10 2.68488e-10 2.69154e-10 2.70977e-10 2.66172e-10
          2.61489e-10 2.36404e-10 2.61975e-10 2.52013e-10 2.57921e-10 2.58396e-10 2.52966e-10 2.52008e-10 2.38743e-10 2.4742e-10 2.29413e-10 2.29434e-10
          2.10176e-10 2.10461e-10 1.82988e-10 1.78145e-10 1.42597e-10 1.42506e-10 6.32454e-10 6.32454e-10
        </DataArray>
        <DataArray type="Float32" Name="X_lOH" NumberOfComponents="1" format="ascii">
          1.82897e-06 1.85327e-06 1.7204e-06 1.71731e-06 1.56511e-06 1.56676e-06 1.44765e-06 1.47255e-06 1.34368e-06 1.34376e-06 1.25675e-06 1.25414e-06
          1.1673e-06 1.16786e-06 1.09412e-06 1.09368e-06 1.03005e-06 1.03223e-06 9.77138e-07 9.77441e-07 9.27336e-07 9.2803e-07 8.48744e-07 8.4953e-07
          7.91864e-07 7.87694e-07 7.33508e-07 7.43794e-07 6.95769e-07 7.02936e-07 6.75286e-07 6.70601e-07 7.25051e-07 6.43084e-07 6.24501e-07 6.26971e-07
          6.05675e-07 6.21576e-07 5.97308e-07 6.0074e-07 6.00497e-07 5.93717e-07 5.84628e-07 5.84888e-07 5.84093e-07 5.80968e-07 5.79331e-07 5.72297e-07
          5.77305e-07 5.75644e-07 5.77262e-07 5.71748e-07 5.74431e-07 7.25402e-07 5.8268e-07 5.75625e-07 5.80322e-07 5.78883e-07 5.75234e-07 5.85803e-07
          5.97019e-07 6.6028e-07 5.96758e-07 6.20354e-07 6.07391e-07 6.06268e-07 6.21e-07 6.23359e-07 6.60647e-07 6.37512e-07 6.91499e-07 6.91432e-07
          7.60965e-07 7.59932e-07 8.84329e-07 9.08381e-07 1.1546e-06 1.15539e-06 2.67481e-07 2.67481e-07
        </DataArray>
        <DataArray type="Float32" Name="X_gBrine" NumberOfComponents="1" format="ascii">
          0.0112358 0.0112155 0.0112221 0.011222 0.0112276 0.0112276 0.0112334 0.0112334 0.0112392 0.0112392 0.0112451 0.011245
          0.0112503 0.0112503 0.0112558 0.0112558 0.0112613 0.0112615 0.0112671 0.0112672 0.0112728 0.0112729 0.011285 0.0112851
          0.0112978 0.0112979 0.0113113 0.0113114 0.0113255 0.0113256 0.0113406 0.0113406 0.0113607 0.0113607 0.0113821 0.0113821
          0.0114042 0.0114043 0.0114272 0.0114272 0.0114507 0.0114507 0.011475 0.011475 0.0114998 0.0114999 0.0115251 0.0115251
          0.0115506 0.0115506 0.0115766 0.0115765 0.0116031 0.0116031 0.0116298 0.0116298 0.0116568 0.0116568 0.0116841 0.0116843
          0.0117126 0.0117125 0.0117415 0.0117415 0.0117713 0.0117713 0.0118024 0.0118024 0.0118354 0.0118354 0.0118709 0.0118709
          0.01191 0.01191 0.0119541 0.0119541 0.0120058 0.0120059 0.0120698 0.0120698
        </DataArray>
        <DataArray type="Float32" Name="X_gTotalC" NumberOfComponents="1" format="ascii">
          0.988764 0.988785 0.988778 0.988778 0.988772 0.988772 0.988767 0.988767 0.988761 0.988761 0.988755 0.988755
          0.98875 0.98875 0.988744 0.988744 0.988739 0.988739 0.988733 0.988733 0.988727 0.988727 0.988715 0.988715
          0.988702 0.988702 0.988689 0.988689 0.988674 0.988674 0.988659 0.988659 0.988639 0.988639 0.988618 0.988618
          0.988596 0.988596 0.988573 0.988573 0.988549 0.988549 0.988525 0.988525 0.9885 0.9885 0.988475 0.988475
          0.988449 0.988449 0.988423 0.988423 0.988397 0.988397 0.98837 0.98837 0.988343 0.988343 0.988316 0.988316
          0.988287 0.988288 0.988259 0.988259 0.988229 0.988229 0.988198 0.988198 0.988165 0.988165 0.988129 0.988129
          0.98809 0.98809 0.988046 0.988046 0.987994 0.987994 0.98793 0.98793
        </DataArray>
        <DataArray type="Float32" Name="X_gNa" NumberOfComponents="1" format="ascii">
          0 0 0 0 0 0 0 0 0 0 0 0
          0 0 0 0 0 0 0 0 0 0 0 0
          0 0 0 0 0 0 0 0 0 0 0 0
          0 0 0 0 0 0 0 0 0 0 0 0
          0 0 0 0 0 0 0 0 0 0 0 0
          0 0 0 0 0 0 0 0 0 0 0 0
          0 0 0 0 0 0 0 0
        </DataArray>
        <DataArray type="Float32" Name="X_gCl" NumberOfComponents="1" format="ascii">
          0 0 0 0 0 0 0 0 0 0 0 0
          0 0 0 0 0 0 0 0 0 0 0 0
          0 0 0 0 0 0 0 0 0 0 0 0
          0 0 0 0 0 0 0 0 0 0 0 0
          0 0 0 0 0 0 0 0 0 0 0 0
          0 0 0 0 0 0 0 0 0 0 0 0
          0 0 0 0 0 0 0 0
        </DataArray>
        <DataArray type="Float32" Name="X_gCa" NumberOfComponents="1" format="ascii">
          0 0 0 0 0 0 0 0 0 0 0 0
          0 0 0 0 0 0 0 0 0 0 0 0
          0 0 0 0 0 0 0 0 0 0 0 0
          0 0 0 0 0 0 0 0 0 0 0 0
          0 0 0 0 0 0 0 0 0 0 0 0
          0 0 0 0 0 0 0 0 0 0 0 0
          0 0 0 0 0 0 0 0
        </DataArray>
        <DataArray type="Float32" Name="X_gUrea" NumberOfComponents="1" format="ascii">
          0 0 0 0 0 0 0 0 0 0 0 0
          0 0 0 0 0 0 0 0 0 0 0 0
          0 0 0 0 0 0 0 0 0 0 0 0
          0 0 0 0 0 0 0 0 0 0 0 0
          0 0 0 0 0 0 0 0 0 0 0 0
          0 0 0 0 0 0 0 0 0 0 0 0
          0 0 0 0 0 0 0 0
        </DataArray>
        <DataArray type="Float32" Name="X_gTotalNH" NumberOfComponents="1" format="ascii">
          0 0 0 0 0 0 0 0 0 0 0 0
          0 0 0 0 0 0 0 0 0 0 0 0
          0 0 0 0 0 0 0 0 0 0 0 0
          0 0 0 0 0 0 0 0 0 0 0 0
          0 0 0 0 0 0 0 0 0 0 0 0
          0 0 0 0 0 0 0 0 0 0 0 0
          0 0 0 0 0 0 0 0
        </DataArray>
        <DataArray type="Float32" Name="X_gO2" NumberOfComponents="1" format="ascii">
          0 0 0 0 0 0 0 0 0 0 0 0
          0 0 0 0 0 0 0 0 0 0 0 0
          0 0 0 0 0 0 0 0 0 0 0 0
          0 0 0 0 0 0 0 0 0 0 0 0
          0 0 0 0 0 0 0 0 0 0 0 0
          0 0 0 0 0 0 0 0 0 0 0 0
          0 0 0 0 0 0 0 0
        </DataArray>
        <DataArray type="Float32" Name="X_gSubstrate" NumberOfComponents="1" format="ascii">
          0 0 0 0 0 0 0 0 0 0 0 0
          0 0 0 0 0 0 0 0 0 0 0 0
          0 0 0 0 0 0 0 0 0 0 0 0
          0 0 0 0 0 0 0 0 0 0 0 0
          0 0 0 0 0 0 0 0 0 0 0 0
          0 0 0 0 0 0 0 0 0 0 0 0
          0 0 0 0 0 0 0 0
        </DataArray>
        <DataArray type="Float32" Name="X_gSuspended_Biomass" NumberOfComponents="1" format="ascii">
          0 0 0 0 0 0 0 0 0 0 0 0
          0 0 0 0 0 0 0 0 0 0 0 0
          0 0 0 0 0 0 0 0 0 0 0 0
          0 0 0 0 0 0 0 0 0 0 0 0
          0 0 0 0 0 0 0 0 0 0 0 0
          0 0 0 0 0 0 0 0 0 0 0 0
          0 0 0 0 0 0 0 0
        </DataArray>
        <DataArray type="Float32" Name="X_gNH4" NumberOfComponents="1" format="ascii">
          0 0 0 0 0 0 0 0 0 0 0 0
          0 0 0 0 0 0 0 0 0 0 0 0
          0 0 0 0 0 0 0 0 0 0 0 0
          0 0 0 0 0 0 0 0 0 0 0 0
          0 0 0 0 0 0 0 0 0 0 0 0
          0 0 0 0 0 0 0 0 0 0 0 0
          0 0 0 0 0 0 0 0
        </DataArray>
        <DataArray type="Float32" Name="X_gHCO3" NumberOfComponents="1" format="ascii">
          0 0 0 0 0 0 0 0 0 0 0 0
          0 0 0 0 0 0 0 0 0 0 0 0
          0 0 0 0 0 0 0 0 0 0 0 0
          0 0 0 0 0 0 0 0 0 0 0 0
          0 0 0 0 0 0 0 0 0 0 0 0
          0 0 0 0 0 0 0 0 0 0 0 0
          0 0 0 0 0 0 0 0
        </DataArray>
        <DataArray type="Float32" Name="X_gCO3" NumberOfComponents="1" format="ascii">
          0 0 0 0 0 0 0 0 0 0 0 0
          0 0 0 0 0 0 0 0 0 0 0 0
          0 0 0 0 0 0 0 0 0 0 0 0
          0 0 0 0 0 0 0 0 0 0 0 0
          0 0 0 0 0 0 0 0 0 0 0 0
          0 0 0 0 0 0 0 0 0 0 0 0
          0 0 0 0 0 0 0 0
        </DataArray>
        <DataArray type="Float32" Name="X_gCO2" NumberOfComponents="1" format="ascii">
          0.988764 0.988785 0.988778 0.988778 0.988772 0.988772 0.988767 0.988767 0.988761 0.988761 0.988755 0.988755
          0.98875 0.98875 0.988744 0.988744 0.988739 0.988739 0.988733 0.988733 0.988727 0.988727 0.988715 0.988715
          0.988702 0.988702 0.988689 0.988689 0.988674 0.988674 0.988659 0.988659 0.988639 0.988639 0.988618 0.988618
          0.988596 0.988596 0.988573 0.988573 0.988549 0.988549 0.988525 0.988525 0.9885 0.9885 0.988475 0.988475
          0.988449 0.988449 0.988423 0.988423 0.988397 0.988397 0.98837 0.98837 0.988343 0.988343 0.988316 0.988316
          0.988287 0.988288 0.988259 0.988259 0.988229 0.988229 0.988198 0.988198 0.988165 0.988165 0.988129 0.988129
          0.98809 0.98809 0.988046 0.988046 0.987994 0.987994 0.98793 0.98793
        </DataArray>
        <DataArray type="Float32" Name="X_gH" NumberOfComponents="1" format="ascii">
          0 0 0 0 0 0 0 0 0 0 0 0
          0 0 0 0 0 0 0 0 0 0 0 0
          0 0 0 0 0 0 0 0 0 0 0 0
          0 0 0 0 0 0 0 0 0 0 0 0
          0 0 0 0 0 0 0 0 0 0 0 0
          0 0 0 0 0 0 0 0 0 0 0 0
          0 0 0 0 0 0 0 0
        </DataArray>
        <DataArray type="Float32" Name="X_gOH" NumberOfComponents="1" format="ascii">
          0 0 0 0 0 0 0 0 0 0 0 0
          0 0 0 0 0 0 0 0 0 0 0 0
          0 0 0 0 0 0 0 0 0 0 0 0
          0 0 0 0 0 0 0 0 0 0 0 0
          0 0 0 0 0 0 0 0 0 0 0 0
          0 0 0 0 0 0 0 0 0 0 0 0
          0 0 0 0 0 0 0 0
        </DataArray>
        <DataArray type="Float32" Name="Molarity_Brine" NumberOfComponents="1" format="ascii">
          54573.2 54580 54541.6 54539.9 54486.9 54487.8 54437.5 54436.8 54386.5 54386.5 54337.1 54335.5
          54277.9 54278.4 54222.2 54221.9 54166.7 54168.7 54115.2 54115.6 54060.9 54061.9 53963.4 53964.4
          53873.1 53873.6 53790.4 53791.3 53716.8 53717.7 53653.2 53653.9 53588.9 53589.6 53542.1 53542.1
          53502.3 53502.5 53471.5 53471.4 53446.8 53446.8 53430.8 53431.1 53420.2 53420.6 53414.1 53413.7
          53409.9 53410 53409.6 53409.1 53416.5 53416.3 53423.2 53423.2 53431.8 53431.8 53443.4 53447.4
          53471.7 53469.8 53501.6 53501.9 53544.7 53544.4 53602.7 53602.7 53685.6 53686.4 53803.2 53803.1
          53967.9 53967.9 54201.9 54202.1 54539.9 54540.8 55049.2 55049.2
        </DataArray>
        <DataArray type="Float32" Name="Molarity_TotalC" NumberOfComponents="1" format="ascii">
          1.27371 1.28421 1.22201 1.22297 1.15162 1.15146 1.09632 1.11877 1.04556 1.04542 1.0016 1.00044
          0.956635 0.956572 0.918383 0.917862 0.883941 0.884908 0.85483 0.854626 0.827446 0.82726 0.77957 0.780264
          0.747145 0.741775 0.705685 0.717421 0.680799 0.688749 0.67241 0.66695 0.743689 0.648655 0.643827 0.646158
          0.628406 0.647414 0.622591 0.626558 0.626697 0.618697 0.609769 0.610346 0.610137 0.606797 0.604789 0.596055
          0.599702 0.597921 0.597018 0.590016 0.595403 0.773148 0.601 0.592803 0.590358 0.588558 0.572585 0.590038
          0.595689 0.665475 0.582312 0.608277 0.576342 0.575258 0.565149 0.567529 0.572019 0.549703 0.555607 0.555589
          0.550889 0.549969 0.551464 0.569638 0.591106 0.5915 0.0132254 0.0132254
        </DataArray>
        <DataArray type="Float32" Name="Molarity_Na" NumberOfComponents="1" format="ascii">
          0.128872 0.129629 0.125407 0.125193 0.119374 0.119483 0.113983 0.113921 0.108459 0.108472 0.103171 0.102991
          0.0968339 0.0968974 0.0909203 0.0909011 0.0850739 0.0852991 0.0796834 0.0797422 0.0740136 0.0741398 0.0640334 0.0641229
          0.0548113 0.0548993 0.0464534 0.0465209 0.0391116 0.0391966 0.0327418 0.0328036 0.0263743 0.0264329 0.0212664 0.0213038
          0.0173761 0.0173797 0.0144387 0.0144341 0.0122584 0.0122623 0.0107461 0.0107513 0.00975055 0.00975655 0.00918238 0.00918178
          0.00897588 0.00897612 0.00909288 0.00909238 0.00952216 0.00952337 0.0102974 0.0103004 0.01148 0.0114872 0.0131581 0.0131294
          0.0154933 0.0154529 0.018665 0.0186997 0.0231346 0.0231052 0.0292208 0.0292276 0.0376461 0.0376558 0.0493457 0.0493315
          0.065552 0.0655528 0.0880978 0.0881279 0.119571 0.119642 0.1633 0.1633
        </DataArray>
        <DataArray type="Float32" Name="Molarity_Cl" NumberOfComponents="1" format="ascii">
          337.414 334.11 352.532 353.468 378.854 378.377 402.369 402.636 426.452 426.396 449.502 450.288
          477.121 476.843 502.887 502.97 528.354 527.372 551.829 551.571 576.518 575.966 619.946 619.558
          660.07 659.682 696.42 696.13 728.335 727.965 756.028 755.76 783.698 783.447 805.977 805.808
          822.873 822.86 835.618 835.637 845.044 845.027 851.601 851.582 855.914 855.893 858.37 858.366
          859.222 859.223 858.675 858.669 856.836 856.826 853.421 853.408 848.191 848.158 840.759 840.957
          830.622 830.774 816.711 816.557 797.119 797.248 770.429 770.398 733.523 733.491 682.314 682.376
          611.405 611.402 512.839 512.707 375.434 375.128 185.193 185.193
        </DataArray>
        <DataArray type="Float32" Name="Molarity_Ca" NumberOfComponents="1" format="ascii">
          32.8712 32.1524 36.4467 36.5363 42.5338 42.4854 48.1931 48.3088 54.2007 54.201 60.1474 60.3369
          67.3206 67.2823 74.2376 74.2922 81.2491 81.0039 87.8518 87.8286 94.8471 94.7708 108.015 107.862
          120.324 120.332 131.824 131.626 142.347 142.217 151.357 151.256 160.704 160.549 165.987 166.096
          171.945 171.85 176.763 176.801 181.257 181.259 183.849 183.74 185.598 185.466 186.715 186.896
          188.147 188.088 188.864 189.087 187.325 187.404 187.135 187.133 187.496 187.534 188.308 186.358
          183.822 184.526 181.652 181.656 178.216 178.233 173.884 173.899 166.69 166.393 155.583 155.601
          139.38 139.385 114.552 114.537 74.4168 74.2818 0 0
        </DataArray>
        <DataArray type="Float32" Name="Molarity_Urea" NumberOfComponents="1" format="ascii">
          29.9189 29.2263 33.3775 33.4558 39.2418 39.1988 44.6944 44.7847 50.4844 50.4855 56.2182 56.4001
          63.1286 63.0934 69.7967 69.8509 76.5589 76.3236 82.9292 82.909 89.6768 89.6067 102.409 102.26
          114.303 114.321 125.44 125.233 135.633 135.499 144.343 144.25 153.312 153.254 158.448 158.557
          164.235 164.121 168.918 168.952 173.306 173.316 175.845 175.736 177.549 177.42 178.647 178.837
          180.079 180.022 180.809 181.039 179.297 179.198 179.144 179.151 179.579 179.619 180.497 178.527
          176.105 176.738 174.108 174.088 170.899 170.916 166.878 166.89 160.088 159.814 149.565 149.582
          134.15 134.156 110.407 110.375 71.7445 71.6124 0 0
        </DataArray>
        <DataArray type="Float32" Name="Molarity_TotalNH" NumberOfComponents="1" format="ascii">
          274.192 272.347 282.056 282.814 296.062 295.683 308.148 308.229 320.114 320.057 331.184 331.588
          344.366 344.165 356.221 356.193 367.596 367.106 377.807 377.596 388.451 388.052 405.447 405.366
          420.888 420.473 434.154 434.286 444.973 444.88 454.63 454.554 463.749 463.618 475.262 474.879
          480.21 480.425 483.309 483.259 483.754 483.717 485.093 485.293 485.909 486.146 486.12 485.738
          484.098 484.213 482.112 481.647 483.346 483.535 480.324 480.298 474.351 474.239 465.259 469.392
          464.141 463.024 454.542 454.432 441.812 441.904 423.763 423.707 401.259 401.776 372.23 372.257
          333.719 333.703 284.811 284.744 227.756 227.72 185.193 185.193
        </DataArray>
        <DataArray type="Float32" Name="Molarity_O2" NumberOfComponents="1" format="ascii">
          0.00876517 0.00887359 0.00923933 0.00837749 0.00874739 0.00910527 0.00859416 0.00874588 0.00872885 0.00879066 0.00906804 0.00902647
          0.00894428 0.00909112 0.00902308 0.00913605 0.00910839 0.00918481 0.00916321 0.00930828 0.0089962 0.00923004 0.0101528 0.0100449
          0.0105036 0.0108227 0.0109564 0.0106678 0.0117244 0.0116783 0.0117068 0.0116865 0.0119194 0.0119643 0.00786555 0.00816628
          0.00833019 0.00813084 0.00914995 0.00919946 0.0113368 0.011365 0.0117868 0.0115975 0.0120068 0.0117886 0.0121591 0.012508
          0.0137783 0.0136747 0.014815 0.0152462 0.0122747 0.0120971 0.0128768 0.0128931 0.0152587 0.0153458 0.0193791 0.015567
          0.0143135 0.0154685 0.0150744 0.0150865 0.015476 0.0154659 0.0169148 0.0169513 0.0168939 0.0163439 0.01549 0.0154981
          0.0137557 0.0137691 0.0111279 0.0111352 0.00812106 0.00810045 0 0
        </DataArray>
        <DataArray type="Float32" Name="Molarity_Substrate" NumberOfComponents="1" format="ascii">
          16.5325 16.5306 16.5411 16.5414 16.5558 16.5556 16.5688 16.569 16.5821 16.5821 16.5948 16.5952
          16.6097 16.6096 16.6235 16.6236 16.637 16.6365 16.6494 16.6493 16.6622 16.6619 16.6846 16.6844
          16.7047 16.7046 16.7225 16.7223 16.7376 16.7375 16.7501 16.75 16.7615 16.7615 16.7693 16.7692
          16.7731 16.7731 16.7732 16.7732 16.7691 16.769 16.7602 16.7602 16.7454 16.7455 16.7232 16.7231
          16.6909 16.6911 16.6455 16.6456 16.5822 16.5819 16.4928 16.4925 16.3676 16.3669 16.1945 16.1975
          15.954 15.9581 15.6245 15.6208 15.1551 15.1582 14.5094 14.5087 13.608 13.607 12.3483 12.3498
          10.5955 10.5954 8.15099 8.14771 4.73629 4.72864 0 0
        </DataArray>
        <DataArray type="Float32" Name="Molarity_Suspended_Biomass" NumberOfComponents="1" format="ascii">
          4.12952e-05 4.0696e-05 4.53736e-05 4.56257e-05 4.72791e-05 4.71491e-05 4.86831e-05 4.85585e-05 4.88507e-05 4.87266e-05 4.30326e-05 4.51464e-05
          5.55988e-05 5.51733e-05 5.27743e-05 5.28064e-05 5.2584e-05 5.24682e-05 5.43329e-05 5.32071e-05 5.27543e-05 5.24223e-05 5.92519e-05 5.85346e-05
          5.95713e-05 5.91542e-05 5.82349e-05 5.90806e-05 6.09379e-05 6.05346e-05 6.15436e-05 6.12952e-05 6.32815e-05 6.31484e-05 6.50514e-05 6.4707e-05
          6.62845e-05 6.62008e-05 6.29236e-05 6.36189e-05 6.50711e-05 6.52866e-05 6.78236e-05 6.75953e-05 6.76533e-05 6.60522e-05 6.77514e-05 6.78336e-05
          6.98387e-05 6.99011e-05 7.02886e-05 7.06455e-05 7.22377e-05 7.20088e-05 7.4176e-05 7.42612e-05 7.46887e-05 7.47477e-05 7.43348e-05 7.54744e-05
          7.63626e-05 7.61194e-05 7.57128e-05 7.57086e-05 7.38665e-05 7.38145e-05 7.17266e-05 7.17029e-05 6.78698e-05 6.8075e-05 6.19679e-05 6.19939e-05
          5.31958e-05 5.3197e-05 4.06772e-05 4.06652e-05 2.30422e-05 2.3011e-05 0 0
        </DataArray>
        <DataArray type="Float32" Name="Molarity_NH4" NumberOfComponents="1" format="ascii">
          272.66 270.804 280.579 281.336 294.662 294.283 306.809 306.866 318.832 318.775 329.951 330.357
          343.185 342.984 355.086 355.058 366.501 366.011 376.748 376.537 387.426 387.026 404.482 404.4
          419.965 419.556 433.284 433.403 444.137 444.035 453.809 453.738 462.858 462.828 474.48 474.096
          479.449 479.644 482.558 482.504 483.002 482.973 484.36 484.559 485.177 485.417 485.394 485.022
          483.379 483.496 481.395 480.938 482.631 482.631 479.603 479.585 473.641 473.531 464.568 468.682
          463.422 462.231 453.837 453.698 441.11 441.203 423.07 423.012 400.554 401.095 371.536 371.563
          333.02 333.005 284.097 284.011 226.977 226.941 185.037 185.037
        </DataArray>
        <DataArray type="Float32" Name="Molarity_HCO3" NumberOfComponents="1" format="ascii">
          1.1113 1.12183 1.06008 1.06072 0.989764 0.989745 0.934712 0.956273 0.884371 0.884264 0.840955 0.839785
          0.796436 0.796431 0.758753 0.758289 0.724946 0.725932 0.696458 0.696324 0.669633 0.669554 0.623551 0.624183
          0.592166 0.587269 0.552772 0.563605 0.52921 0.536577 0.520888 0.515832 0.586863 0.498514 0.492379 0.494634
          0.478073 0.49554 0.472822 0.476493 0.47722 0.469855 0.461735 0.462207 0.462165 0.45902 0.457364 0.449442
          0.453322 0.451651 0.451375 0.445067 0.449407 0.614815 0.455165 0.44763 0.44669 0.445065 0.432386 0.447284
          0.453247 0.518263 0.442683 0.46666 0.43946 0.438444 0.432509 0.434716 0.442914 0.422154 0.432923 0.432903
          0.43561 0.434761 0.445239 0.462252 0.492297 0.492652 0.00553194 0.00553194
        </DataArray>
        <DataArray type="Float32" Name="Molarity_CO3" NumberOfComponents="1" format="ascii">
          0.001134 0.00115216 0.00105076 0.00105035 0.000938556 0.000939165 0.000855514 0.00089104 0.00078324 0.000783187 0.000723689 0.000722029
          0.00066433 0.000664493 0.000616267 0.00061582 0.000574687 0.000575983 0.000540728 0.000540729 0.000509398 0.000509541 0.000458865 0.000459476
          0.000426214 0.00042047 0.000383854 0.0003966 0.000360914 0.000369554 0.000354619 0.000348634 0.000441032 0.000332138 0.000323631 0.000326493
          0.00030982 0.000329488 0.000306119 0.000310299 0.000314272 0.000305929 0.000298022 0.000298378 0.000299356 0.000295632 0.000294657 0.000286163
          0.00029205 0.000290095 0.000291268 0.000284606 0.000287481 0.000496749 0.000295166 0.000286763 0.000288684 0.000286946 0.000277444 0.000290902
          0.000298429 0.000378053 0.000289609 0.000317368 0.00028986 0.00028867 0.000288112 0.000290693 0.000307479 0.000282579 0.000304358 0.00030433
          0.000320053 0.000319001 0.000347853 0.000370945 0.000419242 0.000419533 4.26535e-07 4.26535e-07
        </DataArray>
        <DataArray type="Float32" Name="Molarity_CO2" NumberOfComponents="1" format="ascii">
          0.161294 0.161243 0.160901 0.16122 0.160934 0.160793 0.160766 0.161625 0.160418 0.16039 0.159936 0.15995
          0.159548 0.15949 0.159026 0.158969 0.158432 0.158412 0.157842 0.157772 0.157315 0.157207 0.155571 0.155632
          0.154563 0.154096 0.152538 0.153429 0.151238 0.151812 0.151176 0.150778 0.156395 0.149817 0.151134 0.151206
          0.150031 0.151553 0.14947 0.149763 0.149171 0.148545 0.147744 0.147849 0.147681 0.147489 0.147138 0.146335
          0.146096 0.145988 0.145359 0.144672 0.145717 0.157846 0.145548 0.144894 0.143387 0.143214 0.139929 0.14247
          0.142151 0.146843 0.139347 0.141307 0.1366 0.136533 0.13236 0.132529 0.128805 0.127274 0.122387 0.122389
          0.114965 0.114896 0.105885 0.107023 0.0983977 0.0984371 0.00769319 0.00769319
        </DataArray>
        <DataArray type="Float32" Name="Molarity_H" NumberOfComponents="1" format="ascii">
          9.03627e-05 8.92e-05 9.5951e-05 9.61184e-05 0.000105256 0.000105147 0.000113584 0.00011166 0.000122135 0.000122129 0.000130338 0.000130601
          0.000140008 0.000139944 0.000149052 0.00014911 0.000157985 0.000157663 0.000166206 0.000166157 0.000174763 0.000174639 0.000190214 0.000190046
          0.000203151 0.00020423 0.000218594 0.00021558 0.000229772 0.000227437 0.000236141 0.000237797 0.000219365 0.000247333 0.000254236 0.000253232
          0.000261715 0.000255023 0.000265045 0.000263529 0.000263355 0.000266363 0.000270324 0.000270208 0.000270452 0.000271912 0.000272603 0.000275946
          0.000273495 0.000274287 0.000273497 0.000276126 0.000274935 0.000217714 0.000271099 0.000274423 0.000272261 0.000272937 0.000274744 0.00026986
          0.000265032 0.000239613 0.000265424 0.00025533 0.000261176 0.000261657 0.000255971 0.000255002 0.000241329 0.000250097 0.000231556 0.000231577
          0.000211701 0.000211988 0.000183774 0.000178909 0.000142598 0.000142506 0.000628379 0.000628379
        </DataArray>
        <DataArray type="Float32" Name="Molarity_OH" NumberOfComponents="1" format="ascii">
          0.00010823 0.000109657 0.000101851 0.000101671 9.27297e-05 9.28268e-05 8.5831e-05 8.73082e-05 7.97244e-05 7.97286e-05 7.46182e-05 7.44651e-05
          6.93655e-05 6.9398e-05 6.50677e-05 6.50419e-05 6.13049e-05 6.14332e-05 5.8198e-05 5.82157e-05 5.52738e-05 5.53143e-05 5.06579e-05 5.07042e-05
          4.73223e-05 4.70727e-05 4.38851e-05 4.44999e-05 4.16694e-05 4.20981e-05 4.04781e-05 4.01969e-05 4.34995e-05 3.85815e-05 3.74913e-05 3.76396e-05
          3.63809e-05 3.73359e-05 3.58934e-05 3.60997e-05 3.60971e-05 3.56895e-05 3.51508e-05 3.51663e-05 3.51237e-05 3.49356e-05 3.48403e-05 3.44175e-05
          3.47205e-05 3.46205e-05 3.47181e-05 3.43867e-05 3.45449e-05 4.36241e-05 3.50381e-05 3.46138e-05 3.48925e-05 3.48059e-05 3.45813e-05 3.52151e-05
          3.58784e-05 3.96811e-05 3.58492e-05 3.72666e-05 3.64683e-05 3.64009e-05 3.72582e-05 3.73998e-05 3.95958e-05 3.82089e-05 4.13838e-05 4.13799e-05
          4.5447e-05 4.53853e-05 5.26592e-05 5.40913e-05 6.84599e-05 6.85059e-05 1.57575e-05 1.57575e-05
        </DataArray>
        <DataArray type="Float32" Name="Da_ureolysis" NumberOfComponents="1" format="ascii">
          0 0 0 0 0 0 0 0 0 0 0 0
          0 0 0 0 0 0 0 0 0 0 0 0
          0 0 0 0 0 0 0 0 0 0 0 0
          0 0 0 0 0 0 0 0 0 0 0 0
          0 0 0 0 0 0 0 0 0 0 0 0
          0 0 0 0 0 0 0 0 0 0 0 0
          0 0 0 0 0 0 0 0
        </DataArray>
        <DataArray type="Float32" Name="Da_precipitation" NumberOfComponents="1" format="ascii">
          347.479 322.03 1505.97 1241.44 5777.07 6488.2 9863.93 14785.6 11077.2 10192.4 2301.25 3585.97
          5725.02 5470.88 4331.77 5268.74 4003.54 6336.61 10880.3 3171.07 193.699 181.125 1705.44 3569.02
          1615.62 2727.09 1293.45 2389.44 1215.41 2100.27 968.279 740.239 1940.6 842.752 1588.04 1943.95
          1429.65 1863.89 2244.48 2386.2 1855.24 1748.27 2678.96 3181.41 4089.15 4565.81 9124.25 7175.8
          7057.17 5184.91 2327.5 1831.32 6745.75 83439.9 11643.7 11475.5 2197.73 4533.44 877.669 1636.19
          2488.08 6550.76 1172.19 1437.93 789.53 759.596 414.174 436.262 332.034 254.256 187.062 188.952
          111.623 110.857 57.2681 72.8338 20.9399 21.1226 0 0
        </DataArray>
        <DataArray type="Float32" Name="Vx" NumberOfComponents="1" format="ascii">
          1.16575e-08 1.16767e-08 -1.86659e-09 -1.8674e-09 -4.93555e-09 -4.9469e-09 -3.85456e-09 -3.85291e-09 -2.6911e-09 -2.68825e-09 2.85428e-09 2.85039e-09
          7.95918e-09 7.97018e-09 8.55003e-09 8.57651e-09 4.34376e-09 4.35704e-09 -3.87341e-11 -3.78062e-11 -2.29004e-10 -2.30718e-10 -9.00563e-10 -9.02985e-10
          -4.31543e-10 -4.33025e-10 2.2311e-10 2.23338e-10 -3.94022e-10 -3.94758e-10 -7.73227e-10 -7.75194e-10 -1.61991e-09 -1.62275e-09 -1.63135e-09 -1.6333e-09
          -7.50963e-10 -7.51401e-10 -2.00741e-10 -2.00811e-10 7.24773e-10 7.24846e-10 3.7281e-10 3.7274e-10 -1.11238e-09 -1.11277e-09 -7.63936e-10 -7.64272e-10
          -4.97089e-10 -4.97155e-10 -5.11305e-10 -5.11322e-10 8.01386e-10 8.01451e-10 2.76658e-09 2.76626e-09 5.89865e-09 5.89763e-09 -3.13267e-09 -3.13121e-09
          -6.54028e-09 -6.5392e-09 7.21622e-10 7.2083e-10 9.65406e-10 9.65654e-10 1.60816e-09 1.60808e-09 -1.56422e-10 -1.56448e-10 -1.18112e-09 -1.18103e-09
          9.41532e-10 9.41543e-10 1.89252e-09 1.88807e-09 6.79827e-11 6.65284e-11 -3.00963e-10 -2.94999e-10
        </DataArray>
        <DataArray type="Float32" Name="Vy" NumberOfComponents="1" format="ascii">
          1.42622e-07 1.53893e-07 3.28048e-08 4.002e-08 -6.97248e-09 -5.7721e-09 3.13489e-09 -3.33568e-12 3.45425e-09 -3.92754e-09 2.0629e-08 1.306e-08
          -2.23073e-09 -3.35542e-09 -6.55979e-09 2.21002e-09 -1.0642e-08 5.81452e-09 -4.1718e-09 1.43097e-08 2.31313e-07 2.4721e-07 -2.54088e-08 -1.2134e-08
          -2.73345e-08 -1.54473e-08 -2.99495e-08 -1.81038e-08 -3.13063e-08 -1.96314e-08 4.32676e-08 5.32737e-08 -5.32951e-08 -4.60567e-08 -2.42791e-08 -2.04724e-08
          -2.54262e-08 -2.41129e-08 -1.66822e-08 -1.64611e-08 -2.35763e-08 -2.27921e-08 -1.40852e-08 -1.18912e-08 -9.54228e-09 -8.15021e-09 -4.06763e-09 -4.70512e-09
          -5.26813e-09 -7.01352e-09 -1.6044e-08 -1.8877e-08 5.11893e-09 2.60811e-09 -1.76274e-09 -1.18921e-09 -1.5057e-08 -4.91904e-09 -3.55113e-08 -2.17285e-08
          -1.37436e-08 -1.14502e-08 -2.82115e-08 -3.15977e-08 -3.99603e-08 -4.09595e-08 -6.9919e-08 -6.8486e-08 -9.80155e-08 -9.48417e-08 -1.40209e-07 -1.38797e-07
          -2.10191e-07 -2.09213e-07 -3.2839e-07 -3.24207e-07 -5.56983e-07 -5.50859e-07 3.49004e-06 3.49595e-06
        </DataArray>
      </PointData>
      <CellData Scalars="process rank">
        <DataArray type="Float32" Name="process rank" NumberOfComponents="1" format="ascii">
          0 0 0 0 0 0 0 0 0 0 0 0
          0 0 0 0 0 0 0 0 0 0 0 0
          0 0 0 0 0 0 0 0 0 0 0 0
          0 0 0
        </DataArray>
      </CellData>
      <Points>
        <DataArray type="Float32" Name="Coordinates" NumberOfComponents="3" format="ascii">
          0 0 0 0.0254 0 0 0 0.01 0 0.0254 0.01 0
          0 0.02 0 0.0254 0.02 0 0 0.03 0 0.0254 0.03 0
          0 0.04 0 0.0254 0.04 0 0 0.05 0 0.0254 0.05 0
          0 0.06 0 0.0254 0.06 0 0 0.07 0 0.0254 0.07 0
          0 0.08 0 0.0254 0.08 0 0 0.09 0 0.0254 0.09 0
          0 0.1 0 0.0254 0.1 0 0 0.12 0 0.0254 0.12 0
          0 0.14 0 0.0254 0.14 0 0 0.16 0 0.0254 0.16 0
          0 0.18 0 0.0254 0.18 0 0 0.2 0 0.0254 0.2 0
          0 0.225 0 0.0254 0.225 0 0 0.25 0 0.0254 0.25 0
          0 0.275 0 0.0254 0.275 0 0 0.3 0 0.0254 0.3 0
          0 0.325 0 0.0254 0.325 0 0 0.35 0 0.0254 0.35 0
          0 0.375 0 0.0254 0.375 0 0 0.4 0 0.0254 0.4 0
          0 0.425 0 0.0254 0.425 0 0 0.45 0 0.0254 0.45 0
          0 0.475 0 0.0254 0.475 0 0 0.5 0 0.0254 0.5 0
          0 0.525 0 0.0254 0.525 0 0 0.55 0 0.0254 0.55 0
          0 0.575 0 0.0254 0.575 0 0 0.6 0 0.0254 0.6 0
          0 0.625 0 0.0254 0.625 0 0 0.65 0 0.0254 0.65 0
          0 0.675 0 0.0254 0.675 0 0 0.7 0 0.0254 0.7 0
          0 0.725 0 0.0254 0.725 0 0 0.75 0 0.0254 0.75 0
          0 0.775 0 0.0254 0.775 0 0 0.8 0 0.0254 0.8 0
        </DataArray>
      </Points>
      <Cells>
        <DataArray type="Int32" Name="connectivity" NumberOfComponents="1" format="ascii">
          0 1 3 2 2 3 5 4 4 5 7 6
          6 7 9 8 8 9 11 10 10 11 13 12
          12 13 15 14 14 15 17 16 16 17 19 18
          18 19 21 20 20 21 23 22 22 23 25 24
          24 25 27 26 26 27 29 28 28 29 31 30
          30 31 33 32 32 33 35 34 34 35 37 36
          36 37 39 38 38 39 41 40 40 41 43 42
          42 43 45 44 44 45 47 46 46 47 49 48
          48 49 51 50 50 51 53 52 52 53 55 54
          54 55 57 56 56 57 59 58 58 59 61 60
          60 61 63 62 62 63 65 64 64 65 67 66
          66 67 69 68 68 69 71 70 70 71 73 72
          72 73 75 74 74 75 77 76 76 77 79 78
        </DataArray>
        <DataArray type="Int32" Name="offsets" NumberOfComponents="1" format="ascii">
          4 8 12 16 20 24 28 32 36 40 44 48
          52 56 60 64 68 72 76 80 84 88 92 96
          100 104 108 112 116 120 124 128 132 136 140 144
          148 152 156
        </DataArray>
        <DataArray type="UInt8" Name="types" NumberOfComponents="1" format="ascii">
          9 9 9 9 9 9 9 9 9 9 9 9
          9 9 9 9 9 9 9 9 9 9 9 9
          9 9 9 9 9 9 9 9 9 9 9 9
          9 9 9
        </DataArray>
      </Cells>
    </Piece>
  </UnstructuredGrid>
</VTKFile>
