<?xml version="1.0"?>
<VTKFile type="UnstructuredGrid" version="0.1" byte_order="LittleEndian">
  <UnstructuredGrid>
    <Piece NumberOfCells="39" NumberOfPoints="80">
      <PointData Scalars="Sg">
        <DataArray type="Float32" Name="Sg" NumberOfComponents="1" format="ascii">
          0 0 0 0 0 0 0 0 0 0 0 0
          0 0 0 0 0 0 0 0 0 0 0 0
          0 0 0 0 0 0 0 0 0 0 0 0
          0 0 0 0 0 0 0 0 0 0 0 0
          0 0 0 0 0 0 0 0 0 0 0 0
          0 0 0 0 0 0 0 0 0 0 0 0
          0 0 0 0 0 0 0 0
        </DataArray>
        <DataArray type="Float32" Name="Sl" NumberOfComponents="1" format="ascii">
          1 1 1 1 1 1 1 1 1 1 1 1
          1 1 1 1 1 1 1 1 1 1 1 1
          1 1 1 1 1 1 1 1 1 1 1 1
          1 1 1 1 1 1 1 1 1 1 1 1
          1 1 1 1 1 1 1 1 1 1 1 1
          1 1 1 1 1 1 1 1 1 1 1 1
          1 1 1 1 1 1 1 1
        </DataArray>
        <DataArray type="Float32" Name="pg" NumberOfComponents="1" format="ascii">
          119018 119018 118900 118900 118783 118783 118666 118666 118548 118548 118431 118431
          118313 118313 118196 118196 118079 118079 117961 117961 117844 117844 117609 117609
          117374 117374 117140 117140 116905 116905 116670 116670 116377 116377 116084 116084
          115790 115790 115497 115497 115204 115204 114911 114911 114617 114617 114324 114324
          114031 114031 113739 113739 113446 113446 113153 113153 112860 112860 112568 112568
          112275 112275 111983 111983 111691 111691 111400 111400 111109 111109 110818 110818
          110528 110528 110239 110239 109952 109952 109667 109667
        </DataArray>
        <DataArray type="Float32" Name="pl" NumberOfComponents="1" format="ascii">
          109351 109351 109234 109234 109116 109116 108999 108999 108881 108881 108764 108764
          108647 108647 108529 108529 108412 108412 108295 108295 108177 108177 107942 107942
          107708 107708 107473 107473 107238 107238 107004 107004 106710 106710 106417 106417
          106124 106124 105830 105830 105537 105537 105244 105244 104951 104951 104658 104658
          104365 104365 104072 104072 103779 103779 103486 103486 103194 103194 102901 102901
          102609 102609 102317 102317 102025 102025 101733 101733 101442 101442 101151 101151
          100861 100861 100573 100573 100285 100285 100000 100000
        </DataArray>
        <DataArray type="Float32" Name="pc" NumberOfComponents="1" format="ascii">
          9666.67 9666.67 9666.67 9666.67 9666.67 9666.67 9666.67 9666.67 9666.67 9666.67 9666.67 9666.67
          9666.67 9666.67 9666.67 9666.67 9666.67 9666.67 9666.67 9666.67 9666.67 9666.67 9666.67 9666.67
          9666.67 9666.67 9666.67 9666.67 9666.67 9666.67 9666.67 9666.67 9666.67 9666.67 9666.67 9666.67
          9666.67 9666.67 9666.67 9666.67 9666.67 9666.67 9666.67 9666.67 9666.67 9666.67 9666.67 9666.67
          9666.67 9666.67 9666.67 9666.67 9666.67 9666.67 9666.67 9666.67 9666.67 9666.67 9666.67 9666.67
          9666.67 9666.67 9666.67 9666.67 9666.67 9666.67 9666.67 9666.67 9666.67 9666.67 9666.67 9666.67
          9666.67 9666.67 9666.67 9666.67 9666.67 9666.67 9666.67 9666.67
        </DataArray>
        <DataArray type="Float32" Name="rhoL" NumberOfComponents="1" format="ascii">
          1026.62 1026.62 1026.62 1026.62 1026.61 1026.61 1026.6 1026.6 1026.59 1026.59 1026.58 1026.58
          1026.57 1026.57 1026.55 1026.55 1026.54 1026.54 1026.52 1026.52 1026.51 1026.51 1026.47 1026.47
          1026.43 1026.43 1026.39 1026.39 1026.33 1026.33 1026.28 1026.28 1026.2 1026.2 1026.11 1026.11
          1026.01 1026.01 1025.9 1025.9 1025.78 1025.78 1025.64 1025.64 1025.49 1025.49 1025.32 1025.32
          1025.12 1025.12 1024.91 1024.91 1024.67 1024.67 1024.38 1024.38 1024.05 1024.05 1023.66 1023.66
          1023.19 1023.19 1022.59 1022.59 1021.84 1021.84 1020.86 1020.86 1019.57 1019.57 1017.83 1017.83
          1015.47 1015.47 1012.21 1012.21 1007.71 1007.71 1001.45 1001.45
        </DataArray>
        <DataArray type="Float32" Name="rhoG" NumberOfComponents="1" format="ascii">
          2.09444 2.09469 2.09257 2.09257 2.09044 2.09044 2.08831 2.08831 2.08619 2.08619 2.08406 2.08406
          2.08193 2.08193 2.07981 2.07981 2.07768 2.07768 2.07555 2.07555 2.07343 2.07343 2.06918 2.06918
          2.06492 2.06492 2.06067 2.06067 2.05642 2.05642 2.05216 2.05216 2.04685 2.04685 2.04153 2.04153
          2.03622 2.03622 2.03091 2.03091 2.02559 2.02559 2.02028 2.02028 2.01497 2.01497 2.00965 2.00965
          2.00434 2.00434 1.99903 1.99903 1.99373 1.99373 1.98842 1.98842 1.98311 1.98311 1.97781 1.97781
          1.9725 1.9725 1.9672 1.9672 1.9619 1.9619 1.9566 1.9566 1.95131 1.95131 1.94602 1.94602
          1.94073 1.94073 1.93544 1.93544 1.93017 1.93017 1.9249 1.9249
        </DataArray>
        <DataArray type="Float32" Name="mobL" NumberOfComponents="1" format="ascii">
          1006.95 1006.95 1006.97 1006.97 1006.99 1006.99 1007.01 1007.01 1007.04 1007.04 1007.07 1007.07
          1007.11 1007.11 1007.14 1007.14 1007.18 1007.18 1007.22 1007.22 1007.27 1007.27 1007.36 1007.36
          1007.47 1007.47 1007.6 1007.6 1007.74 1007.74 1007.9 1007.9 1008.11 1008.11 1008.36 1008.36
          1008.63 1008.63 1008.94 1008.94 1009.29 1009.29 1009.67 1009.67 1010.1 1010.1 1010.58 1010.58
          1011.12 1011.12 1011.73 1011.73 1012.42 1012.42 1013.22 1013.22 1014.17 1014.17 1015.3 1015.3
          1016.69 1016.69 1018.43 1018.43 1020.68 1020.68 1023.65 1023.65 1027.67 1027.67 1033.24 1033.24
          1041.21 1041.21 1053 1053 1071.39 1071.39 1103.12 1103.12
        </DataArray>
        <DataArray type="Float32" Name="mobG" NumberOfComponents="1" format="ascii">
          0 0 0 0 0 0 0 0 0 0 0 0
          0 0 0 0 0 0 0 0 0 0 0 0
          0 0 0 0 0 0 0 0 0 0 0 0
          0 0 0 0 0 0 0 0 0 0 0 0
          0 0 0 0 0 0 0 0 0 0 0 0
          0 0 0 0 0 0 0 0 0 0 0 0
          0 0 0 0 0 0 0 0
        </DataArray>
        <DataArray type="Float32" Name="porosity" NumberOfComponents="1" format="ascii">
          0.4 0.4 0.4 0.4 0.4 0.4 0.4 0.4 0.4 0.4 0.4 0.4
          0.4 0.4 0.4 0.4 0.4 0.4 0.4 0.4 0.4 0.4 0.4 0.4
          0.4 0.4 0.4 0.4 0.4 0.4 0.4 0.4 0.4 0.4 0.4 0.4
          0.4 0.4 0.4 0.4 0.4 0.4 0.4 0.4 0.4 0.4 0.4 0.4
          0.4 0.4 0.4 0.4 0.4 0.4 0.4 0.4 0.4 0.4 0.4 0.4
          0.4 0.4 0.4 0.4 0.4 0.4 0.4 0.4 0.4 0.4 0.4 0.4
          0.4 0.4 0.4 0.4 0.4 0.4 0.4 0.4
        </DataArray>
        <DataArray type="Float32" Name="temperature" NumberOfComponents="1" format="ascii">
          298.15 298.15 298.15 298.15 298.15 298.15 298.15 298.15 298.15 298.15 298.15 298.15
          298.15 298.15 298.15 298.15 298.15 298.15 298.15 298.15 298.15 298.15 298.15 298.15
          298.15 298.15 298.15 298.15 298.15 298.15 298.15 298.15 298.15 298.15 298.15 298.15
          298.15 298.15 298.15 298.15 298.15 298.15 298.15 298.15 298.15 298.15 298.15 298.15
          298.15 298.15 298.15 298.15 298.15 298.15 298.15 298.15 298.15 298.15 298.15 298.15
          298.15 298.15 298.15 298.15 298.15 298.15 298.15 298.15 298.15 298.15 298.15 298.15
          298.15 298.15 298.15 298.15 298.15 298.15 298.15 298.15
        </DataArray>
        <DataArray type="Float32" Name="phase presence" NumberOfComponents="1" format="ascii">
          1 1 1 1 1 1 1 1 1 1 1 1
          1 1 1 1 1 1 1 1 1 1 1 1
          1 1 1 1 1 1 1 1 1 1 1 1
          1 1 1 1 1 1 1 1 1 1 1 1
          1 1 1 1 1 1 1 1 1 1 1 1
          1 1 1 1 1 1 1 1 1 1 1 1
          1 1 1 1 1 1 1 1
        </DataArray>
        <DataArray type="Float32" Name="potential" NumberOfComponents="1" format="ascii">
          0.128496 0.128496 0.126847 0.126847 0.125198 0.125198 0.123549 0.123549 0.121901 0.121901 0.120254 0.120254
          0.118608 0.118608 0.116962 0.116962 0.115318 0.115318 0.113674 0.113674 0.112031 0.112031 0.108745 0.108745
          0.105463 0.105463 0.102184 0.102184 0.0989084 0.0989084 0.0956363 0.0956363 0.0915491 0.0915491 0.0874668 0.0874668
          0.0833893 0.0833893 0.0793166 0.0793166 0.0752487 0.0752487 0.0711854 0.0711854 0.067127 0.067127 0.0630736 0.0630736
          0.0590255 0.0590255 0.0549834 0.0549834 0.050948 0.050948 0.0469207 0.0469207 0.0429033 0.0429033 0.0388979 0.0388979
          0.0349074 0.0349074 0.0309355 0.0309355 0.0269861 0.0269861 0.0230632 0.0230632 0.0191707 0.0191707 0.0153105 0.0153105
          0.0114804 0.0114804 0.00767095 0.00767095 0.0038591 0.0038591 0 0
        </DataArray>
        <DataArray type="Float32" Name="boxVolume" NumberOfComponents="1" format="ascii">
          6.35e-05 6.35e-05 0.000127 0.000127 0.000127 0.000127 0.000127 0.000127 0.000127 0.000127 0.000127 0.000127
          0.000127 0.000127 0.000127 0.000127 0.000127 0.000127 0.000127 0.000127 0.0001905 0.0001905 0.000254 0.000254
          0.000254 0.000254 0.000254 0.000254 0.000254 0.000254 0.00028575 0.00028575 0.0003175 0.0003175 0.0003175 0.0003175
          0.0003175 0.0003175 0.0003175 0.0003175 0.0003175 0.0003175 0.0003175 0.0003175 0.0003175 0.0003175 0.0003175 0.0003175
          0.0003175 0.0003175 0.0003175 0.0003175 0.0003175 0.0003175 0.0003175 0.0003175 0.0003175 0.0003175 0.0003175 0.0003175
          0.0003175 0.0003175 0.0003175 0.0003175 0.0003175 0.0003175 0.0003175 0.0003175 0.0003175 0.0003175 0.0003175 0.0003175
          0.0003175 0.0003175 0.0003175 0.0003175 0.0003175 0.0003175 0.00015875 0.00015875
        </DataArray>
        <DataArray type="Float32" Name="pH" NumberOfComponents="1" format="ascii">
          5.16547 5.16547 5.16657 5.16657 5.16778 5.16778 5.16911 5.16911 5.17056 5.17056 5.17214 5.17214
          5.17387 5.17387 5.17574 5.17574 5.17778 5.17778 5.17998 5.17998 5.18236 5.18236 5.18732 5.18732
          5.19294 5.19294 5.19929 5.19929 5.20641 5.20641 5.21436 5.21436 5.22512 5.22512 5.23714 5.23714
          5.25049 5.25049 5.26518 5.26518 5.28128 5.28128 5.29881 5.29881 5.31786 5.31786 5.33849 5.33849
          5.36085 5.36085 5.38511 5.38511 5.41157 5.41157 5.44059 5.44059 5.4727 5.4727 5.50856 5.50856
          5.54899 5.54899 5.59491 5.59491 5.64728 5.64728 5.70694 5.70694 5.77443 5.77443 5.84969 5.84969
          5.93191 5.93191 6.01929 6.01929 6.10908 6.10908 6.19963 6.19963
        </DataArray>
        <DataArray type="Float32" Name="Omega" NumberOfComponents="1" format="ascii">
          0.0068463 0.0068463 0.00687527 0.00687527 0.00690723 0.00690724 0.00694244 0.00694244 0.00698113 0.00698113 0.00702359 0.00702359
          0.0070701 0.0070701 0.00712099 0.00712099 0.00717658 0.00717659 0.00723726 0.00723726 0.00730339 0.00730339 0.00744267 0.00744267
          0.0076038 0.0076038 0.00778946 0.00778946 0.00800267 0.00800266 0.00824678 0.00824678 0.00858833 0.00858833 0.00898527 0.00898527
          0.00944493 0.00944492 0.00997567 0.00997567 0.0105873 0.0105873 0.0112914 0.0112914 0.0121022 0.0121022 0.0130374 0.0130374
          0.0141198 0.0141198 0.0153797 0.0153797 0.0168574 0.0168575 0.0186083 0.0186083 0.0207072 0.0207072 0.023254 0.023254
          0.0263771 0.0263771 0.0302256 0.0302256 0.0349364 0.0349363 0.0405343 0.0405342 0.0466982 0.0466982 0.0522882 0.0522882
          0.0545796 0.0545796 0.0485789 0.0485789 0.0284705 0.0284705 0 0
        </DataArray>
        <DataArray type="Float32" Name="rurea" NumberOfComponents="1" format="ascii">
          0 0 0 0 0 0 0 0 0 0 0 0
          0 0 0 0 0 0 0 0 0 0 0 0
          0 0 0 0 0 0 0 0 0 0 0 0
          0 0 0 0 0 0 0 0 0 0 0 0
          0 0 0 0 0 0 0 0 0 0 0 0
          0 0 0 0 0 0 0 0 0 0 0 0
          0 0 0 0 0 0 0 0
        </DataArray>
        <DataArray type="Float32" Name="Volume_Fraction_Biofilm" NumberOfComponents="1" format="ascii">
          1.00586e-10 1.00586e-10 1.00436e-10 1.0045e-10 1.00296e-10 1.003e-10 1.00165e-10 1.00166e-10 9.99987e-11 9.99974e-11 9.98061e-11 9.98036e-11
          9.96195e-11 9.96162e-11 9.94181e-11 9.94156e-11 9.92108e-11 9.92066e-11 9.89672e-11 9.89626e-11 9.87264e-11 9.87224e-11 9.81563e-11 9.81504e-11
          9.74928e-11 9.74871e-11 9.66652e-11 9.66592e-11 9.57118e-11 9.5705e-11 9.47152e-11 9.47086e-11 9.32937e-11 9.32866e-11 9.17938e-11 9.17865e-11
          9.01559e-11 9.01485e-11 8.84254e-11 8.84182e-11 8.66377e-11 8.66306e-11 8.46876e-11 8.46807e-11 8.27942e-11 8.27876e-11 8.86176e-11 8.86108e-11
          8.69684e-11 8.69636e-11 8.54859e-11 8.54805e-11 8.37652e-11 8.37601e-11 8.20005e-11 8.19952e-11 8.01483e-11 8.01434e-11 7.79604e-11 7.79551e-11
          7.46734e-11 7.46682e-11 7.11179e-11 7.11133e-11 7.42596e-11 7.42552e-11 6.99768e-11 6.9972e-11 6.47153e-11 6.4711e-11 5.75479e-11 5.75444e-11
          4.8318e-11 4.83148e-11 3.62789e-11 3.62775e-11 2.01262e-11 2.01254e-11 0 0
        </DataArray>
        <DataArray type="Float32" Name="Volume_Fraction_Calcite" NumberOfComponents="1" format="ascii">
          0 0 0 0 0 0 0 0 0 0 0 0
          0 0 0 0 0 0 0 0 0 0 0 0
          0 0 0 0 0 0 0 0 0 0 0 0
          0 0 0 0 0 0 0 0 0 0 0 0
          0 0 0 0 0 0 0 0 0 0 0 0
          0 0 0 0 0 0 0 0 0 0 0 0
          0 0 0 0 0 0 0 0
        </DataArray>
        <DataArray type="Float32" Name="Kxx" NumberOfComponents="1" format="ascii">
          2e-10 2e-10 2e-10 2e-10 2e-10 2e-10 2e-10 2e-10 2e-10 2e-10 2e-10 2e-10
          2e-10 2e-10 2e-10 2e-10 2e-10 2e-10 2e-10 2e-10 2e-10 2e-10 2e-10 2e-10
          2e-10 2e-10 2e-10 2e-10 2e-10 2e-10 2e-10 2e-10 2e-10 2e-10 2e-10 2e-10
          2e-10 2e-10 2e-10 2e-10 2e-10 2e-10 2e-10 2e-10 2e-10 2e-10 2e-10 2e-10
          2e-10 2e-10 2e-10 2e-10 2e-10 2e-10 2e-10 2e-10 2e-10 2e-10 2e-10 2e-10
          2e-10 2e-10 2e-10 2e-10 2e-10 2e-10 2e-10 2e-10 2e-10 2e-10 2e-10 2e-10
          2e-10 2e-10 2e-10 2e-10 2e-10 2e-10 2e-10 2e-10
        </DataArray>
        <DataArray type="Float32" Name="X_lBrine" NumberOfComponents="1" format="ascii">
          0.931041 0.931041 0.931057 0.931057 0.931076 0.931076 0.931096 0.931096 0.931118 0.931118 0.931142 0.931142
          0.931168 0.931168 0.931196 0.931196 0.931227 0.931227 0.931261 0.931261 0.931297 0.931297 0.931373 0.931373
          0.93146 0.93146 0.931558 0.931558 0.931669 0.931669 0.931794 0.931794 0.931964 0.931964 0.932157 0.932157
          0.932374 0.932374 0.932617 0.932617 0.932888 0.932888 0.933191 0.933191 0.933528 0.933528 0.933904 0.933904
          0.934327 0.934327 0.934804 0.934804 0.935349 0.935349 0.935979 0.935979 0.936721 0.936721 0.93761 0.93761
          0.938698 0.938698 0.94006 0.94006 0.941802 0.941802 0.944075 0.944075 0.947095 0.947095 0.951172 0.951172
          0.956746 0.956746 0.964454 0.964454 0.975205 0.975205 0.99029 0.99029
        </DataArray>
        <DataArray type="Float32" Name="X_lTotalC" NumberOfComponents="1" format="ascii">
          6.19402e-07 6.19402e-07 6.19389e-07 6.19389e-07 6.19375e-07 6.19375e-07 6.19359e-07 6.19359e-07 6.19342e-07 6.19342e-07 6.19323e-07 6.19323e-07
          6.19302e-07 6.19302e-07 6.1928e-07 6.1928e-07 6.19255e-07 6.19255e-07 6.19228e-07 6.19228e-07 6.19199e-07 6.19199e-07 6.19137e-07 6.19137e-07
          6.19067e-07 6.19067e-07 6.18987e-07 6.18987e-07 6.18897e-07 6.18897e-07 6.18795e-07 6.18795e-07 6.18656e-07 6.18656e-07 6.18498e-07 6.18498e-07
          6.18321e-07 6.18321e-07 6.18123e-07 6.18123e-07 6.17902e-07 6.17902e-07 6.17658e-07 6.17658e-07 6.17387e-07 6.17387e-07 6.17087e-07 6.17087e-07
          6.16754e-07 6.16754e-07 6.16383e-07 6.16383e-07 6.15966e-07 6.15966e-07 6.15494e-07 6.15494e-07 6.1495e-07 6.1495e-07 6.14314e-07 6.14314e-07
          6.13555e-07 6.13555e-07 6.12627e-07 6.12627e-07 6.11468e-07 6.11468e-07 6.09984e-07 6.09984e-07 6.08046e-07 6.08046e-07 6.05461e-07 6.05461e-07
          6.01958e-07 6.01958e-07 5.97144e-07 5.97144e-07 5.90453e-07 5.90453e-07 5.81077e-07 5.81077e-07
        </DataArray>
        <DataArray type="Float32" Name="X_lNa" NumberOfComponents="1" format="ascii">
          1.26072e-07 1.26072e-07 1.27149e-07 1.27149e-07 1.28333e-07 1.28333e-07 1.29633e-07 1.29633e-07 1.31056e-07 1.31056e-07 1.32611e-07 1.32611e-07
          1.34307e-07 1.34307e-07 1.36154e-07 1.36154e-07 1.3816e-07 1.3816e-07 1.40338e-07 1.40338e-07 1.42697e-07 1.42697e-07 1.47616e-07 1.47616e-07
          1.53227e-07 1.53227e-07 1.59592e-07 1.59592e-07 1.66776e-07 1.66776e-07 1.74846e-07 1.74846e-07 1.8588e-07 1.8588e-07 1.98358e-07 1.98358e-07
          2.12389e-07 2.12389e-07 2.28095e-07 2.28095e-07 2.45614e-07 2.45614e-07 2.65117e-07 2.65117e-07 2.86818e-07 2.86818e-07 3.11002e-07 3.11002e-07
          3.38056e-07 3.38056e-07 3.68519e-07 3.68519e-07 4.03149e-07 4.03149e-07 4.43021e-07 4.43021e-07 4.89667e-07 4.89667e-07 5.45274e-07 5.45274e-07
          6.12967e-07 6.12967e-07 6.97211e-07 6.97211e-07 8.0439e-07 8.0439e-07 9.43629e-07 9.43629e-07 1.12798e-06 1.12798e-06 1.37612e-06 1.37612e-06
          1.71483e-06 1.71483e-06 2.18254e-06 2.18254e-06 2.83442e-06 2.83442e-06 3.74885e-06 3.74885e-06
        </DataArray>
        <DataArray type="Float32" Name="X_lCl" NumberOfComponents="1" format="ascii">
          0.0299896 0.0299896 0.0299826 0.0299826 0.029975 0.029975 0.0299666 0.0299666 0.0299574 0.0299574 0.0299474 0.0299474
          0.0299365 0.0299365 0.0299245 0.0299245 0.0299116 0.0299116 0.0298975 0.0298975 0.0298823 0.0298823 0.0298506 0.0298506
          0.0298144 0.0298144 0.0297733 0.0297733 0.0297269 0.0297269 0.0296748 0.0296748 0.0296036 0.0296036 0.0295231 0.0295231
          0.0294325 0.0294325 0.0293312 0.0293312 0.0292181 0.0292181 0.0290922 0.0290922 0.0289521 0.0289521 0.0287959 0.0287959
          0.0286212 0.0286212 0.0284245 0.0284245 0.0282008 0.0282008 0.0279432 0.0279432 0.0276418 0.0276418 0.0272823 0.0272823
          0.0268447 0.0268447 0.0263 0.0263 0.0256068 0.0256068 0.0247062 0.0247062 0.0235137 0.0235137 0.0219083 0.0219083
          0.0197169 0.0197169 0.0166907 0.0166907 0.0124729 0.0124729 0.00655617 0.00655617
        </DataArray>
        <DataArray type="Float32" Name="X_lCa" NumberOfComponents="1" format="ascii">
          0.0132699 0.0132699 0.013266 0.013266 0.0132617 0.0132617 0.0132569 0.0132569 0.0132517 0.0132517 0.013246 0.013246
          0.0132398 0.0132398 0.0132331 0.0132331 0.0132257 0.0132257 0.0132178 0.0132178 0.0132092 0.0132092 0.0131912 0.0131912
          0.0131707 0.0131707 0.0131474 0.0131474 0.0131211 0.0131211 0.0130916 0.0130916 0.0130513 0.0130513 0.0130056 0.0130056
          0.0129543 0.0129543 0.0128969 0.0128969 0.0128328 0.0128328 0.0127615 0.0127615 0.0126821 0.0126821 0.0125937 0.0125937
          0.0124947 0.0124947 0.0123833 0.0123833 0.0122566 0.0122566 0.0121106 0.0121106 0.0119399 0.0119399 0.0117364 0.0117364
          0.0114885 0.0114885 0.01118 0.01118 0.0107875 0.0107875 0.0102775 0.0102775 0.00960218 0.00960218 0.00869313 0.00869313
          0.00745222 0.00745222 0.00573865 0.00573865 0.00335032 0.00335032 0 0
        </DataArray>
        <DataArray type="Float32" Name="X_lUrea" NumberOfComponents="1" format="ascii">
          0.019615 0.019615 0.0196092 0.0196092 0.0196029 0.0196029 0.019596 0.019596 0.0195884 0.0195884 0.0195801 0.0195801
          0.019571 0.019571 0.0195612 0.0195612 0.0195505 0.0195505 0.0195389 0.0195389 0.0195263 0.0195263 0.0195001 0.0195001
          0.0194702 0.0194702 0.0194363 0.0194363 0.019398 0.019398 0.0193551 0.0193551 0.0192964 0.0192964 0.01923 0.01923
          0.0191555 0.0191555 0.019072 0.019072 0.018979 0.018979 0.0188754 0.0188754 0.0187601 0.0187601 0.0186317 0.0186317
          0.0184879 0.0184879 0.0183259 0.0183259 0.0181415 0.0181415 0.0179288 0.0179288 0.0176795 0.0176795 0.0173817 0.0173817
          0.0170182 0.0170182 0.0165648 0.0165648 0.0159866 0.0159866 0.0152339 0.0152339 0.0142356 0.0142356 0.01289 0.01289
          0.0110515 0.0110515 0.00851121 0.00851121 0.00496929 0.00496929 0 0
        </DataArray>
        <DataArray type="Float32" Name="X_lTotalNH" NumberOfComponents="1" format="ascii">
          0.00312846 0.00312846 0.00312847 0.00312847 0.00312848 0.00312848 0.00312849 0.00312849 0.0031285 0.0031285 0.00312851 0.00312851
          0.00312852 0.00312852 0.00312853 0.00312853 0.00312855 0.00312855 0.00312856 0.00312856 0.00312858 0.00312858 0.00312862 0.00312862
          0.00312866 0.00312866 0.00312871 0.00312871 0.00312876 0.00312876 0.00312882 0.00312882 0.0031289 0.0031289 0.00312899 0.00312899
          0.00312909 0.00312909 0.0031292 0.0031292 0.00312932 0.00312932 0.00312946 0.00312946 0.00312961 0.00312961 0.00312978 0.00312978
          0.00312997 0.00312997 0.00313017 0.00313017 0.0031304 0.0031304 0.00313067 0.00313067 0.00313096 0.00313096 0.00313131 0.00313131
          0.00313173 0.00313173 0.00313224 0.00313224 0.00313287 0.00313287 0.00313368 0.00313368 0.00313474 0.00313474 0.00313615 0.00313615
          0.00313807 0.00313807 0.00314069 0.00314069 0.00314435 0.00314435 0.00314947 0.00314947
        </DataArray>
        <DataArray type="Float32" Name="X_lO2" NumberOfComponents="1" format="ascii">
          7.86071e-06 7.86071e-06 7.86071e-06 7.86071e-06 7.8607e-06 7.8607e-06 7.8607e-06 7.8607e-06 7.86069e-06 7.86069e-06 7.86068e-06 7.86068e-06
          7.86067e-06 7.86067e-06 7.86065e-06 7.86065e-06 7.86062e-06 7.86062e-06 7.86059e-06 7.86059e-06 7.86055e-06 7.86055e-06 7.86045e-06 7.86045e-06
          7.8603e-06 7.8603e-06 7.86008e-06 7.86008e-06 7.85977e-06 7.85977e-06 7.85933e-06 7.85933e-06 7.85857e-06 7.85857e-06 7.85745e-06 7.85745e-06
          7.85581e-06 7.85581e-06 7.85345e-06 7.85345e-06 7.85006e-06 7.85006e-06 7.84522e-06 7.84522e-06 7.83834e-06 7.83834e-06 7.82859e-06 7.82859e-06
          7.81481e-06 7.81481e-06 7.79538e-06 7.79538e-06 7.76803e-06 7.76803e-06 7.72956e-06 7.72956e-06 7.67551e-06 7.67551e-06 7.59963e-06 7.59963e-06
          7.49314e-06 7.49314e-06 7.34372e-06 7.34372e-06 7.13411e-06 7.13411e-06 6.84002e-06 6.84002e-06 6.42728e-06 6.42728e-06 5.84772e-06 5.84772e-06
          5.03326e-06 5.03326e-06 3.88751e-06 3.88751e-06 2.27375e-06 2.27375e-06 0 0
        </DataArray>
        <DataArray type="Float32" Name="X_lSubstrate" NumberOfComponents="1" format="ascii">
          0.00294777 0.00294777 0.00294776 0.00294776 0.00294776 0.00294776 0.00294776 0.00294776 0.00294776 0.00294776 0.00294775 0.00294775
          0.00294775 0.00294775 0.00294774 0.00294774 0.00294773 0.00294773 0.00294772 0.00294772 0.00294771 0.00294771 0.00294767 0.00294767
          0.00294761 0.00294761 0.00294753 0.00294753 0.00294741 0.00294741 0.00294725 0.00294725 0.00294696 0.00294696 0.00294654 0.00294654
          0.00294593 0.00294593 0.00294504 0.00294504 0.00294377 0.00294377 0.00294196 0.00294196 0.00293938 0.00293938 0.00293572 0.00293572
          0.00293055 0.00293055 0.00292327 0.00292327 0.00291301 0.00291301 0.00289858 0.00289858 0.00287832 0.00287832 0.00284986 0.00284986
          0.00280993 0.00280993 0.0027539 0.0027539 0.00267529 0.00267529 0.00256501 0.00256501 0.00241023 0.00241023 0.00219289 0.00219289
          0.00188747 0.00188747 0.00145781 0.00145781 0.000852657 0.000852657 0 0
        </DataArray>
        <DataArray type="Float32" Name="X_lSuspended_Biomass" NumberOfComponents="1" format="ascii">
          1.18986e-16 1.18987e-16 1.36616e-16 1.36618e-16 1.54255e-16 1.54257e-16 1.71909e-16 1.71911e-16 1.89584e-16 1.89585e-16 2.07287e-16 2.07288e-16
          2.25029e-16 2.2503e-16 2.42822e-16 2.42822e-16 2.60679e-16 2.60679e-16 2.78617e-16 2.78617e-16 2.96656e-16 2.96656e-16 3.30219e-16 3.30219e-16
          3.63539e-16 3.63539e-16 3.96614e-16 3.96615e-16 4.29462e-16 4.29463e-16 4.62119e-16 4.6212e-16 5.01113e-16 5.01115e-16 5.39416e-16 5.39419e-16
          5.77021e-16 5.77025e-16 6.13943e-16 6.13947e-16 6.50217e-16 6.50222e-16 6.85906e-16 6.85912e-16 7.21126e-16 7.21133e-16 7.5603e-16 7.56038e-16
          7.89483e-16 7.89492e-16 8.21202e-16 8.21214e-16 8.50765e-16 8.50778e-16 8.7762e-16 8.77634e-16 9.01002e-16 9.01019e-16 9.19857e-16 9.19877e-16
          9.32766e-16 9.32789e-16 9.37928e-16 9.37957e-16 9.32867e-16 9.32903e-16 9.12934e-16 9.12978e-16 8.72887e-16 8.72941e-16 8.05509e-16 8.05573e-16
          7.00935e-16 7.01006e-16 5.45543e-16 5.45614e-16 3.20492e-16 3.20544e-16 0 0
        </DataArray>
        <DataArray type="Float32" Name="X_lNH4" NumberOfComponents="1" format="ascii">
          0.00331348 0.00331348 0.00331349 0.00331349 0.0033135 0.0033135 0.00331351 0.00331351 0.00331352 0.00331352 0.00331353 0.00331353
          0.00331354 0.00331354 0.00331356 0.00331356 0.00331357 0.00331357 0.00331359 0.00331359 0.0033136 0.0033136 0.00331364 0.00331364
          0.00331368 0.00331368 0.00331373 0.00331373 0.00331378 0.00331378 0.00331384 0.00331384 0.00331392 0.00331392 0.003314 0.003314
          0.0033141 0.0033141 0.00331422 0.00331422 0.00331434 0.00331434 0.00331447 0.00331447 0.00331462 0.00331462 0.00331479 0.00331479
          0.00331497 0.00331497 0.00331517 0.00331517 0.00331539 0.00331539 0.00331564 0.00331564 0.00331593 0.00331593 0.00331627 0.00331627
          0.00331666 0.00331666 0.00331715 0.00331715 0.00331774 0.00331774 0.0033185 0.0033185 0.00331949 0.00331949 0.00332081 0.00332081
          0.00332258 0.00332258 0.00332501 0.00332501 0.00332838 0.00332838 0.00333307 0.00333307
        </DataArray>
        <DataArray type="Float32" Name="X_lHCO3" NumberOfComponents="1" format="ascii">
          1.07855e-07 1.07855e-07 1.08087e-07 1.08087e-07 1.08342e-07 1.08342e-07 1.08622e-07 1.08622e-07 1.08929e-07 1.08929e-07 1.09265e-07 1.09265e-07
          1.09632e-07 1.09632e-07 1.10032e-07 1.10032e-07 1.10468e-07 1.10468e-07 1.10941e-07 1.10941e-07 1.11454e-07 1.11454e-07 1.12528e-07 1.12528e-07
          1.13758e-07 1.13758e-07 1.15159e-07 1.15159e-07 1.16747e-07 1.16747e-07 1.1854e-07 1.1854e-07 1.21004e-07 1.21004e-07 1.23807e-07 1.23807e-07
          1.26977e-07 1.26977e-07 1.30543e-07 1.30543e-07 1.34538e-07 1.34538e-07 1.38998e-07 1.38998e-07 1.43969e-07 1.43969e-07 1.49505e-07 1.49505e-07
          1.5568e-07 1.5568e-07 1.62589e-07 1.6259e-07 1.70366e-07 1.70366e-07 1.79187e-07 1.79187e-07 1.89291e-07 1.89291e-07 2.00989e-07 2.00989e-07
          2.14673e-07 2.14673e-07 2.308e-07 2.308e-07 2.49849e-07 2.49849e-07 2.72207e-07 2.72207e-07 2.97958e-07 2.97958e-07 3.26541e-07 3.26541e-07
          3.56228e-07 3.56228e-07 3.83233e-07 3.83233e-07 3.9893e-07 3.9893e-07 3.37056e-07 3.37056e-07
        </DataArray>
        <DataArray type="Float32" Name="X_lCO3" NumberOfComponents="1" format="ascii">
          3.63422e-12 3.63422e-12 3.65079e-12 3.65079e-12 3.66909e-12 3.66909e-12 3.68925e-12 3.68925e-12 3.71143e-12 3.71143e-12 3.73577e-12 3.73577e-12
          3.76246e-12 3.76246e-12 3.79168e-12 3.79168e-12 3.82363e-12 3.82363e-12 3.85853e-12 3.85853e-12 3.8966e-12 3.8966e-12 3.9769e-12 3.9769e-12
          4.07e-12 4.07e-12 4.17754e-12 4.17754e-12 4.30138e-12 4.30138e-12 4.44364e-12 4.44364e-12 4.6435e-12 4.64349e-12 4.87695e-12 4.87695e-12
          5.14887e-12 5.14886e-12 5.46495e-12 5.46495e-12 5.83198e-12 5.83198e-12 6.25821e-12 6.25821e-12 6.7539e-12 6.7539e-12 7.33217e-12 7.33217e-12
          8.01027e-12 8.01027e-12 8.81151e-12 8.81152e-12 9.76815e-12 9.76816e-12 1.09257e-11 1.09257e-11 1.23492e-11 1.23492e-11 1.41325e-11 1.41325e-11
          1.64101e-11 1.64101e-11 1.93732e-11 1.93732e-11 2.3284e-11 2.32839e-11 2.84772e-11 2.84771e-11 3.5315e-11 3.5315e-11 4.40124e-11 4.40124e-11
          5.41515e-11 5.41515e-11 6.3491e-11 6.3491e-11 6.50083e-11 6.50083e-11 2.55591e-11 2.55591e-11
        </DataArray>
        <DataArray type="Float32" Name="X_lCO2" NumberOfComponents="1" format="ascii">
          5.41632e-07 5.41632e-07 5.41452e-07 5.41452e-07 5.41254e-07 5.41254e-07 5.41036e-07 5.41036e-07 5.40798e-07 5.40798e-07 5.40536e-07 5.40536e-07
          5.40251e-07 5.40251e-07 5.3994e-07 5.3994e-07 5.39601e-07 5.39601e-07 5.39233e-07 5.39233e-07 5.38833e-07 5.38833e-07 5.37997e-07 5.37997e-07
          5.3704e-07 5.3704e-07 5.3595e-07 5.3595e-07 5.34714e-07 5.34714e-07 5.3332e-07 5.3332e-07 5.31403e-07 5.31403e-07 5.29224e-07 5.29224e-07
          5.26761e-07 5.26761e-07 5.23991e-07 5.23991e-07 5.2089e-07 5.2089e-07 5.17428e-07 5.17428e-07 5.13573e-07 5.13573e-07 5.0928e-07 5.0928e-07
          5.04494e-07 5.04494e-07 4.9914e-07 4.9914e-07 4.93115e-07 4.93115e-07 4.8628e-07 4.8628e-07 4.7845e-07 4.7845e-07 4.69377e-07 4.69377e-07
          4.58748e-07 4.58748e-07 4.46189e-07 4.46189e-07 4.3129e-07 4.3129e-07 4.13681e-07 4.13681e-07 3.93167e-07 3.93167e-07 3.69965e-07 3.69965e-07
          3.45047e-07 3.45047e-07 3.20753e-07 3.20753e-07 3.02741e-07 3.02741e-07 3.38012e-07 3.38012e-07
        </DataArray>
        <DataArray type="Float32" Name="X_lH" NumberOfComponents="1" format="ascii">
          6.47614e-09 6.47614e-09 6.45984e-09 6.45984e-09 6.44198e-09 6.44198e-09 6.42245e-09 6.42245e-09 6.40116e-09 6.40116e-09 6.37801e-09 6.378e-09
          6.35288e-09 6.35288e-09 6.32568e-09 6.32568e-09 6.2963e-09 6.2963e-09 6.26463e-09 6.26463e-09 6.23056e-09 6.23056e-09 6.16034e-09 6.16034e-09
          6.08155e-09 6.08155e-09 5.99386e-09 5.99386e-09 5.89701e-09 5.89701e-09 5.79082e-09 5.79082e-09 5.65002e-09 5.65002e-09 5.4967e-09 5.4967e-09
          5.33151e-09 5.33151e-09 5.1553e-09 5.1553e-09 4.96904e-09 4.96904e-09 4.77376e-09 4.77376e-09 4.57043e-09 4.57043e-09 4.35992e-09 4.35992e-09
          4.14284e-09 4.14284e-09 3.91948e-09 3.91948e-09 3.68977e-09 3.68977e-09 3.45331e-09 3.45331e-09 3.20945e-09 3.20945e-09 2.95757e-09 2.95757e-09
          2.69747e-09 2.69747e-09 2.42995e-09 2.42995e-09 2.15747e-09 2.15747e-09 1.88456e-09 1.88457e-09 1.61793e-09 1.61793e-09 1.3657e-09 1.3657e-09
          1.13605e-09 1.13605e-09 9.35665e-10 9.35665e-10 7.68471e-10 7.68471e-10 6.32454e-10 6.32454e-10
        </DataArray>
        <DataArray type="Float32" Name="X_lOH" NumberOfComponents="1" format="ascii">
          2.34025e-08 2.34025e-08 2.34623e-08 2.34623e-08 2.35282e-08 2.35282e-08 2.36006e-08 2.36006e-08 2.36801e-08 2.36801e-08 2.37672e-08 2.37672e-08
          2.38624e-08 2.38624e-08 2.39663e-08 2.39663e-08 2.40795e-08 2.40796e-08 2.42028e-08 2.42028e-08 2.43369e-08 2.43369e-08 2.46179e-08 2.46179e-08
          2.49409e-08 2.49409e-08 2.53105e-08 2.53105e-08 2.57317e-08 2.57317e-08 2.62098e-08 2.62098e-08 2.68717e-08 2.68717e-08 2.76314e-08 2.76314e-08
          2.84993e-08 2.84992e-08 2.9487e-08 2.9487e-08 3.06082e-08 3.06082e-08 3.18787e-08 3.18787e-08 3.33182e-08 3.33182e-08 3.4952e-08 3.4952e-08
          3.68131e-08 3.68131e-08 3.89463e-08 3.89463e-08 4.14138e-08 4.14138e-08 4.43026e-08 4.43026e-08 4.7736e-08 4.7736e-08 5.18889e-08 5.18889e-08
          5.70097e-08 5.70097e-08 6.34494e-08 6.34494e-08 7.16987e-08 7.16987e-08 8.2434e-08 8.24339e-08 9.65659e-08 9.65659e-08 1.15279e-07 1.15279e-07
          1.40032e-07 1.40032e-07 1.72468e-07 1.72468e-07 2.14185e-07 2.14185e-07 2.67481e-07 2.67481e-07
        </DataArray>
        <DataArray type="Float32" Name="X_gBrine" NumberOfComponents="1" format="ascii">
          0.011061 0.0109773 0.0109883 0.0109883 0.0109993 0.0109993 0.0110104 0.0110104 0.0110215 0.0110215 0.0110326 0.0110326
          0.0110438 0.0110438 0.011055 0.011055 0.0110662 0.0110662 0.0110774 0.0110774 0.0110887 0.0110887 0.0111113 0.0111113
          0.011134 0.011134 0.0111568 0.0111568 0.0111798 0.0111798 0.0112029 0.0112029 0.011232 0.011232 0.0112612 0.0112612
          0.0112906 0.0112906 0.0113203 0.0113203 0.0113502 0.0113502 0.0113803 0.0113803 0.0114107 0.0114107 0.0114413 0.0114413
          0.0114721 0.0114721 0.0115033 0.0115033 0.0115348 0.0115348 0.0115666 0.0115666 0.0115989 0.0115989 0.0116316 0.0116316
          0.011665 0.011665 0.0116992 0.0116992 0.0117345 0.0117345 0.0117711 0.0117711 0.0118097 0.0118097 0.0118509 0.0118509
          0.0118958 0.0118958 0.0119457 0.0119457 0.0120028 0.0120028 0.0120698 0.0120698
        </DataArray>
        <DataArray type="Float32" Name="X_gTotalC" NumberOfComponents="1" format="ascii">
          0.988939 0.989023 0.989012 0.989012 0.989001 0.989001 0.98899 0.98899 0.988979 0.988979 0.988967 0.988967
          0.988956 0.988956 0.988945 0.988945 0.988934 0.988934 0.988923 0.988923 0.988911 0.988911 0.988889 0.988889
          0.988866 0.988866 0.988843 0.988843 0.98882 0.98882 0.988797 0.988797 0.988768 0.988768 0.988739 0.988739
          0.988709 0.988709 0.98868 0.98868 0.98865 0.98865 0.98862 0.98862 0.988589 0.988589 0.988559 0.988559
          0.988528 0.988528 0.988497 0.988497 0.988465 0.988465 0.988433 0.988433 0.988401 0.988401 0.988368 0.988368
          0.988335 0.988335 0.988301 0.988301 0.988266 0.988266 0.988229 0.988229 0.98819 0.98819 0.988149 0.988149
          0.988104 0.988104 0.988054 0.988054 0.987997 0.987997 0.98793 0.98793
        </DataArray>
        <DataArray type="Float32" Name="X_gNa" NumberOfComponents="1" format="ascii">
          0 0 0 0 0 0 0 0 0 0 0 0
          0 0 0 0 0 0 0 0 0 0 0 0
          0 0 0 0 0 0 0 0 0 0 0 0
          0 0 0 0 0 0 0 0 0 0 0 0
          0 0 0 0 0 0 0 0 0 0 0 0
          0 0 0 0 0 0 0 0 0 0 0 0
          0 0 0 0 0 0 0 0
        </DataArray>
        <DataArray type="Float32" Name="X_gCl" NumberOfComponents="1" format="ascii">
          0 0 0 0 0 0 0 0 0 0 0 0
          0 0 0 0 0 0 0 0 0 0 0 0
          0 0 0 0 0 0 0 0 0 0 0 0
          0 0 0 0 0 0 0 0 0 0 0 0
          0 0 0 0 0 0 0 0 0 0 0 0
          0 0 0 0 0 0 0 0 0 0 0 0
          0 0 0 0 0 0 0 0
        </DataArray>
        <DataArray type="Float32" Name="X_gCa" NumberOfComponents="1" format="ascii">
          0 0 0 0 0 0 0 0 0 0 0 0
          0 0 0 0 0 0 0 0 0 0 0 0
          0 0 0 0 0 0 0 0 0 0 0 0
          0 0 0 0 0 0 0 0 0 0 0 0
          0 0 0 0 0 0 0 0 0 0 0 0
          0 0 0 0 0 0 0 0 0 0 0 0
          0 0 0 0 0 0 0 0
        </DataArray>
        <DataArray type="Float32" Name="X_gUrea" NumberOfComponents="1" format="ascii">
          0 0 0 0 0 0 0 0 0 0 0 0
          0 0 0 0 0 0 0 0 0 0 0 0
          0 0 0 0 0 0 0 0 0 0 0 0
          0 0 0 0 0 0 0 0 0 0 0 0
          0 0 0 0 0 0 0 0 0 0 0 0
          0 0 0 0 0 0 0 0 0 0 0 0
          0 0 0 0 0 0 0 0
        </DataArray>
        <DataArray type="Float32" Name="X_gTotalNH" NumberOfComponents="1" format="ascii">
          0 0 0 0 0 0 0 0 0 0 0 0
          0 0 0 0 0 0 0 0 0 0 0 0
          0 0 0 0 0 0 0 0 0 0 0 0
          0 0 0 0 0 0 0 0 0 0 0 0
          0 0 0 0 0 0 0 0 0 0 0 0
          0 0 0 0 0 0 0 0 0 0 0 0
          0 0 0 0 0 0 0 0
        </DataArray>
        <DataArray type="Float32" Name="X_gO2" NumberOfComponents="1" format="ascii">
          0 0 0 0 0 0 0 0 0 0 0 0
          0 0 0 0 0 0 0 0 0 0 0 0
          0 0 0 0 0 0 0 0 0 0 0 0
          0 0 0 0 0 0 0 0 0 0 0 0
          0 0 0 0 0 0 0 0 0 0 0 0
          0 0 0 0 0 0 0 0 0 0 0 0
          0 0 0 0 0 0 0 0
        </DataArray>
        <DataArray type="Float32" Name="X_gSubstrate" NumberOfComponents="1" format="ascii">
          0 0 0 0 0 0 0 0 0 0 0 0
          0 0 0 0 0 0 0 0 0 0 0 0
          0 0 0 0 0 0 0 0 0 0 0 0
          0 0 0 0 0 0 0 0 0 0 0 0
          0 0 0 0 0 0 0 0 0 0 0 0
          0 0 0 0 0 0 0 0 0 0 0 0
          0 0 0 0 0 0 0 0
        </DataArray>
        <DataArray type="Float32" Name="X_gSuspended_Biomass" NumberOfComponents="1" format="ascii">
          0 0 0 0 0 0 0 0 0 0 0 0
          0 0 0 0 0 0 0 0 0 0 0 0
          0 0 0 0 0 0 0 0 0 0 0 0
          0 0 0 0 0 0 0 0 0 0 0 0
          0 0 0 0 0 0 0 0 0 0 0 0
          0 0 0 0 0 0 0 0 0 0 0 0
          0 0 0 0 0 0 0 0
        </DataArray>
        <DataArray type="Float32" Name="X_gNH4" NumberOfComponents="1" format="ascii">
          0 0 0 0 0 0 0 0 0 0 0 0
          0 0 0 0 0 0 0 0 0 0 0 0
          0 0 0 0 0 0 0 0 0 0 0 0
          0 0 0 0 0 0 0 0 0 0 0 0
          0 0 0 0 0 0 0 0 0 0 0 0
          0 0 0 0 0 0 0 0 0 0 0 0
          0 0 0 0 0 0 0 0
        </DataArray>
        <DataArray type="Float32" Name="X_gHCO3" NumberOfComponents="1" format="ascii">
          0 0 0 0 0 0 0 0 0 0 0 0
          0 0 0 0 0 0 0 0 0 0 0 0
          0 0 0 0 0 0 0 0 0 0 0 0
          0 0 0 0 0 0 0 0 0 0 0 0
          0 0 0 0 0 0 0 0 0 0 0 0
          0 0 0 0 0 0 0 0 0 0 0 0
          0 0 0 0 0 0 0 0
        </DataArray>
        <DataArray type="Float32" Name="X_gCO3" NumberOfComponents="1" format="ascii">
          0 0 0 0 0 0 0 0 0 0 0 0
          0 0 0 0 0 0 0 0 0 0 0 0
          0 0 0 0 0 0 0 0 0 0 0 0
          0 0 0 0 0 0 0 0 0 0 0 0
          0 0 0 0 0 0 0 0 0 0 0 0
          0 0 0 0 0 0 0 0 0 0 0 0
          0 0 0 0 0 0 0 0
        </DataArray>
        <DataArray type="Float32" Name="X_gCO2" NumberOfComponents="1" format="ascii">
          0.988939 0.989023 0.989012 0.989012 0.989001 0.989001 0.98899 0.98899 0.988979 0.988979 0.988967 0.988967
          0.988956 0.988956 0.988945 0.988945 0.988934 0.988934 0.988923 0.988923 0.988911 0.988911 0.988889 0.988889
          0.988866 0.988866 0.988843 0.988843 0.98882 0.98882 0.988797 0.988797 0.988768 0.988768 0.988739 0.988739
          0.988709 0.988709 0.98868 0.98868 0.98865 0.98865 0.98862 0.98862 0.988589 0.988589 0.988559 0.988559
          0.988528 0.988528 0.988497 0.988497 0.988465 0.988465 0.988433 0.988433 0.988401 0.988401 0.988368 0.988368
          0.988335 0.988335 0.988301 0.988301 0.988266 0.988266 0.988229 0.988229 0.98819 0.98819 0.988149 0.988149
          0.988104 0.988104 0.988054 0.988054 0.987997 0.987997 0.98793 0.98793
        </DataArray>
        <DataArray type="Float32" Name="X_gH" NumberOfComponents="1" format="ascii">
          0 0 0 0 0 0 0 0 0 0 0 0
          0 0 0 0 0 0 0 0 0 0 0 0
          0 0 0 0 0 0 0 0 0 0 0 0
          0 0 0 0 0 0 0 0 0 0 0 0
          0 0 0 0 0 0 0 0 0 0 0 0
          0 0 0 0 0 0 0 0 0 0 0 0
          0 0 0 0 0 0 0 0
        </DataArray>
        <DataArray type="Float32" Name="X_gOH" NumberOfComponents="1" format="ascii">
          0 0 0 0 0 0 0 0 0 0 0 0
          0 0 0 0 0 0 0 0 0 0 0 0
          0 0 0 0 0 0 0 0 0 0 0 0
          0 0 0 0 0 0 0 0 0 0 0 0
          0 0 0 0 0 0 0 0 0 0 0 0
          0 0 0 0 0 0 0 0 0 0 0 0
          0 0 0 0 0 0 0 0
        </DataArray>
        <DataArray type="Float32" Name="Molarity_Brine" NumberOfComponents="1" format="ascii">
          53056.8 53056.8 53057.4 53057.4 53058 53058 53058.6 53058.6 53059.4 53059.4 53060.2 53060.2
          53061 53061 53062 53062 53063 53063 53064.1 53064.1 53065.4 53065.4 53067.9 53067.9
          53070.8 53070.8 53074 53074 53077.7 53077.7 53081.9 53081.9 53087.5 53087.5 53094 53094
          53101.2 53101.2 53109.3 53109.3 53118.3 53118.3 53128.4 53128.4 53139.6 53139.6 53152.2 53152.2
          53166.4 53166.4 53182.4 53182.4 53200.7 53200.7 53221.9 53221.9 53247 53247 53277.1 53277.1
          53314.1 53314.1 53360.5 53360.5 53419.9 53419.9 53497.6 53497.6 53600.7 53600.7 53739.7 53739.7
          53929.1 53929.1 54189.6 54189.6 54549.8 54549.8 55049.2 55049.2
        </DataArray>
        <DataArray type="Float32" Name="Molarity_TotalC" NumberOfComponents="1" format="ascii">
          0.0144521 0.0144521 0.0144517 0.0144517 0.0144512 0.0144512 0.0144508 0.0144508 0.0144502 0.0144502 0.0144496 0.0144496
          0.014449 0.014449 0.0144482 0.0144482 0.0144475 0.0144475 0.0144466 0.0144466 0.0144457 0.0144457 0.0144438 0.0144438
          0.0144416 0.0144416 0.0144391 0.0144391 0.0144363 0.0144363 0.0144331 0.0144331 0.0144287 0.0144287 0.0144238 0.0144238
          0.0144183 0.0144183 0.0144121 0.0144121 0.0144052 0.0144052 0.0143976 0.0143976 0.0143891 0.0143891 0.0143797 0.0143797
          0.0143693 0.0143693 0.0143576 0.0143576 0.0143445 0.0143445 0.0143296 0.0143296 0.0143123 0.0143123 0.0142921 0.0142921
          0.0142677 0.0142677 0.0142379 0.0142379 0.0142005 0.0142005 0.0141525 0.0141525 0.0140896 0.0140896 0.0140058 0.0140058
          0.0138925 0.0138925 0.0137372 0.0137372 0.0135229 0.0135229 0.0132254 0.0132254
        </DataArray>
        <DataArray type="Float32" Name="Molarity_Na" NumberOfComponents="1" format="ascii">
          0.00562977 0.00562977 0.00567781 0.00567781 0.00573064 0.00573064 0.00578863 0.00578863 0.00585212 0.00585212 0.0059215 0.0059215
          0.00599717 0.00599717 0.00607955 0.00607955 0.00616907 0.00616907 0.0062662 0.0062662 0.00637142 0.00637142 0.00659083 0.00659083
          0.00684111 0.00684111 0.00712498 0.00712498 0.00744533 0.00744533 0.00780518 0.00780518 0.00829709 0.00829709 0.00885329 0.00885329
          0.00947863 0.00947863 0.0101784 0.0101784 0.0109589 0.0109589 0.0118275 0.0118275 0.0127937 0.0127937 0.0138702 0.0138702
          0.0150739 0.0150739 0.0164288 0.0164288 0.0179684 0.0179684 0.0197401 0.0197401 0.0218115 0.0218115 0.0242791 0.0242791
          0.0272805 0.0272805 0.0310119 0.0310119 0.0357528 0.0357528 0.0419014 0.0419014 0.0500239 0.0500239 0.0609246 0.0609246
          0.0757439 0.0757439 0.096094 0.096094 0.12424 0.12424 0.1633 0.1633
        </DataArray>
        <DataArray type="Float32" Name="Molarity_Cl" NumberOfComponents="1" format="ascii">
          868.418 868.418 868.21 868.21 867.982 867.982 867.731 867.731 867.457 867.457 867.157 867.157
          866.83 866.83 866.474 866.474 866.087 866.087 865.667 865.667 865.212 865.212 864.264 864.264
          863.182 863.182 861.955 861.955 860.57 860.57 859.014 859.014 856.888 856.888 854.484 854.484
          851.78 851.78 848.755 848.755 845.38 845.38 841.624 841.624 837.446 837.446 832.791 832.791
          827.584 827.584 821.722 821.722 815.061 815.061 807.394 807.394 798.428 798.428 787.745 787.745
          774.748 774.748 758.587 758.587 738.049 738.049 711.41 711.41 676.213 676.213 628.972 628.972
          564.743 564.743 476.535 476.535 354.528 354.528 185.193 185.193
        </DataArray>
        <DataArray type="Float32" Name="Molarity_Ca" NumberOfComponents="1" format="ascii">
          339.918 339.918 339.814 339.814 339.701 339.701 339.576 339.576 339.439 339.439 339.29 339.29
          339.127 339.127 338.95 338.95 338.757 338.757 338.548 338.548 338.322 338.322 337.85 337.85
          337.311 337.311 336.701 336.701 336.011 336.011 335.237 335.237 334.178 334.178 332.982 332.982
          331.636 331.636 330.13 330.13 328.45 328.45 326.581 326.581 324.501 324.501 322.184 322.184
          319.593 319.593 316.676 316.676 313.361 313.361 309.545 309.545 305.083 305.083 299.767 299.767
          293.3 293.3 285.259 285.259 275.04 275.04 261.786 261.786 244.275 244.275 220.773 220.773
          188.819 188.819 144.936 144.936 84.2396 84.2396 0 0
        </DataArray>
        <DataArray type="Float32" Name="Molarity_Urea" NumberOfComponents="1" format="ascii">
          332.297 332.297 332.197 332.197 332.087 332.087 331.967 331.967 331.835 331.835 331.691 331.691
          331.533 331.533 331.362 331.362 331.177 331.177 330.975 330.975 330.757 330.757 330.301 330.301
          329.782 329.782 329.194 329.194 328.53 328.53 327.784 327.784 326.765 326.765 325.613 325.613
          324.319 324.319 322.871 322.871 321.257 321.257 319.461 319.461 317.463 317.463 315.237 315.237
          312.746 312.746 309.94 309.94 306.748 306.748 303.069 303.069 298.759 298.759 293.614 293.614
          287.34 287.34 279.522 279.522 269.566 269.566 256.628 256.628 239.507 239.507 216.499 216.499
          185.189 185.189 142.164 142.164 82.6339 82.6339 0 0
        </DataArray>
        <DataArray type="Float32" Name="Molarity_TotalNH" NumberOfComponents="1" format="ascii">
          188.583 188.583 188.582 188.582 188.581 188.581 188.58 188.58 188.578 188.578 188.577 188.577
          188.576 188.576 188.574 188.574 188.572 188.572 188.57 188.57 188.568 188.568 188.564 188.564
          188.559 188.559 188.554 188.554 188.548 188.548 188.541 188.541 188.531 188.531 188.52 188.52
          188.508 188.508 188.495 188.495 188.479 188.479 188.462 188.462 188.443 188.443 188.422 188.422
          188.398 188.398 188.371 188.371 188.34 188.34 188.304 188.304 188.261 188.261 188.21 188.21
          188.148 188.148 188.069 188.069 187.968 187.968 187.837 187.837 187.662 187.662 187.427 187.427
          187.106 187.106 186.663 186.663 186.049 186.049 185.193 185.193
        </DataArray>
        <DataArray type="Float32" Name="Molarity_O2" NumberOfComponents="1" format="ascii">
          0.252187 0.252187 0.252185 0.252185 0.252183 0.252183 0.252181 0.252181 0.252178 0.252178 0.252175 0.252175
          0.252171 0.252171 0.252168 0.252168 0.252163 0.252163 0.252158 0.252158 0.252153 0.252153 0.252141 0.252141
          0.252127 0.252127 0.252109 0.252109 0.252086 0.252086 0.252058 0.252058 0.252014 0.252014 0.251957 0.251957
          0.25188 0.25188 0.251777 0.251777 0.251638 0.251638 0.251449 0.251449 0.251191 0.251191 0.250837 0.250837
          0.250349 0.250349 0.249674 0.249674 0.248738 0.248738 0.247439 0.247439 0.24563 0.24563 0.243108 0.243108
          0.23959 0.23959 0.234676 0.234676 0.22781 0.22781 0.218209 0.218209 0.204782 0.204782 0.185999 0.185999
          0.159722 0.159722 0.122968 0.122968 0.0716027 0.0716027 0 0
        </DataArray>
        <DataArray type="Float32" Name="Molarity_Substrate" NumberOfComponents="1" format="ascii">
          16.7975 16.7975 16.7974 16.7974 16.7973 16.7973 16.7971 16.7971 16.7969 16.7969 16.7967 16.7967
          16.7965 16.7965 16.7962 16.7962 16.796 16.796 16.7956 16.7956 16.7953 16.7953 16.7945 16.7945
          16.7935 16.7935 16.7923 16.7923 16.7908 16.7908 16.7889 16.7889 16.786 16.786 16.7822 16.7822
          16.7771 16.7771 16.7702 16.7702 16.761 16.761 16.7484 16.7484 16.7312 16.7312 16.7076 16.7076
          16.6751 16.6751 16.6301 16.6301 16.5678 16.5678 16.4813 16.4813 16.3608 16.3608 16.1928 16.1928
          15.9585 15.9585 15.6312 15.6312 15.1738 15.1738 14.5344 14.5344 13.64 13.64 12.3889 12.3889
          10.6387 10.6387 8.19062 8.19062 4.76927 4.76927 0 0
        </DataArray>
        <DataArray type="Float32" Name="Molarity_Suspended_Biomass" NumberOfComponents="1" format="ascii">
          1.22154e-13 1.22155e-13 1.40252e-13 1.40254e-13 1.5836e-13 1.58361e-13 1.76482e-13 1.76483e-13 1.94624e-13 1.94625e-13 2.12796e-13 2.12797e-13
          2.31007e-13 2.31008e-13 2.49269e-13 2.4927e-13 2.67597e-13 2.67597e-13 2.86007e-13 2.86007e-13 3.04519e-13 3.04519e-13 3.3896e-13 3.3896e-13
          3.73148e-13 3.73148e-13 4.07079e-13 4.0708e-13 4.40772e-13 4.40773e-13 4.74262e-13 4.74264e-13 5.14242e-13 5.14244e-13 5.53501e-13 5.53504e-13
          5.92031e-13 5.92035e-13 6.29844e-13 6.29849e-13 6.66978e-13 6.66983e-13 7.03492e-13 7.03498e-13 7.39505e-13 7.39512e-13 7.75169e-13 7.75178e-13
          8.09318e-13 8.09328e-13 8.41658e-13 8.4167e-13 8.71749e-13 8.71763e-13 8.9902e-13 8.99035e-13 9.22676e-13 9.22693e-13 9.41624e-13 9.41644e-13
          9.54392e-13 9.54417e-13 9.59118e-13 9.59148e-13 9.5324e-13 9.53276e-13 9.31978e-13 9.32023e-13 8.89966e-13 8.90021e-13 8.19871e-13 8.19936e-13
          7.11775e-13 7.11848e-13 5.52207e-13 5.52279e-13 3.22963e-13 3.23016e-13 0 0
        </DataArray>
        <DataArray type="Float32" Name="Molarity_NH4" NumberOfComponents="1" format="ascii">
          188.575 188.575 188.574 188.574 188.573 188.573 188.571 188.571 188.57 188.57 188.569 188.569
          188.567 188.567 188.566 188.566 188.564 188.564 188.562 188.562 188.56 188.56 188.556 188.556
          188.551 188.551 188.545 188.545 188.539 188.539 188.531 188.531 188.522 188.522 188.51 188.51
          188.498 188.498 188.484 188.484 188.468 188.468 188.45 188.45 188.431 188.431 188.409 188.409
          188.384 188.384 188.356 188.356 188.324 188.324 188.286 188.286 188.242 188.242 188.189 188.189
          188.124 188.124 188.042 188.042 187.937 187.937 187.8 187.8 187.618 187.618 187.373 187.373
          187.037 187.037 186.575 186.575 185.933 185.933 185.037 185.037
        </DataArray>
        <DataArray type="Float32" Name="Molarity_HCO3" NumberOfComponents="1" format="ascii">
          0.00181468 0.00181468 0.00181856 0.00181856 0.00182284 0.00182284 0.00182754 0.00182754 0.00183269 0.00183269 0.00183832 0.00183832
          0.00184447 0.00184447 0.00185118 0.00185118 0.00185848 0.00185848 0.00186641 0.00186641 0.00187502 0.00187502 0.00189303 0.00189303
          0.00191364 0.00191364 0.00193712 0.00193712 0.00196374 0.00196374 0.00199379 0.00199379 0.00203508 0.00203508 0.00208204 0.00208204
          0.00213514 0.00213514 0.00219486 0.00219486 0.00226175 0.00226175 0.00233643 0.00233643 0.00241962 0.00241962 0.00251225 0.00251225
          0.00261551 0.00261551 0.00273103 0.00273103 0.00286096 0.00286097 0.00300827 0.00300827 0.00317688 0.00317688 0.00337193 0.00337193
          0.00359982 0.00359982 0.003868 0.003868 0.00418416 0.00418416 0.00455422 0.00455422 0.00497873 0.00497873 0.00544704 0.00544704
          0.00592846 0.00592846 0.00635745 0.00635745 0.00658842 0.00658842 0.00553194 0.00553194
        </DataArray>
        <DataArray type="Float32" Name="Molarity_CO3" NumberOfComponents="1" format="ascii">
          6.21733e-08 6.21733e-08 6.24564e-08 6.24564e-08 6.2769e-08 6.2769e-08 6.31133e-08 6.31133e-08 6.3492e-08 6.3492e-08 6.39078e-08 6.39078e-08
          6.43637e-08 6.43637e-08 6.48627e-08 6.48627e-08 6.54083e-08 6.54083e-08 6.60043e-08 6.60043e-08 6.66545e-08 6.66545e-08 6.80257e-08 6.80258e-08
          6.96155e-08 6.96156e-08 7.14518e-08 7.14519e-08 7.35664e-08 7.35664e-08 7.59952e-08 7.59952e-08 7.94071e-08 7.9407e-08 8.33921e-08 8.33921e-08
          8.80332e-08 8.80332e-08 9.34273e-08 9.34273e-08 9.969e-08 9.969e-08 1.06961e-07 1.06961e-07 1.15416e-07 1.15416e-07 1.25277e-07 1.25277e-07
          1.36838e-07 1.36838e-07 1.50494e-07 1.50494e-07 1.66792e-07 1.66793e-07 1.86507e-07 1.86507e-07 2.10739e-07 2.10739e-07 2.41078e-07 2.41078e-07
          2.79801e-07 2.79801e-07 3.30131e-07 3.30131e-07 3.9648e-07 3.96479e-07 4.84446e-07 4.84445e-07 6.00008e-07 6.00008e-07 7.46504e-07 7.46504e-07
          9.16343e-07 9.16343e-07 1.07094e-06 1.07094e-06 1.09166e-06 1.09166e-06 4.26535e-07 4.26535e-07
        </DataArray>
        <DataArray type="Float32" Name="Molarity_CO2" NumberOfComponents="1" format="ascii">
          0.0126376 0.0126376 0.0126333 0.0126333 0.0126285 0.0126285 0.0126233 0.0126233 0.0126176 0.0126176 0.0126114 0.0126114
          0.0126046 0.0126046 0.0125972 0.0125972 0.0125891 0.0125891 0.0125803 0.0125803 0.0125708 0.0125708 0.0125509 0.0125509
          0.0125281 0.0125281 0.0125021 0.0125021 0.0124726 0.0124726 0.0124394 0.0124394 0.0123938 0.0123938 0.0123419 0.0123419
          0.0122833 0.0122833 0.0122174 0.0122174 0.0121436 0.0121436 0.0120613 0.0120613 0.0119696 0.0119696 0.0118676 0.0118676
          0.0117538 0.0117538 0.0116267 0.0116267 0.0114836 0.0114836 0.0113213 0.0113213 0.0111354 0.0111354 0.0109201 0.0109201
          0.0106678 0.0106678 0.0103698 0.0103698 0.0100161 0.0100161 0.00959795 0.00959796 0.00911046 0.00911046 0.00855822 0.00855822
          0.00796326 0.00796326 0.00737889 0.00737889 0.00693353 0.00693353 0.00769319 0.00769319
        </DataArray>
        <DataArray type="Float32" Name="Molarity_H" NumberOfComponents="1" format="ascii">
          0.00659618 0.00659618 0.00657953 0.00657953 0.00656128 0.00656128 0.00654134 0.00654134 0.00651959 0.00651959 0.00649594 0.00649594
          0.00647027 0.00647027 0.00644248 0.00644248 0.00641247 0.00641247 0.00638012 0.00638012 0.00634533 0.00634533 0.00627359 0.00627359
          0.00619312 0.00619312 0.00610355 0.00610355 0.00600463 0.00600463 0.00589618 0.00589618 0.00575237 0.00575238 0.0055958 0.0055958
          0.00542711 0.00542711 0.00524717 0.00524717 0.00505698 0.00505698 0.00485759 0.00485759 0.00465 0.00465 0.00443508 0.00443508
          0.00421347 0.00421347 0.00398547 0.00398546 0.003751 0.003751 0.00350965 0.00350965 0.00326077 0.00326077 0.00300371 0.00300371
          0.00273827 0.00273827 0.00246528 0.00246528 0.00218721 0.00218722 0.00190872 0.00190872 0.0016366 0.0016366 0.0013791 0.0013791
          0.00114453 0.00114453 0.000939634 0.000939634 0.000768297 0.000768297 0.000628379 0.000628379
        </DataArray>
        <DataArray type="Float32" Name="Molarity_OH" NumberOfComponents="1" format="ascii">
          1.41332e-06 1.41332e-06 1.41692e-06 1.41692e-06 1.42089e-06 1.42089e-06 1.42525e-06 1.42525e-06 1.43003e-06 1.43004e-06 1.43528e-06 1.43528e-06
          1.44101e-06 1.44101e-06 1.44727e-06 1.44727e-06 1.45408e-06 1.45408e-06 1.46151e-06 1.46151e-06 1.46958e-06 1.46958e-06 1.48649e-06 1.48649e-06
          1.50594e-06 1.50594e-06 1.52819e-06 1.52819e-06 1.55355e-06 1.55354e-06 1.58232e-06 1.58232e-06 1.62216e-06 1.62216e-06 1.66787e-06 1.66787e-06
          1.7201e-06 1.72009e-06 1.77952e-06 1.77952e-06 1.84696e-06 1.84696e-06 1.92336e-06 1.92336e-06 2.00992e-06 2.00992e-06 2.10812e-06 2.10812e-06
          2.21996e-06 2.21996e-06 2.34811e-06 2.34811e-06 2.49628e-06 2.49628e-06 2.66968e-06 2.66968e-06 2.87565e-06 2.87565e-06 3.12462e-06 3.12462e-06
          3.43139e-06 3.43139e-06 3.81677e-06 3.81677e-06 4.30983e-06 4.30982e-06 4.95038e-06 4.95038e-06 5.7917e-06 5.7917e-06 6.90225e-06 6.90225e-06
          8.36483e-06 8.36483e-06 1.02695e-05 1.02695e-05 1.26967e-05 1.26967e-05 1.57575e-05 1.57575e-05
        </DataArray>
        <DataArray type="Float32" Name="Da_ureolysis" NumberOfComponents="1" format="ascii">
          0 0 0 0 0 0 0 0 0 0 0 0
          0 0 0 0 0 0 0 0 0 0 0 0
          0 0 0 0 0 0 0 0 0 0 0 0
          0 0 0 0 0 0 0 0 0 0 0 0
          0 0 0 0 0 0 0 0 0 0 0 0
          0 0 0 0 0 0 0 0 0 0 0 0
          0 0 0 0 0 0 0 0
        </DataArray>
        <DataArray type="Float32" Name="Da_precipitation" NumberOfComponents="1" format="ascii">
          0 0 0 0 0 0 0 0 0 0 0 0
          0 0 0 0 0 0 0 0 0 0 0 0
          0 0 0 0 0 0 0 0 0 0 0 0
          0 0 0 0 0 0 0 0 0 0 0 0
          0 0 0 0 0 0 0 0 0 0 0 0
          0 0 0 0 0 0 0 0 0 0 0 0
          0 0 0 0 0 0 0 0
        </DataArray>
        <DataArray type="Float32" Name="Vx" NumberOfComponents="1" format="ascii">
          -9.55275e-16 -9.55275e-16 -2.55089e-15 -2.55089e-15 -2.84552e-15 -2.84552e-15 -4.49571e-16 -4.49571e-16 3.52094e-16 3.52094e-16 -1.22934e-15 -1.22934e-15
          4.48583e-16 4.48583e-16 8.92903e-16 8.92903e-16 -1.51988e-15 -1.51988e-15 1.06525e-15 1.06525e-15 4.50448e-16 4.50448e-16 6.99493e-16 6.99493e-16
          -1.22287e-15 -1.22287e-15 -2.24175e-15 -2.24175e-15 -2.17754e-15 -2.17754e-15 -5.68827e-16 -5.68827e-16 7.80013e-16 7.80013e-16 8.01749e-16 8.01749e-16
          -1.44868e-15 -1.44868e-15 -1.95393e-15 -1.95393e-15 -1.12122e-16 -1.12122e-16 1.4926e-15 1.4926e-15 1.6489e-15 1.6489e-15 -2.90153e-16 -2.90153e-16
          5.91211e-16 5.91211e-16 -4.75526e-16 -4.75526e-16 -1.07888e-15 -1.07888e-15 -1.78019e-15 -1.78019e-15 -1.49773e-15 -1.49773e-15 1.81937e-16 1.81937e-16
          8.34902e-16 8.34902e-16 9.52166e-16 9.52166e-16 -4.73375e-16 -4.73375e-16 -4.76719e-16 -4.76719e-16 -4.35867e-16 -4.35867e-16 -7.16476e-17 -7.16476e-17
          3.74427e-16 3.74427e-16 1.40387e-16 1.40387e-16 7.44217e-17 7.44217e-17 2.51431e-17 2.51431e-17
        </DataArray>
        <DataArray type="Float32" Name="Vy" NumberOfComponents="1" format="ascii">
          0.000335997 0.000335997 0.000335999 0.000335999 0.000335999 0.000335999 0.000335999 0.000335999 0.000335998 0.000335998 0.000335997 0.000335997
          0.000335997 0.000335997 0.000335996 0.000335996 0.000335996 0.000335996 0.000335995 0.000335995 0.000335988 0.000335988 0.000335997 0.000335997
          0.000335996 0.000335996 0.000335995 0.000335995 0.000335994 0.000335994 0.000335986 0.000335986 0.000335996 0.000335996 0.000335995 0.000335995
          0.000335994 0.000335994 0.000335993 0.000335993 0.000335992 0.000335992 0.00033599 0.00033599 0.000335988 0.000335988 0.000335985 0.000335985
          0.000335981 0.000335981 0.000335976 0.000335976 0.000335969 0.000335969 0.000335959 0.000335959 0.000335945 0.000335945 0.000335926 0.000335926
          0.000335899 0.000335899 0.000335861 0.000335861 0.000335809 0.000335809 0.000335737 0.000335737 0.000335638 0.000335638 0.000335504 0.000335504
          0.000335329 0.000335329 0.000335114 0.000335114 0.000334898 0.000334898 0.000341833 0.000341833
        </DataArray>
      </PointData>
      <CellData Scalars="process rank">
        <DataArray type="Float32" Name="process rank" NumberOfComponents="1" format="ascii">
          0 0 0 0 0 0 0 0 0 0 0 0
          0 0 0 0 0 0 0 0 0 0 0 0
          0 0 0 0 0 0 0 0 0 0 0 0
          0 0 0
        </DataArray>
      </CellData>
      <Points>
        <DataArray type="Float32" Name="Coordinates" NumberOfComponents="3" format="ascii">
          0 0 0 0.0254 0 0 0 0.01 0 0.0254 0.01 0
          0 0.02 0 0.0254 0.02 0 0 0.03 0 0.0254 0.03 0
          0 0.04 0 0.0254 0.04 0 0 0.05 0 0.0254 0.05 0
          0 0.06 0 0.0254 0.06 0 0 0.07 0 0.0254 0.07 0
          0 0.08 0 0.0254 0.08 0 0 0.09 0 0.0254 0.09 0
          0 0.1 0 0.0254 0.1 0 0 0.12 0 0.0254 0.12 0
          0 0.14 0 0.0254 0.14 0 0 0.16 0 0.0254 0.16 0
          0 0.18 0 0.0254 0.18 0 0 0.2 0 0.0254 0.2 0
          0 0.225 0 0.0254 0.225 0 0 0.25 0 0.0254 0.25 0
          0 0.275 0 0.0254 0.275 0 0 0.3 0 0.0254 0.3 0
          0 0.325 0 0.0254 0.325 0 0 0.35 0 0.0254 0.35 0
          0 0.375 0 0.0254 0.375 0 0 0.4 0 0.0254 0.4 0
          0 0.425 0 0.0254 0.425 0 0 0.45 0 0.0254 0.45 0
          0 0.475 0 0.0254 0.475 0 0 0.5 0 0.0254 0.5 0
          0 0.525 0 0.0254 0.525 0 0 0.55 0 0.0254 0.55 0
          0 0.575 0 0.0254 0.575 0 0 0.6 0 0.0254 0.6 0
          0 0.625 0 0.0254 0.625 0 0 0.65 0 0.0254 0.65 0
          0 0.675 0 0.0254 0.675 0 0 0.7 0 0.0254 0.7 0
          0 0.725 0 0.0254 0.725 0 0 0.75 0 0.0254 0.75 0
          0 0.775 0 0.0254 0.775 0 0 0.8 0 0.0254 0.8 0
        </DataArray>
      </Points>
      <Cells>
        <DataArray type="Int32" Name="connectivity" NumberOfComponents="1" format="ascii">
          0 1 3 2 2 3 5 4 4 5 7 6
          6 7 9 8 8 9 11 10 10 11 13 12
          12 13 15 14 14 15 17 16 16 17 19 18
          18 19 21 20 20 21 23 22 22 23 25 24
          24 25 27 26 26 27 29 28 28 29 31 30
          30 31 33 32 32 33 35 34 34 35 37 36
          36 37 39 38 38 39 41 40 40 41 43 42
          42 43 45 44 44 45 47 46 46 47 49 48
          48 49 51 50 50 51 53 52 52 53 55 54
          54 55 57 56 56 57 59 58 58 59 61 60
          60 61 63 62 62 63 65 64 64 65 67 66
          66 67 69 68 68 69 71 70 70 71 73 72
          72 73 75 74 74 75 77 76 76 77 79 78
        </DataArray>
        <DataArray type="Int32" Name="offsets" NumberOfComponents="1" format="ascii">
          4 8 12 16 20 24 28 32 36 40 44 48
          52 56 60 64 68 72 76 80 84 88 92 96
          100 104 108 112 116 120 124 128 132 136 140 144
          148 152 156
        </DataArray>
        <DataArray type="UInt8" Name="types" NumberOfComponents="1" format="ascii">
          9 9 9 9 9 9 9 9 9 9 9 9
          9 9 9 9 9 9 9 9 9 9 9 9
          9 9 9 9 9 9 9 9 9 9 9 9
          9 9 9
        </DataArray>
      </Cells>
    </Piece>
  </UnstructuredGrid>
</VTKFile>
