<?xml version="1.0"?>
<VTKFile type="UnstructuredGrid" version="0.1" byte_order="LittleEndian">
  <UnstructuredGrid>
    <Piece NumberOfCells="39" NumberOfPoints="80">
      <PointData Scalars="Sg">
        <DataArray type="Float32" Name="Sg" NumberOfComponents="1" format="ascii">
          0 0 0 0 0 0 0 0 0 0 0 0
          0 0 0 0 0 0 0 0 0 0 0 0
          0 0 0 0 0 0 0 0 0 0 0 0
          0 0 0 0 0 0 0 0 0 0 0 0
          0 0 0 0 0 0 0 0 0 0 0 0
          0 0 0 0 0 0 0 0 0 0 0 0
          0 0 0 0 0 0 0 0
        </DataArray>
        <DataArray type="Float32" Name="Sl" NumberOfComponents="1" format="ascii">
          1 1 1 1 1 1 1 1 1 1 1 1
          1 1 1 1 1 1 1 1 1 1 1 1
          1 1 1 1 1 1 1 1 1 1 1 1
          1 1 1 1 1 1 1 1 1 1 1 1
          1 1 1 1 1 1 1 1 1 1 1 1
          1 1 1 1 1 1 1 1 1 1 1 1
          1 1 1 1 1 1 1 1
        </DataArray>
        <DataArray type="Float32" Name="pg" NumberOfComponents="1" format="ascii">
          117674 117674 117575 117575 117476 117476 117377 117377 117278 117278 117179 117179
          117079 117079 116980 116980 116880 116880 116781 116781 116681 116681 116482 116482
          116282 116282 116082 116082 115882 115882 115681 115681 115430 115430 115179 115179
          114928 114928 114677 114677 114426 114426 114174 114174 113923 113923 113671 113671
          113420 113420 113168 113168 112917 112917 112666 112666 112414 112414 112163 112163
          111912 111912 111661 111661 111410 111410 111159 111159 110909 110909 110659 110659
          110410 110410 110161 110161 109913 109913 109667 109667
        </DataArray>
        <DataArray type="Float32" Name="pl" NumberOfComponents="1" format="ascii">
          108007 108007 107908 107908 107809 107809 107710 107710 107611 107611 107512 107512
          107413 107413 107313 107313 107214 107214 107114 107114 107015 107015 106815 106815
          106615 106615 106415 106415 106215 106215 106014 106014 105764 105764 105513 105513
          105262 105262 105010 105010 104759 104759 104507 104507 104256 104256 104005 104005
          103753 103753 103502 103502 103250 103250 102999 102999 102748 102748 102496 102496
          102245 102245 101994 101994 101743 101743 101493 101493 101242 101242 100992 100992
          100743 100743 100494 100494 100246 100246 100000 100000
        </DataArray>
        <DataArray type="Float32" Name="pc" NumberOfComponents="1" format="ascii">
          9666.67 9666.67 9666.67 9666.67 9666.67 9666.67 9666.67 9666.67 9666.67 9666.67 9666.67 9666.67
          9666.67 9666.67 9666.67 9666.67 9666.67 9666.67 9666.67 9666.67 9666.67 9666.67 9666.67 9666.67
          9666.67 9666.67 9666.67 9666.67 9666.67 9666.67 9666.67 9666.67 9666.67 9666.67 9666.67 9666.67
          9666.67 9666.67 9666.67 9666.67 9666.67 9666.67 9666.67 9666.67 9666.67 9666.67 9666.67 9666.67
          9666.67 9666.67 9666.67 9666.67 9666.67 9666.67 9666.67 9666.67 9666.67 9666.67 9666.67 9666.67
          9666.67 9666.67 9666.67 9666.67 9666.67 9666.67 9666.67 9666.67 9666.67 9666.67 9666.67 9666.67
          9666.67 9666.67 9666.67 9666.67 9666.67 9666.67 9666.67 9666.67
        </DataArray>
        <DataArray type="Float32" Name="rhoL" NumberOfComponents="1" format="ascii">
          1007.15 1007.16 1007.97 1007.96 1008.83 1008.83 1009.76 1009.76 1010.68 1010.68 1011.62 1011.62
          1012.54 1012.54 1013.47 1013.47 1014.38 1014.38 1015.28 1015.28 1016.16 1016.16 1017.68 1017.68
          1019.06 1019.06 1020.28 1020.28 1021.33 1021.33 1022.24 1022.24 1023.13 1023.13 1023.83 1023.83
          1024.35 1024.35 1024.74 1024.74 1025.01 1025.01 1025.18 1025.18 1025.27 1025.27 1025.29 1025.29
          1025.25 1025.25 1025.16 1025.16 1025.02 1025.02 1024.82 1024.82 1024.56 1024.56 1024.22 1024.22
          1023.79 1023.79 1023.23 1023.23 1022.5 1022.5 1021.52 1021.52 1020.21 1020.21 1018.44 1018.44
          1016 1016 1012.63 1012.63 1007.95 1007.95 1001.45 1001.45
        </DataArray>
        <DataArray type="Float32" Name="rhoG" NumberOfComponents="1" format="ascii">
          2.06996 2.07004 2.06826 2.06826 2.06648 2.06648 2.0647 2.0647 2.06292 2.06292 2.06114 2.06114
          2.05936 2.05936 2.05757 2.05757 2.05578 2.05578 2.054 2.054 2.0522 2.0522 2.04861 2.04861
          2.04502 2.04502 2.04141 2.04141 2.0378 2.0378 2.03418 2.03418 2.02965 2.02965 2.02512 2.02512
          2.02058 2.02058 2.01603 2.01603 2.01148 2.01148 2.00693 2.00693 2.00238 2.00238 1.99782 1.99782
          1.99327 1.99327 1.98871 1.98871 1.98415 1.98415 1.9796 1.9796 1.97504 1.97504 1.97048 1.97048
          1.96593 1.96593 1.96137 1.96137 1.95682 1.95682 1.95226 1.95226 1.9477 1.9477 1.94315 1.94315
          1.93859 1.93859 1.93403 1.93403 1.92947 1.92947 1.9249 1.9249
        </DataArray>
        <DataArray type="Float32" Name="mobL" NumberOfComponents="1" format="ascii">
          1073.92 1073.87 1070.27 1070.29 1066.58 1066.58 1062.7 1062.69 1058.98 1058.99 1055.28 1055.29
          1051.78 1051.79 1048.33 1048.32 1045.03 1045.03 1041.87 1041.87 1038.84 1038.83 1033.74 1033.74
          1029.28 1029.29 1025.45 1025.45 1022.21 1022.21 1019.49 1019.49 1016.85 1016.85 1014.83 1014.83
          1013.31 1013.31 1012.21 1012.21 1011.45 1011.45 1010.97 1010.97 1010.72 1010.72 1010.66 1010.66
          1010.76 1010.76 1011.02 1011.02 1011.42 1011.42 1011.98 1011.98 1012.72 1012.72 1013.68 1013.68
          1014.93 1014.93 1016.55 1016.55 1018.71 1018.71 1021.63 1021.63 1025.64 1025.64 1031.27 1031.27
          1039.38 1039.38 1051.44 1051.44 1070.35 1070.35 1103.12 1103.12
        </DataArray>
        <DataArray type="Float32" Name="mobG" NumberOfComponents="1" format="ascii">
          0 0 0 0 0 0 0 0 0 0 0 0
          0 0 0 0 0 0 0 0 0 0 0 0
          0 0 0 0 0 0 0 0 0 0 0 0
          0 0 0 0 0 0 0 0 0 0 0 0
          0 0 0 0 0 0 0 0 0 0 0 0
          0 0 0 0 0 0 0 0 0 0 0 0
          0 0 0 0 0 0 0 0
        </DataArray>
        <DataArray type="Float32" Name="porosity" NumberOfComponents="1" format="ascii">
          0.4 0.4 0.4 0.4 0.4 0.4 0.4 0.4 0.4 0.4 0.4 0.4
          0.4 0.4 0.4 0.4 0.4 0.4 0.4 0.4 0.4 0.4 0.4 0.4
          0.4 0.4 0.4 0.4 0.4 0.4 0.4 0.4 0.4 0.4 0.4 0.4
          0.4 0.4 0.4 0.4 0.4 0.4 0.4 0.4 0.4 0.4 0.4 0.4
          0.4 0.4 0.4 0.4 0.4 0.4 0.4 0.4 0.4 0.4 0.4 0.4
          0.4 0.4 0.4 0.4 0.4 0.4 0.4 0.4 0.4 0.4 0.4 0.4
          0.4 0.4 0.4 0.4 0.4 0.4 0.4 0.4
        </DataArray>
        <DataArray type="Float32" Name="temperature" NumberOfComponents="1" format="ascii">
          298.15 298.15 298.15 298.15 298.15 298.15 298.15 298.15 298.15 298.15 298.15 298.15
          298.15 298.15 298.15 298.15 298.15 298.15 298.15 298.15 298.15 298.15 298.15 298.15
          298.15 298.15 298.15 298.15 298.15 298.15 298.15 298.15 298.15 298.15 298.15 298.15
          298.15 298.15 298.15 298.15 298.15 298.15 298.15 298.15 298.15 298.15 298.15 298.15
          298.15 298.15 298.15 298.15 298.15 298.15 298.15 298.15 298.15 298.15 298.15 298.15
          298.15 298.15 298.15 298.15 298.15 298.15 298.15 298.15 298.15 298.15 298.15 298.15
          298.15 298.15 298.15 298.15 298.15 298.15 298.15 298.15
        </DataArray>
        <DataArray type="Float32" Name="phase presence" NumberOfComponents="1" format="ascii">
          1 1 1 1 1 1 1 1 1 1 1 1
          1 1 1 1 1 1 1 1 1 1 1 1
          1 1 1 1 1 1 1 1 1 1 1 1
          1 1 1 1 1 1 1 1 1 1 1 1
          1 1 1 1 1 1 1 1 1 1 1 1
          1 1 1 1 1 1 1 1 1 1 1 1
          1 1 1 1 1 1 1 1
        </DataArray>
        <DataArray type="Float32" Name="potential" NumberOfComponents="1" format="ascii">
          0.0104196 0.0104111 0.00976301 0.00976573 0.00908504 0.00908583 0.00836246 0.00836006 0.00765767 0.00765894 0.0069472 0.00694799
          0.00626514 0.00626577 0.00558423 0.00558354 0.00492684 0.00492759 0.00429292 0.00429362 0.00367965 0.00367859 0.00264081 0.00264086
          0.00173245 0.00173254 0.000952222 0.000952037 0.000300261 0.000300397 -0.000239803 -0.000239644 -0.000753182 -0.000753339 -0.00113386 -0.00113379
          -0.00141004 -0.00141008 -0.00160173 -0.00160172 -0.00172848 -0.00172849 -0.00180495 -0.00180494 -0.00184291 -0.00184291 -0.00185158 -0.00185157
          -0.00183751 -0.00183752 -0.00180562 -0.00180563 -0.00175875 -0.00175874 -0.00169879 -0.00169878 -0.00162634 -0.00162635 -0.00154095 -0.00154094
          -0.00144138 -0.00144139 -0.0013259 -0.0013259 -0.00119228 -0.00119227 -0.00103842 -0.00103843 -0.000863332 -0.000863276 -0.000668452 -0.000668495
          -0.000460028 -0.000460025 -0.000253607 -0.000253609 -8.06308e-05 -8.06291e-05 0 0
        </DataArray>
        <DataArray type="Float32" Name="boxVolume" NumberOfComponents="1" format="ascii">
          6.35e-05 6.35e-05 0.000127 0.000127 0.000127 0.000127 0.000127 0.000127 0.000127 0.000127 0.000127 0.000127
          0.000127 0.000127 0.000127 0.000127 0.000127 0.000127 0.000127 0.000127 0.0001905 0.0001905 0.000254 0.000254
          0.000254 0.000254 0.000254 0.000254 0.000254 0.000254 0.00028575 0.00028575 0.0003175 0.0003175 0.0003175 0.0003175
          0.0003175 0.0003175 0.0003175 0.0003175 0.0003175 0.0003175 0.0003175 0.0003175 0.0003175 0.0003175 0.0003175 0.0003175
          0.0003175 0.0003175 0.0003175 0.0003175 0.0003175 0.0003175 0.0003175 0.0003175 0.0003175 0.0003175 0.0003175 0.0003175
          0.0003175 0.0003175 0.0003175 0.0003175 0.0003175 0.0003175 0.0003175 0.0003175 0.0003175 0.0003175 0.0003175 0.0003175
          0.0003175 0.0003175 0.0003175 0.0003175 0.0003175 0.0003175 0.00015875 0.00015875
        </DataArray>
        <DataArray type="Float32" Name="pH" NumberOfComponents="1" format="ascii">
          6.1226 6.12244 6.10934 6.10939 6.09466 6.09467 6.0778 6.07774 6.05999 6.06002 6.04049 6.04051
          6.02011 6.02013 5.99789 5.99787 5.9744 5.97443 5.94954 5.94957 5.92309 5.92304 5.87155 5.87155
          5.81748 5.81749 5.76182 5.76181 5.70634 5.70635 5.65196 5.65198 5.59035 5.59033 5.536 5.53601
          5.49004 5.49003 5.45359 5.45359 5.42647 5.42646 5.40825 5.40825 5.39806 5.39806 5.39917 5.39917
          5.4026 5.4026 5.41163 5.41162 5.42578 5.42578 5.44488 5.44488 5.46918 5.46918 5.499 5.49901
          5.53479 5.53478 5.57778 5.57778 5.63104 5.63104 5.69078 5.69077 5.75965 5.75967 5.83724 5.83722
          5.92252 5.92252 6.01323 6.01323 6.10625 6.10625 6.19963 6.19963
        </DataArray>
        <DataArray type="Float32" Name="Omega" NumberOfComponents="1" format="ascii">
          0.0268723 0.0269344 0.0316879 0.031668 0.036663 0.0366573 0.041848 0.0418651 0.046656 0.0466475 0.0511176 0.0511128
          0.0549057 0.0549025 0.0580694 0.0580721 0.0604079 0.0604055 0.0618763 0.0618749 0.0624633 0.0624634 0.0612722 0.0612719
          0.0577052 0.0577052 0.0525637 0.052562 0.0467389 0.0467398 0.0408915 0.0408928 0.0345079 0.0345053 0.0293214 0.029322
          0.0253403 0.0253393 0.0224622 0.0224618 0.0204759 0.0204753 0.0192106 0.0192103 0.0185137 0.0185133 0.0187555 0.0187552
          0.0189529 0.0189525 0.0195241 0.0195236 0.0204571 0.020457 0.0217748 0.0217747 0.0235537 0.023553 0.0258752 0.0258751
          0.0288305 0.0288299 0.0326554 0.0326551 0.0381016 0.0381014 0.044109 0.0441083 0.050841 0.0508426 0.056941 0.0569397
          0.0593421 0.0593419 0.052484 0.0524842 0.0303406 0.0303401 0 0
        </DataArray>
        <DataArray type="Float32" Name="rurea" NumberOfComponents="1" format="ascii">
          0 0 0 0 0 0 0 0 0 0 0 0
          0 0 0 0 0 0 0 0 0 0 0 0
          0 0 0 0 0 0 0 0 0 0 0 0
          0 0 0 0 0 0 0 0 0 0 0 0
          0 0 0 0 0 0 0 0 0 0 0 0
          0 0 0 0 0 0 0 0 0 0 0 0
          0 0 0 0 0 0 0 0
        </DataArray>
        <DataArray type="Float32" Name="Volume_Fraction_Biofilm" NumberOfComponents="1" format="ascii">
          2.34649e-08 2.34649e-08 2.34109e-08 2.34168e-08 2.3384e-08 2.33859e-08 2.33566e-08 2.33576e-08 2.33212e-08 2.33211e-08 2.32731e-08 2.32726e-08
          2.32316e-08 2.32309e-08 2.31872e-08 2.31869e-08 2.3138e-08 2.3137e-08 2.30766e-08 2.30757e-08 2.30315e-08 2.30304e-08 2.28719e-08 2.28703e-08
          2.27191e-08 2.27179e-08 2.25353e-08 2.2534e-08 2.23168e-08 2.23152e-08 2.20988e-08 2.20972e-08 2.17542e-08 2.17525e-08 2.13923e-08 2.13906e-08
          2.10143e-08 2.10126e-08 2.06191e-08 2.06174e-08 2.0195e-08 2.01933e-08 1.9763e-08 1.97614e-08 1.92951e-08 1.92935e-08 2.066e-08 2.06587e-08
          2.02826e-08 2.02814e-08 1.9924e-08 1.99227e-08 1.95317e-08 1.95305e-08 1.90928e-08 1.90916e-08 1.86538e-08 1.86527e-08 1.81367e-08 1.81355e-08
          1.73683e-08 1.7367e-08 1.65363e-08 1.65351e-08 1.72526e-08 1.72515e-08 1.62465e-08 1.6245e-08 1.50041e-08 1.50028e-08 1.33e-08 1.32988e-08
          1.11226e-08 1.11216e-08 8.28642e-09 8.28576e-09 4.48558e-09 4.48513e-09 0 0
        </DataArray>
        <DataArray type="Float32" Name="Volume_Fraction_Calcite" NumberOfComponents="1" format="ascii">
          0 0 0 0 0 0 0 0 0 0 0 0
          0 0 0 0 0 0 0 0 0 0 0 0
          0 0 0 0 0 0 0 0 0 0 0 0
          0 0 0 0 0 0 0 0 0 0 0 0
          0 0 0 0 0 0 0 0 0 0 0 0
          0 0 0 0 0 0 0 0 0 0 0 0
          0 0 0 0 0 0 0 0
        </DataArray>
        <DataArray type="Float32" Name="Kxx" NumberOfComponents="1" format="ascii">
          2e-10 2e-10 2e-10 2e-10 2e-10 2e-10 2e-10 2e-10 2e-10 2e-10 2e-10 2e-10
          2e-10 2e-10 2e-10 2e-10 2e-10 2e-10 2e-10 2e-10 2e-10 2e-10 2e-10 2e-10
          2e-10 2e-10 2e-10 2e-10 2e-10 2e-10 2e-10 2e-10 2e-10 2e-10 2e-10 2e-10
          2e-10 2e-10 2e-10 2e-10 2e-10 2e-10 2e-10 2e-10 2e-10 2e-10 2e-10 2e-10
          2e-10 2e-10 2e-10 2e-10 2e-10 2e-10 2e-10 2e-10 2e-10 2e-10 2e-10 2e-10
          2e-10 2e-10 2e-10 2e-10 2e-10 2e-10 2e-10 2e-10 2e-10 2e-10 2e-10 2e-10
          2e-10 2e-10 2e-10 2e-10 2e-10 2e-10 2e-10 2e-10
        </DataArray>
        <DataArray type="Float32" Name="X_lBrine" NumberOfComponents="1" format="ascii">
          0.974385 0.974361 0.97253 0.972538 0.97059 0.970592 0.968495 0.968488 0.966425 0.966429 0.964309 0.964312
          0.96225 0.962252 0.960166 0.960164 0.958126 0.958128 0.95613 0.956133 0.954172 0.954168 0.95078 0.95078
          0.947724 0.947725 0.945017 0.945017 0.942682 0.942683 0.940684 0.940684 0.93871 0.938709 0.937181 0.937181
          0.936019 0.936019 0.935174 0.935174 0.934586 0.934586 0.934212 0.934212 0.934017 0.934017 0.933971 0.933972
          0.934057 0.934057 0.934262 0.934262 0.934585 0.934585 0.935032 0.935032 0.935622 0.935622 0.936386 0.936386
          0.937375 0.937375 0.938664 0.938664 0.94036 0.94036 0.942622 0.942622 0.945674 0.945675 0.949836 0.949835
          0.955572 0.955572 0.963537 0.963537 0.974678 0.974678 0.99029 0.99029
        </DataArray>
        <DataArray type="Float32" Name="X_lTotalC" NumberOfComponents="1" format="ascii">
          6.1155e-07 6.11617e-07 6.16322e-07 6.16307e-07 6.21184e-07 6.2118e-07 6.26289e-07 6.26308e-07 6.31144e-07 6.31135e-07 6.35935e-07 6.35928e-07
          6.40458e-07 6.40453e-07 6.44906e-07 6.4491e-07 6.49134e-07 6.49127e-07 6.53134e-07 6.53128e-07 6.57002e-07 6.57007e-07 6.63314e-07 6.63311e-07
          6.68785e-07 6.68782e-07 6.73381e-07 6.73379e-07 6.77111e-07 6.77107e-07 6.80182e-07 6.80177e-07 6.82845e-07 6.82842e-07 6.84677e-07 6.84672e-07
          6.85826e-07 6.85821e-07 6.86412e-07 6.86407e-07 6.8649e-07 6.86485e-07 6.86208e-07 6.86204e-07 6.85556e-07 6.85552e-07 6.90267e-07 6.90262e-07
          6.89467e-07 6.89464e-07 6.88539e-07 6.88535e-07 6.8732e-07 6.87316e-07 6.8577e-07 6.85766e-07 6.84009e-07 6.84006e-07 6.81749e-07 6.81745e-07
          6.78419e-07 6.78416e-07 6.74508e-07 6.74505e-07 6.74429e-07 6.74426e-07 6.68599e-07 6.68596e-07 6.61037e-07 6.61032e-07 6.50854e-07 6.50855e-07
          6.37715e-07 6.37713e-07 6.21019e-07 6.21019e-07 6.00841e-07 6.0084e-07 5.81077e-07 5.81077e-07
        </DataArray>
        <DataArray type="Float32" Name="X_lNa" NumberOfComponents="1" format="ascii">
          2.92396e-06 2.92242e-06 2.80423e-06 2.80474e-06 2.67901e-06 2.67915e-06 2.54378e-06 2.54333e-06 2.41013e-06 2.41037e-06 2.27357e-06 2.27372e-06
          2.14068e-06 2.1408e-06 2.00616e-06 2.00603e-06 1.87446e-06 1.87461e-06 1.74564e-06 1.74579e-06 1.61922e-06 1.61899e-06 1.4003e-06 1.40031e-06
          1.20306e-06 1.20308e-06 1.02833e-06 1.02829e-06 8.77613e-07 8.77645e-07 7.48611e-07 7.48649e-07 6.21227e-07 6.21187e-07 5.22523e-07 5.22543e-07
          4.47548e-07 4.47538e-07 3.92947e-07 3.92947e-07 3.54968e-07 3.54966e-07 3.30799e-07 3.30801e-07 3.18097e-07 3.18094e-07 3.1499e-07 3.14993e-07
          3.20255e-07 3.20254e-07 3.3307e-07 3.33066e-07 3.53318e-07 3.53323e-07 3.81314e-07 3.81319e-07 4.18101e-07 4.18094e-07 4.65604e-07 4.6561e-07
          5.26847e-07 5.26841e-07 6.06273e-07 6.06274e-07 7.10479e-07 7.10482e-07 8.48991e-07 8.48986e-07 1.03539e-06 1.03545e-06 1.28912e-06 1.28906e-06
          1.63827e-06 1.63828e-06 2.12275e-06 2.12274e-06 2.79999e-06 2.80001e-06 3.74885e-06 3.74885e-06
        </DataArray>
        <DataArray type="Float32" Name="X_lCl" NumberOfComponents="1" format="ascii">
          0.0119422 0.0119521 0.0127145 0.0127112 0.0135222 0.0135213 0.0143945 0.0143974 0.0152566 0.015255 0.0161374 0.0161364
          0.0169946 0.0169939 0.0178623 0.0178632 0.0187118 0.0187108 0.0195427 0.0195418 0.0203582 0.0203597 0.0217703 0.0217702
          0.0230426 0.0230425 0.0241697 0.0241699 0.0251418 0.0251416 0.0259739 0.0259736 0.0267955 0.0267958 0.0274322 0.0274321
          0.0279158 0.0279158 0.0282679 0.0282679 0.0285128 0.0285128 0.0286686 0.0286686 0.0287505 0.0287505 0.0287704 0.0287704
          0.0287363 0.0287363 0.0286534 0.0286534 0.0285225 0.0285224 0.0283415 0.0283415 0.0281037 0.0281037 0.0277966 0.0277966
          0.0274006 0.0274006 0.026887 0.026887 0.026213 0.026213 0.0253171 0.0253171 0.0241114 0.0241109 0.0224699 0.0224703
          0.0202111 0.0202111 0.0170767 0.0170768 0.0126951 0.012695 0.00655617 0.00655617
        </DataArray>
        <DataArray type="Float32" Name="X_lCa" NumberOfComponents="1" format="ascii">
          0.00304408 0.0030497 0.00348166 0.00347982 0.00393935 0.00393882 0.00443357 0.00443522 0.00492206 0.00492116 0.00542114 0.00542059
          0.00590685 0.00590641 0.00639849 0.00639898 0.00687983 0.00687927 0.00735063 0.00735011 0.00781271 0.00781351 0.00861281 0.00861276
          0.0093337 0.00933362 0.0099723 0.00997245 0.0105231 0.010523 0.0109946 0.0109945 0.0114602 0.0114603 0.0118209 0.0118208
          0.0120949 0.0120949 0.0122944 0.0122944 0.0124332 0.0124332 0.0125215 0.0125215 0.0125679 0.0125679 0.0125792 0.0125792
          0.0125599 0.0125599 0.0125129 0.0125129 0.0124388 0.0124388 0.0123363 0.0123363 0.0122016 0.0122016 0.0120277 0.0120277
          0.0118034 0.0118035 0.0115126 0.0115126 0.0111309 0.0111309 0.0106236 0.0106236 0.00994077 0.00994054 0.00901128 0.00901152
          0.00773221 0.00773219 0.00595732 0.00595735 0.00347619 0.00347615 0 0
        </DataArray>
        <DataArray type="Float32" Name="X_lUrea" NumberOfComponents="1" format="ascii">
          0.00449977 0.00450808 0.00514662 0.0051439 0.00582318 0.00582239 0.00655375 0.00655619 0.00727585 0.00727453 0.00801362 0.0080128
          0.00873163 0.00873097 0.0094584 0.00945914 0.01017 0.0101692 0.010866 0.0108652 0.0115491 0.0115503 0.012732 0.0127319
          0.0137978 0.0137977 0.0147421 0.0147423 0.0155566 0.0155565 0.016254 0.0162537 0.0169427 0.0169429 0.0174766 0.0174765
          0.0178825 0.0178825 0.0181784 0.0181784 0.0183846 0.0183846 0.0185163 0.0185163 0.0185863 0.0185863 0.0186045 0.0186045
          0.0185776 0.0185776 0.0185101 0.0185101 0.0184024 0.0184024 0.018253 0.0182529 0.018056 0.018056 0.017801 0.0178009
          0.0174714 0.0174715 0.0170433 0.0170433 0.0164805 0.0164805 0.0157314 0.0157314 0.0147221 0.0147217 0.0133469 0.0133473
          0.0114535 0.0114534 0.00882495 0.00882499 0.0051497 0.00514964 0 0
        </DataArray>
        <DataArray type="Float32" Name="X_lTotalNH" NumberOfComponents="1" format="ascii">
          0.0031497 0.00314969 0.00314879 0.0031488 0.00314784 0.00314785 0.00314682 0.00314682 0.00314581 0.00314581 0.00314478 0.00314478
          0.00314377 0.00314377 0.00314275 0.00314275 0.00314176 0.00314176 0.00314078 0.00314078 0.00313982 0.00313982 0.00313816 0.00313817
          0.00313667 0.00313667 0.00313535 0.00313535 0.0031342 0.0031342 0.00313322 0.00313322 0.00313226 0.00313226 0.00313151 0.00313151
          0.00313093 0.00313093 0.00313051 0.00313051 0.00313022 0.00313022 0.00313003 0.00313003 0.00312992 0.00312992 0.00312989 0.00312989
          0.00312991 0.00312991 0.00312998 0.00312998 0.00313011 0.00313011 0.00313028 0.00313028 0.00313051 0.00313051 0.0031308 0.0031308
          0.00313117 0.00313116 0.00313164 0.00313164 0.00313225 0.00313225 0.00313305 0.00313305 0.00313412 0.00313412 0.00313557 0.00313557
          0.00313755 0.00313755 0.00314029 0.00314029 0.00314411 0.00314411 0.00314947 0.00314947
        </DataArray>
        <DataArray type="Float32" Name="X_lO2" NumberOfComponents="1" format="ascii">
          7.91399e-06 7.91396e-06 7.91169e-06 7.9117e-06 7.90928e-06 7.90928e-06 7.90667e-06 7.90666e-06 7.90409e-06 7.9041e-06 7.90145e-06 7.90145e-06
          7.89887e-06 7.89887e-06 7.89625e-06 7.89625e-06 7.89368e-06 7.89368e-06 7.89115e-06 7.89116e-06 7.88866e-06 7.88866e-06 7.88429e-06 7.88429e-06
          7.88028e-06 7.88028e-06 7.87661e-06 7.87661e-06 7.87329e-06 7.87329e-06 7.87025e-06 7.87025e-06 7.86684e-06 7.86684e-06 7.86361e-06 7.86361e-06
          7.86027e-06 7.86027e-06 7.85658e-06 7.85658e-06 7.85213e-06 7.85213e-06 7.84646e-06 7.84646e-06 7.83893e-06 7.83893e-06 7.82867e-06 7.82867e-06
          7.81444e-06 7.81445e-06 7.79472e-06 7.79473e-06 7.76706e-06 7.76705e-06 7.72834e-06 7.72834e-06 7.67412e-06 7.67413e-06 7.59808e-06 7.59807e-06
          7.49141e-06 7.49142e-06 7.34189e-06 7.34189e-06 7.13221e-06 7.1322e-06 6.83799e-06 6.838e-06 6.42514e-06 6.425e-06 5.84559e-06 5.84574e-06
          5.03087e-06 5.03085e-06 3.88467e-06 3.88469e-06 2.26986e-06 2.26984e-06 0 0
        </DataArray>
        <DataArray type="Float32" Name="X_lSubstrate" NumberOfComponents="1" format="ascii">
          0.00296776 0.00296774 0.00296689 0.0029669 0.00296599 0.00296599 0.00296501 0.00296501 0.00296404 0.00296404 0.00296305 0.00296305
          0.00296208 0.00296208 0.0029611 0.0029611 0.00296014 0.00296014 0.00295919 0.00295919 0.00295825 0.00295825 0.00295662 0.00295662
          0.00295511 0.00295511 0.00295374 0.00295374 0.00295249 0.00295249 0.00295135 0.00295135 0.00295007 0.00295007 0.00294886 0.00294886
          0.00294761 0.00294761 0.00294622 0.00294622 0.00294456 0.00294456 0.00294243 0.00294243 0.00293961 0.00293961 0.00293576 0.00293576
          0.00293042 0.00293043 0.00292303 0.00292303 0.00291265 0.00291265 0.00289814 0.00289813 0.0028778 0.00287781 0.00284929 0.00284928
          0.00280928 0.00280929 0.00275321 0.00275321 0.00267458 0.00267458 0.00256425 0.00256426 0.00240943 0.00240938 0.0021921 0.00219216
          0.00188658 0.00188657 0.00145675 0.00145676 0.000851201 0.000851191 0 0
        </DataArray>
        <DataArray type="Float32" Name="X_lSuspended_Biomass" NumberOfComponents="1" format="ascii">
          3.21197e-14 3.24504e-14 4.14783e-14 4.13067e-14 5.60122e-14 5.59714e-14 6.38611e-14 6.38825e-14 6.50453e-14 6.50284e-14 6.77859e-14 6.77716e-14
          7.3821e-14 7.38097e-14 7.83466e-14 7.83549e-14 8.19926e-14 8.19695e-14 8.49423e-14 8.49258e-14 8.12362e-14 8.12373e-14 1.07992e-13 1.07965e-13
          1.09835e-13 1.0982e-13 1.09406e-13 1.09399e-13 1.21972e-13 1.21944e-13 1.21692e-13 1.21675e-13 1.21433e-13 1.21401e-13 1.43362e-13 1.43351e-13
          1.29907e-13 1.29922e-13 1.54658e-13 1.54649e-13 1.44372e-13 1.44367e-13 1.44417e-13 1.44394e-13 1.49491e-13 1.49506e-13 1.5985e-13 1.59697e-13
          1.6386e-13 1.63909e-13 1.8465e-13 1.84635e-13 1.90682e-13 1.90697e-13 1.92251e-13 1.92268e-13 2.15301e-13 2.15302e-13 2.25246e-13 2.25252e-13
          2.28374e-13 2.28381e-13 2.31289e-13 2.31294e-13 2.33696e-13 2.33701e-13 2.29924e-13 2.29924e-13 2.2299e-13 2.22998e-13 2.06968e-13 2.06983e-13
          1.84002e-13 1.84017e-13 1.43226e-13 1.43243e-13 8.46076e-14 8.45982e-14 0 0
        </DataArray>
        <DataArray type="Float32" Name="X_lNH4" NumberOfComponents="1" format="ascii">
          0.00333395 0.00333394 0.00333309 0.00333309 0.00333218 0.00333218 0.0033312 0.00333119 0.00333023 0.00333023 0.00332924 0.00332924
          0.00332827 0.00332827 0.00332729 0.00332729 0.00332634 0.00332634 0.0033254 0.0033254 0.00332448 0.00332448 0.00332288 0.00332288
          0.00332144 0.00332144 0.00332016 0.00332016 0.00331906 0.00331906 0.00331811 0.00331811 0.00331717 0.00331717 0.00331644 0.00331644
          0.00331588 0.00331588 0.00331547 0.00331547 0.00331519 0.00331519 0.003315 0.003315 0.00331489 0.00331489 0.00331486 0.00331486
          0.00331488 0.00331488 0.00331495 0.00331495 0.00331507 0.00331507 0.00331524 0.00331524 0.00331545 0.00331545 0.00331573 0.00331573
          0.00331608 0.00331608 0.00331653 0.00331653 0.00331711 0.00331711 0.00331787 0.00331787 0.00331887 0.00331887 0.00332022 0.00332022
          0.00332207 0.00332207 0.00332461 0.00332461 0.00332814 0.00332814 0.00333307 0.00333307
        </DataArray>
        <DataArray type="Float32" Name="X_lHCO3" NumberOfComponents="1" format="ascii">
          4.15985e-07 4.16024e-07 4.18205e-07 4.18202e-07 4.1946e-07 4.1946e-07 4.19638e-07 4.19638e-07 4.18599e-07 4.18601e-07 4.16298e-07 4.163e-07
          4.12844e-07 4.12847e-07 4.0808e-07 4.08074e-07 4.02109e-07 4.02116e-07 3.94929e-07 3.94937e-07 3.86547e-07 3.8653e-07 3.68403e-07 3.68402e-07
          3.47755e-07 3.47756e-07 3.25497e-07 3.25489e-07 3.02892e-07 3.02895e-07 2.8082e-07 2.80825e-07 2.56237e-07 2.56227e-07 2.3526e-07 2.35262e-07
          2.18173e-07 2.18168e-07 2.05084e-07 2.05082e-07 1.95582e-07 1.95579e-07 1.89279e-07 1.89277e-07 1.85681e-07 1.85678e-07 1.87367e-07 1.87365e-07
          1.88296e-07 1.88294e-07 1.91087e-07 1.91084e-07 1.95587e-07 1.95586e-07 2.01793e-07 2.01792e-07 2.09933e-07 2.09929e-07 2.20153e-07 2.20152e-07
          2.32564e-07 2.32561e-07 2.47962e-07 2.4796e-07 2.6959e-07 2.69589e-07 2.92247e-07 2.92244e-07 3.1833e-07 3.18337e-07 3.46503e-07 3.46496e-07
          3.74402e-07 3.74401e-07 3.97246e-07 3.97246e-07 4.06078e-07 4.06078e-07 3.37056e-07 3.37056e-07
        </DataArray>
        <DataArray type="Float32" Name="X_lCO3" NumberOfComponents="1" format="ascii">
          6.743e-11 6.74585e-11 6.92843e-11 6.92783e-11 7.05967e-11 7.05956e-11 7.13228e-11 7.13243e-11 7.13527e-11 7.13532e-11 7.07021e-11 7.0703e-11
          6.9432e-11 6.94333e-11 6.7529e-11 6.75266e-11 6.50864e-11 6.50894e-11 6.21671e-11 6.21704e-11 5.883e-11 5.88236e-11 5.20165e-11 5.20166e-11
          4.49465e-11 4.49469e-11 3.81255e-11 3.81236e-11 3.1985e-11 3.1986e-11 2.66826e-11 2.66838e-11 2.15219e-11 2.152e-11 1.76779e-11 1.76783e-11
          1.48987e-11 1.4898e-11 1.29713e-11 1.29711e-11 1.16792e-11 1.16789e-11 1.08726e-11 1.08724e-11 1.04356e-11 1.04354e-11 1.05615e-11 1.05613e-11
          1.06908e-11 1.06906e-11 1.10587e-11 1.10584e-11 1.16633e-11 1.16633e-11 1.25284e-11 1.25284e-11 1.37168e-11 1.37164e-11 1.5309e-11 1.53089e-11
          1.74142e-11 1.74138e-11 2.02723e-11 2.02721e-11 2.45429e-11 2.45428e-11 2.98969e-11 2.98964e-11 3.7039e-11 3.70411e-11 4.6121e-11 4.61186e-11
          5.66204e-11 5.66204e-11 6.59648e-11 6.59647e-11 6.67054e-11 6.67052e-11 2.55591e-11 2.55591e-11
        </DataArray>
        <DataArray type="Float32" Name="X_lCO2" NumberOfComponents="1" format="ascii">
          3.11538e-07 3.11577e-07 3.14707e-07 3.14695e-07 3.18664e-07 3.1866e-07 3.2364e-07 3.23659e-07 3.29245e-07 3.29234e-07 3.35695e-07 3.35687e-07
          3.42711e-07 3.42703e-07 3.50595e-07 3.50604e-07 3.5913e-07 3.59118e-07 3.6831e-07 3.68299e-07 3.78225e-07 3.78242e-07 3.97626e-07 3.97623e-07
          4.17991e-07 4.17988e-07 4.38643e-07 4.38647e-07 4.58679e-07 4.58672e-07 4.77669e-07 4.77661e-07 4.98063e-07 4.98067e-07 5.15025e-07 5.15018e-07
          5.28497e-07 5.28497e-07 5.38523e-07 5.3852e-07 5.45454e-07 5.45452e-07 5.49718e-07 5.49715e-07 5.51662e-07 5.5166e-07 5.55156e-07 5.55152e-07
          5.53686e-07 5.53684e-07 5.50745e-07 5.50744e-07 5.46281e-07 5.46278e-07 5.40255e-07 5.40251e-07 5.32623e-07 5.32623e-07 5.22992e-07 5.22989e-07
          5.10711e-07 5.1071e-07 4.95695e-07 4.95693e-07 4.80016e-07 4.80014e-07 4.57844e-07 4.57843e-07 4.31468e-07 4.31458e-07 4.00962e-07 4.00969e-07
          3.67697e-07 3.67696e-07 3.34521e-07 3.34521e-07 3.07973e-07 3.07973e-07 3.38012e-07 3.38012e-07
        </DataArray>
        <DataArray type="Float32" Name="X_lH" NumberOfComponents="1" format="ascii">
          7.44338e-10 7.44605e-10 7.66127e-10 7.66031e-10 7.91053e-10 7.91024e-10 8.20784e-10 8.20889e-10 8.5351e-10 8.53447e-10 8.90962e-10 8.90918e-10
          9.31997e-10 9.31957e-10 9.79019e-10 9.79071e-10 1.03148e-09 1.03141e-09 1.09022e-09 1.09016e-09 1.15657e-09 1.1567e-09 1.29817e-09 1.29817e-09
          1.46607e-09 1.46606e-09 1.6623e-09 1.66236e-09 1.88468e-09 1.88463e-09 2.13206e-09 2.13199e-09 2.45243e-09 2.45255e-09 2.77537e-09 2.77531e-09
          3.08177e-09 3.08184e-09 3.34889e-09 3.34891e-09 3.56274e-09 3.56279e-09 3.71405e-09 3.71406e-09 3.8015e-09 3.80154e-09 3.79165e-09 3.79167e-09
          3.76211e-09 3.76214e-09 3.68546e-09 3.68551e-09 3.56837e-09 3.56836e-09 3.41629e-09 3.41628e-09 3.23217e-09 3.23222e-09 3.01988e-09 3.01988e-09
          2.78366e-09 2.78369e-09 2.52436e-09 2.52437e-09 2.23662e-09 2.23662e-09 1.95335e-09 1.95337e-09 1.6717e-09 1.67162e-09 1.40366e-09 1.40372e-09
          1.1596e-09 1.1596e-09 9.47996e-10 9.47998e-10 7.73121e-10 7.73119e-10 6.32454e-10 6.32454e-10
        </DataArray>
        <DataArray type="Float32" Name="X_lOH" NumberOfComponents="1" format="ascii">
          2.20796e-07 2.20707e-07 2.13788e-07 2.13818e-07 2.06315e-07 2.06324e-07 1.98077e-07 1.98049e-07 1.89756e-07 1.89772e-07 1.81071e-07 1.81081e-07
          1.72441e-07 1.72449e-07 1.63525e-07 1.63516e-07 1.54622e-07 1.54632e-07 1.45748e-07 1.45757e-07 1.36886e-07 1.3687e-07 1.21184e-07 1.21185e-07
          1.06693e-07 1.06694e-07 9.36203e-08 9.3617e-08 8.22114e-08 8.22136e-08 7.23987e-08 7.24014e-08 6.27066e-08 6.27033e-08 5.52497e-08 5.52509e-08
          4.9647e-08 4.96459e-08 4.56138e-08 4.56135e-08 4.28279e-08 4.28274e-08 4.1054e-08 4.10539e-08 4.00948e-08 4.00944e-08 4.01955e-08 4.01953e-08
          4.05177e-08 4.05174e-08 4.13765e-08 4.1376e-08 4.27605e-08 4.27606e-08 4.47021e-08 4.47022e-08 4.73015e-08 4.73007e-08 5.07001e-08 5.07003e-08
          5.51059e-08 5.51053e-08 6.09148e-08 6.09146e-08 6.89726e-08 6.89726e-08 7.93129e-08 7.93123e-08 9.32103e-08 9.32149e-08 1.1188e-07 1.11876e-07
          1.36887e-07 1.36887e-07 1.69936e-07 1.69936e-07 2.12691e-07 2.12691e-07 2.67481e-07 2.67481e-07
        </DataArray>
        <DataArray type="Float32" Name="X_gBrine" NumberOfComponents="1" format="ascii">
          0.0112338 0.0112068 0.0112121 0.0112121 0.0112171 0.0112171 0.0112218 0.0112218 0.0112266 0.0112266 0.0112312 0.0112313
          0.0112361 0.0112361 0.0112408 0.0112408 0.0112457 0.0112457 0.0112506 0.0112507 0.0112557 0.0112557 0.0112672 0.0112672
          0.0112794 0.0112794 0.0112926 0.0112926 0.0113067 0.0113067 0.0113217 0.0113217 0.0113419 0.0113419 0.0113632 0.0113632
          0.0113855 0.0113855 0.0114087 0.0114087 0.0114327 0.0114327 0.0114573 0.0114573 0.0114825 0.0114825 0.0115081 0.0115081
          0.0115342 0.0115342 0.0115607 0.0115607 0.0115876 0.0115876 0.011615 0.011615 0.0116428 0.0116428 0.0116711 0.0116711
          0.0117001 0.0117001 0.01173 0.01173 0.0117609 0.0117609 0.0117933 0.0117933 0.0118277 0.0118277 0.0118648 0.0118648
          0.0119058 0.0119058 0.0119521 0.0119521 0.0120058 0.0120058 0.0120698 0.0120698
        </DataArray>
        <DataArray type="Float32" Name="X_gTotalC" NumberOfComponents="1" format="ascii">
          0.988766 0.988793 0.988788 0.988788 0.988783 0.988783 0.988778 0.988778 0.988773 0.988773 0.988769 0.988769
          0.988764 0.988764 0.988759 0.988759 0.988754 0.988754 0.988749 0.988749 0.988744 0.988744 0.988733 0.988733
          0.988721 0.988721 0.988707 0.988707 0.988693 0.988693 0.988678 0.988678 0.988658 0.988658 0.988637 0.988637
          0.988614 0.988614 0.988591 0.988591 0.988567 0.988567 0.988543 0.988543 0.988518 0.988518 0.988492 0.988492
          0.988466 0.988466 0.988439 0.988439 0.988412 0.988412 0.988385 0.988385 0.988357 0.988357 0.988329 0.988329
          0.9883 0.9883 0.98827 0.98827 0.988239 0.988239 0.988207 0.988207 0.988172 0.988172 0.988135 0.988135
          0.988094 0.988094 0.988048 0.988048 0.987994 0.987994 0.98793 0.98793
        </DataArray>
        <DataArray type="Float32" Name="X_gNa" NumberOfComponents="1" format="ascii">
          0 0 0 0 0 0 0 0 0 0 0 0
          0 0 0 0 0 0 0 0 0 0 0 0
          0 0 0 0 0 0 0 0 0 0 0 0
          0 0 0 0 0 0 0 0 0 0 0 0
          0 0 0 0 0 0 0 0 0 0 0 0
          0 0 0 0 0 0 0 0 0 0 0 0
          0 0 0 0 0 0 0 0
        </DataArray>
        <DataArray type="Float32" Name="X_gCl" NumberOfComponents="1" format="ascii">
          0 0 0 0 0 0 0 0 0 0 0 0
          0 0 0 0 0 0 0 0 0 0 0 0
          0 0 0 0 0 0 0 0 0 0 0 0
          0 0 0 0 0 0 0 0 0 0 0 0
          0 0 0 0 0 0 0 0 0 0 0 0
          0 0 0 0 0 0 0 0 0 0 0 0
          0 0 0 0 0 0 0 0
        </DataArray>
        <DataArray type="Float32" Name="X_gCa" NumberOfComponents="1" format="ascii">
          0 0 0 0 0 0 0 0 0 0 0 0
          0 0 0 0 0 0 0 0 0 0 0 0
          0 0 0 0 0 0 0 0 0 0 0 0
          0 0 0 0 0 0 0 0 0 0 0 0
          0 0 0 0 0 0 0 0 0 0 0 0
          0 0 0 0 0 0 0 0 0 0 0 0
          0 0 0 0 0 0 0 0
        </DataArray>
        <DataArray type="Float32" Name="X_gUrea" NumberOfComponents="1" format="ascii">
          0 0 0 0 0 0 0 0 0 0 0 0
          0 0 0 0 0 0 0 0 0 0 0 0
          0 0 0 0 0 0 0 0 0 0 0 0
          0 0 0 0 0 0 0 0 0 0 0 0
          0 0 0 0 0 0 0 0 0 0 0 0
          0 0 0 0 0 0 0 0 0 0 0 0
          0 0 0 0 0 0 0 0
        </DataArray>
        <DataArray type="Float32" Name="X_gTotalNH" NumberOfComponents="1" format="ascii">
          0 0 0 0 0 0 0 0 0 0 0 0
          0 0 0 0 0 0 0 0 0 0 0 0
          0 0 0 0 0 0 0 0 0 0 0 0
          0 0 0 0 0 0 0 0 0 0 0 0
          0 0 0 0 0 0 0 0 0 0 0 0
          0 0 0 0 0 0 0 0 0 0 0 0
          0 0 0 0 0 0 0 0
        </DataArray>
        <DataArray type="Float32" Name="X_gO2" NumberOfComponents="1" format="ascii">
          0 0 0 0 0 0 0 0 0 0 0 0
          0 0 0 0 0 0 0 0 0 0 0 0
          0 0 0 0 0 0 0 0 0 0 0 0
          0 0 0 0 0 0 0 0 0 0 0 0
          0 0 0 0 0 0 0 0 0 0 0 0
          0 0 0 0 0 0 0 0 0 0 0 0
          0 0 0 0 0 0 0 0
        </DataArray>
        <DataArray type="Float32" Name="X_gSubstrate" NumberOfComponents="1" format="ascii">
          0 0 0 0 0 0 0 0 0 0 0 0
          0 0 0 0 0 0 0 0 0 0 0 0
          0 0 0 0 0 0 0 0 0 0 0 0
          0 0 0 0 0 0 0 0 0 0 0 0
          0 0 0 0 0 0 0 0 0 0 0 0
          0 0 0 0 0 0 0 0 0 0 0 0
          0 0 0 0 0 0 0 0
        </DataArray>
        <DataArray type="Float32" Name="X_gSuspended_Biomass" NumberOfComponents="1" format="ascii">
          0 0 0 0 0 0 0 0 0 0 0 0
          0 0 0 0 0 0 0 0 0 0 0 0
          0 0 0 0 0 0 0 0 0 0 0 0
          0 0 0 0 0 0 0 0 0 0 0 0
          0 0 0 0 0 0 0 0 0 0 0 0
          0 0 0 0 0 0 0 0 0 0 0 0
          0 0 0 0 0 0 0 0
        </DataArray>
        <DataArray type="Float32" Name="X_gNH4" NumberOfComponents="1" format="ascii">
          0 0 0 0 0 0 0 0 0 0 0 0
          0 0 0 0 0 0 0 0 0 0 0 0
          0 0 0 0 0 0 0 0 0 0 0 0
          0 0 0 0 0 0 0 0 0 0 0 0
          0 0 0 0 0 0 0 0 0 0 0 0
          0 0 0 0 0 0 0 0 0 0 0 0
          0 0 0 0 0 0 0 0
        </DataArray>
        <DataArray type="Float32" Name="X_gHCO3" NumberOfComponents="1" format="ascii">
          0 0 0 0 0 0 0 0 0 0 0 0
          0 0 0 0 0 0 0 0 0 0 0 0
          0 0 0 0 0 0 0 0 0 0 0 0
          0 0 0 0 0 0 0 0 0 0 0 0
          0 0 0 0 0 0 0 0 0 0 0 0
          0 0 0 0 0 0 0 0 0 0 0 0
          0 0 0 0 0 0 0 0
        </DataArray>
        <DataArray type="Float32" Name="X_gCO3" NumberOfComponents="1" format="ascii">
          0 0 0 0 0 0 0 0 0 0 0 0
          0 0 0 0 0 0 0 0 0 0 0 0
          0 0 0 0 0 0 0 0 0 0 0 0
          0 0 0 0 0 0 0 0 0 0 0 0
          0 0 0 0 0 0 0 0 0 0 0 0
          0 0 0 0 0 0 0 0 0 0 0 0
          0 0 0 0 0 0 0 0
        </DataArray>
        <DataArray type="Float32" Name="X_gCO2" NumberOfComponents="1" format="ascii">
          0.988766 0.988793 0.988788 0.988788 0.988783 0.988783 0.988778 0.988778 0.988773 0.988773 0.988769 0.988769
          0.988764 0.988764 0.988759 0.988759 0.988754 0.988754 0.988749 0.988749 0.988744 0.988744 0.988733 0.988733
          0.988721 0.988721 0.988707 0.988707 0.988693 0.988693 0.988678 0.988678 0.988658 0.988658 0.988637 0.988637
          0.988614 0.988614 0.988591 0.988591 0.988567 0.988567 0.988543 0.988543 0.988518 0.988518 0.988492 0.988492
          0.988466 0.988466 0.988439 0.988439 0.988412 0.988412 0.988385 0.988385 0.988357 0.988357 0.988329 0.988329
          0.9883 0.9883 0.98827 0.98827 0.988239 0.988239 0.988207 0.988207 0.988172 0.988172 0.988135 0.988135
          0.988094 0.988094 0.988048 0.988048 0.987994 0.987994 0.98793 0.98793
        </DataArray>
        <DataArray type="Float32" Name="X_gH" NumberOfComponents="1" format="ascii">
          0 0 0 0 0 0 0 0 0 0 0 0
          0 0 0 0 0 0 0 0 0 0 0 0
          0 0 0 0 0 0 0 0 0 0 0 0
          0 0 0 0 0 0 0 0 0 0 0 0
          0 0 0 0 0 0 0 0 0 0 0 0
          0 0 0 0 0 0 0 0 0 0 0 0
          0 0 0 0 0 0 0 0
        </DataArray>
        <DataArray type="Float32" Name="X_gOH" NumberOfComponents="1" format="ascii">
          0 0 0 0 0 0 0 0 0 0 0 0
          0 0 0 0 0 0 0 0 0 0 0 0
          0 0 0 0 0 0 0 0 0 0 0 0
          0 0 0 0 0 0 0 0 0 0 0 0
          0 0 0 0 0 0 0 0 0 0 0 0
          0 0 0 0 0 0 0 0 0 0 0 0
          0 0 0 0 0 0 0 0
        </DataArray>
        <DataArray type="Float32" Name="Molarity_Brine" NumberOfComponents="1" format="ascii">
          54473.4 54472.6 54414.1 54414.3 54351.9 54352 54284.6 54284.4 54218 54218.1 54149.7 54149.8
          54083.2 54083.2 54015.7 54015.6 53949.4 53949.5 53884.5 53884.6 53820.6 53820.5 53709.8 53709.8
          53609.5 53609.6 53520.5 53520.5 53443.5 53443.5 53377.4 53377.4 53312 53312 53261.3 53261.3
          53222.7 53222.6 53194.5 53194.5 53174.9 53174.9 53162.5 53162.5 53156 53156 53154.6 53154.6
          53157.5 53157.5 53164.5 53164.5 53175.4 53175.4 53190.6 53190.6 53210.6 53210.6 53236.7 53236.7
          53270.5 53270.5 53314.5 53314.5 53372.6 53372.6 53450 53450 53554.3 53554.3 53696.3 53696.2
          53891.2 53891.2 54160.2 54160.2 54533.1 54533.2 55049.2 55049.2
        </DataArray>
        <DataArray type="Float32" Name="Molarity_TotalC" NumberOfComponents="1" format="ascii">
          0.0139982 0.0139999 0.0141189 0.0141185 0.0142425 0.0142423 0.0143727 0.0143732 0.0144974 0.0144971 0.014621 0.0146209
          0.0147384 0.0147383 0.0148544 0.0148545 0.0149653 0.0149651 0.0150708 0.0150706 0.0151731 0.0151733 0.0153419 0.0153418
          0.0154893 0.0154892 0.0156145 0.0156144 0.0157172 0.0157171 0.0158025 0.0158023 0.0158782 0.0158781 0.0159316 0.0159315
          0.0159666 0.0159665 0.0159862 0.0159861 0.0159922 0.0159921 0.0159883 0.0159882 0.0159745 0.0159744 0.0160846 0.0160845
          0.0160654 0.0160653 0.0160423 0.0160422 0.0160117 0.0160116 0.0159725 0.0159724 0.0159274 0.0159274 0.0158696 0.0158695
          0.0157855 0.0157854 0.0156859 0.0156858 0.0156728 0.0156727 0.0155225 0.0155224 0.0153273 0.0153271 0.0150649 0.0150649
          0.0147254 0.0147253 0.0142923 0.0142923 0.013764 0.013764 0.0132254 0.0132254
        </DataArray>
        <DataArray type="Float32" Name="Molarity_Na" NumberOfComponents="1" format="ascii">
          0.128093 0.128027 0.122948 0.12297 0.117558 0.117564 0.111727 0.111708 0.105953 0.105964 0.100043 0.10005
          0.0942812 0.0942864 0.0884379 0.088432 0.0827066 0.0827132 0.0770907 0.0770969 0.0715693 0.0715596 0.061986 0.0619866
          0.0533268 0.0533277 0.0456364 0.0456346 0.0389881 0.0389895 0.0332866 0.0332883 0.0276467 0.0276449 0.0232698 0.0232707
          0.0199412 0.0199407 0.0175149 0.0175149 0.0158262 0.0158261 0.0147511 0.0147512 0.0141859 0.0141858 0.0140477 0.0140478
          0.0142819 0.0142819 0.0148521 0.0148519 0.0157528 0.015753 0.0169977 0.016998 0.0186328 0.0186325 0.0207431 0.0207433
          0.0234616 0.0234613 0.0269838 0.0269838 0.0315991 0.0315992 0.0377235 0.0377233 0.0459468 0.0459497 0.0571069 0.0571041
          0.0724 0.0724003 0.0934996 0.0934993 0.12276 0.12276 0.1633 0.1633
        </DataArray>
        <DataArray type="Float32" Name="Molarity_Cl" NumberOfComponents="1" format="ascii">
          339.253 339.538 361.486 361.393 384.78 384.753 409.978 410.062 434.929 434.883 460.468 460.44
          485.368 485.346 510.618 510.644 535.384 535.356 559.651 559.625 583.51 583.552 624.919 624.917
          662.334 662.33 695.563 695.571 724.288 724.282 748.922 748.915 773.289 773.297 792.199 792.195
          806.579 806.581 817.06 817.06 824.354 824.354 828.997 828.996 831.435 831.436 832.029 832.028
          831.011 831.012 828.541 828.542 824.641 824.64 819.251 819.25 812.171 812.172 803.033 803.032
          791.259 791.26 776.002 776.002 756.008 756.008 729.474 729.474 693.841 693.829 645.48 645.492
          579.203 579.201 487.755 487.756 360.928 360.926 185.193 185.193
        </DataArray>
        <DataArray type="Float32" Name="Molarity_Ca" NumberOfComponents="1" format="ascii">
          76.4966 76.6387 87.5644 87.5178 99.1598 99.1464 111.703 111.745 124.124 124.101 136.837 136.823
          149.232 149.221 161.802 161.814 174.13 174.116 186.21 186.197 198.087 198.108 218.701 218.7
          237.327 237.325 253.868 253.872 268.168 268.165 280.431 280.427 292.561 292.565 301.975 301.973
          309.134 309.135 314.352 314.352 317.983 317.983 320.294 320.294 321.509 321.509 321.804 321.804
          321.299 321.299 320.07 320.07 318.129 318.128 315.447 315.446 311.924 311.924 307.377 307.376
          301.518 301.519 293.927 293.927 283.979 283.979 270.777 270.778 253.05 253.044 228.989 228.995
          196.016 196.015 150.52 150.521 87.4249 87.4239 0 0
        </DataArray>
        <DataArray type="Float32" Name="Molarity_Urea" NumberOfComponents="1" format="ascii">
          74.7843 74.9232 85.6043 85.5588 96.9404 96.9272 109.203 109.244 121.346 121.324 133.775 133.761
          145.893 145.882 158.182 158.194 170.235 170.222 182.046 182.033 193.658 193.679 213.813 213.812
          232.026 232.024 248.201 248.205 262.187 262.184 274.182 274.178 286.05 286.054 295.265 295.263
          302.277 302.278 307.394 307.394 310.962 310.963 313.243 313.243 314.453 314.453 314.768 314.768
          314.302 314.302 313.131 313.132 311.267 311.267 308.68 308.679 305.271 305.271 300.861 300.86
          295.167 295.168 287.776 287.776 278.074 278.073 265.181 265.181 247.849 247.843 224.307 224.313
          192.024 192.024 147.465 147.466 85.654 85.653 0 0
        </DataArray>
        <DataArray type="Float32" Name="Molarity_TotalNH" NumberOfComponents="1" format="ascii">
          186.261 186.262 186.359 186.359 186.462 186.462 186.573 186.574 186.684 186.683 186.796 186.796
          186.906 186.906 187.017 187.017 187.126 187.126 187.233 187.233 187.338 187.338 187.52 187.52
          187.684 187.684 187.83 187.83 187.955 187.955 188.063 188.063 188.17 188.17 188.252 188.252
          188.315 188.315 188.36 188.36 188.391 188.391 188.411 188.411 188.421 188.421 188.423 188.423
          188.418 188.418 188.405 188.405 188.387 188.387 188.361 188.361 188.326 188.326 188.282 188.282
          188.225 188.225 188.15 188.15 188.052 188.052 187.921 187.921 187.745 187.745 187.504 187.504
          187.173 187.173 186.715 186.715 186.078 186.078 185.193 185.193
        </DataArray>
        <DataArray type="Float32" Name="Molarity_O2" NumberOfComponents="1" format="ascii">
          0.24908 0.249081 0.24921 0.24921 0.249347 0.249347 0.249495 0.249495 0.249641 0.249641 0.24979 0.24979
          0.249935 0.249935 0.250082 0.250082 0.250226 0.250226 0.250366 0.250366 0.250504 0.250504 0.250741 0.250741
          0.250952 0.250952 0.251136 0.251136 0.251289 0.251289 0.251415 0.251415 0.251526 0.251526 0.251593 0.251593
          0.251616 0.251616 0.251592 0.251592 0.251515 0.251515 0.251375 0.251375 0.251156 0.251156 0.250832 0.250832
          0.250367 0.250368 0.249714 0.249714 0.248793 0.248792 0.247505 0.247504 0.245706 0.245706 0.243192 0.243191
          0.239676 0.239677 0.234764 0.234764 0.227896 0.227896 0.218286 0.218287 0.204844 0.20484 0.186043 0.186047
          0.15973 0.159729 0.122929 0.122929 0.071497 0.0714962 0 0
        </DataArray>
        <DataArray type="Float32" Name="Molarity_Substrate" NumberOfComponents="1" format="ascii">
          16.5906 16.5907 16.5993 16.5993 16.6084 16.6084 16.6183 16.6183 16.628 16.628 16.6379 16.6379
          16.6476 16.6476 16.6574 16.6574 16.667 16.6669 16.6763 16.6763 16.6855 16.6855 16.7012 16.7012
          16.7153 16.7153 16.7275 16.7275 16.7378 16.7378 16.7461 16.7461 16.7535 16.7535 16.758 16.758
          16.7595 16.7595 16.7579 16.7579 16.7528 16.7528 16.7435 16.7435 16.7289 16.7289 16.7074 16.7074
          16.6764 16.6764 16.6328 16.6328 16.5715 16.5715 16.4857 16.4857 16.3659 16.3659 16.1984 16.1984
          15.9643 15.9643 15.6371 15.6371 15.1796 15.1796 14.5395 14.5396 13.6442 13.6439 12.3919 12.3922
          10.6392 10.6392 8.188 8.18804 4.76225 4.76219 0 0
        </DataArray>
        <DataArray type="Float32" Name="Molarity_Suspended_Biomass" NumberOfComponents="1" format="ascii">
          3.23493e-11 3.26827e-11 4.18088e-11 4.16357e-11 5.65067e-11 5.64655e-11 6.44843e-11 6.45061e-11 6.574e-11 6.57229e-11 6.85737e-11 6.85592e-11
          7.47468e-11 7.47352e-11 7.94021e-11 7.94105e-11 8.3172e-11 8.31486e-11 8.62401e-11 8.62233e-11 8.25488e-11 8.255e-11 1.09902e-10 1.09873e-10
          1.11929e-10 1.11913e-10 1.11625e-10 1.11617e-10 1.24574e-10 1.24546e-10 1.24398e-10 1.24381e-10 1.24242e-10 1.24209e-10 1.46778e-10 1.46766e-10
          1.33071e-10 1.33086e-10 1.58484e-10 1.58475e-10 1.47982e-10 1.47977e-10 1.48053e-10 1.4803e-10 1.53268e-10 1.53284e-10 1.63892e-10 1.63736e-10
          1.67997e-10 1.68048e-10 1.89296e-10 1.8928e-10 1.95452e-10 1.95467e-10 1.97022e-10 1.9704e-10 2.20589e-10 2.2059e-10 2.30702e-10 2.30708e-10
          2.33807e-10 2.33815e-10 2.36662e-10 2.36667e-10 2.38954e-10 2.38959e-10 2.34873e-10 2.34872e-10 2.27497e-10 2.27506e-10 2.10784e-10 2.10799e-10
          1.86946e-10 1.86961e-10 1.45035e-10 1.45051e-10 8.528e-11 8.52706e-11 0 0
        </DataArray>
        <DataArray type="Float32" Name="Molarity_NH4" NumberOfComponents="1" format="ascii">
          186.14 186.141 186.243 186.243 186.352 186.351 186.469 186.469 186.584 186.584 186.703 186.703
          186.818 186.818 186.935 186.935 187.049 187.049 187.161 187.161 187.272 187.272 187.462 187.462
          187.635 187.635 187.787 187.787 187.919 187.919 188.032 188.032 188.143 188.143 188.229 188.229
          188.294 188.294 188.342 188.342 188.374 188.374 188.395 188.395 188.405 188.405 188.407 188.407
          188.402 188.402 188.389 188.389 188.37 188.37 188.343 188.343 188.307 188.307 188.262 188.262
          188.202 188.202 188.125 188.125 188.023 188.023 187.886 187.886 187.702 187.702 187.452 187.452
          187.107 187.107 186.629 186.629 185.963 185.963 185.037 185.037
        </DataArray>
        <DataArray type="Float32" Name="Molarity_HCO3" NumberOfComponents="1" format="ascii">
          0.00686624 0.00686695 0.00690851 0.00690843 0.00693515 0.00693514 0.00694449 0.00694452 0.00693362 0.00693365 0.00690194 0.00690197
          0.00685088 0.00685093 0.00677805 0.00677796 0.0066849 0.006685 0.00657133 0.00657144 0.00643741 0.00643714 0.00614445 0.00614443
          0.00580792 0.00580792 0.00544269 0.00544257 0.00506995 0.00507 0.00470466 0.00470474 0.00429658 0.0042964 0.00394751 0.00394754
          0.00366269 0.0036626 0.00344424 0.0034442 0.00328552 0.00328546 0.00318017 0.00318014 0.00311997 0.00311993 0.00314838 0.00314835
          0.00316388 0.00316384 0.00321048 0.00321043 0.00328563 0.00328561 0.00338923 0.00338922 0.00352505 0.00352499 0.00369546 0.00369544
          0.00390214 0.00390209 0.00415822 0.00415819 0.00451767 0.00451765 0.00489267 0.00489262 0.00532253 0.00532263 0.00578349 0.00578336
          0.00623417 0.00623416 0.00659262 0.00659262 0.00670804 0.00670803 0.00553194 0.00553194
        </DataArray>
        <DataArray type="Float32" Name="Molarity_CO3" NumberOfComponents="1" format="ascii">
          1.13169e-06 1.13218e-06 1.16376e-06 1.16366e-06 1.18682e-06 1.1868e-06 1.20013e-06 1.20016e-06 1.20173e-06 1.20174e-06 1.19188e-06 1.19189e-06
          1.17153e-06 1.17155e-06 1.14047e-06 1.14043e-06 1.10021e-06 1.10026e-06 1.05179e-06 1.05184e-06 9.9619e-07 9.96083e-07 8.82136e-07 8.82136e-07
          7.63267e-07 7.63273e-07 6.48211e-07 6.48179e-07 5.44374e-07 5.4439e-07 4.5453e-07 4.54551e-07 3.6694e-07 3.66908e-07 3.01605e-07 3.01613e-07
          2.5432e-07 2.54309e-07 2.21503e-07 2.21499e-07 1.99491e-07 1.99486e-07 1.85744e-07 1.85741e-07 1.78294e-07 1.7829e-07 1.80449e-07 1.80446e-07
          1.82651e-07 1.82648e-07 1.88919e-07 1.88914e-07 1.99221e-07 1.99221e-07 2.13956e-07 2.13955e-07 2.34193e-07 2.34186e-07 2.6129e-07 2.61289e-07
          2.97096e-07 2.97089e-07 3.45668e-07 3.45664e-07 4.18188e-07 4.18186e-07 5.08929e-07 5.0892e-07 6.29699e-07 6.29735e-07 7.82734e-07 7.82694e-07
          9.58623e-07 9.58623e-07 1.11313e-06 1.11313e-06 1.12042e-06 1.12042e-06 4.26535e-07 4.26535e-07
        </DataArray>
        <DataArray type="Float32" Name="Molarity_CO2" NumberOfComponents="1" format="ascii">
          0.00713101 0.00713198 0.00720943 0.00720913 0.00730631 0.00730621 0.00742724 0.00742771 0.00756276 0.00756248 0.0077181 0.00771791
          0.00788656 0.00788637 0.00807542 0.00807562 0.00827945 0.00827917 0.00849858 0.00849831 0.0087349 0.00873531 0.00919674 0.00919668
          0.00968085 0.00968076 0.0101713 0.0101714 0.0106469 0.0106468 0.0110975 0.0110974 0.0115815 0.0115816 0.011984 0.0119839
          0.0123038 0.0123038 0.0125419 0.0125419 0.0127067 0.0127066 0.0128081 0.0128081 0.0128545 0.0128545 0.0129362 0.0129362
          0.0129015 0.0129015 0.0128319 0.0128318 0.0127261 0.012726 0.0125833 0.0125832 0.0124024 0.0124023 0.0121741 0.012174
          0.0118832 0.0118832 0.0115275 0.0115275 0.0111549 0.0111548 0.0106295 0.0106295 0.0100043 0.0100041 0.00928079 0.00928094
          0.00849045 0.00849042 0.00769877 0.00769877 0.00705502 0.00705501 0.00769319 0.00769319
        </DataArray>
        <DataArray type="Float32" Name="Molarity_H" NumberOfComponents="1" format="ascii">
          0.000743752 0.000744027 0.000766148 0.00076605 0.000791751 0.00079172 0.000822266 0.000822373 0.000855831 0.000855765 0.000894217 0.000894172
          0.000936252 0.000936211 0.000984393 0.000984445 0.00103807 0.00103801 0.00109816 0.00109809 0.001166 0.00116613 0.00131072 0.00131071
          0.00148224 0.00148223 0.00168265 0.00168271 0.00190973 0.00190967 0.00216231 0.00216223 0.00248939 0.00248952 0.00281911 0.00281906
          0.00313196 0.00313203 0.0034047 0.00340472 0.00362307 0.00362311 0.00377756 0.00377758 0.00386684 0.00386688 0.0038569 0.00385692
          0.00382671 0.00382675 0.00374842 0.00374847 0.00362882 0.00362881 0.0034735 0.00347349 0.00328546 0.00328551 0.00306867 0.00306866
          0.00282744 0.00282747 0.00256266 0.00256267 0.00226893 0.00226893 0.00197968 0.00197969 0.00169206 0.00169198 0.00141828 0.00141833
          0.00116887 0.00116887 0.000952406 0.000952408 0.000773127 0.000773125 0.000628379 0.000628379
        </DataArray>
        <DataArray type="Float32" Name="Molarity_OH" NumberOfComponents="1" format="ascii">
          1.30813e-05 1.30761e-05 1.26764e-05 1.26781e-05 1.22438e-05 1.22443e-05 1.17657e-05 1.17641e-05 1.12818e-05 1.12827e-05 1.07754e-05 1.0776e-05
          1.02711e-05 1.02716e-05 9.74907e-06 9.74852e-06 9.22656e-06 9.22717e-06 8.70469e-06 8.70526e-06 8.1825e-06 8.18158e-06 7.25477e-06 7.25481e-06
          6.39587e-06 6.39594e-06 5.61895e-06 5.61876e-06 4.93931e-06 4.93944e-06 4.35361e-06 4.35377e-06 3.77409e-06 3.77389e-06 3.32754e-06 3.32761e-06
          2.99165e-06 2.99158e-06 2.74964e-06 2.74962e-06 2.58238e-06 2.58235e-06 2.47583e-06 2.47582e-06 2.41819e-06 2.41817e-06 2.42432e-06 2.42431e-06
          2.44366e-06 2.44364e-06 2.49523e-06 2.4952e-06 2.57834e-06 2.57835e-06 2.69489e-06 2.6949e-06 2.85087e-06 2.85083e-06 3.05471e-06 3.05472e-06
          3.31876e-06 3.31872e-06 3.6666e-06 3.66659e-06 4.14864e-06 4.14864e-06 4.76605e-06 4.76601e-06 5.59399e-06 5.59426e-06 6.70277e-06 6.70248e-06
          8.18127e-06 8.1813e-06 1.01228e-05 1.01228e-05 1.26111e-05 1.26111e-05 1.57575e-05 1.57575e-05
        </DataArray>
        <DataArray type="Float32" Name="Da_ureolysis" NumberOfComponents="1" format="ascii">
          0 0 0 0 0 0 0 0 0 0 0 0
          0 0 0 0 0 0 0 0 0 0 0 0
          0 0 0 0 0 0 0 0 0 0 0 0
          0 0 0 0 0 0 0 0 0 0 0 0
          0 0 0 0 0 0 0 0 0 0 0 0
          0 0 0 0 0 0 0 0 0 0 0 0
          0 0 0 0 0 0 0 0
        </DataArray>
        <DataArray type="Float32" Name="Da_precipitation" NumberOfComponents="1" format="ascii">
          0 0 0 0 0 0 0 0 0 0 0 0
          0 0 0 0 0 0 0 0 0 0 0 0
          0 0 0 0 0 0 0 0 0 0 0 0
          0 0 0 0 0 0 0 0 0 0 0 0
          0 0 0 0 0 0 0 0 0 0 0 0
          0 0 0 0 0 0 0 0 0 0 0 0
          0 0 0 0 0 0 0 0
        </DataArray>
        <DataArray type="Float32" Name="Vx" NumberOfComponents="1" format="ascii">
          -6.84266e-10 -6.8345e-10 3.5339e-10 3.54378e-10 -1.76341e-10 -1.75124e-10 1.22126e-10 1.2188e-10 7.16407e-10 7.16241e-10 1.00458e-10 1.00797e-10
          -3.43381e-10 -3.44108e-10 -6.69305e-11 -6.71158e-11 9.75055e-12 9.67247e-12 -4.55791e-10 -4.55412e-10 -3.04647e-10 -3.04103e-10 1.65639e-10 1.65423e-10
          4.54007e-11 4.52066e-11 3.24459e-11 3.24689e-11 7.16533e-11 7.16617e-11 -5.61244e-11 -5.61702e-11 -3.35446e-11 -3.36009e-11 2.01737e-11 2.01721e-11
          -8.73967e-12 -8.73351e-12 2.77937e-12 2.78055e-12 4.22982e-12 4.22828e-12 8.31218e-13 8.31218e-13 4.41368e-13 4.41368e-13 -1.18841e-12 -1.18854e-12
          -4.17036e-12 -4.17046e-12 8.09827e-12 8.09691e-12 8.17031e-12 8.16929e-12 -1.02878e-11 -1.02874e-11 -3.34104e-12 -3.3407e-12 -1.29649e-13 -1.30373e-13
          -2.42755e-12 -2.42731e-12 6.55482e-12 6.55416e-12 1.77564e-11 1.77191e-11 4.39507e-11 4.39182e-11 -6.84747e-11 -6.84717e-11 -6.08876e-11 -6.08783e-11
          4.86635e-11 4.86728e-11 2.62043e-11 2.62043e-11 9.31803e-12 9.31803e-12 5.01497e-12 5.01497e-12
        </DataArray>
        <DataArray type="Float32" Name="Vy" NumberOfComponents="1" format="ascii">
          2.42902e-07 2.42018e-07 7.13147e-09 6.86364e-09 1.04663e-08 1.04783e-08 -1.92854e-09 -2.16452e-09 3.35091e-09 3.72231e-09 -3.98181e-09 -3.07225e-09
          1.61148e-09 2.29147e-09 -3.10486e-09 -2.70265e-09 -2.77792e-09 -2.32652e-09 -2.13423e-09 -1.9308e-09 2.73453e-07 2.73109e-07 -3.27066e-08 -3.29916e-08
          -3.43205e-08 -3.43725e-08 -3.68899e-08 -3.69119e-08 -3.32818e-08 -3.3189e-08 4.45963e-08 4.46905e-08 -4.9736e-08 -4.97521e-08 -4.09837e-08 -4.10026e-08
          -3.53144e-08 -3.53197e-08 -2.87773e-08 -2.87931e-08 -2.3933e-08 -2.39386e-08 -1.98702e-08 -1.98713e-08 -1.66463e-08 -1.66464e-08 -1.45124e-08 -1.45126e-08
          -1.30969e-08 -1.31037e-08 -1.29077e-08 -1.29116e-08 -1.34514e-08 -1.34354e-08 -1.52575e-08 -1.52447e-08 -1.86284e-08 -1.86318e-08 -2.38375e-08 -2.38421e-08
          -3.15935e-08 -3.1602e-08 -4.30381e-08 -4.30417e-08 -5.95986e-08 -5.95838e-08 -8.33105e-08 -8.32223e-08 -1.16868e-07 -1.16791e-07 -1.65972e-07 -1.6605e-07
          -2.35215e-07 -2.35304e-07 -3.35629e-07 -3.35633e-07 -4.74168e-07 -4.74141e-07 3.48988e-06 3.48992e-06
        </DataArray>
      </PointData>
      <CellData Scalars="process rank">
        <DataArray type="Float32" Name="process rank" NumberOfComponents="1" format="ascii">
          0 0 0 0 0 0 0 0 0 0 0 0
          0 0 0 0 0 0 0 0 0 0 0 0
          0 0 0 0 0 0 0 0 0 0 0 0
          0 0 0
        </DataArray>
      </CellData>
      <Points>
        <DataArray type="Float32" Name="Coordinates" NumberOfComponents="3" format="ascii">
          0 0 0 0.0254 0 0 0 0.01 0 0.0254 0.01 0
          0 0.02 0 0.0254 0.02 0 0 0.03 0 0.0254 0.03 0
          0 0.04 0 0.0254 0.04 0 0 0.05 0 0.0254 0.05 0
          0 0.06 0 0.0254 0.06 0 0 0.07 0 0.0254 0.07 0
          0 0.08 0 0.0254 0.08 0 0 0.09 0 0.0254 0.09 0
          0 0.1 0 0.0254 0.1 0 0 0.12 0 0.0254 0.12 0
          0 0.14 0 0.0254 0.14 0 0 0.16 0 0.0254 0.16 0
          0 0.18 0 0.0254 0.18 0 0 0.2 0 0.0254 0.2 0
          0 0.225 0 0.0254 0.225 0 0 0.25 0 0.0254 0.25 0
          0 0.275 0 0.0254 0.275 0 0 0.3 0 0.0254 0.3 0
          0 0.325 0 0.0254 0.325 0 0 0.35 0 0.0254 0.35 0
          0 0.375 0 0.0254 0.375 0 0 0.4 0 0.0254 0.4 0
          0 0.425 0 0.0254 0.425 0 0 0.45 0 0.0254 0.45 0
          0 0.475 0 0.0254 0.475 0 0 0.5 0 0.0254 0.5 0
          0 0.525 0 0.0254 0.525 0 0 0.55 0 0.0254 0.55 0
          0 0.575 0 0.0254 0.575 0 0 0.6 0 0.0254 0.6 0
          0 0.625 0 0.0254 0.625 0 0 0.65 0 0.0254 0.65 0
          0 0.675 0 0.0254 0.675 0 0 0.7 0 0.0254 0.7 0
          0 0.725 0 0.0254 0.725 0 0 0.75 0 0.0254 0.75 0
          0 0.775 0 0.0254 0.775 0 0 0.8 0 0.0254 0.8 0
        </DataArray>
      </Points>
      <Cells>
        <DataArray type="Int32" Name="connectivity" NumberOfComponents="1" format="ascii">
          0 1 3 2 2 3 5 4 4 5 7 6
          6 7 9 8 8 9 11 10 10 11 13 12
          12 13 15 14 14 15 17 16 16 17 19 18
          18 19 21 20 20 21 23 22 22 23 25 24
          24 25 27 26 26 27 29 28 28 29 31 30
          30 31 33 32 32 33 35 34 34 35 37 36
          36 37 39 38 38 39 41 40 40 41 43 42
          42 43 45 44 44 45 47 46 46 47 49 48
          48 49 51 50 50 51 53 52 52 53 55 54
          54 55 57 56 56 57 59 58 58 59 61 60
          60 61 63 62 62 63 65 64 64 65 67 66
          66 67 69 68 68 69 71 70 70 71 73 72
          72 73 75 74 74 75 77 76 76 77 79 78
        </DataArray>
        <DataArray type="Int32" Name="offsets" NumberOfComponents="1" format="ascii">
          4 8 12 16 20 24 28 32 36 40 44 48
          52 56 60 64 68 72 76 80 84 88 92 96
          100 104 108 112 116 120 124 128 132 136 140 144
          148 152 156
        </DataArray>
        <DataArray type="UInt8" Name="types" NumberOfComponents="1" format="ascii">
          9 9 9 9 9 9 9 9 9 9 9 9
          9 9 9 9 9 9 9 9 9 9 9 9
          9 9 9 9 9 9 9 9 9 9 9 9
          9 9 9
        </DataArray>
      </Cells>
    </Piece>
  </UnstructuredGrid>
</VTKFile>
