<?xml version="1.0"?>
<VTKFile type="UnstructuredGrid" version="0.1" byte_order="LittleEndian">
  <UnstructuredGrid>
    <Piece NumberOfCells="39" NumberOfPoints="80">
      <PointData Scalars="Sg">
        <DataArray type="Float32" Name="Sg" NumberOfComponents="1" format="ascii">
          0 0 0 0 0 0 0 0 0 0 0 0
          0 0 0 0 0 0 0 0 0 0 0 0
          0 0 0 0 0 0 0 0 0 0 0 0
          0 0 0 0 0 0 0 0 0 0 0 0
          0 0 0 0 0 0 0 0 0 0 0 0
          0 0 0 0 0 0 0 0 0 0 0 0
          0 0 0 0 0 0 0 0
        </DataArray>
        <DataArray type="Float32" Name="Sl" NumberOfComponents="1" format="ascii">
          1 1 1 1 1 1 1 1 1 1 1 1
          1 1 1 1 1 1 1 1 1 1 1 1
          1 1 1 1 1 1 1 1 1 1 1 1
          1 1 1 1 1 1 1 1 1 1 1 1
          1 1 1 1 1 1 1 1 1 1 1 1
          1 1 1 1 1 1 1 1 1 1 1 1
          1 1 1 1 1 1 1 1
        </DataArray>
        <DataArray type="Float32" Name="pg" NumberOfComponents="1" format="ascii">
          117624 117624 117526 117526 117427 117427 117328 117328 117229 117229 117131 117131
          117032 117032 116933 116933 116834 116834 116735 116735 116636 116636 116438 116438
          116239 116239 116040 116040 115842 115842 115643 115643 115394 115394 115145 115145
          114896 114896 114646 114646 114397 114397 114148 114148 113898 113898 113648 113648
          113399 113399 113149 113149 112900 112900 112650 112650 112401 112401 112151 112151
          111902 111902 111652 111652 111403 111403 111154 111154 110905 110905 110656 110656
          110408 110408 110160 110160 109913 109913 109667 109667
        </DataArray>
        <DataArray type="Float32" Name="pl" NumberOfComponents="1" format="ascii">
          107958 107958 107859 107859 107760 107760 107662 107662 107563 107563 107464 107464
          107365 107365 107266 107266 107167 107167 107068 107068 106969 106969 106771 106771
          106572 106572 106374 106374 106175 106175 105976 105976 105727 105727 105478 105478
          105229 105229 104980 104980 104730 104730 104481 104481 104231 104231 103982 103982
          103732 103732 103483 103483 103233 103233 102984 102984 102734 102734 102484 102484
          102235 102235 101986 101986 101736 101736 101487 101487 101238 101238 100990 100990
          100741 100741 100493 100493 100246 100246 100000 100000
        </DataArray>
        <DataArray type="Float32" Name="pc" NumberOfComponents="1" format="ascii">
          9666.67 9666.67 9666.67 9666.67 9666.67 9666.67 9666.67 9666.67 9666.67 9666.67 9666.67 9666.67
          9666.67 9666.67 9666.67 9666.67 9666.67 9666.67 9666.67 9666.67 9666.67 9666.67 9666.67 9666.67
          9666.67 9666.67 9666.67 9666.67 9666.67 9666.67 9666.67 9666.67 9666.67 9666.67 9666.67 9666.67
          9666.67 9666.67 9666.67 9666.67 9666.67 9666.67 9666.67 9666.67 9666.67 9666.67 9666.67 9666.67
          9666.67 9666.67 9666.67 9666.67 9666.67 9666.67 9666.67 9666.67 9666.67 9666.67 9666.67 9666.67
          9666.67 9666.67 9666.67 9666.67 9666.67 9666.67 9666.67 9666.67 9666.67 9666.67 9666.67 9666.67
          9666.67 9666.67 9666.67 9666.67 9666.67 9666.67 9666.67 9666.67
        </DataArray>
        <DataArray type="Float32" Name="rhoL" NumberOfComponents="1" format="ascii">
          1005.05 1005.22 1005.52 1005.51 1005.97 1006 1006.46 1006.47 1006.97 1006.97 1007.49 1007.5
          1008.03 1008.02 1008.56 1008.55 1009.08 1009.07 1009.6 1009.61 1010.13 1010.13 1011.1 1011.09
          1012.01 1012.01 1012.86 1012.86 1013.64 1013.64 1014.35 1014.35 1015.1 1015.1 1015.73 1015.73
          1016.25 1016.25 1016.67 1016.67 1017 1017 1017.25 1017.25 1017.43 1017.43 1017.56 1017.56
          1017.63 1017.63 1017.66 1017.66 1017.64 1017.64 1017.57 1017.57 1017.46 1017.46 1017.28 1017.28
          1017.03 1017.03 1016.68 1016.68 1016.2 1016.2 1015.55 1015.55 1014.67 1014.67 1013.45 1013.45
          1011.78 1011.78 1009.45 1009.45 1006.2 1006.2 1001.45 1001.45
        </DataArray>
        <DataArray type="Float32" Name="rhoG" NumberOfComponents="1" format="ascii">
          2.06906 2.06911 2.06733 2.06733 2.06555 2.06555 2.06377 2.06377 2.06199 2.06199 2.06021 2.06021
          2.05842 2.05842 2.05664 2.05664 2.05486 2.05486 2.05307 2.05307 2.05128 2.05128 2.04771 2.04771
          2.04413 2.04413 2.04054 2.04054 2.03695 2.03695 2.03336 2.03336 2.02886 2.02886 2.02436 2.02436
          2.01986 2.01986 2.01535 2.01535 2.01084 2.01084 2.00632 2.00632 2.0018 2.0018 1.99729 1.99729
          1.99277 1.99277 1.98825 1.98825 1.98372 1.98372 1.9792 1.9792 1.97468 1.97468 1.97016 1.97016
          1.96563 1.96563 1.96111 1.96111 1.95659 1.95659 1.95206 1.95206 1.94754 1.94754 1.94302 1.94302
          1.93849 1.93849 1.93396 1.93396 1.92943 1.92943 1.9249 1.9249
        </DataArray>
        <DataArray type="Float32" Name="mobL" NumberOfComponents="1" format="ascii">
          1083.81 1083.06 1081.57 1081.66 1079.43 1079.32 1077.17 1077.11 1074.8 1074.8 1072.47 1072.46
          1070.11 1070.13 1067.84 1067.85 1065.63 1065.64 1063.44 1063.43 1061.29 1061.28 1057.43 1057.44
          1053.9 1053.9 1050.68 1050.68 1047.8 1047.8 1045.25 1045.25 1042.6 1042.59 1040.4 1040.4
          1038.61 1038.61 1037.19 1037.19 1036.09 1036.09 1035.25 1035.25 1034.64 1034.64 1034.23 1034.23
          1033.99 1033.99 1033.9 1033.9 1033.96 1033.96 1034.18 1034.18 1034.56 1034.56 1035.14 1035.14
          1035.98 1035.98 1037.15 1037.15 1038.77 1038.77 1041 1041 1044.1 1044.1 1048.48 1048.48
          1054.77 1054.77 1064.07 1064.07 1078.34 1078.34 1103.12 1103.12
        </DataArray>
        <DataArray type="Float32" Name="mobG" NumberOfComponents="1" format="ascii">
          0 0 0 0 0 0 0 0 0 0 0 0
          0 0 0 0 0 0 0 0 0 0 0 0
          0 0 0 0 0 0 0 0 0 0 0 0
          0 0 0 0 0 0 0 0 0 0 0 0
          0 0 0 0 0 0 0 0 0 0 0 0
          0 0 0 0 0 0 0 0 0 0 0 0
          0 0 0 0 0 0 0 0
        </DataArray>
        <DataArray type="Float32" Name="porosity" NumberOfComponents="1" format="ascii">
          0.351087 0.351174 0.344512 0.344706 0.341852 0.342411 0.34414 0.341155 0.339593 0.340228 0.339024 0.339165
          0.339364 0.338321 0.337388 0.337409 0.336537 0.336542 0.33573 0.335889 0.334967 0.335008 0.333781 0.333837
          0.332537 0.332467 0.331645 0.33178 0.330678 0.330729 0.330286 0.330207 0.330049 0.32998 0.329808 0.329714
          0.329923 0.329953 0.330367 0.330388 0.330789 0.33082 0.331715 0.331756 0.332597 0.332574 0.332724 0.332755
          0.33397 0.333888 0.335052 0.335012 0.336053 0.336142 0.337645 0.337602 0.339037 0.339025 0.340715 0.340703
          0.342882 0.342811 0.345173 0.345204 0.347097 0.347123 0.350598 0.350579 0.355001 0.354992 0.360755 0.360751
          0.368679 0.368682 0.379369 0.379378 0.390005 0.390007 0.4 0.4
        </DataArray>
        <DataArray type="Float32" Name="temperature" NumberOfComponents="1" format="ascii">
          298.15 298.15 298.15 298.15 298.15 298.15 298.15 298.15 298.15 298.15 298.15 298.15
          298.15 298.15 298.15 298.15 298.15 298.15 298.15 298.15 298.15 298.15 298.15 298.15
          298.15 298.15 298.15 298.15 298.15 298.15 298.15 298.15 298.15 298.15 298.15 298.15
          298.15 298.15 298.15 298.15 298.15 298.15 298.15 298.15 298.15 298.15 298.15 298.15
          298.15 298.15 298.15 298.15 298.15 298.15 298.15 298.15 298.15 298.15 298.15 298.15
          298.15 298.15 298.15 298.15 298.15 298.15 298.15 298.15 298.15 298.15 298.15 298.15
          298.15 298.15 298.15 298.15 298.15 298.15 298.15 298.15
        </DataArray>
        <DataArray type="Float32" Name="phase presence" NumberOfComponents="1" format="ascii">
          1 1 1 1 1 1 1 1 1 1 1 1
          1 1 1 1 1 1 1 1 1 1 1 1
          1 1 1 1 1 1 1 1 1 1 1 1
          1 1 1 1 1 1 1 1 1 1 1 1
          1 1 1 1 1 1 1 1 1 1 1 1
          1 1 1 1 1 1 1 1 1 1 1 1
          1 1 1 1 1 1 1 1
        </DataArray>
        <DataArray type="Float32" Name="potential" NumberOfComponents="1" format="ascii">
          0.00708797 0.00695774 0.00671288 0.00672708 0.00635906 0.00634086 0.00598289 0.0059738 0.00558748 0.00558666 0.00519582 0.00519263
          0.00479654 0.00479965 0.00440992 0.00441122 0.00403325 0.00403539 0.00365923 0.00365686 0.00328897 0.0032875 0.00262719 0.00262801
          0.00202115 0.00202071 0.00147325 0.00147317 0.000986832 0.000986723 0.000561435 0.000561206 0.000126933 0.000126634 -0.00022287 -0.000223
          -0.000498023 -0.000498053 -0.00070944 -0.000709345 -0.000866771 -0.000866907 -0.000981145 -0.000981174 -0.00105977 -0.00105984 -0.00110998 -0.00110998
          -0.00113774 -0.00113776 -0.001147 -0.00114701 -0.0011407 -0.00114071 -0.0011208 -0.00112075 -0.00108801 -0.00108803 -0.00104264 -0.00104268
          -0.000984134 -0.000984124 -0.000911623 -0.000911584 -0.000823955 -0.000823958 -0.000720582 -0.000720588 -0.000601175 -0.000601166 -0.000467179 -0.000467179
          -0.000323179 -0.000323178 -0.000179701 -0.000179701 -5.91394e-05 -5.91392e-05 0 0
        </DataArray>
        <DataArray type="Float32" Name="boxVolume" NumberOfComponents="1" format="ascii">
          6.35e-05 6.35e-05 0.000127 0.000127 0.000127 0.000127 0.000127 0.000127 0.000127 0.000127 0.000127 0.000127
          0.000127 0.000127 0.000127 0.000127 0.000127 0.000127 0.000127 0.000127 0.0001905 0.0001905 0.000254 0.000254
          0.000254 0.000254 0.000254 0.000254 0.000254 0.000254 0.00028575 0.00028575 0.0003175 0.0003175 0.0003175 0.0003175
          0.0003175 0.0003175 0.0003175 0.0003175 0.0003175 0.0003175 0.0003175 0.0003175 0.0003175 0.0003175 0.0003175 0.0003175
          0.0003175 0.0003175 0.0003175 0.0003175 0.0003175 0.0003175 0.0003175 0.0003175 0.0003175 0.0003175 0.0003175 0.0003175
          0.0003175 0.0003175 0.0003175 0.0003175 0.0003175 0.0003175 0.0003175 0.0003175 0.0003175 0.0003175 0.0003175 0.0003175
          0.0003175 0.0003175 0.0003175 0.0003175 0.0003175 0.0003175 0.00015875 0.00015875
        </DataArray>
        <DataArray type="Float32" Name="pH" NumberOfComponents="1" format="ascii">
          7.07638 7.27276 7.24806 7.24996 7.23414 7.23354 7.21729 7.21503 7.19539 7.19574 7.17711 7.17712
          7.15988 7.15919 7.14188 7.14202 7.12596 7.12613 7.11059 7.11054 7.09553 7.09551 7.07011 7.07016
          7.04742 7.04743 7.02766 7.02767 7.0104 7.01042 6.99546 6.9955 6.98086 6.98074 6.96859 6.9686
          6.95907 6.95906 6.95167 6.95168 6.94615 6.94615 6.94227 6.94236 6.93973 6.93968 6.93694 6.93696
          6.93627 6.93628 6.93651 6.93658 6.93741 6.93758 6.93986 6.93974 6.94279 6.9428 6.94748 6.94749
          6.95409 6.95407 6.96319 6.96321 6.97337 6.97339 6.99028 6.9903 7.01381 7.01382 7.04789 7.0479
          7.09784 7.09785 7.16997 7.16997 7.25457 7.25455 6.19963 6.19963
        </DataArray>
        <DataArray type="Float32" Name="Omega" NumberOfComponents="1" format="ascii">
          1.05985 4.24762 3.95868 3.98742 4.12603 4.13749 4.22868 4.17811 4.19397 4.20487 4.23477 4.23935
          4.29539 4.27156 4.29905 4.30154 4.33321 4.33512 4.36543 4.36709 4.38956 4.39062 4.44797 4.44849
          4.49281 4.4935 4.53766 4.53807 4.57522 4.57588 4.60707 4.60838 4.65684 4.6538 4.68452 4.68498
          4.71462 4.71415 4.74089 4.74092 4.76571 4.76602 4.79334 4.79598 4.82081 4.81934 4.80611 4.80661
          4.82641 4.82663 4.84773 4.84995 4.86343 4.86881 4.90098 4.89708 4.92338 4.92372 4.96533 4.96576
          5.02246 5.02155 5.09881 5.09935 5.12348 5.12416 5.2506 5.25146 5.42547 5.42587 5.70422 5.70464
          6.16452 6.1652 6.94837 6.94889 8.01283 8.01296 0 0
        </DataArray>
        <DataArray type="Float32" Name="rurea" NumberOfComponents="1" format="ascii">
          0 0 0 0 0 0 0 0 0 0 0 0
          0 0 0 0 0 0 0 0 0 0 0 0
          0 0 0 0 0 0 0 0 0 0 0 0
          0 0 0 0 0 0 0 0 0 0 0 0
          0 0 0 0 0 0 0 0 0 0 0 0
          0 0 0 0 0 0 0 0 0 0 0 0
          0 0 0 0 0 0 0 0
        </DataArray>
        <DataArray type="Float32" Name="Volume_Fraction_Biofilm" NumberOfComponents="1" format="ascii">
          0.0144224 0.0144206 0.014074 0.0140786 0.0141459 0.0140012 0.0132479 0.0138973 0.0141056 0.0139401 0.0139029 0.0138477
          0.0135393 0.013807 0.0137918 0.0137534 0.0136644 0.0136374 0.0135663 0.0135548 0.0135532 0.0135435 0.0133653 0.0133613
          0.0132611 0.0132506 0.0131364 0.0131391 0.0130323 0.0130288 0.0129688 0.0129538 0.0127835 0.0128035 0.0127162 0.0127089
          0.0126141 0.0126179 0.0125233 0.0125241 0.0124192 0.0124188 0.0123044 0.0122911 0.0121707 0.0121783 0.0122217 0.0122204
          0.0121168 0.0121121 0.0119953 0.0119816 0.0118936 0.0118699 0.0117004 0.011718 0.0115731 0.0115709 0.0113599 0.0113574
          0.0110998 0.011101 0.0107606 0.0107593 0.010609 0.0106069 0.0101107 0.0101064 0.00950351 0.00950145 0.00866455 0.00866281
          0.00750865 0.00750628 0.00586536 0.00586346 0.00339027 0.00338914 0 0
        </DataArray>
        <DataArray type="Float32" Name="Volume_Fraction_Calcite" NumberOfComponents="1" format="ascii">
          0.0344903 0.0344053 0.0414137 0.0412153 0.0440024 0.043588 0.0426123 0.0449473 0.0463013 0.0458318 0.0470734 0.0469877
          0.0470965 0.0478718 0.0488199 0.0488379 0.0497985 0.0498204 0.0507038 0.0505557 0.0514795 0.0514482 0.0528534 0.0528013
          0.0542024 0.0542822 0.0552183 0.0550806 0.0562902 0.056242 0.0567455 0.0568388 0.0571678 0.0572161 0.0574756 0.0575773
          0.0574624 0.0574288 0.0571096 0.0570875 0.0567918 0.0567607 0.0559809 0.0559528 0.0552324 0.0552473 0.0550548 0.0550243
          0.053913 0.0540003 0.0529527 0.0530067 0.0520535 0.0519877 0.0506542 0.0506804 0.0493903 0.0494036 0.0479251 0.0479396
          0.0460178 0.0460876 0.0440661 0.0440362 0.0422945 0.0422703 0.0392911 0.0393146 0.0354955 0.0355063 0.03058 0.0305858
          0.0238119 0.0238115 0.0147654 0.0147584 0.00660467 0.00660407 0 0
        </DataArray>
        <DataArray type="Float32" Name="Kxx" NumberOfComponents="1" format="ascii">
          1.35237e-10 1.35337e-10 1.2778e-10 1.27996e-10 1.24843e-10 1.25456e-10 1.27366e-10 1.24081e-10 1.22385e-10 1.23072e-10 1.2177e-10 1.21922e-10
          1.22137e-10 1.21015e-10 1.20016e-10 1.20038e-10 1.1911e-10 1.19116e-10 1.18255e-10 1.18424e-10 1.17451e-10 1.17494e-10 1.16208e-10 1.16267e-10
          1.14913e-10 1.14841e-10 1.13991e-10 1.14131e-10 1.12996e-10 1.13049e-10 1.12595e-10 1.12515e-10 1.12353e-10 1.12283e-10 1.12107e-10 1.12011e-10
          1.12225e-10 1.12255e-10 1.12678e-10 1.127e-10 1.13111e-10 1.13143e-10 1.14063e-10 1.14106e-10 1.14975e-10 1.14952e-10 1.15107e-10 1.1514e-10
          1.16405e-10 1.16319e-10 1.1754e-10 1.17498e-10 1.18597e-10 1.18692e-10 1.20291e-10 1.20244e-10 1.21784e-10 1.21772e-10 1.23602e-10 1.23588e-10
          1.25975e-10 1.25897e-10 1.28517e-10 1.28552e-10 1.30678e-10 1.30707e-10 1.34673e-10 1.3465e-10 1.3981e-10 1.398e-10 1.4672e-10 1.46715e-10
          1.56602e-10 1.56605e-10 1.70623e-10 1.70635e-10 1.85379e-10 1.85382e-10 2e-10 2e-10
        </DataArray>
        <DataArray type="Float32" Name="X_lBrine" NumberOfComponents="1" format="ascii">
          0.979494 0.979132 0.978468 0.978507 0.977495 0.977445 0.976448 0.976422 0.975332 0.97533 0.974212 0.974203
          0.973055 0.973064 0.971919 0.971923 0.970797 0.970803 0.969667 0.96966 0.968532 0.968528 0.96646 0.966462
          0.964505 0.964503 0.962682 0.962682 0.961012 0.961012 0.959504 0.959503 0.957904 0.957903 0.956559 0.956558
          0.955451 0.955451 0.954559 0.954559 0.953862 0.953861 0.953329 0.953329 0.952943 0.952943 0.952684 0.952684
          0.952536 0.952536 0.952491 0.952491 0.952545 0.952545 0.952701 0.952701 0.952973 0.952973 0.953382 0.953382
          0.953962 0.953962 0.954765 0.954765 0.955865 0.955865 0.957362 0.957362 0.959407 0.959407 0.962213 0.962213
          0.966093 0.966093 0.971509 0.971509 0.979095 0.979095 0.99029 0.99029
        </DataArray>
        <DataArray type="Float32" Name="X_lTotalC" NumberOfComponents="1" format="ascii">
          7.47206e-05 0.000126388 0.000123134 0.000123467 0.000125027 0.000125154 0.000126133 0.000125567 0.000125672 0.000125795 0.000126032 0.000126083
          0.000126589 0.000126321 0.000126484 0.000126513 0.000126708 0.00012673 0.000126892 0.000126909 0.000126969 0.00012698 0.000127237 0.000127243
          0.000127339 0.000127346 0.000127442 0.000127446 0.000127477 0.000127484 0.000127472 0.000127486 0.000127631 0.000127597 0.000127599 0.000127604
          0.000127648 0.000127642 0.000127706 0.000127707 0.000127798 0.000127801 0.000127962 0.00012799 0.000128164 0.000128146 0.00012794 0.000127946
          0.000128127 0.000128129 0.000128351 0.000128375 0.000128541 0.000128599 0.000128991 0.00012895 0.000129308 0.000129311 0.000129863 0.000129867
          0.000130613 0.000130604 0.000131603 0.000131608 0.000132129 0.000132136 0.000133743 0.000133751 0.000135845 0.000135849 0.000138798 0.000138801
          0.000142588 0.000142591 0.000145222 0.000145221 0.000131955 0.000131947 5.81077e-07 5.81077e-07
        </DataArray>
        <DataArray type="Float32" Name="X_lNa" NumberOfComponents="1" format="ascii">
          2.9768e-06 2.94963e-06 2.88155e-06 2.88561e-06 2.78313e-06 2.77804e-06 2.67696e-06 2.67429e-06 2.56359e-06 2.5634e-06 2.44994e-06 2.44903e-06
          2.33254e-06 2.33342e-06 2.21717e-06 2.21757e-06 2.10327e-06 2.10392e-06 1.98856e-06 1.98783e-06 1.87336e-06 1.8729e-06 1.66295e-06 1.66322e-06
          1.46442e-06 1.46427e-06 1.27936e-06 1.27933e-06 1.10978e-06 1.10974e-06 9.56564e-07 9.56482e-07 7.94049e-07 7.93928e-07 6.57318e-07 6.57267e-07
          5.44735e-07 5.44722e-07 4.53978e-07 4.54019e-07 3.82952e-07 3.82889e-07 3.28517e-07 3.28508e-07 2.88941e-07 2.889e-07 2.62033e-07 2.62034e-07
          2.46216e-07 2.46205e-07 2.40541e-07 2.40536e-07 2.44579e-07 2.4458e-07 2.58566e-07 2.58589e-07 2.83604e-07 2.83588e-07 3.21624e-07 3.21591e-07
          3.75857e-07 3.75866e-07 4.51036e-07 4.5108e-07 5.53941e-07 5.53938e-07 6.94245e-07 6.9424e-07 8.85911e-07 8.85929e-07 1.14908e-06 1.14908e-06
          1.51328e-06 1.51328e-06 2.02276e-06 2.02277e-06 2.74148e-06 2.74148e-06 3.74885e-06 3.74885e-06
        </DataArray>
        <DataArray type="Float32" Name="X_lCl" NumberOfComponents="1" format="ascii">
          0.0117436 0.0119208 0.0123729 0.0123459 0.013026 0.0130598 0.0137307 0.0137484 0.0144832 0.0144844 0.0152375 0.0152435
          0.0160167 0.0160109 0.0167825 0.0167798 0.0175385 0.0175342 0.0182998 0.0183047 0.0190645 0.0190675 0.020461 0.0204593
          0.0217788 0.0217797 0.0230071 0.0230073 0.0241326 0.0241329 0.0251496 0.0251501 0.0262283 0.0262291 0.0271358 0.0271361
          0.027883 0.0278831 0.0284854 0.0284851 0.0289567 0.0289572 0.029318 0.029318 0.0295805 0.0295808 0.029759 0.029759
          0.0298638 0.0298639 0.0299012 0.0299013 0.0298741 0.0298741 0.0297808 0.0297806 0.029614 0.0296141 0.0293608 0.029361
          0.0289997 0.0289997 0.0284992 0.028499 0.0278143 0.0278143 0.0268802 0.0268803 0.0256043 0.0256042 0.0238523 0.0238523
          0.0214276 0.0214275 0.0180351 0.0180351 0.0132477 0.0132477 0.00655617 0.00655617
        </DataArray>
        <DataArray type="Float32" Name="X_lCa" NumberOfComponents="1" format="ascii">
          0.000132956 0.000182267 0.00018502 0.000184983 0.000194999 0.000195546 0.000204955 0.00020463 0.000214006 0.000214141 0.000223876 0.000224002
          0.000234255 0.000233921 0.000243824 0.000243819 0.000253591 0.000253559 0.000263389 0.000263468 0.000273126 0.000273175 0.00029104 0.000291024
          0.000307798 0.000307818 0.00032343 0.000323437 0.000337698 0.000337708 0.000350552 0.000350573 0.000364353 0.000364328 0.000375791 0.000375801
          0.000385282 0.000385277 0.000392945 0.000392941 0.00039898 0.000398989 0.000403694 0.000403725 0.000407194 0.00040718 0.000409169 0.000409175
          0.000410645 0.000410649 0.000411307 0.000411333 0.00041111 0.000411174 0.000410363 0.000410314 0.000408538 0.000408544 0.000405898 0.000405906
          0.000402135 0.000402124 0.000396933 0.000396937 0.000388843 0.000388852 0.000379078 0.00037909 0.000365915 0.00036592 0.000348803 0.00034881
          0.000327685 0.0003277 0.000307053 0.000307075 0.000316098 0.000316132 0 0
        </DataArray>
        <DataArray type="Float32" Name="X_lUrea" NumberOfComponents="1" format="ascii">
          5.97772e-08 6.15789e-08 7.11452e-08 7.11071e-08 7.45912e-08 8.15855e-08 1.44968e-07 9.42656e-08 9.04323e-08 9.98631e-08 1.09807e-07 1.13818e-07
          1.51369e-07 1.26677e-07 1.37252e-07 1.40099e-07 1.57605e-07 1.59954e-07 1.77802e-07 1.79593e-07 1.90142e-07 1.91418e-07 2.36109e-07 2.36887e-07
          2.72888e-07 2.74115e-07 3.17254e-07 3.17723e-07 3.57891e-07 3.59034e-07 3.94021e-07 3.96769e-07 4.68937e-07 4.62556e-07 5.09034e-07 5.10261e-07
          5.6158e-07 5.6047e-07 6.1215e-07 6.12164e-07 6.66178e-07 6.66867e-07 7.32756e-07 7.39854e-07 8.07603e-07 8.03343e-07 7.69748e-07 7.71024e-07
          8.30272e-07 8.31199e-07 8.99354e-07 9.0645e-07 9.56459e-07 9.73581e-07 1.09121e-06 1.07763e-06 1.18402e-06 1.18535e-06 1.36274e-06 1.36455e-06
          1.62935e-06 1.62558e-06 2.03991e-06 2.04269e-06 2.22495e-06 2.22879e-06 3.10567e-06 3.11238e-06 4.66388e-06 4.66828e-06 8.11233e-06 8.11881e-06
          1.71152e-05 1.71335e-05 4.68152e-05 4.68497e-05 0.000169769 0.000169832 0 0
        </DataArray>
        <DataArray type="Float32" Name="X_lTotalNH" NumberOfComponents="1" format="ascii">
          0.00558581 0.00566902 0.00588134 0.00586868 0.00618808 0.00620394 0.00651897 0.00652732 0.00687241 0.006873 0.00722666 0.00722949
          0.00759259 0.00758987 0.00795223 0.00795099 0.00830727 0.00830524 0.00866482 0.00866712 0.00902394 0.00902536 0.0096798 0.00967897
          0.0102986 0.0102991 0.0108755 0.0108756 0.0114041 0.0114042 0.0118817 0.011882 0.0123883 0.0123886 0.0128145 0.0128146
          0.0131654 0.0131654 0.0134483 0.0134482 0.0136697 0.0136699 0.0138393 0.0138393 0.0139626 0.0139628 0.0140465 0.0140465
          0.0140957 0.0140958 0.0141133 0.0141133 0.0141006 0.0141006 0.0140568 0.0140567 0.0139784 0.0139785 0.0138595 0.0138596
          0.0136898 0.0136898 0.0134546 0.0134544 0.0131328 0.0131328 0.0126937 0.0126937 0.0120935 0.0120935 0.0112687 0.0112687
          0.0101248 0.0101248 0.00851474 0.0085147 0.00619701 0.00619695 0.00314947 0.00314947
        </DataArray>
        <DataArray type="Float32" Name="X_lO2" NumberOfComponents="1" format="ascii">
          -1.60243e-14 -8.77218e-14 -1.22721e-12 -9.28839e-13 -3.41725e-11 -3.78568e-11 -8.67697e-10 -8.33798e-10 -2.52849e-08 -1.66969e-09 -5.39456e-10 -3.37049e-10
          -1.01451e-09 -1.84602e-10 -2.72468e-08 -2.74995e-09 -2.82389e-08 -3.43495e-09 -2.72827e-08 -2.1133e-09 -3.33812e-10 -7.43402e-10 -2.61375e-08 -2.65862e-08
          -3.89076e-10 -3.76038e-10 -2.07932e-12 -2.37322e-12 -1.33856e-14 -1.42152e-14 -1.21596e-12 -9.64226e-13 -2.30051e-10 -2.46296e-10 -2.30125e-08 -2.3286e-08
          -2.09576e-10 -2.40526e-10 -1.1098e-12 -7.85443e-13 -2.09838e-15 -3.44868e-15 -7.82124e-18 -5.02449e-18 -1.08001e-20 -1.42893e-20 -1.5714e-23 -1.39606e-23
          7.16426e-23 7.22745e-23 1.25871e-24 1.30339e-24 8.21912e-25 9.20564e-25 1.03603e-24 9.58334e-25 8.92167e-25 8.97856e-25 1.02656e-24 1.03559e-24
          7.4766e-25 7.39768e-25 5.20133e-25 5.24432e-25 7.48378e-25 7.63126e-25 3.56188e-25 3.62837e-25 6.12091e-25 6.16739e-25 4.06076e-25 4.07056e-25
          2.97584e-24 3.0876e-24 1.05647e-22 1.01079e-22 1.61471e-20 1.62745e-20 0 0
        </DataArray>
        <DataArray type="Float32" Name="X_lSubstrate" NumberOfComponents="1" format="ascii">
          0.00296569 0.00296568 0.00296641 0.00296636 0.00296742 0.00296747 0.00296851 0.00296855 0.00296964 0.00296969 0.00297086 0.00297087
          0.00297206 0.00297205 0.00297318 0.00297323 0.00297433 0.00297438 0.00297549 0.00297555 0.00297669 0.00297669 0.0029787 0.0029787
          0.00298063 0.00298063 0.00298231 0.00298231 0.00298374 0.00298374 0.00298489 0.00298489 0.00298586 0.00298586 0.00298625 0.00298625
          0.00298613 0.00298613 0.00298527 0.00298527 0.0029836 0.0029836 0.00298091 0.00298091 0.00297697 0.00297697 0.00297143 0.00297143
          0.00296378 0.00296378 0.00295335 0.00295335 0.00293926 0.00293925 0.00292023 0.00292021 0.00289453 0.00289455 0.0028599 0.00285993
          0.0028131 0.00281309 0.00274979 0.00274975 0.00266398 0.00266398 0.00254733 0.00254734 0.00238798 0.00238797 0.00216893 0.00216893
          0.00186539 0.00186538 0.00144024 0.00144024 0.000839895 0.00083989 0 0
        </DataArray>
        <DataArray type="Float32" Name="X_lSuspended_Biomass" NumberOfComponents="1" format="ascii">
          3.79381e-07 3.48588e-07 3.61446e-07 3.60468e-07 3.65369e-07 3.63346e-07 3.54888e-07 3.66015e-07 3.73921e-07 3.7046e-07 3.74162e-07 3.73122e-07
          3.71019e-07 3.75701e-07 3.75038e-07 3.74207e-07 3.81297e-07 3.79707e-07 3.82593e-07 3.80907e-07 3.65534e-07 3.68961e-07 3.98039e-07 3.97731e-07
          4.03537e-07 4.01462e-07 4.02423e-07 4.01964e-07 4.0713e-07 4.06093e-07 4.07349e-07 4.0658e-07 4.14192e-07 4.1323e-07 4.23707e-07 4.24965e-07
          4.15941e-07 4.14955e-07 4.19664e-07 4.19084e-07 4.18297e-07 4.1802e-07 4.2045e-07 4.19631e-07 4.21128e-07 4.20398e-07 4.20284e-07 4.19026e-07
          4.22624e-07 4.22719e-07 4.24912e-07 4.25352e-07 4.26882e-07 4.26726e-07 4.3028e-07 4.30993e-07 4.25901e-07 4.26871e-07 4.25752e-07 4.26705e-07
          4.19015e-07 4.19852e-07 4.09742e-07 4.10407e-07 3.97025e-07 3.97494e-07 3.7856e-07 3.78917e-07 3.50128e-07 3.50336e-07 3.12342e-07 3.1248e-07
          2.61474e-07 2.61537e-07 1.93882e-07 1.93903e-07 1.06167e-07 1.06167e-07 0 0
        </DataArray>
        <DataArray type="Float32" Name="X_lNH4" NumberOfComponents="1" format="ascii">
          0.00587963 0.00594614 0.0061723 0.00615876 0.00649629 0.00651303 0.00684619 0.00685526 0.0072206 0.00722118 0.00759556 0.00759853
          0.0079828 0.00798002 0.00836365 0.00836233 0.00873951 0.00873736 0.00911805 0.00912048 0.00949829 0.00949979 0.0101927 0.0101918
          0.010848 0.0108485 0.0114588 0.0114589 0.0120186 0.0120187 0.0125244 0.0125246 0.0130608 0.0130612 0.0135122 0.0135123
          0.0138838 0.0138838 0.0141833 0.0141832 0.0144178 0.014418 0.0145974 0.0145974 0.0147279 0.014728 0.0148168 0.0148168
          0.0148689 0.0148689 0.0148874 0.0148874 0.0148738 0.0148738 0.0148272 0.0148272 0.0147441 0.0147442 0.0146179 0.014618
          0.0144379 0.0144379 0.0141884 0.0141882 0.0138474 0.0138474 0.0133816 0.0133816 0.0127452 0.0127451 0.0118705 0.0118705
          0.0106576 0.0106575 0.00895154 0.0089515 0.00650307 0.00650301 0.00333307 0.00333307
        </DataArray>
        <DataArray type="Float32" Name="X_lHCO3" NumberOfComponents="1" format="ascii">
          8.87217e-05 0.000158552 0.000153645 0.000154126 0.000155566 0.000155705 0.000156375 0.000155587 0.00015502 0.000155186 0.000154798 0.000154862
          0.000154837 0.000154479 0.000154007 0.000154049 0.000153648 0.000153682 0.000153244 0.000153264 0.000152708 0.000152721 0.000151939 0.000151949
          0.00015105 0.000151059 0.000150266 0.000150272 0.000149496 0.000149505 0.000148772 0.000148791 0.000148246 0.0001482 0.000147598 0.000147604
          0.000147175 0.000147168 0.000146867 0.000146868 0.000146691 0.000146695 0.000146683 0.000146721 0.000146788 0.000146764 0.000146381 0.000146388
          0.000146564 0.000146567 0.000146839 0.00014687 0.000147108 0.000147184 0.000147762 0.000147707 0.000148286 0.000148291 0.000149182 0.000149188
          0.000150408 0.000150396 0.000152047 0.000152055 0.000153194 0.000153203 0.000155975 0.000155986 0.000159677 0.000159682 0.000164926 0.00016493
          0.000171955 0.00017196 0.000178539 0.000178538 0.000165532 0.000165521 3.37056e-07 3.37056e-07
        </DataArray>
        <DataArray type="Float32" Name="X_lCO3" NumberOfComponents="1" format="ascii">
          6.16805e-08 1.80223e-07 1.65316e-07 1.66559e-07 1.63272e-07 1.63256e-07 1.5898e-07 1.57323e-07 1.50779e-07 1.51075e-07 1.45313e-07 1.45387e-07
          1.40642e-07 1.40063e-07 1.3503e-07 1.35111e-07 1.30662e-07 1.30737e-07 1.26542e-07 1.26551e-07 1.22516e-07 1.22523e-07 1.16177e-07 1.16197e-07
          1.10664e-07 1.10674e-07 1.06102e-07 1.0611e-07 1.02227e-07 1.02239e-07 9.89603e-08 9.89821e-08 9.60297e-08 9.59733e-08 9.34879e-08 9.34946e-08
          9.16317e-08 9.16236e-08 9.0235e-08 9.02363e-08 8.92498e-08 8.92536e-08 8.86542e-08 8.86962e-08 8.83492e-08 8.83251e-08 8.76238e-08 8.76317e-08
          8.766e-08 8.76632e-08 8.79006e-08 8.79351e-08 8.82345e-08 8.83186e-08 8.90976e-08 8.90372e-08 8.99392e-08 8.99442e-08 9.13484e-08 9.13543e-08
          9.33402e-08 9.33261e-08 9.61097e-08 9.61191e-08 9.8737e-08 9.87478e-08 1.04012e-07 1.04026e-07 1.11662e-07 1.11669e-07 1.23644e-07 1.2365e-07
          1.43005e-07 1.43014e-07 1.73317e-07 1.73318e-07 1.96179e-07 1.96161e-07 2.55591e-11 2.55591e-11
        </DataArray>
        <DataArray type="Float32" Name="X_lCO2" NumberOfComponents="1" format="ascii">
          1.06984e-05 1.19245e-05 1.22196e-05 1.22044e-05 1.27291e-05 1.27557e-05 1.32548e-05 1.32584e-05 1.37769e-05 1.37799e-05 1.43008e-05 1.43058e-05
          1.4833e-05 1.48238e-05 1.53306e-05 1.53296e-05 1.5817e-05 1.58148e-05 1.62948e-05 1.62982e-05 1.67612e-05 1.67633e-05 1.75892e-05 1.75884e-05
          1.83363e-05 1.8337e-05 1.90078e-05 1.9008e-05 1.96011e-05 1.96015e-05 2.01202e-05 2.0121e-05 2.06609e-05 2.066e-05 2.1098e-05 2.10983e-05
          2.14527e-05 2.14526e-05 2.17345e-05 2.17344e-05 2.19539e-05 2.19542e-05 2.21241e-05 2.21252e-05 2.22508e-05 2.22497e-05 2.23213e-05 2.23215e-05
          2.23758e-05 2.23759e-05 2.24018e-05 2.24028e-05 2.23978e-05 2.24001e-05 2.23746e-05 2.23729e-05 2.23129e-05 2.23131e-05 2.22209e-05 2.22211e-05
          2.20855e-05 2.20851e-05 2.18913e-05 2.18914e-05 2.15886e-05 2.15889e-05 2.11932e-05 2.11935e-05 2.06209e-05 2.06209e-05 1.97796e-05 1.97796e-05
          1.84866e-05 1.84865e-05 1.63508e-05 1.63506e-05 1.24466e-05 1.24463e-05 3.38012e-07 3.38012e-07
        </DataArray>
        <DataArray type="Float32" Name="X_lH" NumberOfComponents="1" format="ascii">
          8.33287e-11 5.30024e-11 5.60802e-11 5.58362e-11 5.78679e-11 5.7946e-11 6.01142e-11 6.04267e-11 6.31766e-11 6.31257e-11 6.58414e-11 6.58399e-11
          6.84536e-11 6.85629e-11 7.12955e-11 7.12714e-11 7.39e-11 7.38728e-11 7.65046e-11 7.65124e-11 7.91423e-11 7.91466e-11 8.37957e-11 8.3786e-11
          8.81719e-11 8.81706e-11 9.21621e-11 9.21597e-11 9.57888e-11 9.57846e-11 9.90382e-11 9.903e-11 1.02314e-10 1.02341e-10 1.05147e-10 1.05144e-10
          1.07396e-10 1.074e-10 1.09175e-10 1.09174e-10 1.1052e-10 1.10519e-10 1.11471e-10 1.11448e-10 1.12095e-10 1.12107e-10 1.12797e-10 1.12792e-10
          1.12959e-10 1.12958e-10 1.12894e-10 1.12875e-10 1.12666e-10 1.12621e-10 1.12043e-10 1.12075e-10 1.11311e-10 1.11309e-10 1.10147e-10 1.10144e-10
          1.08528e-10 1.08535e-10 1.06339e-10 1.06334e-10 1.03955e-10 1.03951e-10 1.00091e-10 1.00086e-10 9.49478e-11 9.49451e-11 8.79557e-11 8.79538e-11
          7.86121e-11 7.86101e-11 6.68331e-11 6.68332e-11 5.52905e-11 5.52931e-11 6.32454e-10 6.32454e-10
        </DataArray>
        <DataArray type="Float32" Name="X_lOH" NumberOfComponents="1" format="ascii">
          1.9979e-06 3.13929e-06 2.96436e-06 2.97747e-06 2.869e-06 2.86493e-06 2.75788e-06 2.74353e-06 2.62024e-06 2.62234e-06 2.51038e-06 2.51041e-06
          2.4108e-06 2.40699e-06 2.31114e-06 2.31194e-06 2.22629e-06 2.22713e-06 2.1472e-06 2.14696e-06 2.07244e-06 2.07232e-06 1.95184e-06 1.95208e-06
          1.85003e-06 1.85006e-06 1.76554e-06 1.76558e-06 1.69482e-06 1.6949e-06 1.63584e-06 1.63597e-06 1.58e-06 1.57958e-06 1.5346e-06 1.53464e-06
          1.50019e-06 1.50013e-06 1.47393e-06 1.47395e-06 1.4546e-06 1.45462e-06 1.44115e-06 1.44143e-06 1.43237e-06 1.43222e-06 1.42295e-06 1.42301e-06
          1.42062e-06 1.42064e-06 1.42137e-06 1.4216e-06 1.42435e-06 1.42492e-06 1.4326e-06 1.43219e-06 1.44257e-06 1.4426e-06 1.45865e-06 1.45869e-06
          1.48162e-06 1.48153e-06 1.51384e-06 1.51391e-06 1.55095e-06 1.55102e-06 1.61422e-06 1.61431e-06 1.70655e-06 1.7066e-06 1.84947e-06 1.84951e-06
          2.08053e-06 2.08059e-06 2.46568e-06 2.46568e-06 3.01157e-06 3.01143e-06 2.67481e-07 2.67481e-07
        </DataArray>
        <DataArray type="Float32" Name="X_gBrine" NumberOfComponents="1" format="ascii">
          0.0112393 0.0112218 0.0112298 0.0112299 0.011237 0.0112369 0.011244 0.011244 0.0112509 0.0112509 0.0112578 0.0112578
          0.0112646 0.0112646 0.0112715 0.0112715 0.0112784 0.0112784 0.0112853 0.0112853 0.0112923 0.0112922 0.0113066 0.0113066
          0.0113214 0.0113214 0.0113365 0.0113365 0.011352 0.011352 0.011368 0.011368 0.0113889 0.0113889 0.0114105 0.0114105
          0.0114328 0.0114328 0.0114557 0.0114557 0.0114793 0.0114793 0.0115033 0.0115033 0.0115279 0.0115279 0.0115529 0.0115529
          0.0115783 0.0115783 0.0116041 0.0116041 0.0116302 0.0116302 0.0116568 0.0116568 0.0116837 0.0116837 0.011711 0.011711
          0.0117389 0.0117389 0.0117675 0.0117675 0.0117969 0.0117969 0.0118274 0.0118274 0.0118593 0.0118593 0.0118932 0.0118932
          0.0119298 0.0119298 0.0119701 0.0119701 0.0120158 0.0120158 0.0120698 0.0120698
        </DataArray>
        <DataArray type="Float32" Name="X_gTotalC" NumberOfComponents="1" format="ascii">
          0.988761 0.988778 0.98877 0.98877 0.988763 0.988763 0.988756 0.988756 0.988749 0.988749 0.988742 0.988742
          0.988735 0.988735 0.988729 0.988729 0.988722 0.988722 0.988715 0.988715 0.988708 0.988708 0.988693 0.988693
          0.988679 0.988679 0.988664 0.988664 0.988648 0.988648 0.988632 0.988632 0.988611 0.988611 0.98859 0.98859
          0.988567 0.988567 0.988544 0.988544 0.988521 0.988521 0.988497 0.988497 0.988472 0.988472 0.988447 0.988447
          0.988422 0.988422 0.988396 0.988396 0.98837 0.98837 0.988343 0.988343 0.988316 0.988316 0.988289 0.988289
          0.988261 0.988261 0.988232 0.988232 0.988203 0.988203 0.988173 0.988173 0.988141 0.988141 0.988107 0.988107
          0.98807 0.98807 0.98803 0.98803 0.987984 0.987984 0.98793 0.98793
        </DataArray>
        <DataArray type="Float32" Name="X_gNa" NumberOfComponents="1" format="ascii">
          0 0 0 0 0 0 0 0 0 0 0 0
          0 0 0 0 0 0 0 0 0 0 0 0
          0 0 0 0 0 0 0 0 0 0 0 0
          0 0 0 0 0 0 0 0 0 0 0 0
          0 0 0 0 0 0 0 0 0 0 0 0
          0 0 0 0 0 0 0 0 0 0 0 0
          0 0 0 0 0 0 0 0
        </DataArray>
        <DataArray type="Float32" Name="X_gCl" NumberOfComponents="1" format="ascii">
          0 0 0 0 0 0 0 0 0 0 0 0
          0 0 0 0 0 0 0 0 0 0 0 0
          0 0 0 0 0 0 0 0 0 0 0 0
          0 0 0 0 0 0 0 0 0 0 0 0
          0 0 0 0 0 0 0 0 0 0 0 0
          0 0 0 0 0 0 0 0 0 0 0 0
          0 0 0 0 0 0 0 0
        </DataArray>
        <DataArray type="Float32" Name="X_gCa" NumberOfComponents="1" format="ascii">
          0 0 0 0 0 0 0 0 0 0 0 0
          0 0 0 0 0 0 0 0 0 0 0 0
          0 0 0 0 0 0 0 0 0 0 0 0
          0 0 0 0 0 0 0 0 0 0 0 0
          0 0 0 0 0 0 0 0 0 0 0 0
          0 0 0 0 0 0 0 0 0 0 0 0
          0 0 0 0 0 0 0 0
        </DataArray>
        <DataArray type="Float32" Name="X_gUrea" NumberOfComponents="1" format="ascii">
          0 0 0 0 0 0 0 0 0 0 0 0
          0 0 0 0 0 0 0 0 0 0 0 0
          0 0 0 0 0 0 0 0 0 0 0 0
          0 0 0 0 0 0 0 0 0 0 0 0
          0 0 0 0 0 0 0 0 0 0 0 0
          0 0 0 0 0 0 0 0 0 0 0 0
          0 0 0 0 0 0 0 0
        </DataArray>
        <DataArray type="Float32" Name="X_gTotalNH" NumberOfComponents="1" format="ascii">
          0 0 0 0 0 0 0 0 0 0 0 0
          0 0 0 0 0 0 0 0 0 0 0 0
          0 0 0 0 0 0 0 0 0 0 0 0
          0 0 0 0 0 0 0 0 0 0 0 0
          0 0 0 0 0 0 0 0 0 0 0 0
          0 0 0 0 0 0 0 0 0 0 0 0
          0 0 0 0 0 0 0 0
        </DataArray>
        <DataArray type="Float32" Name="X_gO2" NumberOfComponents="1" format="ascii">
          0 0 0 0 0 0 0 0 0 0 0 0
          0 0 0 0 0 0 0 0 0 0 0 0
          0 0 0 0 0 0 0 0 0 0 0 0
          0 0 0 0 0 0 0 0 0 0 0 0
          0 0 0 0 0 0 0 0 0 0 0 0
          0 0 0 0 0 0 0 0 0 0 0 0
          0 0 0 0 0 0 0 0
        </DataArray>
        <DataArray type="Float32" Name="X_gSubstrate" NumberOfComponents="1" format="ascii">
          0 0 0 0 0 0 0 0 0 0 0 0
          0 0 0 0 0 0 0 0 0 0 0 0
          0 0 0 0 0 0 0 0 0 0 0 0
          0 0 0 0 0 0 0 0 0 0 0 0
          0 0 0 0 0 0 0 0 0 0 0 0
          0 0 0 0 0 0 0 0 0 0 0 0
          0 0 0 0 0 0 0 0
        </DataArray>
        <DataArray type="Float32" Name="X_gSuspended_Biomass" NumberOfComponents="1" format="ascii">
          0 0 0 0 0 0 0 0 0 0 0 0
          0 0 0 0 0 0 0 0 0 0 0 0
          0 0 0 0 0 0 0 0 0 0 0 0
          0 0 0 0 0 0 0 0 0 0 0 0
          0 0 0 0 0 0 0 0 0 0 0 0
          0 0 0 0 0 0 0 0 0 0 0 0
          0 0 0 0 0 0 0 0
        </DataArray>
        <DataArray type="Float32" Name="X_gNH4" NumberOfComponents="1" format="ascii">
          0 0 0 0 0 0 0 0 0 0 0 0
          0 0 0 0 0 0 0 0 0 0 0 0
          0 0 0 0 0 0 0 0 0 0 0 0
          0 0 0 0 0 0 0 0 0 0 0 0
          0 0 0 0 0 0 0 0 0 0 0 0
          0 0 0 0 0 0 0 0 0 0 0 0
          0 0 0 0 0 0 0 0
        </DataArray>
        <DataArray type="Float32" Name="X_gHCO3" NumberOfComponents="1" format="ascii">
          0 0 0 0 0 0 0 0 0 0 0 0
          0 0 0 0 0 0 0 0 0 0 0 0
          0 0 0 0 0 0 0 0 0 0 0 0
          0 0 0 0 0 0 0 0 0 0 0 0
          0 0 0 0 0 0 0 0 0 0 0 0
          0 0 0 0 0 0 0 0 0 0 0 0
          0 0 0 0 0 0 0 0
        </DataArray>
        <DataArray type="Float32" Name="X_gCO3" NumberOfComponents="1" format="ascii">
          0 0 0 0 0 0 0 0 0 0 0 0
          0 0 0 0 0 0 0 0 0 0 0 0
          0 0 0 0 0 0 0 0 0 0 0 0
          0 0 0 0 0 0 0 0 0 0 0 0
          0 0 0 0 0 0 0 0 0 0 0 0
          0 0 0 0 0 0 0 0 0 0 0 0
          0 0 0 0 0 0 0 0
        </DataArray>
        <DataArray type="Float32" Name="X_gCO2" NumberOfComponents="1" format="ascii">
          0.988761 0.988778 0.98877 0.98877 0.988763 0.988763 0.988756 0.988756 0.988749 0.988749 0.988742 0.988742
          0.988735 0.988735 0.988729 0.988729 0.988722 0.988722 0.988715 0.988715 0.988708 0.988708 0.988693 0.988693
          0.988679 0.988679 0.988664 0.988664 0.988648 0.988648 0.988632 0.988632 0.988611 0.988611 0.98859 0.98859
          0.988567 0.988567 0.988544 0.988544 0.988521 0.988521 0.988497 0.988497 0.988472 0.988472 0.988447 0.988447
          0.988422 0.988422 0.988396 0.988396 0.98837 0.98837 0.988343 0.988343 0.988316 0.988316 0.988289 0.988289
          0.988261 0.988261 0.988232 0.988232 0.988203 0.988203 0.988173 0.988173 0.988141 0.988141 0.988107 0.988107
          0.98807 0.98807 0.98803 0.98803 0.987984 0.987984 0.98793 0.98793
        </DataArray>
        <DataArray type="Float32" Name="X_gH" NumberOfComponents="1" format="ascii">
          0 0 0 0 0 0 0 0 0 0 0 0
          0 0 0 0 0 0 0 0 0 0 0 0
          0 0 0 0 0 0 0 0 0 0 0 0
          0 0 0 0 0 0 0 0 0 0 0 0
          0 0 0 0 0 0 0 0 0 0 0 0
          0 0 0 0 0 0 0 0 0 0 0 0
          0 0 0 0 0 0 0 0
        </DataArray>
        <DataArray type="Float32" Name="X_gOH" NumberOfComponents="1" format="ascii">
          0 0 0 0 0 0 0 0 0 0 0 0
          0 0 0 0 0 0 0 0 0 0 0 0
          0 0 0 0 0 0 0 0 0 0 0 0
          0 0 0 0 0 0 0 0 0 0 0 0
          0 0 0 0 0 0 0 0 0 0 0 0
          0 0 0 0 0 0 0 0 0 0 0 0
          0 0 0 0 0 0 0 0
        </DataArray>
        <DataArray type="Float32" Name="Molarity_Brine" NumberOfComponents="1" format="ascii">
          54645.2 54633.9 54613.5 54614.7 54583.6 54582.1 54551.4 54550.6 54517 54516.9 54482.5 54482.2
          54446.7 54447 54411.6 54411.7 54376.9 54377.1 54341.9 54341.6 54306.6 54306.5 54242.2 54242.3
          54181.3 54181.2 54124.4 54124.4 54072.2 54072.2 54024.9 54024.9 53974.7 53974.7 53932.4 53932.4
          53897.6 53897.6 53869.5 53869.5 53847.6 53847.6 53830.8 53830.8 53818.7 53818.7 53810.7 53810.7
          53806.2 53806.2 53805 53805 53807.1 53807.1 53812.5 53812.5 53821.7 53821.7 53835.4 53835.4
          53854.9 53854.9 53881.8 53881.8 53918.5 53918.5 53968.5 53968.5 54036.6 54036.6 54129.8 54129.8
          54258.4 54258.4 54437 54437 54685.4 54685.4 55049.2 55049.2
        </DataArray>
        <DataArray type="Float32" Name="Molarity_TotalC" NumberOfComponents="1" format="ascii">
          1.70678 2.88745 2.81395 2.82151 2.8585 2.86147 2.88517 2.87226 2.87611 2.87892 2.88582 2.887
          2.90012 2.89397 2.89924 2.89989 2.90586 2.90637 2.9116 2.91201 2.91488 2.91515 2.92384 2.92398
          2.92881 2.92899 2.93365 2.93375 2.93672 2.93689 2.93865 2.93898 2.9445 2.94371 2.94558 2.94569
          2.94822 2.9481 2.95079 2.9508 2.95386 2.95394 2.95839 2.95905 2.96359 2.96317 2.95878 2.95891
          2.96331 2.96336 2.96858 2.96912 2.97292 2.97425 2.98312 2.98217 2.99011 2.99019 3.00242 3.00252
          3.01902 3.0188 3.04086 3.04098 3.05158 3.05174 3.08688 3.08707 3.13268 3.13277 3.19693 3.19701
          3.2788 3.27889 3.33169 3.33167 3.01758 3.0174 0.0132254 0.0132254
        </DataArray>
        <DataArray type="Float32" Name="Molarity_Na" NumberOfComponents="1" format="ascii">
          0.130137 0.12897 0.126031 0.126207 0.121781 0.121561 0.117192 0.117077 0.112287 0.112278 0.107364 0.107325
          0.102273 0.102312 0.0972659 0.0972831 0.0923168 0.092345 0.0873275 0.0872954 0.0823113 0.0822914 0.0731362 0.0731478
          0.064463 0.0644565 0.0563639 0.0563628 0.0489308 0.0489291 0.0422047 0.0422011 0.0350603 0.0350549 0.0290411 0.0290389
          0.0240794 0.0240788 0.0200759 0.0200777 0.0169404 0.0169377 0.014536 0.0145356 0.0127872 0.0127854 0.0115978 0.0115978
          0.0108985 0.010898 0.0106476 0.0106473 0.0108261 0.0108262 0.0114445 0.0114455 0.0125513 0.0125506 0.0142315 0.01423
          0.0166271 0.0166275 0.019946 0.0199479 0.0244852 0.0244851 0.0306674 0.0306671 0.0390998 0.0391006 0.0506543 0.0506543
          0.0665987 0.0665989 0.0888162 0.0888164 0.119986 0.119986 0.1633 0.1633
        </DataArray>
        <DataArray type="Float32" Name="Molarity_Cl" NumberOfComponents="1" format="ascii">
          332.918 337.996 350.922 350.151 369.612 370.579 389.793 390.301 411.366 411.403 433.014 433.188
          455.401 455.233 477.422 477.347 499.187 499.062 521.128 521.269 543.187 543.274 583.535 583.484
          621.676 621.704 657.291 657.296 689.978 689.985 719.555 719.571 750.971 750.995 777.439 777.449
          799.257 799.259 816.86 816.852 830.646 830.658 841.216 841.218 848.903 848.911 854.13 854.13
          857.199 857.201 858.295 858.296 857.5 857.5 854.768 854.763 849.883 849.886 842.471 842.478
          831.905 831.903 817.268 817.259 797.25 797.25 769.985 769.987 732.797 732.793 681.838 681.838
          611.514 611.513 513.513 513.512 375.987 375.986 185.193 185.193
        </DataArray>
        <DataArray type="Float32" Name="Molarity_Ca" NumberOfComponents="1" format="ascii">
          3.3342 4.57152 4.642 4.64098 4.89455 4.9084 5.14693 5.13883 5.37698 5.38036 5.62787 5.63104
          5.89191 5.88348 6.13578 6.13565 6.38487 6.38404 6.63502 6.63704 6.8839 6.88515 7.3424 7.34199
          7.77218 7.77269 8.17379 8.17396 8.54094 8.54121 8.87221 8.87276 9.22834 9.22771 9.52396 9.5242
          9.76948 9.76937 9.96791 9.96783 10.1243 10.1245 10.2464 10.2472 10.3371 10.3368 10.3886 10.3887
          10.4268 10.4269 10.4438 10.4445 10.4387 10.4403 10.419 10.4178 10.3715 10.3717 10.3027 10.3029
          10.2047 10.2044 10.0692 10.0693 9.85934 9.85957 9.6056 9.60592 9.26399 9.26411 8.8202 8.82038
          8.27249 8.27287 7.73381 7.73435 7.936 7.93685 0 0
        </DataArray>
        <DataArray type="Float32" Name="Molarity_Urea" NumberOfComponents="1" format="ascii">
          0.000991407 0.00102145 0.0011805 0.00117984 0.00123823 0.00135437 0.00240766 0.0015656 0.00150269 0.0016594 0.00182558 0.00189226
          0.00251789 0.00210715 0.00228426 0.00233164 0.00262434 0.00266346 0.0029622 0.00299205 0.00316944 0.00319072 0.00393941 0.00395239
          0.00455717 0.00457766 0.00530253 0.00531038 0.00598634 0.00600547 0.00659527 0.00664128 0.00785505 0.00774816 0.00853201 0.00855258
          0.00941757 0.00939894 0.0102698 0.0102701 0.0111799 0.0111914 0.0123002 0.0124194 0.0135591 0.0134876 0.0129251 0.0129465
          0.0139424 0.013958 0.0151028 0.015222 0.0160615 0.016349 0.0183232 0.0180951 0.0198793 0.0199017 0.022876 0.0229064
          0.0273448 0.0272815 0.0342233 0.0342699 0.0373102 0.0373745 0.0520458 0.0521582 0.0780905 0.0781643 0.135668 0.135776
          0.285756 0.286061 0.77983 0.780404 2.81885 2.8199 0 0
        </DataArray>
        <DataArray type="Float32" Name="Molarity_TotalNH" NumberOfComponents="1" format="ascii">
          329.636 334.601 347.239 346.485 365.512 366.458 385.243 385.74 406.337 406.373 427.503 427.672
          449.39 449.226 470.922 470.848 492.201 492.08 513.653 513.791 535.221 535.306 574.67 574.62
          611.961 611.988 646.782 646.787 678.741 678.748 707.659 707.675 738.375 738.398 764.254 764.263
          785.585 785.588 802.797 802.789 816.276 816.288 826.611 826.613 834.127 834.135 839.241 839.241
          842.243 842.245 843.315 843.316 842.54 842.539 839.867 839.863 835.091 835.094 827.842 827.848
          817.505 817.503 803.182 803.173 783.605 783.606 756.919 756.92 720.505 720.502 670.563 670.562
          601.499 601.497 504.681 504.679 366.123 366.12 185.193 185.193
        </DataArray>
        <DataArray type="Float32" Name="Molarity_O2" NumberOfComponents="1" format="ascii">
          -5.03289e-10 -2.7556e-09 -3.85622e-08 -2.9186e-08 -1.07427e-06 -1.19012e-06 -2.72906e-05 -2.62248e-05 -0.000795663 -5.25417e-05 -1.69843e-05 -1.06117e-05
          -3.19579e-05 -5.81509e-06 -0.000858747 -8.66709e-05 -0.000890475 -0.000108316 -0.000860772 -6.66749e-05 -1.05373e-05 -2.34667e-05 -0.000825861 -0.000840037
          -1.23046e-05 -1.18923e-05 -6.58142e-08 -7.51168e-08 -4.24004e-10 -4.50284e-10 -3.85437e-08 -3.05643e-08 -7.29761e-06 -7.81293e-06 -0.000730452 -0.000739133
          -6.65566e-06 -7.63856e-06 -3.52594e-08 -2.49542e-08 -6.6689e-11 -1.09603e-10 -2.4863e-13 -1.59723e-13 -3.43386e-16 -4.54325e-16 -4.99685e-19 -4.43929e-19
          2.2783e-18 2.2984e-18 4.00291e-20 4.14502e-20 2.61377e-20 2.9275e-20 3.29447e-20 3.04742e-20 2.83669e-20 2.85478e-20 3.26344e-20 3.29213e-20
          2.37622e-20 2.35114e-20 1.65253e-20 1.66619e-20 2.37657e-20 2.42341e-20 1.1304e-20 1.1515e-20 1.94084e-20 1.95558e-20 1.28606e-20 1.28916e-20
          9.40907e-20 9.76243e-20 3.33268e-18 3.18858e-18 5.07728e-16 5.11731e-16 0 0
        </DataArray>
        <DataArray type="Float32" Name="Molarity_Substrate" NumberOfComponents="1" format="ascii">
          16.5446 16.5472 16.5564 16.5558 16.5694 16.5701 16.5835 16.5839 16.5983 16.5986 16.6137 16.6138
          16.6292 16.6291 16.6442 16.6444 16.6593 16.6595 16.6744 16.6748 16.6899 16.6899 16.7171 16.717
          16.743 16.743 16.7665 16.7665 16.7875 16.7875 16.8057 16.8057 16.8236 16.8236 16.8362 16.8362
          16.8442 16.8442 16.8463 16.8463 16.8423 16.8423 16.8313 16.8313 16.8121 16.8121 16.7828 16.7829
          16.7409 16.7408 16.6824 16.6824 16.6025 16.6024 16.4939 16.4938 16.3469 16.347 16.1485 16.1487
          15.8803 15.8803 15.5176 15.5174 15.0263 15.0263 14.3592 14.3592 13.4492 13.4491 12.2009 12.2009
          10.476 10.476 8.0698 8.06978 4.69086 4.69083 0 0
        </DataArray>
        <DataArray type="Float32" Name="Molarity_Suspended_Biomass" NumberOfComponents="1" format="ascii">
          0.000381298 0.000350407 0.000363443 0.000362453 0.000367551 0.000365525 0.000357179 0.000368383 0.000376529 0.000373044 0.000376965 0.000375919
          0.000373998 0.000378716 0.000378247 0.000377408 0.000384758 0.000383153 0.000386267 0.000384566 0.000369237 0.000372699 0.000402455 0.000402143
          0.000408382 0.000406283 0.000407598 0.000407133 0.000412683 0.000411632 0.000413192 0.000412412 0.000420444 0.000419468 0.000430371 0.000431649
          0.000422699 0.000421697 0.000426659 0.000426069 0.000425407 0.000425125 0.000427702 0.000426869 0.000428468 0.000427727 0.000427662 0.000426382
          0.000430075 0.000430171 0.000432413 0.000432862 0.00043441 0.000434252 0.00043784 0.000438566 0.000433335 0.000434322 0.000433109 0.000434078
          0.00042615 0.000427001 0.000416576 0.000417252 0.000403457 0.000403934 0.000384448 0.00038481 0.000355264 0.000355475 0.000316544 0.000316684
          0.000264554 0.000264618 0.000195715 0.000195736 0.000106826 0.000106826 0 0
        </DataArray>
        <DataArray type="Float32" Name="Molarity_NH4" NumberOfComponents="1" format="ascii">
          327.587 331.346 344.054 343.293 362.276 363.218 381.972 382.483 403.069 403.101 424.218 424.386
          446.083 445.926 467.61 467.535 488.876 488.754 510.317 510.454 531.876 531.961 571.306 571.256
          608.584 608.611 643.393 643.398 675.343 675.35 704.254 704.269 734.959 734.983 760.833 760.842
          782.158 782.161 799.365 799.357 812.839 812.851 823.168 823.169 830.678 830.686 835.796 835.796
          838.793 838.795 839.86 839.86 839.08 839.077 836.396 836.394 831.614 831.617 824.353 824.359
          814 813.999 799.656 799.648 780.071 780.072 753.353 753.354 716.898 716.894 666.899 666.898
          597.767 597.765 500.923 500.921 362.737 362.734 185.037 185.037
        </DataArray>
        <DataArray type="Float32" Name="Molarity_HCO3" NumberOfComponents="1" format="ascii">
          1.46139 2.61204 2.53197 2.53985 2.56477 2.56713 2.57935 2.56639 2.55832 2.56106 2.55597 2.55703
          2.55798 2.55205 2.5456 2.54628 2.54096 2.54152 2.53562 2.53595 2.52806 2.52828 2.51773 2.51789
          2.50525 2.5054 2.49435 2.49445 2.48348 2.48364 2.47318 2.47349 2.46626 2.46549 2.457 2.4571
          2.45122 2.4511 2.4471 2.44711 2.44496 2.44502 2.44543 2.44606 2.44761 2.44723 2.44113 2.44125
          2.44436 2.4444 2.449 2.44953 2.45344 2.45472 2.4642 2.46329 2.47266 2.47273 2.48717 2.48726
          2.50699 2.50678 2.53344 2.53357 2.55135 2.5515 2.59601 2.59619 2.6553 2.65539 2.7393 2.73938
          2.85134 2.85142 2.9537 2.95368 2.7297 2.72952 0.00553194 0.00553194
        </DataArray>
        <DataArray type="Float32" Name="Molarity_CO3" NumberOfComponents="1" format="ascii">
          0.00103304 0.00301892 0.00277006 0.00279084 0.00273703 0.00273683 0.00266636 0.0026386 0.00253011 0.00253509 0.00243965 0.00244091
          0.00236249 0.00235276 0.0022694 0.00227077 0.00219712 0.00219838 0.00212895 0.00212911 0.0020623 0.00206242 0.00195747 0.00195781
          0.00186626 0.00186642 0.00179084 0.00179096 0.00172676 0.00172696 0.00167274 0.00167311 0.00162441 0.00162345 0.00158239 0.00158251
          0.00155177 0.00155163 0.00152875 0.00152877 0.00151255 0.00151261 0.00150283 0.00150354 0.00149792 0.00149752 0.00148581 0.00148594
          0.00148653 0.00148658 0.00149065 0.00149123 0.00149628 0.00149771 0.00151082 0.0015098 0.00152492 0.001525 0.00154854 0.00154864
          0.00158192 0.00158168 0.0016283 0.00162846 0.00167202 0.00167221 0.00176022 0.00176046 0.00188804 0.00188816 0.00208813 0.00208824
          0.00241113 0.00241128 0.00291548 0.00291549 0.00328942 0.00328912 4.26535e-07 4.26535e-07
        </DataArray>
        <DataArray type="Float32" Name="Molarity_CO2" NumberOfComponents="1" format="ascii">
          0.244374 0.272426 0.279252 0.2789 0.291026 0.291641 0.303191 0.303276 0.315295 0.315364 0.327453 0.32757
          0.339819 0.339608 0.351405 0.351379 0.362741 0.362689 0.373892 0.373972 0.384795 0.384844 0.404191 0.404171
          0.421737 0.421755 0.43755 0.437555 0.451557 0.451565 0.463837 0.463855 0.476653 0.476635 0.48704 0.487048
          0.495484 0.49548 0.502199 0.502197 0.507432 0.507439 0.511493 0.511519 0.514515 0.51449 0.516209 0.516213
          0.517505 0.517508 0.518121 0.518143 0.518019 0.518072 0.517449 0.517409 0.515963 0.515967 0.513745 0.513752
          0.51049 0.510481 0.505829 0.50583 0.4986 0.498606 0.489154 0.489161 0.475531 0.475532 0.455584 0.455585
          0.425099 0.425099 0.375122 0.375118 0.284632 0.284625 0.00769319 0.00769319
        </DataArray>
        <DataArray type="Float32" Name="Molarity_H" NumberOfComponents="1" format="ascii">
          8.309e-05 5.28592e-05 5.59457e-05 5.57013e-05 5.7755e-05 5.78343e-05 6.00258e-05 6.03385e-05 6.3116e-05 6.30652e-05 6.58122e-05 6.5811e-05
          6.84596e-05 6.85687e-05 7.1339e-05 7.13148e-05 7.39834e-05 7.3956e-05 7.66308e-05 7.66388e-05 7.93143e-05 7.93187e-05 8.4058e-05 8.40481e-05
          8.85277e-05 8.85264e-05 9.26118e-05 9.26094e-05 9.63304e-05 9.63262e-05 9.96676e-05 9.96593e-05 0.000103041 0.000103068 0.000105959 0.000105957
          0.000108281 0.000108285 0.000110121 0.000110119 0.000111514 0.000111512 0.0001125 0.000112478 0.00011315 0.000113162 0.000113873 0.000113868
          0.000114045 0.000114044 0.000113982 0.000113963 0.00011375 0.000113704 0.000113113 0.000113145 0.000112362 0.00011236 0.000111168 0.000111165
          0.000109507 0.000109514 0.000107261 0.000107256 0.000104807 0.000104803 0.000100847 0.000100842 9.55816e-05 9.55789e-05 8.84369e-05 8.8435e-05
          7.89117e-05 7.89096e-05 6.69334e-05 6.69335e-05 5.51952e-05 5.51978e-05 0.000628379 0.000628379
        </DataArray>
        <DataArray type="Float32" Name="Molarity_OH" NumberOfComponents="1" format="ascii">
          0.000118122 0.000185634 0.000175343 0.000176116 0.000169779 0.000169542 0.000163282 0.000162434 0.000155212 0.000155337 0.000148781 0.000148783
          0.000142955 0.000142729 0.000137118 0.000137164 0.000132152 0.000132201 0.000127523 0.00012751 0.000123148 0.00012314 0.000116092 0.000116106
          0.000110136 0.000110137 0.000105194 0.000105197 0.000101059 0.000101063 9.76097e-05 9.76178e-05 9.43474e-05 9.43225e-05 9.16936e-05 9.16958e-05
          8.96832e-05 8.96797e-05 8.81501e-05 8.81511e-05 8.70221e-05 8.7023e-05 8.62386e-05 8.62558e-05 8.57287e-05 8.57196e-05 8.51757e-05 8.5179e-05
          8.50421e-05 8.50433e-05 8.50889e-05 8.51029e-05 8.52661e-05 8.53004e-05 8.57541e-05 8.57298e-05 8.63411e-05 8.6343e-05 8.72889e-05 8.72909e-05
          8.86415e-05 8.8636e-05 9.0538e-05 9.05423e-05 9.27137e-05 9.27179e-05 9.64342e-05 9.64394e-05 0.000101861 0.000101864 0.00011026 0.000110262
          0.00012383 0.000123834 0.000146416 0.000146416 0.000178256 0.000178248 1.57575e-05 1.57575e-05
        </DataArray>
        <DataArray type="Float32" Name="Da_ureolysis" NumberOfComponents="1" format="ascii">
          0 0 0 0 0 0 0 0 0 0 0 0
          0 0 0 0 0 0 0 0 0 0 0 0
          0 0 0 0 0 0 0 0 0 0 0 0
          0 0 0 0 0 0 0 0 0 0 0 0
          0 0 0 0 0 0 0 0 0 0 0 0
          0 0 0 0 0 0 0 0 0 0 0 0
          0 0 0 0 0 0 0 0
        </DataArray>
        <DataArray type="Float32" Name="Da_precipitation" NumberOfComponents="1" format="ascii">
          0.000238997 102.324 307.643 1941.23 734.754 871.193 742.408 1487.55 1190.33 1435.58 1876.63 2337.89
          3507.07 3688.4 3436.65 11396.5 5947.03 5132.69 6868.85 4897.6 50.8885 51.2576 733.578 716.158
          596.324 591.279 528.198 520.23 493.965 486.608 187.92 189.636 283.807 279.487 298.479 295.961
          323.541 322.697 352.725 352.558 406.881 405.049 448.973 446.819 507.481 503.886 556.025 554.212
          588.899 587.371 607.31 606.768 594.936 597.657 556.196 555.225 494.858 493.956 423.482 422.405
          354.923 355.016 292.79 293.652 231.675 231.984 190.82 190.949 160.745 160.835 142.676 142.74
          138.383 138.447 155.819 155.861 147.348 147.343 0 0
        </DataArray>
        <DataArray type="Float32" Name="Vx" NumberOfComponents="1" format="ascii">
          -2.12134e-08 -2.12043e-08 -2.73988e-09 -2.73261e-09 3.5861e-09 3.57815e-09 3.50936e-09 3.48035e-09 3.5226e-09 3.50551e-09 2.44514e-09 2.44193e-09
          1.4418e-09 1.43665e-09 4.25066e-11 4.13375e-11 -9.26445e-10 -9.27245e-10 -7.40769e-10 -7.40947e-10 1.50343e-10 1.50492e-10 2.09466e-10 2.09511e-10
          -5.88699e-11 -5.88759e-11 -5.52921e-12 -5.53163e-12 -2.24138e-11 -2.24091e-11 -3.67709e-11 -3.67665e-11 1.66563e-11 1.66506e-11 5.85e-11 5.84867e-11
          4.49207e-11 4.49167e-11 -1.68371e-11 -1.68385e-11 -2.67318e-11 -2.67348e-11 5.36306e-12 5.36249e-12 1.29275e-11 1.29279e-11 1.22324e-11 1.22322e-11
          -5.45861e-13 -5.45768e-13 4.25977e-12 4.26098e-12 1.6719e-11 1.67204e-11 -6.56215e-12 -6.55994e-12 -2.64044e-11 -2.64024e-11 1.46926e-11 1.46894e-11
          3.78483e-11 3.78437e-11 -3.20842e-12 -3.21105e-12 -2.3373e-11 -2.33746e-11 4.01402e-12 4.01356e-12 5.44913e-12 5.44881e-12 -4.96394e-12 -4.96391e-12
          -1.03433e-12 -1.03432e-12 -1.17938e-12 -1.1794e-12 -1.73719e-12 -1.73721e-12 -8.59048e-13 -8.59052e-13
        </DataArray>
        <DataArray type="Float32" Name="Vy" NumberOfComponents="1" format="ascii">
          8.62564e-08 6.78526e-08 1.67265e-08 4.77571e-10 7.17185e-09 -5.81777e-09 7.6422e-09 -1.91975e-09 3.27937e-09 -2.00085e-09 1.79933e-09 -1.60378e-10
          -7.99682e-10 -5.28706e-10 -1.61566e-09 -4.86824e-10 1.5142e-11 5.45245e-10 -2.89334e-10 -8.36055e-10 1.05752e-07 1.05085e-07 -7.251e-09 -7.43233e-09
          -8.77101e-09 -8.84963e-09 -9.79791e-09 -9.95416e-09 -1.03573e-08 -1.05209e-08 2.6956e-08 2.67372e-08 -1.79317e-08 -1.81588e-08 -1.69231e-08 -1.70703e-08
          -1.56307e-08 -1.56663e-08 -1.43895e-08 -1.43975e-08 -1.25578e-08 -1.26185e-08 -1.1535e-08 -1.16168e-08 -1.03721e-08 -1.0433e-08 -9.30493e-09 -9.3398e-09
          -8.92651e-09 -8.94981e-09 -8.81648e-09 -8.8395e-09 -9.14073e-09 -9.14042e-09 -1.01378e-08 -1.0123e-08 -1.16909e-08 -1.17151e-08 -1.42791e-08 -1.43198e-08
          -1.80896e-08 -1.80697e-08 -2.37196e-08 -2.36613e-08 -3.13252e-08 -3.13009e-08 -4.33521e-08 -4.33481e-08 -6.13066e-08 -6.12887e-08 -8.93801e-08 -8.93631e-08
          -1.34953e-07 -1.34942e-07 -2.06747e-07 -2.06738e-07 -3.70141e-07 -3.70135e-07 2.54999e-06 2.55e-06
        </DataArray>
      </PointData>
      <CellData Scalars="process rank">
        <DataArray type="Float32" Name="process rank" NumberOfComponents="1" format="ascii">
          0 0 0 0 0 0 0 0 0 0 0 0
          0 0 0 0 0 0 0 0 0 0 0 0
          0 0 0 0 0 0 0 0 0 0 0 0
          0 0 0
        </DataArray>
      </CellData>
      <Points>
        <DataArray type="Float32" Name="Coordinates" NumberOfComponents="3" format="ascii">
          0 0 0 0.0254 0 0 0 0.01 0 0.0254 0.01 0
          0 0.02 0 0.0254 0.02 0 0 0.03 0 0.0254 0.03 0
          0 0.04 0 0.0254 0.04 0 0 0.05 0 0.0254 0.05 0
          0 0.06 0 0.0254 0.06 0 0 0.07 0 0.0254 0.07 0
          0 0.08 0 0.0254 0.08 0 0 0.09 0 0.0254 0.09 0
          0 0.1 0 0.0254 0.1 0 0 0.12 0 0.0254 0.12 0
          0 0.14 0 0.0254 0.14 0 0 0.16 0 0.0254 0.16 0
          0 0.18 0 0.0254 0.18 0 0 0.2 0 0.0254 0.2 0
          0 0.225 0 0.0254 0.225 0 0 0.25 0 0.0254 0.25 0
          0 0.275 0 0.0254 0.275 0 0 0.3 0 0.0254 0.3 0
          0 0.325 0 0.0254 0.325 0 0 0.35 0 0.0254 0.35 0
          0 0.375 0 0.0254 0.375 0 0 0.4 0 0.0254 0.4 0
          0 0.425 0 0.0254 0.425 0 0 0.45 0 0.0254 0.45 0
          0 0.475 0 0.0254 0.475 0 0 0.5 0 0.0254 0.5 0
          0 0.525 0 0.0254 0.525 0 0 0.55 0 0.0254 0.55 0
          0 0.575 0 0.0254 0.575 0 0 0.6 0 0.0254 0.6 0
          0 0.625 0 0.0254 0.625 0 0 0.65 0 0.0254 0.65 0
          0 0.675 0 0.0254 0.675 0 0 0.7 0 0.0254 0.7 0
          0 0.725 0 0.0254 0.725 0 0 0.75 0 0.0254 0.75 0
          0 0.775 0 0.0254 0.775 0 0 0.8 0 0.0254 0.8 0
        </DataArray>
      </Points>
      <Cells>
        <DataArray type="Int32" Name="connectivity" NumberOfComponents="1" format="ascii">
          0 1 3 2 2 3 5 4 4 5 7 6
          6 7 9 8 8 9 11 10 10 11 13 12
          12 13 15 14 14 15 17 16 16 17 19 18
          18 19 21 20 20 21 23 22 22 23 25 24
          24 25 27 26 26 27 29 28 28 29 31 30
          30 31 33 32 32 33 35 34 34 35 37 36
          36 37 39 38 38 39 41 40 40 41 43 42
          42 43 45 44 44 45 47 46 46 47 49 48
          48 49 51 50 50 51 53 52 52 53 55 54
          54 55 57 56 56 57 59 58 58 59 61 60
          60 61 63 62 62 63 65 64 64 65 67 66
          66 67 69 68 68 69 71 70 70 71 73 72
          72 73 75 74 74 75 77 76 76 77 79 78
        </DataArray>
        <DataArray type="Int32" Name="offsets" NumberOfComponents="1" format="ascii">
          4 8 12 16 20 24 28 32 36 40 44 48
          52 56 60 64 68 72 76 80 84 88 92 96
          100 104 108 112 116 120 124 128 132 136 140 144
          148 152 156
        </DataArray>
        <DataArray type="UInt8" Name="types" NumberOfComponents="1" format="ascii">
          9 9 9 9 9 9 9 9 9 9 9 9
          9 9 9 9 9 9 9 9 9 9 9 9
          9 9 9 9 9 9 9 9 9 9 9 9
          9 9 9
        </DataArray>
      </Cells>
    </Piece>
  </UnstructuredGrid>
</VTKFile>
