<?xml version="1.0"?>
<VTKFile type="UnstructuredGrid" version="0.1" byte_order="LittleEndian">
  <UnstructuredGrid>
    <Piece NumberOfCells="39" NumberOfPoints="80">
      <PointData Scalars="Sg">
        <DataArray type="Float32" Name="Sg" NumberOfComponents="1" format="ascii">
          0 0 0 0 0 0 0 0 0 0 0 0
          0 0 0 0 0 0 0 0 0 0 0 0
          0 0 0 0 0 0 0 0 0 0 0 0
          0 0 0 0 0 0 0 0 0 0 0 0
          0 0 0 0 0 0 0 0 0 0 0 0
          0 0 0 0 0 0 0 0 0 0 0 0
          0 0 0 0 0 0 0 0
        </DataArray>
        <DataArray type="Float32" Name="Sl" NumberOfComponents="1" format="ascii">
          1 1 1 1 1 1 1 1 1 1 1 1
          1 1 1 1 1 1 1 1 1 1 1 1
          1 1 1 1 1 1 1 1 1 1 1 1
          1 1 1 1 1 1 1 1 1 1 1 1
          1 1 1 1 1 1 1 1 1 1 1 1
          1 1 1 1 1 1 1 1 1 1 1 1
          1 1 1 1 1 1 1 1
        </DataArray>
        <DataArray type="Float32" Name="pg" NumberOfComponents="1" format="ascii">
          117674 117674 117575 117575 117476 117476 117377 117377 117278 117278 117179 117179
          117079 117079 116980 116980 116880 116880 116781 116781 116681 116681 116482 116482
          116282 116282 116082 116082 115882 115882 115681 115681 115430 115430 115179 115179
          114928 114928 114677 114677 114426 114426 114174 114174 113923 113923 113671 113671
          113420 113420 113168 113168 112917 112917 112666 112666 112414 112414 112163 112163
          111912 111912 111661 111661 111410 111410 111159 111159 110909 110909 110659 110659
          110410 110410 110161 110161 109913 109913 109667 109667
        </DataArray>
        <DataArray type="Float32" Name="pl" NumberOfComponents="1" format="ascii">
          108007 108007 107908 107908 107809 107809 107710 107710 107611 107611 107512 107512
          107413 107413 107313 107313 107214 107214 107114 107114 107015 107015 106815 106815
          106615 106615 106415 106415 106215 106215 106014 106014 105764 105764 105513 105513
          105261 105261 105010 105010 104759 104759 104507 104507 104256 104256 104005 104005
          103753 103753 103502 103502 103250 103250 102999 102999 102748 102748 102496 102496
          102245 102245 101994 101994 101743 101743 101493 101493 101242 101242 100992 100992
          100743 100743 100494 100494 100246 100246 100000 100000
        </DataArray>
        <DataArray type="Float32" Name="pc" NumberOfComponents="1" format="ascii">
          9666.67 9666.67 9666.67 9666.67 9666.67 9666.67 9666.67 9666.67 9666.67 9666.67 9666.67 9666.67
          9666.67 9666.67 9666.67 9666.67 9666.67 9666.67 9666.67 9666.67 9666.67 9666.67 9666.67 9666.67
          9666.67 9666.67 9666.67 9666.67 9666.67 9666.67 9666.67 9666.67 9666.67 9666.67 9666.67 9666.67
          9666.67 9666.67 9666.67 9666.67 9666.67 9666.67 9666.67 9666.67 9666.67 9666.67 9666.67 9666.67
          9666.67 9666.67 9666.67 9666.67 9666.67 9666.67 9666.67 9666.67 9666.67 9666.67 9666.67 9666.67
          9666.67 9666.67 9666.67 9666.67 9666.67 9666.67 9666.67 9666.67 9666.67 9666.67 9666.67 9666.67
          9666.67 9666.67 9666.67 9666.67 9666.67 9666.67 9666.67 9666.67
        </DataArray>
        <DataArray type="Float32" Name="rhoL" NumberOfComponents="1" format="ascii">
          1007.26 1007.27 1007.97 1007.96 1008.86 1008.87 1009.76 1009.76 1010.68 1010.69 1011.61 1011.61
          1012.53 1012.53 1013.47 1013.47 1014.39 1014.39 1015.27 1015.27 1016.15 1016.15 1017.68 1017.68
          1019.06 1019.06 1020.27 1020.27 1021.33 1021.33 1022.24 1022.24 1023.13 1023.13 1023.83 1023.83
          1024.35 1024.35 1024.74 1024.74 1025 1025 1025.18 1025.18 1025.26 1025.26 1025.29 1025.29
          1025.25 1025.25 1025.16 1025.16 1025.02 1025.02 1024.82 1024.82 1024.56 1024.56 1024.22 1024.22
          1023.79 1023.79 1023.23 1023.23 1022.5 1022.5 1021.52 1021.52 1020.21 1020.21 1018.43 1018.43
          1015.98 1015.98 1012.61 1012.61 1007.92 1007.92 1001.45 1001.45
        </DataArray>
        <DataArray type="Float32" Name="rhoG" NumberOfComponents="1" format="ascii">
          2.06996 2.07004 2.06826 2.06826 2.06648 2.06648 2.0647 2.0647 2.06292 2.06292 2.06114 2.06114
          2.05936 2.05936 2.05757 2.05757 2.05578 2.05578 2.05399 2.05399 2.0522 2.0522 2.04861 2.04861
          2.04502 2.04502 2.04141 2.04141 2.0378 2.0378 2.03418 2.03418 2.02965 2.02965 2.02512 2.02512
          2.02058 2.02058 2.01603 2.01603 2.01148 2.01148 2.00693 2.00693 2.00238 2.00238 1.99782 1.99782
          1.99327 1.99327 1.98871 1.98871 1.98415 1.98415 1.9796 1.9796 1.97504 1.97504 1.97048 1.97048
          1.96593 1.96593 1.96137 1.96137 1.95682 1.95682 1.95226 1.95226 1.9477 1.9477 1.94315 1.94315
          1.93859 1.93859 1.93403 1.93403 1.92947 1.92947 1.9249 1.9249
        </DataArray>
        <DataArray type="Float32" Name="mobL" NumberOfComponents="1" format="ascii">
          1073.41 1073.34 1070.29 1070.32 1066.42 1066.39 1062.71 1062.72 1058.96 1058.94 1055.33 1055.32
          1051.83 1051.82 1048.33 1048.32 1045.02 1045.01 1041.91 1041.9 1038.86 1038.86 1033.75 1033.75
          1029.29 1029.28 1025.46 1025.46 1022.22 1022.22 1019.5 1019.5 1016.86 1016.86 1014.83 1014.83
          1013.32 1013.32 1012.22 1012.22 1011.46 1011.46 1010.98 1010.98 1010.72 1010.72 1010.66 1010.66
          1010.77 1010.77 1011.02 1011.02 1011.43 1011.43 1011.99 1011.99 1012.73 1012.73 1013.69 1013.69
          1014.93 1014.93 1016.56 1016.56 1018.72 1018.72 1021.64 1021.64 1025.66 1025.66 1031.29 1031.28
          1039.44 1039.44 1051.5 1051.5 1070.45 1070.45 1103.12 1103.12
        </DataArray>
        <DataArray type="Float32" Name="mobG" NumberOfComponents="1" format="ascii">
          0 0 0 0 0 0 0 0 0 0 0 0
          0 0 0 0 0 0 0 0 0 0 0 0
          0 0 0 0 0 0 0 0 0 0 0 0
          0 0 0 0 0 0 0 0 0 0 0 0
          0 0 0 0 0 0 0 0 0 0 0 0
          0 0 0 0 0 0 0 0 0 0 0 0
          0 0 0 0 0 0 0 0
        </DataArray>
        <DataArray type="Float32" Name="porosity" NumberOfComponents="1" format="ascii">
          0.4 0.4 0.4 0.4 0.4 0.4 0.4 0.4 0.4 0.4 0.4 0.4
          0.4 0.4 0.4 0.4 0.4 0.4 0.4 0.4 0.4 0.4 0.4 0.4
          0.4 0.4 0.4 0.4 0.4 0.4 0.4 0.4 0.4 0.4 0.4 0.4
          0.4 0.4 0.4 0.4 0.4 0.4 0.4 0.4 0.4 0.4 0.4 0.4
          0.4 0.4 0.4 0.4 0.4 0.4 0.4 0.4 0.4 0.4 0.4 0.4
          0.4 0.4 0.4 0.4 0.4 0.4 0.4 0.4 0.4 0.4 0.4 0.4
          0.4 0.4 0.4 0.4 0.4 0.4 0.4 0.4
        </DataArray>
        <DataArray type="Float32" Name="temperature" NumberOfComponents="1" format="ascii">
          298.15 298.15 298.15 298.15 298.15 298.15 298.15 298.15 298.15 298.15 298.15 298.15
          298.15 298.15 298.15 298.15 298.15 298.15 298.15 298.15 298.15 298.15 298.15 298.15
          298.15 298.15 298.15 298.15 298.15 298.15 298.15 298.15 298.15 298.15 298.15 298.15
          298.15 298.15 298.15 298.15 298.15 298.15 298.15 298.15 298.15 298.15 298.15 298.15
          298.15 298.15 298.15 298.15 298.15 298.15 298.15 298.15 298.15 298.15 298.15 298.15
          298.15 298.15 298.15 298.15 298.15 298.15 298.15 298.15 298.15 298.15 298.15 298.15
          298.15 298.15 298.15 298.15 298.15 298.15 298.15 298.15
        </DataArray>
        <DataArray type="Float32" Name="phase presence" NumberOfComponents="1" format="ascii">
          1 1 1 1 1 1 1 1 1 1 1 1
          1 1 1 1 1 1 1 1 1 1 1 1
          1 1 1 1 1 1 1 1 1 1 1 1
          1 1 1 1 1 1 1 1 1 1 1 1
          1 1 1 1 1 1 1 1 1 1 1 1
          1 1 1 1 1 1 1 1 1 1 1 1
          1 1 1 1 1 1 1 1
        </DataArray>
        <DataArray type="Float32" Name="potential" NumberOfComponents="1" format="ascii">
          0.0103274 0.0103151 0.00976231 0.00976878 0.00905367 0.00904826 0.00836137 0.00836226 0.00765108 0.00764726 0.00695277 0.00695147
          0.00627094 0.00626914 0.00558192 0.00557995 0.00492197 0.00492093 0.00429772 0.00429641 0.00368033 0.00368074 0.00264038 0.00264078
          0.00172985 0.00172936 0.000952922 0.000953049 0.000299259 0.000299259 -0.000240744 -0.000240776 -0.000753224 -0.000753237 -0.00113542 -0.00113543
          -0.00141103 -0.00141102 -0.00160335 -0.00160339 -0.00173004 -0.00172999 -0.00180669 -0.00180671 -0.00184467 -0.00184465 -0.00185337 -0.00185337
          -0.00183934 -0.00183933 -0.00180742 -0.00180743 -0.0017606 -0.00176055 -0.00170053 -0.00170058 -0.00162802 -0.00162799 -0.00154264 -0.00154264
          -0.00144291 -0.00144285 -0.00132714 -0.00132718 -0.00119386 -0.00119388 -0.00103961 -0.00103961 -0.000864119 -0.00086399 -0.000669414 -0.000669663
          -0.000459954 -0.00045983 -0.000253572 -0.00025358 -8.03406e-05 -8.03399e-05 0 0
        </DataArray>
        <DataArray type="Float32" Name="boxVolume" NumberOfComponents="1" format="ascii">
          6.35e-05 6.35e-05 0.000127 0.000127 0.000127 0.000127 0.000127 0.000127 0.000127 0.000127 0.000127 0.000127
          0.000127 0.000127 0.000127 0.000127 0.000127 0.000127 0.000127 0.000127 0.0001905 0.0001905 0.000254 0.000254
          0.000254 0.000254 0.000254 0.000254 0.000254 0.000254 0.00028575 0.00028575 0.0003175 0.0003175 0.0003175 0.0003175
          0.0003175 0.0003175 0.0003175 0.0003175 0.0003175 0.0003175 0.0003175 0.0003175 0.0003175 0.0003175 0.0003175 0.0003175
          0.0003175 0.0003175 0.0003175 0.0003175 0.0003175 0.0003175 0.0003175 0.0003175 0.0003175 0.0003175 0.0003175 0.0003175
          0.0003175 0.0003175 0.0003175 0.0003175 0.0003175 0.0003175 0.0003175 0.0003175 0.0003175 0.0003175 0.0003175 0.0003175
          0.0003175 0.0003175 0.0003175 0.0003175 0.0003175 0.0003175 0.00015875 0.00015875
        </DataArray>
        <DataArray type="Float32" Name="pH" NumberOfComponents="1" format="ascii">
          6.11748 6.11723 6.10556 6.1057 6.08958 6.08945 6.07274 6.07276 6.05405 6.05394 6.03408 6.03404
          6.01284 6.01278 5.98937 5.9893 5.96468 5.96464 5.93902 5.93897 5.91105 5.91107 5.85666 5.85669
          5.79918 5.79914 5.74003 5.74004 5.68028 5.68028 5.62145 5.62144 5.55456 5.55456 5.49492 5.49492
          5.4447 5.4447 5.40473 5.40472 5.37531 5.37533 5.35578 5.35577 5.34528 5.34528 5.34273 5.34273
          5.34709 5.34709 5.35763 5.35762 5.37391 5.37393 5.3958 5.39579 5.42337 5.42338 5.45705 5.45705
          5.49761 5.49764 5.54581 5.5458 5.6022 5.60219 5.66786 5.66786 5.74254 5.74259 5.82538 5.82528
          5.91564 5.9157 6.00986 6.00985 6.10543 6.10543 6.19963 6.19963
        </DataArray>
        <DataArray type="Float32" Name="Omega" NumberOfComponents="1" format="ascii">
          0.0259546 0.0260361 0.0296856 0.029643 0.0343006 0.0343354 0.038636 0.0386307 0.0427913 0.0428128 0.0464694 0.0464758
          0.0495555 0.0495629 0.0520475 0.0520536 0.0537317 0.0537338 0.0545946 0.0545955 0.0546609 0.0546612 0.0527788 0.05278
          0.0488512 0.0488485 0.0437036 0.0437046 0.0380936 0.0380936 0.0326407 0.0326403 0.0268813 0.0268811 0.0223046 0.0223045
          0.0189051 0.0189052 0.0164976 0.0164971 0.0148896 0.0148903 0.013895 0.0138946 0.0133838 0.013384 0.0132644 0.0132644
          0.0134723 0.0134724 0.0139872 0.013987 0.0148159 0.0148167 0.0159942 0.0159931 0.0175857 0.0175864 0.0196984 0.0196983
          0.0224925 0.0224944 0.0261654 0.0261639 0.0309159 0.0309151 0.0369112 0.0369112 0.0439138 0.0439186 0.0507894 0.0507821
          0.0546487 0.0546491 0.049831 0.0498317 0.0295939 0.0295936 0 0
        </DataArray>
        <DataArray type="Float32" Name="rurea" NumberOfComponents="1" format="ascii">
          0 0 0 0 0 0 0 0 0 0 0 0
          0 0 0 0 0 0 0 0 0 0 0 0
          0 0 0 0 0 0 0 0 0 0 0 0
          0 0 0 0 0 0 0 0 0 0 0 0
          0 0 0 0 0 0 0 0 0 0 0 0
          0 0 0 0 0 0 0 0 0 0 0 0
          0 0 0 0 0 0 0 0
        </DataArray>
        <DataArray type="Float32" Name="Volume_Fraction_Biofilm" NumberOfComponents="1" format="ascii">
          1.25609e-10 1.25609e-10 1.25394e-10 1.25412e-10 1.25225e-10 1.2523e-10 1.25054e-10 1.25055e-10 1.24847e-10 1.24846e-10 1.24604e-10 1.24601e-10
          1.24374e-10 1.2437e-10 1.24127e-10 1.24124e-10 1.23863e-10 1.23858e-10 1.2356e-10 1.23555e-10 1.23268e-10 1.23263e-10 1.22538e-10 1.2253e-10
          1.21715e-10 1.21708e-10 1.20685e-10 1.20678e-10 1.19492e-10 1.19483e-10 1.18257e-10 1.18249e-10 1.16479e-10 1.16471e-10 1.14612e-10 1.14603e-10
          1.1257e-10 1.12561e-10 1.10417e-10 1.10408e-10 1.08189e-10 1.0818e-10 1.0576e-10 1.05751e-10 1.03394e-10 1.03386e-10 1.10672e-10 1.10663e-10
          1.08605e-10 1.08599e-10 1.06748e-10 1.06741e-10 1.04596e-10 1.0459e-10 1.02386e-10 1.02379e-10 1.00072e-10 1.00066e-10 9.73369e-11 9.73303e-11
          9.32307e-11 9.32242e-11 8.87921e-11 8.87863e-11 9.27088e-11 9.27034e-11 8.73557e-11 8.73497e-11 8.07827e-11 8.07773e-11 7.18222e-11 7.18177e-11
          6.02931e-11 6.02892e-11 4.52538e-11 4.52521e-11 2.50799e-11 2.50788e-11 0 0
        </DataArray>
        <DataArray type="Float32" Name="Volume_Fraction_Calcite" NumberOfComponents="1" format="ascii">
          0 0 0 0 0 0 0 0 0 0 0 0
          0 0 0 0 0 0 0 0 0 0 0 0
          0 0 0 0 0 0 0 0 0 0 0 0
          0 0 0 0 0 0 0 0 0 0 0 0
          0 0 0 0 0 0 0 0 0 0 0 0
          0 0 0 0 0 0 0 0 0 0 0 0
          0 0 0 0 0 0 0 0
        </DataArray>
        <DataArray type="Float32" Name="Kxx" NumberOfComponents="1" format="ascii">
          2e-10 2e-10 2e-10 2e-10 2e-10 2e-10 2e-10 2e-10 2e-10 2e-10 2e-10 2e-10
          2e-10 2e-10 2e-10 2e-10 2e-10 2e-10 2e-10 2e-10 2e-10 2e-10 2e-10 2e-10
          2e-10 2e-10 2e-10 2e-10 2e-10 2e-10 2e-10 2e-10 2e-10 2e-10 2e-10 2e-10
          2e-10 2e-10 2e-10 2e-10 2e-10 2e-10 2e-10 2e-10 2e-10 2e-10 2e-10 2e-10
          2e-10 2e-10 2e-10 2e-10 2e-10 2e-10 2e-10 2e-10 2e-10 2e-10 2e-10 2e-10
          2e-10 2e-10 2e-10 2e-10 2e-10 2e-10 2e-10 2e-10 2e-10 2e-10 2e-10 2e-10
          2e-10 2e-10 2e-10 2e-10 2e-10 2e-10 2e-10 2e-10
        </DataArray>
        <DataArray type="Float32" Name="X_lBrine" NumberOfComponents="1" format="ascii">
          0.974133 0.974098 0.972536 0.972554 0.970508 0.970493 0.968501 0.968504 0.966414 0.966403 0.964335 0.964331
          0.962277 0.962272 0.960168 0.960162 0.95812 0.958117 0.956155 0.956151 0.954183 0.954184 0.950788 0.950789
          0.947725 0.947723 0.945029 0.945029 0.942688 0.942688 0.94069 0.940689 0.938719 0.938719 0.937184 0.937184
          0.936025 0.936025 0.935176 0.935176 0.934589 0.934589 0.934214 0.934214 0.934019 0.934019 0.933973 0.933973
          0.934059 0.934059 0.934264 0.934264 0.934586 0.934587 0.935034 0.935034 0.935624 0.935625 0.936389 0.936389
          0.93738 0.937381 0.938671 0.938671 0.940364 0.940363 0.942632 0.942632 0.94569 0.945693 0.949849 0.949843
          0.955613 0.955617 0.963577 0.963576 0.974734 0.974734 0.99029 0.99029
        </DataArray>
        <DataArray type="Float32" Name="X_lTotalC" NumberOfComponents="1" format="ascii">
          5.8399e-07 5.8402e-07 5.85358e-07 5.85342e-07 5.87094e-07 5.87107e-07 5.88809e-07 5.88807e-07 5.9059e-07 5.906e-07 5.92362e-07 5.92365e-07
          5.94114e-07 5.94119e-07 5.95907e-07 5.95912e-07 5.97646e-07 5.97649e-07 5.99313e-07 5.99316e-07 6.00983e-07 6.00982e-07 6.03856e-07 6.03855e-07
          6.06442e-07 6.06444e-07 6.08714e-07 6.08713e-07 6.10683e-07 6.10683e-07 6.1236e-07 6.12361e-07 6.14009e-07 6.14009e-07 6.1529e-07 6.1529e-07
          6.16252e-07 6.16252e-07 6.16952e-07 6.16952e-07 6.17433e-07 6.17433e-07 6.17735e-07 6.17735e-07 6.17889e-07 6.17889e-07 6.18004e-07 6.18004e-07
          6.17934e-07 6.17934e-07 6.17773e-07 6.17773e-07 6.17521e-07 6.17521e-07 6.17179e-07 6.17179e-07 6.16737e-07 6.16737e-07 6.16176e-07 6.16176e-07
          6.15457e-07 6.15456e-07 6.14543e-07 6.14543e-07 6.13442e-07 6.13442e-07 6.11903e-07 6.11903e-07 6.09856e-07 6.09855e-07 6.07102e-07 6.07106e-07
          6.03322e-07 6.0332e-07 5.98146e-07 5.98146e-07 5.9096e-07 5.9096e-07 5.81077e-07 5.81077e-07
        </DataArray>
        <DataArray type="Float32" Name="X_lNa" NumberOfComponents="1" format="ascii">
          2.90766e-06 2.90542e-06 2.8046e-06 2.80579e-06 2.67371e-06 2.6727e-06 2.54415e-06 2.54432e-06 2.40946e-06 2.40872e-06 2.27524e-06 2.27499e-06
          2.14239e-06 2.14204e-06 2.00628e-06 2.00589e-06 1.87407e-06 1.87386e-06 1.74722e-06 1.74695e-06 1.61994e-06 1.62003e-06 1.40079e-06 1.40087e-06
          1.20307e-06 1.20296e-06 1.02908e-06 1.02911e-06 8.77973e-07 8.77972e-07 7.48986e-07 7.48978e-07 6.21824e-07 6.21821e-07 5.22727e-07 5.22725e-07
          4.47907e-07 4.4791e-07 3.93123e-07 3.93111e-07 3.55163e-07 3.55179e-07 3.30938e-07 3.30931e-07 3.18229e-07 3.18233e-07 3.15113e-07 3.15112e-07
          3.20364e-07 3.20367e-07 3.33185e-07 3.33181e-07 3.53417e-07 3.53436e-07 3.81462e-07 3.81437e-07 4.18276e-07 4.18293e-07 4.65778e-07 4.65777e-07
          5.27121e-07 5.27162e-07 6.06746e-07 6.06715e-07 7.10687e-07 7.10671e-07 8.49555e-07 8.49554e-07 1.03638e-06 1.03652e-06 1.28989e-06 1.28953e-06
          1.64078e-06 1.64104e-06 2.12516e-06 2.12513e-06 2.80341e-06 2.80342e-06 3.74885e-06 3.74885e-06
        </DataArray>
        <DataArray type="Float32" Name="X_lCl" NumberOfComponents="1" format="ascii">
          0.0120473 0.0120618 0.0127121 0.0127044 0.0135564 0.0135629 0.0143921 0.014391 0.0152609 0.0152656 0.0161267 0.0161283
          0.0169836 0.0169858 0.0178616 0.0178641 0.0187144 0.0187157 0.0195326 0.0195343 0.0203536 0.020353 0.0217672 0.0217666
          0.0230425 0.0230432 0.0241648 0.0241646 0.0251395 0.0251395 0.0259715 0.0259715 0.0267917 0.0267917 0.0274309 0.0274309
          0.0279134 0.0279134 0.0282668 0.0282668 0.0285116 0.0285115 0.0286677 0.0286678 0.0287496 0.0287496 0.0287696 0.0287696
          0.0287355 0.0287355 0.0286526 0.0286527 0.0285218 0.0285217 0.0283405 0.0283407 0.0281026 0.0281025 0.0277955 0.0277955
          0.0273988 0.0273986 0.0268839 0.0268841 0.0262117 0.0262118 0.0253135 0.0253135 0.0241049 0.024104 0.0224649 0.0224673
          0.0201949 0.0201932 0.0170611 0.0170613 0.012673 0.0126729 0.00655617 0.00655617
        </DataArray>
        <DataArray type="Float32" Name="X_lCa" NumberOfComponents="1" format="ascii">
          0.00310366 0.00311184 0.00348031 0.00347597 0.00395871 0.00396239 0.00443222 0.00443161 0.00492451 0.00492718 0.00541505 0.00541597
          0.00590058 0.00590187 0.00639805 0.00639949 0.00688127 0.00688203 0.00734489 0.00734586 0.00781007 0.00780975 0.00861102 0.00861071
          0.00933364 0.00933404 0.00996954 0.00996944 0.0105218 0.0105218 0.0109932 0.0109933 0.011458 0.011458 0.0118201 0.0118202
          0.0120936 0.0120936 0.0122938 0.0122938 0.0124325 0.0124324 0.012521 0.012521 0.0125674 0.0125674 0.0125787 0.0125787
          0.0125595 0.0125595 0.0125125 0.0125125 0.0124384 0.0124384 0.0123358 0.0123359 0.012201 0.0122009 0.0120271 0.0120271
          0.0118024 0.0118023 0.0115108 0.0115109 0.0111301 0.0111302 0.0106215 0.0106215 0.00993714 0.00993662 0.00900846 0.00900978
          0.00772301 0.00772207 0.00594846 0.00594861 0.00346368 0.00346364 0 0
        </DataArray>
        <DataArray type="Float32" Name="X_lUrea" NumberOfComponents="1" format="ascii">
          0.00458788 0.00459998 0.00514466 0.00513824 0.00585184 0.00585729 0.0065518 0.0065509 0.00727953 0.00728348 0.00800467 0.00800603
          0.00872242 0.00872433 0.00945784 0.00945995 0.0101722 0.0101733 0.0108576 0.010859 0.0115453 0.0115448 0.0127294 0.0127289
          0.0137978 0.0137984 0.0147381 0.0147379 0.0155548 0.0155548 0.016252 0.0162521 0.0169396 0.0169396 0.0174756 0.0174756
          0.0178806 0.0178806 0.0181775 0.0181776 0.0183836 0.0183835 0.0185157 0.0185157 0.0185857 0.0185856 0.0186039 0.0186039
          0.0185771 0.0185771 0.0185096 0.0185096 0.018402 0.0184019 0.0182523 0.0182524 0.0180551 0.018055 0.0178001 0.0178001
          0.0174701 0.0174698 0.0170408 0.017041 0.0164795 0.0164795 0.0157284 0.0157284 0.0147168 0.014716 0.0133428 0.0133448
          0.0114399 0.0114385 0.00881187 0.00881208 0.00513119 0.00513114 0 0
        </DataArray>
        <DataArray type="Float32" Name="X_lTotalNH" NumberOfComponents="1" format="ascii">
          0.00314955 0.00314954 0.00314877 0.00314878 0.00314778 0.00314777 0.0031468 0.0031468 0.00314577 0.00314577 0.00314476 0.00314475
          0.00314375 0.00314375 0.00314272 0.00314271 0.00314171 0.00314171 0.00314075 0.00314075 0.00313979 0.00313979 0.00313812 0.00313812
          0.00313662 0.00313662 0.0031353 0.0031353 0.00313415 0.00313415 0.00313317 0.00313317 0.00313221 0.00313221 0.00313145 0.00313145
          0.00313088 0.00313088 0.00313046 0.00313046 0.00313017 0.00313017 0.00312997 0.00312997 0.00312987 0.00312987 0.00312983 0.00312983
          0.00312985 0.00312985 0.00312993 0.00312993 0.00313005 0.00313005 0.00313023 0.00313023 0.00313046 0.00313046 0.00313075 0.00313075
          0.00313112 0.00313112 0.00313159 0.00313159 0.0031322 0.0031322 0.00313301 0.00313301 0.00313409 0.00313409 0.00313554 0.00313554
          0.00313754 0.00313754 0.00314028 0.00314028 0.00314412 0.00314412 0.00314947 0.00314947
        </DataArray>
        <DataArray type="Float32" Name="X_lO2" NumberOfComponents="1" format="ascii">
          7.9137e-06 7.91366e-06 7.91172e-06 7.91174e-06 7.9092e-06 7.90918e-06 7.9067e-06 7.9067e-06 7.9041e-06 7.90408e-06 7.9015e-06 7.9015e-06
          7.89892e-06 7.89892e-06 7.89627e-06 7.89627e-06 7.89369e-06 7.89369e-06 7.8912e-06 7.8912e-06 7.88869e-06 7.88869e-06 7.88432e-06 7.88432e-06
          7.8803e-06 7.88029e-06 7.87664e-06 7.87664e-06 7.87331e-06 7.87331e-06 7.87027e-06 7.87027e-06 7.86687e-06 7.86687e-06 7.86362e-06 7.86362e-06
          7.86029e-06 7.86029e-06 7.85658e-06 7.85658e-06 7.85214e-06 7.85214e-06 7.84645e-06 7.84645e-06 7.83892e-06 7.83892e-06 7.82861e-06 7.82862e-06
          7.81439e-06 7.81438e-06 7.79462e-06 7.79463e-06 7.76694e-06 7.76691e-06 7.72811e-06 7.72815e-06 7.67379e-06 7.67377e-06 7.5977e-06 7.5977e-06
          7.49079e-06 7.49071e-06 7.34081e-06 7.34087e-06 7.1316e-06 7.13163e-06 6.8366e-06 6.8366e-06 6.42273e-06 6.42241e-06 5.84364e-06 5.84448e-06
          5.0248e-06 5.0242e-06 3.87879e-06 3.87889e-06 2.26163e-06 2.26161e-06 0 0
        </DataArray>
        <DataArray type="Float32" Name="X_lSubstrate" NumberOfComponents="1" format="ascii">
          0.00296764 0.00296762 0.00296689 0.0029669 0.00296595 0.00296594 0.00296501 0.00296501 0.00296404 0.00296403 0.00296306 0.00296306
          0.0029621 0.00296209 0.0029611 0.0029611 0.00296013 0.00296013 0.0029592 0.0029592 0.00295826 0.00295826 0.00295662 0.00295662
          0.00295511 0.00295511 0.00295374 0.00295374 0.00295249 0.00295249 0.00295135 0.00295135 0.00295008 0.00295008 0.00294886 0.00294886
          0.00294761 0.00294761 0.00294622 0.00294622 0.00294455 0.00294455 0.00294242 0.00294242 0.00293959 0.00293959 0.00293573 0.00293573
          0.0029304 0.00293039 0.00292298 0.00292298 0.0029126 0.00291259 0.00289804 0.00289805 0.00287767 0.00287766 0.00284914 0.00284914
          0.00280905 0.00280902 0.0027528 0.00275282 0.00267435 0.00267436 0.00256372 0.00256372 0.00240852 0.0024084 0.00219137 0.00219168
          0.0018843 0.00188408 0.00145455 0.00145458 0.000848112 0.000848103 0 0
        </DataArray>
        <DataArray type="Float32" Name="X_lSuspended_Biomass" NumberOfComponents="1" format="ascii">
          2.08559e-16 2.12862e-16 4.85917e-16 4.85483e-16 4.79063e-16 4.79475e-16 5.62664e-16 5.62599e-16 5.89346e-16 5.89446e-16 6.32971e-16 6.33699e-16
          6.18508e-16 6.18361e-16 6.03669e-16 6.04638e-16 6.66452e-16 6.66602e-16 6.77585e-16 6.76328e-16 6.1317e-16 6.1282e-16 8.5921e-16 8.5913e-16
          8.39945e-16 8.3992e-16 8.34169e-16 8.34197e-16 9.04437e-16 9.05429e-16 8.33382e-16 8.33212e-16 9.09857e-16 9.0985e-16 8.93755e-16 8.93694e-16
          8.98136e-16 8.98098e-16 8.49002e-16 8.49093e-16 8.45003e-16 8.44966e-16 8.16816e-16 8.16993e-16 8.82964e-16 8.82793e-16 8.54916e-16 8.55873e-16
          9.84294e-16 9.84675e-16 1.08578e-15 1.08579e-15 1.15273e-15 1.1528e-15 1.26385e-15 1.26383e-15 1.29321e-15 1.29323e-15 1.34493e-15 1.34495e-15
          1.36841e-15 1.36846e-15 1.3469e-15 1.3469e-15 1.3929e-15 1.39291e-15 1.39819e-15 1.39817e-15 1.34229e-15 1.34231e-15 1.32481e-15 1.32495e-15
          1.15937e-15 1.15923e-15 9.3282e-16 9.32852e-16 5.6748e-16 5.67469e-16 0 0
        </DataArray>
        <DataArray type="Float32" Name="X_lNH4" NumberOfComponents="1" format="ascii">
          0.00333383 0.00333381 0.00333308 0.00333309 0.00333213 0.00333212 0.00333119 0.00333119 0.00333021 0.00333021 0.00332924 0.00332924
          0.00332827 0.00332827 0.00332728 0.00332728 0.00332632 0.00332632 0.0033254 0.0033254 0.00332447 0.00332447 0.00332287 0.00332287
          0.00332143 0.00332143 0.00332016 0.00332016 0.00331905 0.00331905 0.0033181 0.0033181 0.00331716 0.00331716 0.00331643 0.00331643
          0.00331587 0.00331587 0.00331546 0.00331546 0.00331517 0.00331517 0.00331498 0.00331498 0.00331487 0.00331487 0.00331484 0.00331484
          0.00331486 0.00331486 0.00331493 0.00331493 0.00331505 0.00331505 0.00331522 0.00331522 0.00331544 0.00331544 0.00331572 0.00331572
          0.00331607 0.00331607 0.00331652 0.00331652 0.0033171 0.0033171 0.00331786 0.00331786 0.00331887 0.00331887 0.00332022 0.00332022
          0.00332207 0.00332208 0.00332462 0.00332462 0.00332816 0.00332816 0.00333307 0.00333307
        </DataArray>
        <DataArray type="Float32" Name="X_lHCO3" NumberOfComponents="1" format="ascii">
          3.95596e-07 3.95599e-07 3.95418e-07 3.95424e-07 3.94261e-07 3.94248e-07 3.9214e-07 3.92143e-07 3.88929e-07 3.88909e-07 3.84707e-07 3.84698e-07
          3.79498e-07 3.79483e-07 3.73051e-07 3.73031e-07 3.65647e-07 3.65635e-07 3.57412e-07 3.57394e-07 3.47946e-07 3.47953e-07 3.28505e-07 3.28513e-07
          3.07075e-07 3.07062e-07 2.84682e-07 2.84686e-07 2.62186e-07 2.62186e-07 2.40521e-07 2.40519e-07 2.16816e-07 2.16815e-07 1.96735e-07 1.96734e-07
          1.80711e-07 1.80712e-07 1.68579e-07 1.68576e-07 1.60014e-07 1.60018e-07 1.54497e-07 1.54495e-07 1.51588e-07 1.51589e-07 1.50908e-07 1.50908e-07
          1.52105e-07 1.52105e-07 1.55029e-07 1.55028e-07 1.59629e-07 1.59633e-07 1.65966e-07 1.65961e-07 1.74193e-07 1.74197e-07 1.84613e-07 1.84613e-07
          1.97679e-07 1.97687e-07 2.13906e-07 2.139e-07 2.33787e-07 2.33784e-07 2.57888e-07 2.57887e-07 2.86165e-07 2.86185e-07 3.17778e-07 3.17738e-07
          3.50927e-07 3.50948e-07 3.8095e-07 3.80948e-07 3.98872e-07 3.98872e-07 3.37056e-07 3.37056e-07
        </DataArray>
        <DataArray type="Float32" Name="X_lCO3" NumberOfComponents="1" format="ascii">
          6.38475e-11 6.38756e-11 6.49322e-11 6.49222e-11 6.57149e-11 6.57184e-11 6.58693e-11 6.58696e-11 6.54084e-11 6.54043e-11 6.43485e-11 6.4346e-11
          6.2736e-11 6.27311e-11 6.05304e-11 6.05233e-11 5.78804e-11 5.78758e-11 5.48965e-11 5.48898e-11 5.14999e-11 5.15024e-11 4.4816e-11 4.48188e-11
          3.80504e-11 3.80465e-11 3.17085e-11 3.17096e-11 2.60723e-11 2.60723e-11 2.13017e-11 2.13014e-11 1.67688e-11 1.67687e-11 1.34483e-11 1.34483e-11
          1.11165e-11 1.11166e-11 9.52747e-12 9.52713e-12 8.49342e-12 8.49385e-12 7.86444e-12 7.86424e-12 7.54437e-12 7.54448e-12 7.46966e-12 7.46965e-12
          7.59963e-12 7.59971e-12 7.92278e-12 7.92267e-12 8.44734e-12 8.44786e-12 9.20289e-12 9.2022e-12 1.02419e-11 1.02423e-11 1.16551e-11 1.16551e-11
          1.35872e-11 1.35885e-11 1.6246e-11 1.62449e-11 1.99158e-11 1.99152e-11 2.50236e-11 2.50236e-11 3.20051e-11 3.20104e-11 4.11522e-11 4.11397e-11
          5.22084e-11 5.22156e-11 6.27282e-11 6.27276e-11 6.53056e-11 6.53055e-11 2.55591e-11 2.55591e-11
        </DataArray>
        <DataArray type="Float32" Name="X_lCO2" NumberOfComponents="1" format="ascii">
          2.98683e-07 2.98711e-07 3.00179e-07 3.00159e-07 3.02748e-07 3.02771e-07 3.05993e-07 3.05989e-07 3.1009e-07 3.10114e-07 3.14907e-07 3.14917e-07
          3.20416e-07 3.20432e-07 3.2686e-07 3.2688e-07 3.3394e-07 3.33952e-07 3.41547e-07 3.41564e-07 3.50047e-07 3.50041e-07 3.66943e-07 3.66936e-07
          3.84988e-07 3.84998e-07 4.03412e-07 4.03409e-07 4.21607e-07 4.21607e-07 4.38911e-07 4.38912e-07 4.57657e-07 4.57658e-07 4.73421e-07 4.73421e-07
          4.85939e-07 4.85939e-07 4.9539e-07 4.95392e-07 5.02047e-07 5.02044e-07 5.06328e-07 5.06329e-07 5.0858e-07 5.0858e-07 5.09185e-07 5.09185e-07
          5.08253e-07 5.08252e-07 5.05983e-07 5.05983e-07 5.02413e-07 5.0241e-07 4.975e-07 4.97504e-07 4.91126e-07 4.91123e-07 4.8305e-07 4.8305e-07
          4.72907e-07 4.729e-07 4.60289e-07 4.60294e-07 4.44849e-07 4.44851e-07 4.25927e-07 4.25928e-07 4.03485e-07 4.03469e-07 3.77927e-07 3.7796e-07
          3.50235e-07 3.50218e-07 3.23402e-07 3.23403e-07 3.03289e-07 3.03289e-07 3.38012e-07 3.38012e-07
        </DataArray>
        <DataArray type="Float32" Name="X_lH" NumberOfComponents="1" format="ascii">
          7.52992e-10 7.53407e-10 7.72818e-10 7.7258e-10 8.00299e-10 8.00522e-10 8.30401e-10 8.30359e-10 8.65258e-10 8.65457e-10 9.04231e-10 9.04308e-10
          9.47745e-10 9.47868e-10 9.98432e-10 9.98588e-10 1.05481e-09 1.05491e-09 1.11697e-09 1.11711e-09 1.18909e-09 1.18903e-09 1.34345e-09 1.34338e-09
          1.5292e-09 1.52932e-09 1.74789e-09 1.74785e-09 2.00127e-09 2.00127e-09 2.28726e-09 2.28729e-09 2.66311e-09 2.66313e-09 3.05073e-09 3.05074e-09
          3.42096e-09 3.42095e-09 3.74774e-09 3.74782e-09 4.00809e-09 4.00797e-09 4.19103e-09 4.1911e-09 4.29281e-09 4.29277e-09 4.31784e-09 4.31785e-09
          4.27508e-09 4.27506e-09 4.17343e-09 4.17346e-09 4.02106e-09 4.02091e-09 3.82501e-09 3.82517e-09 3.5918e-09 3.5917e-09 3.32619e-09 3.32619e-09
          3.03245e-09 3.03227e-09 2.71719e-09 2.7173e-09 2.39016e-09 2.39021e-09 2.05923e-09 2.05923e-09 1.73889e-09 1.73869e-09 1.44254e-09 1.44288e-09
          1.17816e-09 1.17801e-09 9.55428e-10 9.55442e-10 7.74614e-10 7.74612e-10 6.32454e-10 6.32454e-10
        </DataArray>
        <DataArray type="Float32" Name="X_lOH" NumberOfComponents="1" format="ascii">
          2.18157e-07 2.18023e-07 2.11939e-07 2.12012e-07 2.03901e-07 2.03838e-07 1.95785e-07 1.95796e-07 1.87177e-07 1.8713e-07 1.78423e-07 1.78406e-07
          1.69584e-07 1.6956e-07 1.60346e-07 1.6032e-07 1.512e-07 1.51185e-07 1.42265e-07 1.42246e-07 1.33146e-07 1.33152e-07 1.17101e-07 1.17108e-07
          1.02289e-07 1.0228e-07 8.90381e-08 8.90403e-08 7.74228e-08 7.74228e-08 6.74868e-08 6.74862e-08 5.77467e-08 5.77464e-08 5.02632e-08 5.0263e-08
          4.4725e-08 4.47252e-08 4.07596e-08 4.07587e-08 3.80695e-08 3.80706e-08 3.63818e-08 3.63812e-08 3.55061e-08 3.55064e-08 3.52972e-08 3.52972e-08
          3.5656e-08 3.56563e-08 3.65388e-08 3.65385e-08 3.79467e-08 3.79481e-08 3.99256e-08 3.99239e-08 4.25657e-08 4.25668e-08 4.60315e-08 4.60314e-08
          5.05854e-08 5.05884e-08 5.65928e-08 5.65904e-08 6.45423e-08 6.45411e-08 7.52365e-08 7.52364e-08 8.96114e-08 8.96223e-08 1.08868e-07 1.08841e-07
          1.34741e-07 1.34759e-07 1.68627e-07 1.68624e-07 2.12303e-07 2.12303e-07 2.67481e-07 2.67481e-07
        </DataArray>
        <DataArray type="Float32" Name="X_gBrine" NumberOfComponents="1" format="ascii">
          0.0112336 0.0112062 0.0112121 0.0112121 0.0112169 0.0112169 0.0112218 0.0112218 0.0112266 0.0112265 0.0112313 0.0112313
          0.0112361 0.0112361 0.0112408 0.0112408 0.0112457 0.0112456 0.0112507 0.0112507 0.0112558 0.0112558 0.0112672 0.0112672
          0.0112794 0.0112794 0.0112926 0.0112926 0.0113068 0.0113068 0.0113218 0.0113218 0.0113419 0.0113419 0.0113632 0.0113632
          0.0113855 0.0113855 0.0114087 0.0114087 0.0114327 0.0114327 0.0114573 0.0114573 0.0114825 0.0114825 0.0115081 0.0115081
          0.0115342 0.0115342 0.0115607 0.0115607 0.0115876 0.0115876 0.011615 0.011615 0.0116428 0.0116428 0.0116711 0.0116711
          0.0117001 0.0117001 0.01173 0.01173 0.0117609 0.0117609 0.0117933 0.0117933 0.0118277 0.0118277 0.0118648 0.0118648
          0.0119059 0.0119059 0.0119521 0.0119521 0.0120059 0.0120059 0.0120698 0.0120698
        </DataArray>
        <DataArray type="Float32" Name="X_gTotalC" NumberOfComponents="1" format="ascii">
          0.988766 0.988794 0.988788 0.988788 0.988783 0.988783 0.988778 0.988778 0.988773 0.988773 0.988769 0.988769
          0.988764 0.988764 0.988759 0.988759 0.988754 0.988754 0.988749 0.988749 0.988744 0.988744 0.988733 0.988733
          0.988721 0.988721 0.988707 0.988707 0.988693 0.988693 0.988678 0.988678 0.988658 0.988658 0.988637 0.988637
          0.988614 0.988614 0.988591 0.988591 0.988567 0.988567 0.988543 0.988543 0.988518 0.988518 0.988492 0.988492
          0.988466 0.988466 0.988439 0.988439 0.988412 0.988412 0.988385 0.988385 0.988357 0.988357 0.988329 0.988329
          0.9883 0.9883 0.98827 0.98827 0.988239 0.988239 0.988207 0.988207 0.988172 0.988172 0.988135 0.988135
          0.988094 0.988094 0.988048 0.988048 0.987994 0.987994 0.98793 0.98793
        </DataArray>
        <DataArray type="Float32" Name="X_gNa" NumberOfComponents="1" format="ascii">
          0 0 0 0 0 0 0 0 0 0 0 0
          0 0 0 0 0 0 0 0 0 0 0 0
          0 0 0 0 0 0 0 0 0 0 0 0
          0 0 0 0 0 0 0 0 0 0 0 0
          0 0 0 0 0 0 0 0 0 0 0 0
          0 0 0 0 0 0 0 0 0 0 0 0
          0 0 0 0 0 0 0 0
        </DataArray>
        <DataArray type="Float32" Name="X_gCl" NumberOfComponents="1" format="ascii">
          0 0 0 0 0 0 0 0 0 0 0 0
          0 0 0 0 0 0 0 0 0 0 0 0
          0 0 0 0 0 0 0 0 0 0 0 0
          0 0 0 0 0 0 0 0 0 0 0 0
          0 0 0 0 0 0 0 0 0 0 0 0
          0 0 0 0 0 0 0 0 0 0 0 0
          0 0 0 0 0 0 0 0
        </DataArray>
        <DataArray type="Float32" Name="X_gCa" NumberOfComponents="1" format="ascii">
          0 0 0 0 0 0 0 0 0 0 0 0
          0 0 0 0 0 0 0 0 0 0 0 0
          0 0 0 0 0 0 0 0 0 0 0 0
          0 0 0 0 0 0 0 0 0 0 0 0
          0 0 0 0 0 0 0 0 0 0 0 0
          0 0 0 0 0 0 0 0 0 0 0 0
          0 0 0 0 0 0 0 0
        </DataArray>
        <DataArray type="Float32" Name="X_gUrea" NumberOfComponents="1" format="ascii">
          0 0 0 0 0 0 0 0 0 0 0 0
          0 0 0 0 0 0 0 0 0 0 0 0
          0 0 0 0 0 0 0 0 0 0 0 0
          0 0 0 0 0 0 0 0 0 0 0 0
          0 0 0 0 0 0 0 0 0 0 0 0
          0 0 0 0 0 0 0 0 0 0 0 0
          0 0 0 0 0 0 0 0
        </DataArray>
        <DataArray type="Float32" Name="X_gTotalNH" NumberOfComponents="1" format="ascii">
          0 0 0 0 0 0 0 0 0 0 0 0
          0 0 0 0 0 0 0 0 0 0 0 0
          0 0 0 0 0 0 0 0 0 0 0 0
          0 0 0 0 0 0 0 0 0 0 0 0
          0 0 0 0 0 0 0 0 0 0 0 0
          0 0 0 0 0 0 0 0 0 0 0 0
          0 0 0 0 0 0 0 0
        </DataArray>
        <DataArray type="Float32" Name="X_gO2" NumberOfComponents="1" format="ascii">
          0 0 0 0 0 0 0 0 0 0 0 0
          0 0 0 0 0 0 0 0 0 0 0 0
          0 0 0 0 0 0 0 0 0 0 0 0
          0 0 0 0 0 0 0 0 0 0 0 0
          0 0 0 0 0 0 0 0 0 0 0 0
          0 0 0 0 0 0 0 0 0 0 0 0
          0 0 0 0 0 0 0 0
        </DataArray>
        <DataArray type="Float32" Name="X_gSubstrate" NumberOfComponents="1" format="ascii">
          0 0 0 0 0 0 0 0 0 0 0 0
          0 0 0 0 0 0 0 0 0 0 0 0
          0 0 0 0 0 0 0 0 0 0 0 0
          0 0 0 0 0 0 0 0 0 0 0 0
          0 0 0 0 0 0 0 0 0 0 0 0
          0 0 0 0 0 0 0 0 0 0 0 0
          0 0 0 0 0 0 0 0
        </DataArray>
        <DataArray type="Float32" Name="X_gSuspended_Biomass" NumberOfComponents="1" format="ascii">
          0 0 0 0 0 0 0 0 0 0 0 0
          0 0 0 0 0 0 0 0 0 0 0 0
          0 0 0 0 0 0 0 0 0 0 0 0
          0 0 0 0 0 0 0 0 0 0 0 0
          0 0 0 0 0 0 0 0 0 0 0 0
          0 0 0 0 0 0 0 0 0 0 0 0
          0 0 0 0 0 0 0 0
        </DataArray>
        <DataArray type="Float32" Name="X_gNH4" NumberOfComponents="1" format="ascii">
          0 0 0 0 0 0 0 0 0 0 0 0
          0 0 0 0 0 0 0 0 0 0 0 0
          0 0 0 0 0 0 0 0 0 0 0 0
          0 0 0 0 0 0 0 0 0 0 0 0
          0 0 0 0 0 0 0 0 0 0 0 0
          0 0 0 0 0 0 0 0 0 0 0 0
          0 0 0 0 0 0 0 0
        </DataArray>
        <DataArray type="Float32" Name="X_gHCO3" NumberOfComponents="1" format="ascii">
          0 0 0 0 0 0 0 0 0 0 0 0
          0 0 0 0 0 0 0 0 0 0 0 0
          0 0 0 0 0 0 0 0 0 0 0 0
          0 0 0 0 0 0 0 0 0 0 0 0
          0 0 0 0 0 0 0 0 0 0 0 0
          0 0 0 0 0 0 0 0 0 0 0 0
          0 0 0 0 0 0 0 0
        </DataArray>
        <DataArray type="Float32" Name="X_gCO3" NumberOfComponents="1" format="ascii">
          0 0 0 0 0 0 0 0 0 0 0 0
          0 0 0 0 0 0 0 0 0 0 0 0
          0 0 0 0 0 0 0 0 0 0 0 0
          0 0 0 0 0 0 0 0 0 0 0 0
          0 0 0 0 0 0 0 0 0 0 0 0
          0 0 0 0 0 0 0 0 0 0 0 0
          0 0 0 0 0 0 0 0
        </DataArray>
        <DataArray type="Float32" Name="X_gCO2" NumberOfComponents="1" format="ascii">
          0.988766 0.988794 0.988788 0.988788 0.988783 0.988783 0.988778 0.988778 0.988773 0.988773 0.988769 0.988769
          0.988764 0.988764 0.988759 0.988759 0.988754 0.988754 0.988749 0.988749 0.988744 0.988744 0.988733 0.988733
          0.988721 0.988721 0.988707 0.988707 0.988693 0.988693 0.988678 0.988678 0.988658 0.988658 0.988637 0.988637
          0.988614 0.988614 0.988591 0.988591 0.988567 0.988567 0.988543 0.988543 0.988518 0.988518 0.988492 0.988492
          0.988466 0.988466 0.988439 0.988439 0.988412 0.988412 0.988385 0.988385 0.988357 0.988357 0.988329 0.988329
          0.9883 0.9883 0.98827 0.98827 0.988239 0.988239 0.988207 0.988207 0.988172 0.988172 0.988135 0.988135
          0.988094 0.988094 0.988048 0.988048 0.987994 0.987994 0.98793 0.98793
        </DataArray>
        <DataArray type="Float32" Name="X_gH" NumberOfComponents="1" format="ascii">
          0 0 0 0 0 0 0 0 0 0 0 0
          0 0 0 0 0 0 0 0 0 0 0 0
          0 0 0 0 0 0 0 0 0 0 0 0
          0 0 0 0 0 0 0 0 0 0 0 0
          0 0 0 0 0 0 0 0 0 0 0 0
          0 0 0 0 0 0 0 0 0 0 0 0
          0 0 0 0 0 0 0 0
        </DataArray>
        <DataArray type="Float32" Name="X_gOH" NumberOfComponents="1" format="ascii">
          0 0 0 0 0 0 0 0 0 0 0 0
          0 0 0 0 0 0 0 0 0 0 0 0
          0 0 0 0 0 0 0 0 0 0 0 0
          0 0 0 0 0 0 0 0 0 0 0 0
          0 0 0 0 0 0 0 0 0 0 0 0
          0 0 0 0 0 0 0 0 0 0 0 0
          0 0 0 0 0 0 0 0
        </DataArray>
        <DataArray type="Float32" Name="Molarity_Brine" NumberOfComponents="1" format="ascii">
          54465.3 54464.2 54414.3 54414.8 54349.3 54348.8 54284.8 54284.9 54217.6 54217.3 54150.6 54150.4
          54084 54083.8 54015.7 54015.5 53949.2 53949.1 53885.3 53885.2 53821 53821.1 53710 53710.1
          53609.6 53609.5 53520.9 53520.9 53443.7 53443.7 53377.6 53377.6 53312.3 53312.3 53261.4 53261.4
          53222.8 53222.8 53194.6 53194.6 53175.1 53175.1 53162.6 53162.6 53156.1 53156.1 53154.6 53154.6
          53157.6 53157.6 53164.5 53164.5 53175.5 53175.5 53190.7 53190.7 53210.7 53210.8 53236.8 53236.8
          53270.6 53270.6 53314.8 53314.8 53372.7 53372.7 53450.3 53450.3 53554.9 53554.9 53696.7 53696.5
          53892.6 53892.7 54161.5 54161.5 54535 54535 55049.2 55049.2
        </DataArray>
        <DataArray type="Float32" Name="Molarity_TotalC" NumberOfComponents="1" format="ascii">
          0.0133688 0.0133697 0.0134096 0.0134091 0.0134613 0.0134617 0.0135126 0.0135125 0.0135659 0.0135662 0.0136191 0.0136192
          0.0136718 0.0136719 0.0137258 0.0137259 0.0137783 0.0137784 0.0138287 0.0138288 0.0138793 0.0138793 0.0139666 0.0139666
          0.0140454 0.0140455 0.0141149 0.0141149 0.0141752 0.0141752 0.0142268 0.0142268 0.0142775 0.0142775 0.014317 0.014317
          0.0143468 0.0143468 0.0143685 0.0143685 0.0143835 0.0143834 0.0143929 0.0143929 0.0143977 0.0143977 0.0144007 0.0144007
          0.0143986 0.0143986 0.0143935 0.0143935 0.0143857 0.0143856 0.0143749 0.0143749 0.014361 0.014361 0.0143432 0.0143432
          0.0143204 0.0143204 0.0142913 0.0142913 0.0142555 0.0142555 0.0142062 0.0142061 0.0141405 0.0141404 0.0140521 0.0140522
          0.013931 0.0139309 0.0137657 0.0137657 0.0135373 0.0135373 0.0132254 0.0132254
        </DataArray>
        <DataArray type="Float32" Name="Molarity_Na" NumberOfComponents="1" format="ascii">
          0.127393 0.127297 0.122964 0.123015 0.11733 0.117286 0.111743 0.11175 0.105924 0.105893 0.100116 0.100105
          0.0943557 0.0943403 0.0884431 0.088426 0.0826894 0.0826803 0.0771593 0.0771477 0.0716009 0.0716047 0.0620075 0.0620112
          0.0533275 0.0533227 0.0456696 0.0456709 0.039004 0.039004 0.0333032 0.0333028 0.0276732 0.027673 0.0232789 0.0232788
          0.0199571 0.0199573 0.0175228 0.0175222 0.0158349 0.0158356 0.0147573 0.0147569 0.0141918 0.014192 0.0140531 0.0140531
          0.0142868 0.0142869 0.0148572 0.014857 0.0157572 0.0157581 0.0170043 0.0170032 0.0186406 0.0186414 0.0207508 0.0207507
          0.0234737 0.0234755 0.0270048 0.0270034 0.0316083 0.0316076 0.0377484 0.0377484 0.0459905 0.0459968 0.0571408 0.0571249
          0.0725098 0.072521 0.0936045 0.0936028 0.122907 0.122907 0.1633 0.1633
        </DataArray>
        <DataArray type="Float32" Name="Molarity_Cl" NumberOfComponents="1" format="ascii">
          342.278 342.693 361.418 361.197 385.766 385.954 409.909 409.878 435.054 435.191 460.156 460.203
          485.046 485.113 510.596 510.67 535.459 535.498 559.355 559.405 583.373 583.357 624.826 624.81
          662.331 662.352 695.419 695.414 724.22 724.22 748.85 748.852 773.175 773.175 792.16 792.16
          806.51 806.509 817.026 817.028 824.317 824.313 828.97 828.971 831.41 831.409 832.005 832.005
          830.99 830.99 828.519 828.52 824.622 824.618 819.222 819.227 812.137 812.134 802.999 803
          791.206 791.198 775.911 775.917 755.968 755.971 729.366 729.366 693.652 693.625 645.333 645.401
          578.727 578.678 487.3 487.307 360.291 360.289 185.193 185.193
        </DataArray>
        <DataArray type="Float32" Name="Molarity_Ca" NumberOfComponents="1" format="ascii">
          78.0025 78.2094 87.5301 87.4202 99.6507 99.7442 111.669 111.653 124.186 124.254 136.682 136.705
          149.072 149.105 161.791 161.827 174.167 174.187 186.063 186.088 198.019 198.011 218.655 218.647
          237.325 237.335 253.797 253.794 268.134 268.134 280.395 280.396 292.504 292.505 301.955 301.956
          309.099 309.099 314.335 314.336 317.964 317.963 320.281 320.282 321.496 321.496 321.793 321.793
          321.288 321.288 320.059 320.059 318.119 318.118 315.433 315.435 311.907 311.905 307.36 307.36
          301.492 301.488 293.882 293.885 283.96 283.961 270.724 270.724 252.955 252.942 228.916 228.95
          195.779 195.755 150.294 150.298 87.1082 87.1074 0 0
        </DataArray>
        <DataArray type="Float32" Name="Molarity_Urea" NumberOfComponents="1" format="ascii">
          76.2571 76.4594 85.5716 85.4641 97.421 97.5125 109.17 109.155 121.408 121.474 133.624 133.647
          145.738 145.77 158.172 158.208 170.273 170.292 181.903 181.928 193.593 193.585 213.77 213.762
          232.026 232.036 248.133 248.13 262.155 262.155 274.149 274.149 285.996 285.997 295.248 295.248
          302.245 302.245 307.379 307.38 310.946 310.944 313.231 313.232 314.443 314.442 314.759 314.759
          314.294 314.293 313.123 313.123 311.26 311.258 308.668 308.67 305.256 305.255 300.846 300.846
          295.143 295.139 287.733 287.736 278.056 278.057 265.13 265.13 247.758 247.745 224.236 224.27
          191.794 191.77 147.244 147.248 85.344 85.3432 0 0
        </DataArray>
        <DataArray type="Float32" Name="Molarity_TotalNH" NumberOfComponents="1" format="ascii">
          186.273 186.275 186.357 186.356 186.465 186.466 186.571 186.571 186.682 186.683 186.793 186.793
          186.903 186.903 187.015 187.015 187.124 187.125 187.229 187.23 187.335 187.335 187.517 187.517
          187.681 187.681 187.826 187.826 187.952 187.952 188.06 188.06 188.166 188.166 188.249 188.249
          188.311 188.311 188.357 188.357 188.388 188.388 188.408 188.408 188.418 188.418 188.42 188.42
          188.414 188.414 188.402 188.402 188.383 188.383 188.357 188.357 188.323 188.323 188.279 188.279
          188.222 188.222 188.147 188.147 188.049 188.049 187.918 187.918 187.741 187.741 187.501 187.501
          187.169 187.169 186.712 186.712 186.075 186.075 185.193 185.193
        </DataArray>
        <DataArray type="Float32" Name="Molarity_O2" NumberOfComponents="1" format="ascii">
          0.249098 0.249101 0.249211 0.249209 0.249354 0.249355 0.249495 0.249495 0.249642 0.249643 0.249789 0.249789
          0.249934 0.249934 0.250083 0.250083 0.250227 0.250227 0.250365 0.250365 0.250504 0.250503 0.250741 0.250741
          0.250952 0.250952 0.251135 0.251135 0.25129 0.25129 0.251415 0.251415 0.251526 0.251526 0.251593 0.251593
          0.251616 0.251616 0.251592 0.251592 0.251515 0.251515 0.251375 0.251374 0.251155 0.251155 0.25083 0.250831
          0.250366 0.250365 0.24971 0.24971 0.248789 0.248788 0.247497 0.247498 0.245695 0.245694 0.243179 0.243179
          0.239656 0.239653 0.234729 0.234731 0.227876 0.227877 0.218241 0.218241 0.204766 0.204756 0.18598 0.186007
          0.159534 0.159515 0.122741 0.122744 0.071236 0.0712353 0 0
        </DataArray>
        <DataArray type="Float32" Name="Molarity_Substrate" NumberOfComponents="1" format="ascii">
          16.5918 16.592 16.5993 16.5992 16.6088 16.6089 16.6182 16.6182 16.628 16.6281 16.6378 16.6378
          16.6475 16.6475 16.6574 16.6574 16.667 16.667 16.6762 16.6762 16.6854 16.6854 16.7012 16.7012
          16.7153 16.7153 16.7275 16.7275 16.7378 16.7378 16.7461 16.7461 16.7535 16.7535 16.758 16.758
          16.7595 16.7595 16.7579 16.7579 16.7528 16.7528 16.7434 16.7434 16.7288 16.7288 16.7072 16.7072
          16.6762 16.6762 16.6326 16.6326 16.5712 16.5711 16.4851 16.4852 16.3651 16.3651 16.1975 16.1975
          15.9629 15.9627 15.6347 15.6348 15.1783 15.1783 14.5365 14.5365 13.639 13.6383 12.3876 12.3894
          10.6262 10.6249 8.17547 8.17567 4.74485 4.7448 0 0
        </DataArray>
        <DataArray type="Float32" Name="Molarity_Suspended_Biomass" NumberOfComponents="1" format="ascii">
          2.10072e-13 2.1441e-13 4.89788e-13 4.89347e-13 4.8331e-13 4.83729e-13 5.68154e-13 5.68087e-13 5.95643e-13 5.95747e-13 6.40321e-13 6.41058e-13
          6.26257e-13 6.2611e-13 6.11801e-13 6.12785e-13 6.76041e-13 6.76194e-13 6.87931e-13 6.86655e-13 6.23074e-13 6.22719e-13 8.74399e-13 8.74317e-13
          8.55952e-13 8.55927e-13 8.51081e-13 8.51109e-13 9.2373e-13 9.24743e-13 8.51913e-13 8.5174e-13 9.30901e-13 9.30894e-13 9.1505e-13 9.14987e-13
          9.20008e-13 9.19968e-13 8.70004e-13 8.70097e-13 8.66132e-13 8.66095e-13 8.3738e-13 8.37561e-13 9.05272e-13 9.05097e-13 8.76534e-13 8.77515e-13
          1.00915e-12 1.00954e-12 1.11309e-12 1.11311e-12 1.18156e-12 1.18164e-12 1.29522e-12 1.29519e-12 1.32497e-12 1.32499e-12 1.37751e-12 1.37753e-12
          1.40097e-12 1.40101e-12 1.37819e-12 1.37819e-12 1.42423e-12 1.42425e-12 1.42828e-12 1.42826e-12 1.36942e-12 1.36944e-12 1.34923e-12 1.34937e-12
          1.1779e-12 1.17775e-12 9.44585e-13 9.44618e-13 5.71976e-13 5.71966e-13 0 0
        </DataArray>
        <DataArray type="Float32" Name="Molarity_NH4" NumberOfComponents="1" format="ascii">
          186.154 186.156 186.243 186.242 186.356 186.357 186.468 186.468 186.584 186.585 186.701 186.701
          186.816 186.816 186.934 186.935 187.049 187.049 187.159 187.16 187.27 187.27 187.461 187.461
          187.634 187.634 187.786 187.786 187.918 187.918 188.031 188.031 188.142 188.142 188.228 188.228
          188.293 188.293 188.341 188.341 188.373 188.373 188.394 188.394 188.404 188.404 188.406 188.406
          188.4 188.4 188.388 188.388 188.368 188.368 188.342 188.342 188.306 188.306 188.26 188.26
          188.201 188.201 188.123 188.123 188.022 188.022 187.885 187.885 187.701 187.701 187.45 187.451
          187.104 187.103 186.626 186.626 185.96 185.96 185.037 185.037
        </DataArray>
        <DataArray type="Float32" Name="Molarity_HCO3" NumberOfComponents="1" format="ascii">
          0.00653041 0.00653057 0.00653206 0.0065321 0.00651876 0.00651859 0.00648941 0.00648947 0.0064422 0.0064419 0.00637811 0.00637798
          0.00629746 0.00629723 0.00619623 0.00619591 0.00607875 0.00607855 0.00594701 0.00594671 0.00579454 0.00579465 0.00547899 0.00547912
          0.00512852 0.00512831 0.0047602 0.00476026 0.00438859 0.00438859 0.0040295 0.00402948 0.00363555 0.00363554 0.00330107 0.00330107
          0.00303377 0.00303378 0.00283115 0.00283111 0.00268802 0.00268809 0.00259576 0.00259573 0.00254711 0.00254713 0.00253575 0.00253575
          0.00255576 0.00255577 0.00260466 0.00260465 0.00268158 0.00268165 0.0027875 0.00278741 0.00292493 0.00292499 0.00309888 0.00309887
          0.0033168 0.00331694 0.00358711 0.003587 0.0039177 0.00391765 0.00431743 0.00431743 0.00478468 0.00478501 0.005304 0.00530334
          0.0058432 0.00584353 0.00632206 0.00632203 0.00658885 0.00658885 0.00553194 0.00553194
        </DataArray>
        <DataArray type="Float32" Name="Molarity_CO3" NumberOfComponents="1" format="ascii">
          1.07168e-06 1.07217e-06 1.09066e-06 1.09048e-06 1.10479e-06 1.10486e-06 1.10836e-06 1.10837e-06 1.10162e-06 1.10156e-06 1.08476e-06 1.08472e-06
          1.05854e-06 1.05846e-06 1.02227e-06 1.02216e-06 9.78402e-07 9.78327e-07 9.28769e-07 9.28657e-07 8.72063e-07 8.72104e-07 7.60021e-07 7.60067e-07
          6.46159e-07 6.46094e-07 5.39107e-07 5.39125e-07 4.4374e-07 4.4374e-07 3.62867e-07 3.62862e-07 2.85901e-07 2.85899e-07 2.29444e-07 2.29443e-07
          1.89757e-07 1.89759e-07 1.62694e-07 1.62689e-07 1.45074e-07 1.45082e-07 1.34353e-07 1.3435e-07 1.28897e-07 1.28898e-07 1.27623e-07 1.27623e-07
          1.29839e-07 1.2984e-07 1.35348e-07 1.35346e-07 1.44289e-07 1.44298e-07 1.57164e-07 1.57152e-07 1.74863e-07 1.74871e-07 1.98927e-07 1.98926e-07
          2.31805e-07 2.31827e-07 2.77014e-07 2.76995e-07 3.39345e-07 3.39335e-07 4.2597e-07 4.25969e-07 5.44114e-07 5.44203e-07 6.98404e-07 6.98194e-07
          8.8391e-07 8.8403e-07 1.05849e-06 1.05848e-06 1.09688e-06 1.09688e-06 4.26535e-07 4.26535e-07
        </DataArray>
        <DataArray type="Float32" Name="Molarity_CO2" NumberOfComponents="1" format="ascii">
          0.00683752 0.00683826 0.00687659 0.00687607 0.00694164 0.00694221 0.00702225 0.00702213 0.0071228 0.00712339 0.00724008 0.00724031
          0.00737342 0.0073738 0.00752871 0.00752918 0.00769873 0.00769902 0.00788095 0.00788135 0.00808411 0.00808396 0.00848704 0.00848687
          0.00891646 0.00891672 0.00935433 0.00935425 0.00978637 0.00978637 0.0101971 0.0101971 0.0106419 0.0106419 0.0110159 0.0110159
          0.011313 0.011313 0.0115374 0.0115374 0.0116955 0.0116954 0.0117972 0.0117972 0.0118507 0.0118507 0.011865 0.011865
          0.0118429 0.0118428 0.0117889 0.0117889 0.0117041 0.011704 0.0115874 0.0115875 0.0114361 0.011436 0.0112443 0.0112443
          0.0110036 0.0110034 0.0107041 0.0107042 0.0103376 0.0103377 0.00988848 0.00988848 0.00935541 0.00935504 0.00874757 0.00874835
          0.00808709 0.00808667 0.00744274 0.00744278 0.00694756 0.00694756 0.00769319 0.00769319
        </DataArray>
        <DataArray type="Float32" Name="Molarity_H" NumberOfComponents="1" format="ascii">
          0.000752482 0.000752909 0.000772837 0.000772593 0.000801034 0.000801262 0.000831897 0.000831854 0.000867614 0.000867818 0.000907524 0.000907603
          0.00095206 0.000952186 0.00100391 0.00100407 0.00106156 0.00106166 0.00112509 0.00112523 0.00119877 0.00119872 0.00135643 0.00135636
          0.00154606 0.00154618 0.00176928 0.00176923 0.00202786 0.00202786 0.00231971 0.00231973 0.00270325 0.00270326 0.00309881 0.00309882
          0.00347666 0.00347665 0.0038102 0.00381028 0.00407595 0.00407583 0.0042627 0.00426276 0.00436659 0.00436656 0.00439215 0.00439215
          0.0043485 0.00434847 0.00424472 0.00424476 0.00408918 0.00408903 0.00388905 0.00388922 0.00365102 0.00365092 0.00337992 0.00337993
          0.00308013 0.00307995 0.00275841 0.00275852 0.00242468 0.00242473 0.00208697 0.00208697 0.00176005 0.00175984 0.00145755 0.0014579
          0.00118756 0.0011874 0.000959856 0.00095987 0.000774602 0.0007746 0.000628379 0.000628379
        </DataArray>
        <DataArray type="Float32" Name="Molarity_OH" NumberOfComponents="1" format="ascii">
          1.29264e-05 1.29186e-05 1.25668e-05 1.2571e-05 1.21009e-05 1.20973e-05 1.16296e-05 1.16302e-05 1.11284e-05 1.11257e-05 1.06177e-05 1.06167e-05
          1.01008e-05 1.00995e-05 9.55954e-06 9.55797e-06 9.02237e-06 9.02152e-06 8.49657e-06 8.49545e-06 7.95889e-06 7.95926e-06 7.01034e-06 7.01071e-06
          6.13186e-06 6.13137e-06 5.34391e-06 5.34404e-06 4.6516e-06 4.6516e-06 4.05823e-06 4.05819e-06 3.47555e-06 3.47554e-06 3.02721e-06 3.0272e-06
          2.69505e-06 2.69506e-06 2.45702e-06 2.45697e-06 2.29546e-06 2.29553e-06 2.19406e-06 2.19403e-06 2.14144e-06 2.14145e-06 2.12888e-06 2.12888e-06
          2.15045e-06 2.15046e-06 2.20349e-06 2.20348e-06 2.28808e-06 2.28816e-06 2.40694e-06 2.40683e-06 2.56544e-06 2.56551e-06 2.77342e-06 2.77341e-06
          3.04651e-06 3.04669e-06 3.40644e-06 3.40629e-06 3.88216e-06 3.88208e-06 4.52107e-06 4.52107e-06 5.37797e-06 5.37862e-06 6.52224e-06 6.52064e-06
          8.05286e-06 8.05395e-06 1.00447e-05 1.00445e-05 1.25878e-05 1.25878e-05 1.57575e-05 1.57575e-05
        </DataArray>
        <DataArray type="Float32" Name="Da_ureolysis" NumberOfComponents="1" format="ascii">
          0 0 0 0 0 0 0 0 0 0 0 0
          0 0 0 0 0 0 0 0 0 0 0 0
          0 0 0 0 0 0 0 0 0 0 0 0
          0 0 0 0 0 0 0 0 0 0 0 0
          0 0 0 0 0 0 0 0 0 0 0 0
          0 0 0 0 0 0 0 0 0 0 0 0
          0 0 0 0 0 0 0 0
        </DataArray>
        <DataArray type="Float32" Name="Da_precipitation" NumberOfComponents="1" format="ascii">
          0 0 0 0 0 0 0 0 0 0 0 0
          0 0 0 0 0 0 0 0 0 0 0 0
          0 0 0 0 0 0 0 0 0 0 0 0
          0 0 0 0 0 0 0 0 0 0 0 0
          0 0 0 0 0 0 0 0 0 0 0 0
          0 0 0 0 0 0 0 0 0 0 0 0
          0 0 0 0 0 0 0 0
        </DataArray>
        <DataArray type="Float32" Name="Vx" NumberOfComponents="1" format="ascii">
          -1.69586e-09 -1.693e-09 -6.81809e-10 -6.79756e-10 -8.76547e-10 -8.74703e-10 -6.33827e-10 -6.32047e-10 -3.22538e-10 -3.21877e-10 1.61151e-10 1.60916e-10
          2.35669e-10 2.35025e-10 4.31457e-10 4.30482e-10 7.17504e-10 7.15917e-10 9.44833e-10 9.42864e-10 6.89332e-10 6.88894e-10 -3.91397e-11 -3.87112e-11
          -9.33939e-11 -9.34406e-11 8.86242e-11 8.86395e-11 4.39685e-13 5.27452e-13 -1.5212e-11 -1.51873e-11 6.12304e-12 6.11802e-12 5.56662e-12 5.56248e-12
          -3.61509e-12 -3.61511e-12 1.29565e-11 1.29583e-11 4.71321e-12 4.71522e-12 -9.41151e-12 -9.41213e-12 4.1112e-12 4.11154e-12 4.02429e-13 4.02624e-13
          1.14732e-12 1.14671e-12 1.00627e-11 1.00623e-11 -1.84716e-11 -1.84742e-11 -3.37441e-12 -3.37428e-12 3.23779e-11 3.2371e-11 2.49894e-11 2.49807e-11
          -4.32437e-11 -4.32115e-11 -6.24241e-11 -6.24055e-11 6.75229e-11 6.75106e-11 6.42997e-11 6.44766e-11 -3.07766e-10 -3.07891e-10 1.12784e-10 1.13253e-10
          3.15898e-10 3.16465e-10 -1.54716e-10 -1.54921e-10 -4.08482e-11 -4.08482e-11 2.71868e-11 2.71868e-11
        </DataArray>
        <DataArray type="Float32" Name="Vy" NumberOfComponents="1" format="ascii">
          2.07608e-07 2.06202e-07 3.20932e-08 3.06596e-08 -1.7877e-09 -3.95757e-09 8.0311e-09 4.90304e-09 8.54107e-10 -2.79537e-09 9.88759e-10 -2.75305e-09
          5.21335e-09 1.7344e-09 -2.25936e-09 -5.39768e-09 -3.82849e-09 -6.31343e-09 1.17273e-09 -3.60397e-10 2.73626e-07 2.73325e-07 -3.25406e-08 -3.24347e-08
          -3.64786e-08 -3.65878e-08 -3.4864e-08 -3.49539e-08 -3.39384e-08 -3.39337e-08 4.41834e-08 4.41583e-08 -4.85361e-08 -4.85641e-08 -4.2023e-08 -4.20365e-08
          -3.46724e-08 -3.46864e-08 -2.91798e-08 -2.91853e-08 -2.37669e-08 -2.37504e-08 -1.99973e-08 -1.99887e-08 -1.66217e-08 -1.66192e-08 -1.45265e-08 -1.45171e-08
          -1.31277e-08 -1.31199e-08 -1.29009e-08 -1.28781e-08 -1.35119e-08 -1.34972e-08 -1.52927e-08 -1.53067e-08 -1.8516e-08 -1.84995e-08 -2.41319e-08 -2.40496e-08
          -3.16897e-08 -3.16222e-08 -4.22882e-08 -4.23412e-08 -6.06494e-08 -6.07146e-08 -8.34997e-08 -8.33672e-08 -1.15242e-07 -1.15389e-07 -1.70052e-07 -1.70474e-07
          -2.31349e-07 -2.3123e-07 -3.37986e-07 -3.37714e-07 -4.66302e-07 -4.66282e-07 3.47727e-06 3.47729e-06
        </DataArray>
      </PointData>
      <CellData Scalars="process rank">
        <DataArray type="Float32" Name="process rank" NumberOfComponents="1" format="ascii">
          0 0 0 0 0 0 0 0 0 0 0 0
          0 0 0 0 0 0 0 0 0 0 0 0
          0 0 0 0 0 0 0 0 0 0 0 0
          0 0 0
        </DataArray>
      </CellData>
      <Points>
        <DataArray type="Float32" Name="Coordinates" NumberOfComponents="3" format="ascii">
          0 0 0 0.0254 0 0 0 0.01 0 0.0254 0.01 0
          0 0.02 0 0.0254 0.02 0 0 0.03 0 0.0254 0.03 0
          0 0.04 0 0.0254 0.04 0 0 0.05 0 0.0254 0.05 0
          0 0.06 0 0.0254 0.06 0 0 0.07 0 0.0254 0.07 0
          0 0.08 0 0.0254 0.08 0 0 0.09 0 0.0254 0.09 0
          0 0.1 0 0.0254 0.1 0 0 0.12 0 0.0254 0.12 0
          0 0.14 0 0.0254 0.14 0 0 0.16 0 0.0254 0.16 0
          0 0.18 0 0.0254 0.18 0 0 0.2 0 0.0254 0.2 0
          0 0.225 0 0.0254 0.225 0 0 0.25 0 0.0254 0.25 0
          0 0.275 0 0.0254 0.275 0 0 0.3 0 0.0254 0.3 0
          0 0.325 0 0.0254 0.325 0 0 0.35 0 0.0254 0.35 0
          0 0.375 0 0.0254 0.375 0 0 0.4 0 0.0254 0.4 0
          0 0.425 0 0.0254 0.425 0 0 0.45 0 0.0254 0.45 0
          0 0.475 0 0.0254 0.475 0 0 0.5 0 0.0254 0.5 0
          0 0.525 0 0.0254 0.525 0 0 0.55 0 0.0254 0.55 0
          0 0.575 0 0.0254 0.575 0 0 0.6 0 0.0254 0.6 0
          0 0.625 0 0.0254 0.625 0 0 0.65 0 0.0254 0.65 0
          0 0.675 0 0.0254 0.675 0 0 0.7 0 0.0254 0.7 0
          0 0.725 0 0.0254 0.725 0 0 0.75 0 0.0254 0.75 0
          0 0.775 0 0.0254 0.775 0 0 0.8 0 0.0254 0.8 0
        </DataArray>
      </Points>
      <Cells>
        <DataArray type="Int32" Name="connectivity" NumberOfComponents="1" format="ascii">
          0 1 3 2 2 3 5 4 4 5 7 6
          6 7 9 8 8 9 11 10 10 11 13 12
          12 13 15 14 14 15 17 16 16 17 19 18
          18 19 21 20 20 21 23 22 22 23 25 24
          24 25 27 26 26 27 29 28 28 29 31 30
          30 31 33 32 32 33 35 34 34 35 37 36
          36 37 39 38 38 39 41 40 40 41 43 42
          42 43 45 44 44 45 47 46 46 47 49 48
          48 49 51 50 50 51 53 52 52 53 55 54
          54 55 57 56 56 57 59 58 58 59 61 60
          60 61 63 62 62 63 65 64 64 65 67 66
          66 67 69 68 68 69 71 70 70 71 73 72
          72 73 75 74 74 75 77 76 76 77 79 78
        </DataArray>
        <DataArray type="Int32" Name="offsets" NumberOfComponents="1" format="ascii">
          4 8 12 16 20 24 28 32 36 40 44 48
          52 56 60 64 68 72 76 80 84 88 92 96
          100 104 108 112 116 120 124 128 132 136 140 144
          148 152 156
        </DataArray>
        <DataArray type="UInt8" Name="types" NumberOfComponents="1" format="ascii">
          9 9 9 9 9 9 9 9 9 9 9 9
          9 9 9 9 9 9 9 9 9 9 9 9
          9 9 9 9 9 9 9 9 9 9 9 9
          9 9 9
        </DataArray>
      </Cells>
    </Piece>
  </UnstructuredGrid>
</VTKFile>
