<?xml version="1.0"?>
<VTKFile type="UnstructuredGrid" version="0.1" byte_order="LittleEndian">
  <UnstructuredGrid>
    <Piece NumberOfCells="39" NumberOfPoints="80">
      <PointData Scalars="Sg">
        <DataArray type="Float32" Name="Sg" NumberOfComponents="1" format="ascii">
          0 0 0 0 0 0 0 0 0 0 0 0
          0 0 0 0 0 0 0 0 0 0 0 0
          0 0 0 0 0 0 0 0 0 0 0 0
          0 0 0 0 0 0 0 0 0 0 0 0
          0 0 0 0 0 0 0 0 0 0 0 0
          0 0 0 0 0 0 0 0 0 0 0 0
          0 0 0 0 0 0 0 0
        </DataArray>
        <DataArray type="Float32" Name="Sl" NumberOfComponents="1" format="ascii">
          1 1 1 1 1 1 1 1 1 1 1 1
          1 1 1 1 1 1 1 1 1 1 1 1
          1 1 1 1 1 1 1 1 1 1 1 1
          1 1 1 1 1 1 1 1 1 1 1 1
          1 1 1 1 1 1 1 1 1 1 1 1
          1 1 1 1 1 1 1 1 1 1 1 1
          1 1 1 1 1 1 1 1
        </DataArray>
        <DataArray type="Float32" Name="pg" NumberOfComponents="1" format="ascii">
          119756 119756 119630 119630 119503 119504 119377 119377 119250 119250 119122 119122
          118995 118995 118867 118867 118739 118739 118611 118611 118483 118483 118226 118226
          117969 117969 117711 117711 117453 117453 117195 117195 116872 116872 116549 116549
          116226 116226 115903 115903 115581 115581 115259 115259 114938 114938 114617 114617
          114297 114297 113978 113978 113659 113659 113341 113341 113024 113024 112708 112708
          112393 112393 112080 112080 111767 111767 111457 111457 111149 111149 110844 110844
          110542 110542 110245 110245 109953 109953 109667 109667
        </DataArray>
        <DataArray type="Float32" Name="pl" NumberOfComponents="1" format="ascii">
          110089 110089 109963 109963 109837 109837 109710 109710 109583 109583 109456 109456
          109328 109328 109201 109200 109073 109073 108945 108945 108816 108816 108560 108560
          108302 108302 108045 108045 107787 107787 107528 107528 107205 107205 106882 106882
          106559 106559 106237 106237 105914 105914 105593 105593 105272 105272 104951 104951
          104630 104630 104311 104311 103992 103992 103674 103674 103357 103357 103041 103041
          102726 102726 102413 102413 102101 102101 101790 101790 101482 101482 101177 101177
          100875 100875 100579 100579 100287 100287 100000 100000
        </DataArray>
        <DataArray type="Float32" Name="pc" NumberOfComponents="1" format="ascii">
          9666.67 9666.67 9666.67 9666.67 9666.67 9666.67 9666.67 9666.67 9666.67 9666.67 9666.67 9666.67
          9666.67 9666.67 9666.67 9666.67 9666.67 9666.67 9666.67 9666.67 9666.67 9666.67 9666.67 9666.67
          9666.67 9666.67 9666.67 9666.67 9666.67 9666.67 9666.67 9666.67 9666.67 9666.67 9666.67 9666.67
          9666.67 9666.67 9666.67 9666.67 9666.67 9666.67 9666.67 9666.67 9666.67 9666.67 9666.67 9666.67
          9666.67 9666.67 9666.67 9666.67 9666.67 9666.67 9666.67 9666.67 9666.67 9666.67 9666.67 9666.67
          9666.67 9666.67 9666.67 9666.67 9666.67 9666.67 9666.67 9666.67 9666.67 9666.67 9666.67 9666.67
          9666.67 9666.67 9666.67 9666.67 9666.67 9666.67 9666.67 9666.67
        </DataArray>
        <DataArray type="Float32" Name="rhoL" NumberOfComponents="1" format="ascii">
          1026.05 1026.04 1025.96 1025.96 1025.88 1025.88 1025.8 1025.8 1025.72 1025.72 1025.64 1025.64
          1025.56 1025.56 1025.48 1025.48 1025.4 1025.4 1025.32 1025.32 1025.24 1025.24 1025.09 1025.09
          1024.95 1024.95 1024.8 1024.8 1024.66 1024.66 1024.52 1024.52 1024.35 1024.35 1024.18 1024.18
          1024.01 1024.01 1023.84 1023.84 1023.67 1023.67 1023.5 1023.5 1023.32 1023.32 1023.14 1023.14
          1022.94 1022.94 1022.73 1022.73 1022.51 1022.51 1022.25 1022.25 1021.95 1021.95 1021.6 1021.6
          1021.17 1021.17 1020.64 1020.64 1019.96 1019.96 1019.09 1019.09 1017.94 1017.94 1016.39 1016.39
          1014.29 1014.29 1011.37 1011.37 1007.26 1007.26 1001.45 1001.45
        </DataArray>
        <DataArray type="Float32" Name="rhoG" NumberOfComponents="1" format="ascii">
          2.10781 2.10806 2.10578 2.10578 2.10348 2.10349 2.10118 2.10118 2.09888 2.09888 2.09657 2.09657
          2.09426 2.09426 2.09195 2.09195 2.08963 2.08963 2.08731 2.08731 2.08499 2.08499 2.08033 2.08033
          2.07567 2.07567 2.071 2.071 2.06632 2.06632 2.06164 2.06164 2.05579 2.05579 2.04994 2.04994
          2.04408 2.04408 2.03824 2.03824 2.03239 2.03239 2.02656 2.02656 2.02074 2.02074 2.01493 2.01493
          2.00912 2.00912 2.00333 2.00333 1.99755 1.99755 1.99179 1.99179 1.98604 1.98604 1.98031 1.98031
          1.9746 1.9746 1.96891 1.96891 1.96325 1.96325 1.95761 1.95761 1.95201 1.95201 1.94646 1.94646
          1.94096 1.94096 1.93554 1.93554 1.93019 1.93019 1.9249 1.9249
        </DataArray>
        <DataArray type="Float32" Name="mobL" NumberOfComponents="1" format="ascii">
          1008.56 1008.56 1008.79 1008.79 1009.01 1009.02 1009.24 1009.24 1009.47 1009.47 1009.69 1009.7
          1009.92 1009.92 1010.14 1010.14 1010.37 1010.37 1010.59 1010.59 1010.81 1010.81 1011.23 1011.23
          1011.64 1011.64 1012.05 1012.05 1012.45 1012.45 1012.86 1012.86 1013.35 1013.35 1013.83 1013.83
          1014.32 1014.32 1014.8 1014.8 1015.29 1015.29 1015.79 1015.79 1016.31 1016.31 1016.85 1016.85
          1017.42 1017.42 1018.04 1018.04 1018.71 1018.71 1019.48 1019.48 1020.37 1020.37 1021.43 1021.43
          1022.73 1022.73 1024.35 1024.35 1026.45 1026.45 1029.2 1029.2 1032.92 1032.92 1038.06 1038.06
          1045.4 1045.4 1056.3 1056.3 1073.43 1073.43 1103.12 1103.12
        </DataArray>
        <DataArray type="Float32" Name="mobG" NumberOfComponents="1" format="ascii">
          0 0 0 0 0 0 0 0 0 0 0 0
          0 0 0 0 0 0 0 0 0 0 0 0
          0 0 0 0 0 0 0 0 0 0 0 0
          0 0 0 0 0 0 0 0 0 0 0 0
          0 0 0 0 0 0 0 0 0 0 0 0
          0 0 0 0 0 0 0 0 0 0 0 0
          0 0 0 0 0 0 0 0
        </DataArray>
        <DataArray type="Float32" Name="porosity" NumberOfComponents="1" format="ascii">
          0.352353 0.352421 0.345909 0.346104 0.34338 0.343942 0.34579 0.342801 0.341351 0.341981 0.340862 0.341013
          0.341312 0.340271 0.339426 0.339438 0.338681 0.338672 0.337947 0.338121 0.337273 0.337298 0.336247 0.336301
          0.335155 0.335095 0.334347 0.334474 0.333506 0.333566 0.333219 0.33314 0.333059 0.332988 0.332888 0.332796
          0.333041 0.333044 0.333493 0.333528 0.333917 0.333959 0.334817 0.334875 0.335695 0.335666 0.335784 0.335819
          0.336986 0.336898 0.338025 0.337981 0.338964 0.339054 0.340496 0.340453 0.341824 0.341812 0.343431 0.343418
          0.345521 0.345449 0.347722 0.347753 0.349542 0.349569 0.35292 0.352901 0.35717 0.357161 0.362724 0.36272
          0.370368 0.37037 0.380639 0.380648 0.390686 0.390688 0.4 0.4
        </DataArray>
        <DataArray type="Float32" Name="temperature" NumberOfComponents="1" format="ascii">
          298.15 298.15 298.15 298.15 298.15 298.15 298.15 298.15 298.15 298.15 298.15 298.15
          298.15 298.15 298.15 298.15 298.15 298.15 298.15 298.15 298.15 298.15 298.15 298.15
          298.15 298.15 298.15 298.15 298.15 298.15 298.15 298.15 298.15 298.15 298.15 298.15
          298.15 298.15 298.15 298.15 298.15 298.15 298.15 298.15 298.15 298.15 298.15 298.15
          298.15 298.15 298.15 298.15 298.15 298.15 298.15 298.15 298.15 298.15 298.15 298.15
          298.15 298.15 298.15 298.15 298.15 298.15 298.15 298.15 298.15 298.15 298.15 298.15
          298.15 298.15 298.15 298.15 298.15 298.15 298.15 298.15
        </DataArray>
        <DataArray type="Float32" Name="phase presence" NumberOfComponents="1" format="ascii">
          1 1 1 1 1 1 1 1 1 1 1 1
          1 1 1 1 1 1 1 1 1 1 1 1
          1 1 1 1 1 1 1 1 1 1 1 1
          1 1 1 1 1 1 1 1 1 1 1 1
          1 1 1 1 1 1 1 1 1 1 1 1
          1 1 1 1 1 1 1 1 1 1 1 1
          1 1 1 1 1 1 1 1
        </DataArray>
        <DataArray type="Float32" Name="potential" NumberOfComponents="1" format="ascii">
          0.202348 0.202346 0.199939 0.199943 0.197426 0.197452 0.194916 0.194917 0.192381 0.19236 0.189781 0.189789
          0.187187 0.187188 0.184576 0.184568 0.181932 0.181928 0.179271 0.17927 0.176594 0.176594 0.171185 0.171186
          0.16572 0.165719 0.160204 0.160203 0.154643 0.154645 0.14905 0.149051 0.142034 0.142034 0.135003 0.135002
          0.127968 0.127967 0.120952 0.120952 0.113962 0.113962 0.107013 0.107014 0.100119 0.100119 0.0932542 0.0932546
          0.0864299 0.0864305 0.0796769 0.0796755 0.0729892 0.0729892 0.0663819 0.0663826 0.0598667 0.0598665 0.0534474 0.0534478
          0.0471471 0.0471468 0.0409842 0.0409835 0.0349524 0.0349527 0.0290818 0.029082 0.023432 0.0234319 0.0180474 0.0180473
          0.012987 0.012987 0.00831452 0.00831453 0.00401873 0.00401877 0 0
        </DataArray>
        <DataArray type="Float32" Name="boxVolume" NumberOfComponents="1" format="ascii">
          6.35e-05 6.35e-05 0.000127 0.000127 0.000127 0.000127 0.000127 0.000127 0.000127 0.000127 0.000127 0.000127
          0.000127 0.000127 0.000127 0.000127 0.000127 0.000127 0.000127 0.000127 0.0001905 0.0001905 0.000254 0.000254
          0.000254 0.000254 0.000254 0.000254 0.000254 0.000254 0.00028575 0.00028575 0.0003175 0.0003175 0.0003175 0.0003175
          0.0003175 0.0003175 0.0003175 0.0003175 0.0003175 0.0003175 0.0003175 0.0003175 0.0003175 0.0003175 0.0003175 0.0003175
          0.0003175 0.0003175 0.0003175 0.0003175 0.0003175 0.0003175 0.0003175 0.0003175 0.0003175 0.0003175 0.0003175 0.0003175
          0.0003175 0.0003175 0.0003175 0.0003175 0.0003175 0.0003175 0.0003175 0.0003175 0.0003175 0.0003175 0.0003175 0.0003175
          0.0003175 0.0003175 0.0003175 0.0003175 0.0003175 0.0003175 0.00015875 0.00015875
        </DataArray>
        <DataArray type="Float32" Name="pH" NumberOfComponents="1" format="ascii">
          6.69382 6.69378 6.69913 6.69905 6.69777 6.6973 6.69252 6.69508 6.69337 6.69287 6.69105 6.69069
          6.68776 6.68884 6.68715 6.68709 6.68512 6.68488 6.6831 6.68313 6.6829 6.6816 6.67847 6.67873
          6.67641 6.67629 6.67175 6.67453 6.674 6.67277 6.67153 6.67182 6.67011 6.67027 6.66937 6.67281
          6.66903 6.66914 6.6691 6.66908 6.6696 6.66869 6.66958 6.66954 6.67173 6.67103 6.6725 6.67236
          6.67416 6.67414 6.67626 6.67622 6.67904 6.67893 6.68207 6.68214 6.68623 6.68622 6.69114 6.69113
          6.69729 6.6973 6.70522 6.70522 6.71682 6.71681 6.73103 6.73101 6.75068 6.75067 6.7783 6.77829
          6.8158 6.81578 6.84872 6.84869 6.78817 6.78813 6.19963 6.19963
        </DataArray>
        <DataArray type="Float32" Name="Omega" NumberOfComponents="1" format="ascii">
          38.3631 38.3587 39.9194 39.9063 40.0882 39.999 39.4232 39.9566 39.9839 39.8856 39.8595 39.7891
          39.5046 39.7316 39.6765 39.6673 39.5287 39.4816 39.3584 39.366 39.5376 39.2728 38.9779 39.0322
          38.8242 38.8012 38.0765 38.635 38.6501 38.4016 38.2106 38.2676 37.9151 37.9465 37.6733 38.3621
          37.4325 37.4544 37.1997 37.1948 36.978 36.7997 36.5817 36.5747 36.5346 36.3994 36.139 36.1117
          35.8313 35.8276 35.5112 35.5047 35.2071 35.1864 34.8128 34.8271 34.4548 34.454 34.011 34.0093
          33.4924 33.4945 32.8853 32.8839 32.3524 32.3502 31.464 31.4608 30.3145 30.3127 28.6779 28.6763
          25.8079 25.8055 18.6308 18.6281 4.99187 4.99074 0 0
        </DataArray>
        <DataArray type="Float32" Name="rurea" NumberOfComponents="1" format="ascii">
          0 0 0 0 0 0 0 0 0 0 0 0
          0 0 0 0 0 0 0 0 0 0 0 0
          0 0 0 0 0 0 0 0 0 0 0 0
          0 0 0 0 0 0 0 0 0 0 0 0
          0 0 0 0 0 0 0 0 0 0 0 0
          0 0 0 0 0 0 0 0 0 0 0 0
          0 0 0 0 0 0 0 0
        </DataArray>
        <DataArray type="Float32" Name="Volume_Fraction_Biofilm" NumberOfComponents="1" format="ascii">
          0.0139133 0.0139119 0.013585 0.0135892 0.0136686 0.0135232 0.0127725 0.0134281 0.0136438 0.0134789 0.0134497 0.0133946
          0.0130913 0.0133616 0.0133506 0.0133142 0.0132313 0.013206 0.0131394 0.0131304 0.0131339 0.0131238 0.012958 0.0129537
          0.0128676 0.0128573 0.0127509 0.012753 0.0126571 0.0126537 0.0125964 0.012587 0.0124245 0.0124445 0.0123639 0.0123568
          0.0122627 0.0122713 0.0121824 0.0121836 0.0120823 0.0120822 0.0119701 0.0119571 0.0118518 0.0118471 0.0118952 0.0118938
          0.0117926 0.0117879 0.0116684 0.01166 0.0115748 0.0115508 0.0113838 0.0114017 0.0112594 0.0112574 0.0110497 0.0110473
          0.010793 0.0107944 0.0104587 0.0104575 0.0103155 0.0103135 0.00982595 0.00982174 0.00923073 0.00922871 0.00840905 0.00840734
          0.00727897 0.00727662 0.00567654 0.00567466 0.00327196 0.00327085 0 0
        </DataArray>
        <DataArray type="Float32" Name="Volume_Fraction_Calcite" NumberOfComponents="1" format="ascii">
          0.0337341 0.0336673 0.0405059 0.0403069 0.0429517 0.0425344 0.0414378 0.0437708 0.0450057 0.04454 0.0456887 0.0455925
          0.0455966 0.0463676 0.0472235 0.0472475 0.0480877 0.0481216 0.0489141 0.0487486 0.0495928 0.0495784 0.0507947 0.0507449
          0.051977 0.0520472 0.0529021 0.0527732 0.0538364 0.0537801 0.0541842 0.0542734 0.054517 0.0545678 0.0547478 0.0548475
          0.0546959 0.0546846 0.0543246 0.0542889 0.0540003 0.0539591 0.0532125 0.0531683 0.0524529 0.0524871 0.0523212 0.0522875
          0.051221 0.0513138 0.050307 0.0503589 0.0494613 0.0493954 0.0481198 0.0481453 0.0469169 0.0469304 0.0455198 0.0455344
          0.043686 0.0437563 0.0418192 0.0417893 0.0401421 0.0401178 0.0372538 0.0372776 0.0335992 0.0336101 0.0288673 0.0288731
          0.0223534 0.0223531 0.0136842 0.0136773 0.00604197 0.00604147 0 0
        </DataArray>
        <DataArray type="Float32" Name="Kxx" NumberOfComponents="1" format="ascii">
          1.36704e-10 1.36784e-10 1.29341e-10 1.2956e-10 1.26524e-10 1.27147e-10 1.29207e-10 1.25886e-10 1.24294e-10 1.24985e-10 1.23761e-10 1.23926e-10
          1.24253e-10 1.23119e-10 1.22204e-10 1.22217e-10 1.21401e-10 1.21392e-10 1.20613e-10 1.208e-10 1.19894e-10 1.1992e-10 1.18803e-10 1.1886e-10
          1.17649e-10 1.17586e-10 1.168e-10 1.16933e-10 1.15921e-10 1.15983e-10 1.15622e-10 1.15539e-10 1.15455e-10 1.15381e-10 1.15278e-10 1.15182e-10
          1.15437e-10 1.1544e-10 1.15907e-10 1.15943e-10 1.1635e-10 1.16393e-10 1.17294e-10 1.17354e-10 1.18219e-10 1.18187e-10 1.18312e-10 1.18349e-10
          1.19588e-10 1.19494e-10 1.20697e-10 1.2065e-10 1.21706e-10 1.21802e-10 1.23364e-10 1.23317e-10 1.24812e-10 1.24799e-10 1.26581e-10 1.26567e-10
          1.28906e-10 1.28826e-10 1.31385e-10 1.31421e-10 1.3346e-10 1.3349e-10 1.37366e-10 1.37343e-10 1.42389e-10 1.42378e-10 1.49134e-10 1.49129e-10
          1.58763e-10 1.58766e-10 1.72342e-10 1.72354e-10 1.86352e-10 1.86354e-10 2e-10 2e-10
        </DataArray>
        <DataArray type="Float32" Name="X_lBrine" NumberOfComponents="1" format="ascii">
          0.932432 0.932433 0.93263 0.932631 0.932824 0.932827 0.933018 0.933022 0.933212 0.933215 0.933404 0.933407
          0.933595 0.933598 0.933786 0.933788 0.933976 0.933977 0.934165 0.934166 0.934354 0.934355 0.934706 0.934706
          0.935053 0.935054 0.935397 0.935397 0.935736 0.935736 0.936074 0.936074 0.93648 0.93648 0.936882 0.936882
          0.937282 0.937282 0.937682 0.937682 0.938085 0.938085 0.938493 0.938493 0.938912 0.938912 0.939347 0.939347
          0.939805 0.939805 0.940295 0.940295 0.940833 0.940833 0.941436 0.941436 0.942129 0.942129 0.942949 0.942949
          0.943943 0.943943 0.945178 0.945178 0.946746 0.946746 0.948776 0.948776 0.951455 0.951455 0.955053 0.955053
          0.959968 0.959968 0.966811 0.966811 0.976493 0.976493 0.99029 0.99029
        </DataArray>
        <DataArray type="Float32" Name="X_lTotalC" NumberOfComponents="1" format="ascii">
          1.73834e-05 1.73846e-05 1.81074e-05 1.81078e-05 1.85318e-05 1.85178e-05 1.877e-05 1.88984e-05 1.92904e-05 1.92722e-05 1.96524e-05 1.96412e-05
          1.99599e-05 2.00202e-05 2.03972e-05 2.03985e-05 2.07573e-05 2.07481e-05 2.11129e-05 2.11168e-05 2.15616e-05 2.14938e-05 2.21711e-05 2.21867e-05
          2.2888e-05 2.28817e-05 2.34324e-05 2.35963e-05 2.43691e-05 2.4294e-05 2.50081e-05 2.50262e-05 2.58572e-05 2.58681e-05 2.6725e-05 2.69586e-05
          2.75947e-05 2.76027e-05 2.84694e-05 2.84677e-05 2.93506e-05 2.92825e-05 3.01661e-05 3.01629e-05 3.1124e-05 3.10683e-05 3.1944e-05 3.19321e-05
          3.27989e-05 3.27971e-05 3.36486e-05 3.36451e-05 3.45068e-05 3.44963e-05 3.53243e-05 3.53312e-05 3.61667e-05 3.61663e-05 3.69799e-05 3.69791e-05
          3.77809e-05 3.77821e-05 3.85845e-05 3.85836e-05 3.95257e-05 3.95243e-05 4.04128e-05 4.04106e-05 4.14086e-05 4.14072e-05 4.25665e-05 4.25651e-05
          4.37e-05 4.36978e-05 4.22699e-05 4.22665e-05 2.85151e-05 2.85117e-05 5.81077e-07 5.81077e-07
        </DataArray>
        <DataArray type="Float32" Name="X_lNa" NumberOfComponents="1" format="ascii">
          1.20393e-07 1.20393e-07 1.2056e-07 1.20561e-07 1.2074e-07 1.20742e-07 1.20936e-07 1.20937e-07 1.21148e-07 1.21149e-07 1.21378e-07 1.21378e-07
          1.21627e-07 1.21628e-07 1.21899e-07 1.21899e-07 1.22193e-07 1.22193e-07 1.22513e-07 1.22513e-07 1.2286e-07 1.2286e-07 1.236e-07 1.236e-07
          1.24465e-07 1.24465e-07 1.25476e-07 1.25476e-07 1.26662e-07 1.26662e-07 1.28054e-07 1.28055e-07 1.30086e-07 1.30087e-07 1.32571e-07 1.32571e-07
          1.35623e-07 1.35623e-07 1.39394e-07 1.39394e-07 1.44078e-07 1.44078e-07 1.49934e-07 1.49934e-07 1.57306e-07 1.57306e-07 1.66634e-07 1.66635e-07
          1.78518e-07 1.78519e-07 1.93774e-07 1.93773e-07 2.13478e-07 2.13478e-07 2.391e-07 2.39102e-07 2.72631e-07 2.72632e-07 3.16765e-07 3.16768e-07
          3.75225e-07 3.75226e-07 4.53123e-07 4.53121e-07 5.57391e-07 5.57394e-07 6.97808e-07 6.97811e-07 8.88408e-07 8.88408e-07 1.14924e-06 1.14924e-06
          1.50986e-06 1.50986e-06 2.01491e-06 2.01491e-06 2.73002e-06 2.73002e-06 3.74885e-06 3.74885e-06
        </DataArray>
        <DataArray type="Float32" Name="X_lCl" NumberOfComponents="1" format="ascii">
          0.0300753 0.0300753 0.0300806 0.0300807 0.0300859 0.0300859 0.0300909 0.030091 0.0300959 0.0300959 0.0301006 0.0301007
          0.0301052 0.0301053 0.0301097 0.0301097 0.0301139 0.0301139 0.0301179 0.030118 0.0301218 0.0301218 0.0301283 0.0301283
          0.0301338 0.0301338 0.0301381 0.0301381 0.0301411 0.0301411 0.0301425 0.0301425 0.0301418 0.0301418 0.0301378 0.0301378
          0.0301297 0.0301297 0.0301166 0.0301166 0.0300972 0.0300972 0.0300698 0.0300698 0.0300321 0.0300321 0.0299812 0.0299812
          0.0299132 0.0299132 0.0298226 0.0298226 0.0297024 0.0297024 0.0295429 0.0295429 0.029331 0.029331 0.0290489 0.0290489
          0.0286721 0.0286721 0.0281671 0.0281671 0.0274882 0.0274881 0.0265711 0.0265711 0.0253237 0.0253237 0.0236143 0.0236143
          0.021249 0.021249 0.0179348 0.0179349 0.013242 0.013242 0.00655617 0.00655617
        </DataArray>
        <DataArray type="Float32" Name="X_lCa" NumberOfComponents="1" format="ascii">
          0.0123514 0.0123507 0.0122273 0.0122263 0.0121052 0.0121034 0.0119837 0.0119815 0.0118622 0.0118608 0.0117423 0.0117407
          0.011623 0.0116213 0.0115039 0.0115028 0.0113856 0.0113848 0.0112679 0.0112673 0.0111505 0.0111501 0.0109323 0.0109321
          0.0107179 0.0107179 0.010507 0.0105072 0.0102997 0.0102996 0.0100949 0.0100949 0.00985098 0.00985082 0.00961219 0.0096123
          0.00937856 0.00937848 0.00914966 0.00914963 0.00892527 0.00892524 0.00870483 0.00870493 0.00848785 0.00848788 0.0082735 0.00827354
          0.00806187 0.00806192 0.00785171 0.00785181 0.00764166 0.00764179 0.00742987 0.00742987 0.00721325 0.00721325 0.00698804 0.00698803
          0.00674843 0.00674842 0.00648612 0.00648613 0.00618963 0.00618965 0.00584309 0.00584311 0.00542178 0.0054218 0.0048896 0.00488962
          0.00419164 0.00419167 0.00324145 0.00324146 0.00190483 0.00190483 0 0
        </DataArray>
        <DataArray type="Float32" Name="X_lUrea" NumberOfComponents="1" format="ascii">
          0.0182012 0.0182001 0.0180125 0.0180109 0.0178272 0.0178244 0.0176431 0.0176396 0.0174586 0.0174565 0.0172768 0.0172743
          0.0170958 0.0170933 0.0169151 0.0169135 0.0167357 0.0167345 0.0165571 0.0165563 0.0163791 0.0163784 0.0160482 0.0160479
          0.015723 0.0157229 0.0154034 0.0154034 0.0150886 0.0150886 0.0147782 0.0147781 0.0144083 0.014408 0.0140462 0.0140461
          0.013692 0.0136919 0.0133451 0.0133451 0.0130051 0.0130052 0.0126713 0.0126715 0.0123428 0.0123429 0.0120187 0.0120188
          0.011699 0.0116991 0.011382 0.0113822 0.0110657 0.0110659 0.0107476 0.0107476 0.0104232 0.0104232 0.0100871 0.0100871
          0.0097311 0.00973108 0.00934319 0.0093432 0.00890671 0.00890673 0.00839913 0.00839917 0.00778461 0.00778465 0.00701098 0.00701101
          0.00599915 0.00599919 0.00462745 0.00462749 0.00271461 0.00271463 0 0
        </DataArray>
        <DataArray type="Float32" Name="X_lTotalNH" NumberOfComponents="1" format="ascii">
          0.00396321 0.00396382 0.00407183 0.00407273 0.00417845 0.00418003 0.0042843 0.00428633 0.00439037 0.00439158 0.00449482 0.00449625
          0.00459873 0.00460018 0.00470239 0.00470332 0.00480521 0.00480589 0.00490751 0.00490801 0.00500941 0.00500978 0.0051985 0.00519869
          0.00538387 0.00538393 0.00556563 0.00556563 0.00574399 0.00574401 0.00591922 0.00591925 0.00612685 0.006127 0.00632853 0.00632861
          0.00652389 0.00652397 0.00671282 0.00671284 0.00689488 0.00689485 0.00706969 0.0070696 0.00723673 0.00723666 0.00739511 0.00739506
          0.00754295 0.00754291 0.00767872 0.00767864 0.00780017 0.00780004 0.00790417 0.00790417 0.00798712 0.00798712 0.00804363 0.00804363
          0.0080669 0.00806691 0.00804785 0.00804785 0.00797443 0.0079744 0.0078291 0.00782907 0.00758871 0.00758869 0.00722076 0.00722074
          0.00667855 0.00667853 0.00589296 0.00589295 0.00476394 0.00476393 0.00314947 0.00314947
        </DataArray>
        <DataArray type="Float32" Name="X_lO2" NumberOfComponents="1" format="ascii">
          7.56774e-06 7.56753e-06 7.52951e-06 7.52919e-06 7.49172e-06 7.49117e-06 7.45395e-06 7.45325e-06 7.41585e-06 7.41543e-06 7.37806e-06 7.37757e-06
          7.3402e-06 7.3397e-06 7.30216e-06 7.30184e-06 7.26416e-06 7.26393e-06 7.22607e-06 7.2259e-06 7.18785e-06 7.18773e-06 7.11609e-06 7.11602e-06
          7.04464e-06 7.04462e-06 6.97345e-06 6.97344e-06 6.90238e-06 6.90237e-06 6.83131e-06 6.83129e-06 6.74521e-06 6.74515e-06 6.65934e-06 6.6593e-06
          6.57364e-06 6.57361e-06 6.48788e-06 6.48787e-06 6.40184e-06 6.40186e-06 6.31517e-06 6.31521e-06 6.22735e-06 6.22739e-06 6.13785e-06 6.13787e-06
          6.04616e-06 6.04618e-06 5.95118e-06 5.95122e-06 5.85153e-06 5.85158e-06 5.74534e-06 5.74534e-06 5.62982e-06 5.62981e-06 5.50138e-06 5.50138e-06
          5.35482e-06 5.35482e-06 5.18288e-06 5.18289e-06 4.97563e-06 4.97563e-06 4.71944e-06 4.71945e-06 4.39382e-06 4.39383e-06 3.96935e-06 3.96936e-06
          3.4021e-06 3.40212e-06 2.62512e-06 2.62513e-06 1.53905e-06 1.53905e-06 0 0
        </DataArray>
        <DataArray type="Float32" Name="X_lSubstrate" NumberOfComponents="1" format="ascii">
          0.00295167 0.00295167 0.00295218 0.00295219 0.00295268 0.00295269 0.00295318 0.00295319 0.00295367 0.00295367 0.00295414 0.00295415
          0.00295461 0.00295462 0.00295507 0.00295507 0.00295551 0.00295552 0.00295595 0.00295595 0.00295637 0.00295637 0.00295712 0.00295712
          0.0029578 0.00295781 0.00295841 0.00295841 0.00295891 0.00295891 0.00295929 0.00295929 0.00295956 0.00295956 0.00295955 0.00295955
          0.00295917 0.00295917 0.0029583 0.0029583 0.0029568 0.0029568 0.00295446 0.00295446 0.002951 0.002951 0.00294605 0.00294605
          0.0029391 0.0029391 0.00292948 0.00292948 0.00291628 0.00291628 0.00289824 0.00289824 0.00287368 0.00287368 0.00284031 0.00284031
          0.00279498 0.00279498 0.00273337 0.00273337 0.00264962 0.00264962 0.00253548 0.00253548 0.00237917 0.00237917 0.00216386 0.00216386
          0.00186484 0.00186484 0.00144483 0.00144483 0.000849182 0.000849182 0 0
        </DataArray>
        <DataArray type="Float32" Name="X_lSuspended_Biomass" NumberOfComponents="1" format="ascii">
          3.36005e-08 3.36283e-08 3.79892e-08 3.80304e-08 4.23306e-08 4.24018e-08 4.66686e-08 4.67649e-08 5.10563e-08 5.11142e-08 5.54028e-08 5.547e-08
          5.97548e-08 5.98247e-08 6.41288e-08 6.41742e-08 6.84945e-08 6.85274e-08 7.2865e-08 7.28893e-08 7.72457e-08 7.72634e-08 8.54507e-08 8.54602e-08
          9.35921e-08 9.35953e-08 1.01669e-07 1.0167e-07 1.09688e-07 1.0969e-07 1.17656e-07 1.17658e-07 1.27217e-07 1.27225e-07 1.36636e-07 1.36641e-07
          1.45888e-07 1.45893e-07 1.54963e-07 1.54965e-07 1.63836e-07 1.63836e-07 1.72487e-07 1.72483e-07 1.80889e-07 1.80885e-07 1.88998e-07 1.88996e-07
          1.96708e-07 1.96706e-07 2.0394e-07 2.03935e-07 2.10578e-07 2.10571e-07 2.16462e-07 2.16463e-07 2.21413e-07 2.21415e-07 2.25159e-07 2.25161e-07
          2.27363e-07 2.27366e-07 2.27578e-07 2.2758e-07 2.25213e-07 2.25215e-07 2.19388e-07 2.1939e-07 2.08969e-07 2.08973e-07 1.92367e-07 1.92372e-07
          1.6731e-07 1.67316e-07 1.30445e-07 1.30452e-07 7.6933e-08 7.69386e-08 0 0
        </DataArray>
        <DataArray type="Float32" Name="X_lNH4" NumberOfComponents="1" format="ascii">
          0.00418989 0.00419053 0.0043046 0.00430556 0.00441733 0.004419 0.00452932 0.0045314 0.00464141 0.0046427 0.00475186 0.00475338
          0.00486176 0.00486327 0.00497135 0.00497234 0.00508008 0.0050808 0.00518825 0.00518878 0.00529596 0.00529638 0.00549593 0.00549613
          0.00569192 0.00569198 0.00588414 0.00588408 0.00607261 0.00607266 0.00625789 0.00625792 0.00647738 0.00647753 0.00669057 0.00669056
          0.00689706 0.00689714 0.00709673 0.00709676 0.00728913 0.00728913 0.00747387 0.00747378 0.00765034 0.00765028 0.00781767 0.00781763
          0.00797384 0.00797379 0.00811722 0.00811713 0.00824542 0.00824529 0.00835516 0.00835516 0.0084426 0.00844259 0.00850203 0.00850203
          0.00852626 0.00852627 0.00850564 0.00850564 0.00842737 0.00842735 0.00827295 0.00827292 0.00801778 0.00801775 0.00762738 0.00762736
          0.00705238 0.00705236 0.00622062 0.00622061 0.00503033 0.00503032 0.00333307 0.00333307
        </DataArray>
        <DataArray type="Float32" Name="X_lHCO3" NumberOfComponents="1" format="ascii">
          1.99182e-05 1.99192e-05 2.07842e-05 2.07839e-05 2.12529e-05 2.12329e-05 2.14741e-05 2.16428e-05 2.20692e-05 2.2044e-05 2.24549e-05 2.24387e-05
          2.2768e-05 2.28466e-05 2.32527e-05 2.32536e-05 2.36352e-05 2.36224e-05 2.40115e-05 2.40162e-05 2.45107e-05 2.44206e-05 2.51397e-05 2.51601e-05
          2.59116e-05 2.59033e-05 2.64566e-05 2.6673e-05 2.75201e-05 2.74209e-05 2.81909e-05 2.82147e-05 2.91034e-05 2.91176e-05 3.00425e-05 3.035e-05
          3.09861e-05 3.09966e-05 3.19387e-05 3.19364e-05 3.29026e-05 3.28131e-05 3.37832e-05 3.3779e-05 3.48542e-05 3.47811e-05 3.57482e-05 3.57327e-05
          3.6694e-05 3.66916e-05 3.76398e-05 3.76353e-05 3.86053e-05 3.85916e-05 3.95281e-05 3.95372e-05 4.0497e-05 4.04964e-05 4.14443e-05 4.14432e-05
          4.23968e-05 4.23984e-05 4.33796e-05 4.33785e-05 4.45776e-05 4.45757e-05 4.57508e-05 4.57479e-05 4.71283e-05 4.71265e-05 4.88038e-05 4.8802e-05
          5.05671e-05 5.05641e-05 4.91119e-05 4.91075e-05 3.17748e-05 3.17704e-05 3.37056e-07 3.37056e-07
        </DataArray>
        <DataArray type="Float32" Name="X_lCO3" NumberOfComponents="1" format="ascii">
          2.19649e-08 2.19637e-08 2.31006e-08 2.30951e-08 2.34449e-08 2.33964e-08 2.3302e-08 2.36219e-08 2.38883e-08 2.38325e-08 2.40697e-08 2.40308e-08
          2.41131e-08 2.42552e-08 2.44815e-08 2.44782e-08 2.46565e-08 2.46289e-08 2.48196e-08 2.48257e-08 2.5208e-08 2.50403e-08 2.53716e-08 2.54075e-08
          2.58014e-08 2.57863e-08 2.58365e-08 2.62151e-08 2.67782e-08 2.66063e-08 2.70352e-08 2.70757e-08 2.75204e-08 2.75436e-08 2.80543e-08 2.85669e-08
          2.85996e-08 2.86165e-08 2.91632e-08 2.91595e-08 2.97492e-08 2.96059e-08 3.02071e-08 3.0201e-08 3.09718e-08 3.0857e-08 3.14636e-08 3.14397e-08
          3.20495e-08 3.20461e-08 3.26504e-08 3.2644e-08 3.33004e-08 3.32803e-08 3.391e-08 3.39238e-08 3.46186e-08 3.46178e-08 3.53314e-08 3.53297e-08
          3.60966e-08 3.60989e-08 3.69601e-08 3.69584e-08 3.82107e-08 3.8208e-08 3.95063e-08 3.95021e-08 4.12112e-08 4.12086e-08 4.34957e-08 4.34931e-08
          4.60409e-08 4.60364e-08 4.34751e-08 4.34684e-08 2.01433e-08 2.01386e-08 2.55591e-11 2.55591e-11
        </DataArray>
        <DataArray type="Float32" Name="X_lCO2" NumberOfComponents="1" format="ascii">
          3.00439e-06 3.00483e-06 3.103e-06 3.10361e-06 3.18922e-06 3.1897e-06 3.26801e-06 3.27449e-06 3.35877e-06 3.35883e-06 3.4426e-06 3.44309e-06
          3.5243e-06 3.52778e-06 3.61176e-06 3.61244e-06 3.69594e-06 3.696e-06 3.78009e-06 3.78059e-06 3.86854e-06 3.86583e-06 4.02438e-06 4.0252e-06
          4.18428e-06 4.18404e-06 4.33566e-06 4.34326e-06 4.50483e-06 4.50132e-06 4.65989e-06 4.66078e-06 4.85062e-06 4.85125e-06 5.04092e-06 5.05233e-06
          5.22973e-06 5.23017e-06 5.41709e-06 5.41703e-06 5.60283e-06 5.59937e-06 5.78303e-06 5.7828e-06 5.96801e-06 5.9651e-06 6.14295e-06 6.1423e-06
          6.31549e-06 6.31536e-06 6.48276e-06 6.48251e-06 6.64428e-06 6.64363e-06 6.79584e-06 6.79618e-06 6.93912e-06 6.93909e-06 7.06866e-06 7.06862e-06
          7.18223e-06 7.1823e-06 7.27648e-06 7.27643e-06 7.3529e-06 7.35281e-06 7.3931e-06 7.39296e-06 7.3943e-06 7.39421e-06 7.34229e-06 7.3422e-06
          7.20247e-06 7.20235e-06 6.82352e-06 6.82335e-06 5.58759e-06 5.58734e-06 3.38012e-07 3.38012e-07
        </DataArray>
        <DataArray type="Float32" Name="X_lH" NumberOfComponents="1" format="ascii">
          1.9223e-10 1.92246e-10 1.89945e-10 1.89981e-10 1.90594e-10 1.90797e-10 1.92961e-10 1.9183e-10 1.92637e-10 1.92857e-10 1.93717e-10 1.9388e-10
          1.95243e-10 1.94759e-10 1.95569e-10 1.95596e-10 1.96537e-10 1.96644e-10 1.97503e-10 1.97489e-10 1.97646e-10 1.98235e-10 1.99768e-10 1.99646e-10
          2.00813e-10 2.00866e-10 2.0307e-10 2.01776e-10 2.02116e-10 2.02689e-10 2.0336e-10 2.03227e-10 2.04137e-10 2.04063e-10 2.04594e-10 2.0298e-10
          2.04865e-10 2.04812e-10 2.04937e-10 2.04949e-10 2.04808e-10 2.05239e-10 2.04927e-10 2.04944e-10 2.04018e-10 2.04347e-10 2.03767e-10 2.03834e-10
          2.03101e-10 2.0311e-10 2.02236e-10 2.02253e-10 2.01066e-10 2.01118e-10 1.99798e-10 1.99762e-10 1.98035e-10 1.98037e-10 1.95966e-10 1.9597e-10
          1.93395e-10 1.93389e-10 1.90111e-10 1.90114e-10 1.85364e-10 1.85369e-10 1.79719e-10 1.79728e-10 1.72164e-10 1.72168e-10 1.62055e-10 1.62059e-10
          1.49265e-10 1.49271e-10 1.39163e-10 1.39172e-10 1.61275e-10 1.6129e-10 6.32454e-10 6.32454e-10
        </DataArray>
        <DataArray type="Float32" Name="X_lOH" NumberOfComponents="1" format="ascii">
          7.91532e-07 7.91467e-07 8.01492e-07 8.01342e-07 7.9919e-07 7.98344e-07 7.89807e-07 7.94471e-07 7.91558e-07 7.90659e-07 7.87559e-07 7.86903e-07
          7.81811e-07 7.83761e-07 7.80916e-07 7.80815e-07 7.77476e-07 7.77053e-07 7.74071e-07 7.74128e-07 7.73911e-07 7.71613e-07 7.66426e-07 7.66894e-07
          7.63159e-07 7.62959e-07 7.55379e-07 7.60223e-07 7.59642e-07 7.57496e-07 7.55684e-07 7.56178e-07 7.53628e-07 7.53901e-07 7.52748e-07 7.58734e-07
          7.5255e-07 7.52743e-07 7.53073e-07 7.5303e-07 7.54333e-07 7.52746e-07 7.54678e-07 7.54614e-07 7.58836e-07 7.57613e-07 7.60578e-07 7.60328e-07
          7.63905e-07 7.6387e-07 7.6804e-07 7.67976e-07 7.73436e-07 7.73236e-07 7.79351e-07 7.79492e-07 7.87417e-07 7.8741e-07 7.97026e-07 7.9701e-07
          8.0916e-07 8.09182e-07 8.25021e-07 8.25005e-07 8.48543e-07 8.48517e-07 8.78326e-07 8.78286e-07 9.21132e-07 9.21107e-07 9.84616e-07 9.8459e-07
          1.07789e-06 1.07784e-06 1.16944e-06 1.16936e-06 1.02545e-06 1.02535e-06 2.67481e-07 2.67481e-07
        </DataArray>
        <DataArray type="Float32" Name="X_gBrine" NumberOfComponents="1" format="ascii">
          0.0109918 0.0109118 0.0109239 0.0109239 0.010936 0.010936 0.0109482 0.0109482 0.0109604 0.0109604 0.0109727 0.0109727
          0.010985 0.010985 0.0109974 0.0109974 0.0110098 0.0110098 0.0110222 0.0110222 0.0110347 0.0110347 0.0110598 0.0110598
          0.011085 0.011085 0.0111103 0.0111103 0.0111358 0.0111358 0.0111614 0.0111614 0.0111936 0.0111936 0.011226 0.011226
          0.0112585 0.0112585 0.0112912 0.0112912 0.011324 0.011324 0.011357 0.011357 0.0113901 0.0113901 0.0114235 0.0114235
          0.011457 0.011457 0.0114907 0.0114907 0.0115247 0.0115247 0.0115589 0.0115589 0.0115935 0.0115935 0.0116284 0.0116284
          0.0116638 0.0116638 0.0116999 0.0116999 0.0117368 0.0117368 0.0117749 0.0117749 0.0118145 0.0118145 0.0118562 0.0118562
          0.0119009 0.0119009 0.0119499 0.0119499 0.0120052 0.0120052 0.0120698 0.0120698
        </DataArray>
        <DataArray type="Float32" Name="X_gTotalC" NumberOfComponents="1" format="ascii">
          0.989008 0.989088 0.989076 0.989076 0.989064 0.989064 0.989052 0.989052 0.98904 0.98904 0.989027 0.989027
          0.989015 0.989015 0.989003 0.989003 0.98899 0.98899 0.988978 0.988978 0.988965 0.988965 0.98894 0.98894
          0.988915 0.988915 0.98889 0.98889 0.988864 0.988864 0.988839 0.988839 0.988806 0.988806 0.988774 0.988774
          0.988742 0.988742 0.988709 0.988709 0.988676 0.988676 0.988643 0.988643 0.98861 0.98861 0.988577 0.988577
          0.988543 0.988543 0.988509 0.988509 0.988475 0.988475 0.988441 0.988441 0.988407 0.988407 0.988372 0.988372
          0.988336 0.988336 0.9883 0.9883 0.988263 0.988263 0.988225 0.988225 0.988185 0.988185 0.988144 0.988144
          0.988099 0.988099 0.98805 0.98805 0.987995 0.987995 0.98793 0.98793
        </DataArray>
        <DataArray type="Float32" Name="X_gNa" NumberOfComponents="1" format="ascii">
          0 0 0 0 0 0 0 0 0 0 0 0
          0 0 0 0 0 0 0 0 0 0 0 0
          0 0 0 0 0 0 0 0 0 0 0 0
          0 0 0 0 0 0 0 0 0 0 0 0
          0 0 0 0 0 0 0 0 0 0 0 0
          0 0 0 0 0 0 0 0 0 0 0 0
          0 0 0 0 0 0 0 0
        </DataArray>
        <DataArray type="Float32" Name="X_gCl" NumberOfComponents="1" format="ascii">
          0 0 0 0 0 0 0 0 0 0 0 0
          0 0 0 0 0 0 0 0 0 0 0 0
          0 0 0 0 0 0 0 0 0 0 0 0
          0 0 0 0 0 0 0 0 0 0 0 0
          0 0 0 0 0 0 0 0 0 0 0 0
          0 0 0 0 0 0 0 0 0 0 0 0
          0 0 0 0 0 0 0 0
        </DataArray>
        <DataArray type="Float32" Name="X_gCa" NumberOfComponents="1" format="ascii">
          0 0 0 0 0 0 0 0 0 0 0 0
          0 0 0 0 0 0 0 0 0 0 0 0
          0 0 0 0 0 0 0 0 0 0 0 0
          0 0 0 0 0 0 0 0 0 0 0 0
          0 0 0 0 0 0 0 0 0 0 0 0
          0 0 0 0 0 0 0 0 0 0 0 0
          0 0 0 0 0 0 0 0
        </DataArray>
        <DataArray type="Float32" Name="X_gUrea" NumberOfComponents="1" format="ascii">
          0 0 0 0 0 0 0 0 0 0 0 0
          0 0 0 0 0 0 0 0 0 0 0 0
          0 0 0 0 0 0 0 0 0 0 0 0
          0 0 0 0 0 0 0 0 0 0 0 0
          0 0 0 0 0 0 0 0 0 0 0 0
          0 0 0 0 0 0 0 0 0 0 0 0
          0 0 0 0 0 0 0 0
        </DataArray>
        <DataArray type="Float32" Name="X_gTotalNH" NumberOfComponents="1" format="ascii">
          0 0 0 0 0 0 0 0 0 0 0 0
          0 0 0 0 0 0 0 0 0 0 0 0
          0 0 0 0 0 0 0 0 0 0 0 0
          0 0 0 0 0 0 0 0 0 0 0 0
          0 0 0 0 0 0 0 0 0 0 0 0
          0 0 0 0 0 0 0 0 0 0 0 0
          0 0 0 0 0 0 0 0
        </DataArray>
        <DataArray type="Float32" Name="X_gO2" NumberOfComponents="1" format="ascii">
          0 0 0 0 0 0 0 0 0 0 0 0
          0 0 0 0 0 0 0 0 0 0 0 0
          0 0 0 0 0 0 0 0 0 0 0 0
          0 0 0 0 0 0 0 0 0 0 0 0
          0 0 0 0 0 0 0 0 0 0 0 0
          0 0 0 0 0 0 0 0 0 0 0 0
          0 0 0 0 0 0 0 0
        </DataArray>
        <DataArray type="Float32" Name="X_gSubstrate" NumberOfComponents="1" format="ascii">
          0 0 0 0 0 0 0 0 0 0 0 0
          0 0 0 0 0 0 0 0 0 0 0 0
          0 0 0 0 0 0 0 0 0 0 0 0
          0 0 0 0 0 0 0 0 0 0 0 0
          0 0 0 0 0 0 0 0 0 0 0 0
          0 0 0 0 0 0 0 0 0 0 0 0
          0 0 0 0 0 0 0 0
        </DataArray>
        <DataArray type="Float32" Name="X_gSuspended_Biomass" NumberOfComponents="1" format="ascii">
          0 0 0 0 0 0 0 0 0 0 0 0
          0 0 0 0 0 0 0 0 0 0 0 0
          0 0 0 0 0 0 0 0 0 0 0 0
          0 0 0 0 0 0 0 0 0 0 0 0
          0 0 0 0 0 0 0 0 0 0 0 0
          0 0 0 0 0 0 0 0 0 0 0 0
          0 0 0 0 0 0 0 0
        </DataArray>
        <DataArray type="Float32" Name="X_gNH4" NumberOfComponents="1" format="ascii">
          0 0 0 0 0 0 0 0 0 0 0 0
          0 0 0 0 0 0 0 0 0 0 0 0
          0 0 0 0 0 0 0 0 0 0 0 0
          0 0 0 0 0 0 0 0 0 0 0 0
          0 0 0 0 0 0 0 0 0 0 0 0
          0 0 0 0 0 0 0 0 0 0 0 0
          0 0 0 0 0 0 0 0
        </DataArray>
        <DataArray type="Float32" Name="X_gHCO3" NumberOfComponents="1" format="ascii">
          0 0 0 0 0 0 0 0 0 0 0 0
          0 0 0 0 0 0 0 0 0 0 0 0
          0 0 0 0 0 0 0 0 0 0 0 0
          0 0 0 0 0 0 0 0 0 0 0 0
          0 0 0 0 0 0 0 0 0 0 0 0
          0 0 0 0 0 0 0 0 0 0 0 0
          0 0 0 0 0 0 0 0
        </DataArray>
        <DataArray type="Float32" Name="X_gCO3" NumberOfComponents="1" format="ascii">
          0 0 0 0 0 0 0 0 0 0 0 0
          0 0 0 0 0 0 0 0 0 0 0 0
          0 0 0 0 0 0 0 0 0 0 0 0
          0 0 0 0 0 0 0 0 0 0 0 0
          0 0 0 0 0 0 0 0 0 0 0 0
          0 0 0 0 0 0 0 0 0 0 0 0
          0 0 0 0 0 0 0 0
        </DataArray>
        <DataArray type="Float32" Name="X_gCO2" NumberOfComponents="1" format="ascii">
          0.989008 0.989088 0.989076 0.989076 0.989064 0.989064 0.989052 0.989052 0.98904 0.98904 0.989027 0.989027
          0.989015 0.989015 0.989003 0.989003 0.98899 0.98899 0.988978 0.988978 0.988965 0.988965 0.98894 0.98894
          0.988915 0.988915 0.98889 0.98889 0.988864 0.988864 0.988839 0.988839 0.988806 0.988806 0.988774 0.988774
          0.988742 0.988742 0.988709 0.988709 0.988676 0.988676 0.988643 0.988643 0.98861 0.98861 0.988577 0.988577
          0.988543 0.988543 0.988509 0.988509 0.988475 0.988475 0.988441 0.988441 0.988407 0.988407 0.988372 0.988372
          0.988336 0.988336 0.9883 0.9883 0.988263 0.988263 0.988225 0.988225 0.988185 0.988185 0.988144 0.988144
          0.988099 0.988099 0.98805 0.98805 0.987995 0.987995 0.98793 0.98793
        </DataArray>
        <DataArray type="Float32" Name="X_gH" NumberOfComponents="1" format="ascii">
          0 0 0 0 0 0 0 0 0 0 0 0
          0 0 0 0 0 0 0 0 0 0 0 0
          0 0 0 0 0 0 0 0 0 0 0 0
          0 0 0 0 0 0 0 0 0 0 0 0
          0 0 0 0 0 0 0 0 0 0 0 0
          0 0 0 0 0 0 0 0 0 0 0 0
          0 0 0 0 0 0 0 0
        </DataArray>
        <DataArray type="Float32" Name="X_gOH" NumberOfComponents="1" format="ascii">
          0 0 0 0 0 0 0 0 0 0 0 0
          0 0 0 0 0 0 0 0 0 0 0 0
          0 0 0 0 0 0 0 0 0 0 0 0
          0 0 0 0 0 0 0 0 0 0 0 0
          0 0 0 0 0 0 0 0 0 0 0 0
          0 0 0 0 0 0 0 0 0 0 0 0
          0 0 0 0 0 0 0 0
        </DataArray>
        <DataArray type="Float32" Name="Molarity_Brine" NumberOfComponents="1" format="ascii">
          53106.2 53106.2 53113.2 53113.2 53120 53120.1 53126.9 53127 53133.7 53133.8 53140.4 53140.5
          53147.2 53147.3 53153.9 53153.9 53160.6 53160.6 53167.2 53167.3 53173.9 53173.9 53186.2 53186.3
          53198.4 53198.5 53210.5 53210.5 53222.4 53222.4 53234.3 53234.3 53248.5 53248.5 53262.6 53262.6
          53276.6 53276.6 53290.5 53290.5 53304.6 53304.6 53318.8 53318.8 53333.3 53333.3 53348.4 53348.4
          53364.3 53364.3 53381.2 53381.2 53399.8 53399.8 53420.5 53420.5 53444.3 53444.3 53472.4 53472.4
          53506.3 53506.3 53548.4 53548.4 53601.8 53601.8 53670.7 53670.7 53761.4 53761.4 53882.8 53882.8
          54047.9 54047.9 54276.5 54276.5 54597.2 54597.2 55049.2 55049.2
        </DataArray>
        <DataArray type="Float32" Name="Molarity_TotalC" NumberOfComponents="1" format="ascii">
          0.405368 0.405396 0.422215 0.422225 0.432078 0.431751 0.437596 0.44059 0.449692 0.449268 0.458097 0.457834
          0.465229 0.466633 0.475383 0.475414 0.483739 0.483524 0.491988 0.492079 0.502405 0.500825 0.516533 0.516896
          0.533158 0.533012 0.545763 0.549582 0.567501 0.565752 0.582302 0.582722 0.601972 0.602225 0.622073 0.627509
          0.642209 0.642397 0.662457 0.662418 0.68285 0.681266 0.701705 0.70163 0.723861 0.722565 0.742797 0.742522
          0.762533 0.76249 0.782127 0.782046 0.801896 0.801652 0.820686 0.820846 0.840014 0.840004 0.858604 0.858585
          0.876835 0.876863 0.895019 0.894999 0.916244 0.916211 0.936006 0.935955 0.957984 0.957952 0.983278 0.983246
          1.00737 1.00732 0.971598 0.971521 0.652773 0.652695 0.0132254 0.0132254
        </DataArray>
        <DataArray type="Float32" Name="Molarity_Na" NumberOfComponents="1" format="ascii">
          0.00537315 0.00537316 0.00538019 0.00538021 0.00538778 0.00538784 0.00539609 0.00539612 0.00540514 0.00540514 0.00541494 0.00541497
          0.00542566 0.00542568 0.00543733 0.00543733 0.00545003 0.00545003 0.00546387 0.00546387 0.00547896 0.00547896 0.00551116 0.00551116
          0.00554892 0.00554892 0.00559323 0.00559322 0.00564528 0.00564529 0.00570657 0.00570658 0.00579615 0.00579617 0.00590589 0.00590589
          0.00604087 0.00604087 0.0062078 0.00620779 0.00641534 0.00641533 0.00667498 0.00667498 0.00700196 0.00700196 0.00741582 0.00741585
          0.00794318 0.00794322 0.00862024 0.0086202 0.00949467 0.00949468 0.0106316 0.0106316 0.012119 0.012119 0.014076 0.0140761
          0.0166668 0.0166668 0.0201164 0.0201162 0.024729 0.0247291 0.0309321 0.0309322 0.0393364 0.0393364 0.050808 0.050808
          0.0666128 0.0666127 0.0886391 0.088639 0.11961 0.11961 0.1633 0.1633
        </DataArray>
        <DataArray type="Float32" Name="Molarity_Cl" NumberOfComponents="1" format="ascii">
          870.408 870.409 870.494 870.495 870.575 870.576 870.653 870.654 870.727 870.728 870.796 870.798
          870.861 870.863 870.921 870.922 870.977 870.977 871.026 871.027 871.07 871.07 871.133 871.133
          871.167 871.167 871.17 871.17 871.135 871.135 871.057 871.057 870.89 870.891 870.631 870.63
          870.254 870.255 869.733 869.733 869.028 869.028 868.09 868.09 866.852 866.852 865.228 865.228
          863.101 863.1 860.312 860.312 856.652 856.652 851.837 851.837 845.48 845.48 837.06 837.059
          825.857 825.857 810.887 810.888 790.819 790.819 763.781 763.78 727.102 727.102 676.993 676.993
          607.919 607.919 511.627 511.627 376.219 376.219 185.193 185.193
        </DataArray>
        <DataArray type="Float32" Name="Molarity_Ca" NumberOfComponents="1" format="ascii">
          316.212 316.194 313.009 312.983 309.858 309.811 306.725 306.668 303.59 303.554 300.499 300.456
          297.42 297.379 294.35 294.323 291.302 291.282 288.267 288.252 285.243 285.231 279.62 279.615
          274.098 274.096 268.667 268.67 263.329 263.326 258.058 258.057 251.78 251.776 245.636 245.639
          239.626 239.624 233.739 233.739 227.969 227.969 222.301 222.304 216.722 216.723 211.211 211.212
          205.77 205.771 200.365 200.367 194.961 194.964 189.51 189.51 183.931 183.931 178.127 178.127
          171.947 171.947 165.177 165.178 157.523 157.523 148.576 148.577 137.707 137.708 124.002 124.002
          106.081 106.082 81.7977 81.7982 47.8729 47.8731 0 0
        </DataArray>
        <DataArray type="Float32" Name="Molarity_Urea" NumberOfComponents="1" format="ascii">
          308.173 308.154 304.953 304.926 301.791 301.745 298.652 298.592 295.505 295.469 292.404 292.362
          289.318 289.276 286.238 286.211 283.181 283.161 280.138 280.123 277.104 277.093 271.466 271.461
          265.929 265.927 260.485 260.485 255.127 255.126 249.843 249.842 243.549 243.545 237.39 237.387
          231.366 231.364 225.467 225.466 219.686 219.687 214.012 214.014 208.427 208.429 202.918 202.919
          197.483 197.484 192.092 192.095 186.712 186.716 181.299 181.299 175.775 175.775 170.049 170.049
          163.979 163.978 157.36 157.36 149.909 149.91 141.245 141.246 130.763 130.764 117.589 117.59
          100.41 100.411 77.2286 77.2291 45.1207 45.1209 0 0
        </DataArray>
        <DataArray type="Float32" Name="Molarity_TotalNH" NumberOfComponents="1" format="ascii">
          238.766 238.803 245.29 245.345 251.694 251.788 258.049 258.171 264.417 264.489 270.686 270.772
          276.922 277.009 283.142 283.198 289.311 289.352 295.447 295.478 301.559 301.581 312.897 312.908
          324.008 324.011 334.899 334.9 345.584 345.585 356.077 356.079 368.506 368.515 380.573 380.578
          392.257 392.262 403.55 403.552 414.427 414.425 424.862 424.857 434.825 434.821 444.261 444.259
          453.057 453.054 461.118 461.113 468.305 468.298 474.43 474.43 479.27 479.269 482.494 482.494
          483.688 483.688 482.294 482.293 477.577 477.576 468.472 468.471 453.575 453.573 430.927 430.926
          397.743 397.742 349.947 349.946 281.752 281.751 185.193 185.193
        </DataArray>
        <DataArray type="Float32" Name="Molarity_O2" NumberOfComponents="1" format="ascii">
          0.242651 0.242645 0.241406 0.241396 0.240175 0.240158 0.238946 0.238923 0.237705 0.237692 0.236476 0.236459
          0.235244 0.235227 0.234006 0.233996 0.23277 0.232763 0.231532 0.231526 0.23029 0.230286 0.227958 0.227956
          0.225637 0.225636 0.223325 0.223325 0.221018 0.221018 0.218713 0.218712 0.21592 0.215918 0.213136 0.213135
          0.210359 0.210358 0.20758 0.20758 0.204793 0.204794 0.201987 0.201988 0.199143 0.199145 0.196246 0.196246
          0.193277 0.193278 0.190202 0.190204 0.186975 0.186977 0.183536 0.183536 0.179793 0.179793 0.175631 0.175631
          0.170881 0.170881 0.165308 0.165308 0.158592 0.158592 0.150298 0.150298 0.13977 0.13977 0.126075 0.126076
          0.107835 0.107835 0.0829673 0.0829678 0.0484442 0.0484445 0 0
        </DataArray>
        <DataArray type="Float32" Name="Molarity_Substrate" NumberOfComponents="1" format="ascii">
          16.8103 16.8103 16.8119 16.8119 16.8134 16.8134 16.8149 16.8149 16.8163 16.8163 16.8177 16.8177
          16.8191 16.8191 16.8204 16.8204 16.8216 16.8216 16.8228 16.8228 16.8239 16.8239 16.8257 16.8257
          16.8272 16.8272 16.8283 16.8283 16.8288 16.8288 16.8287 16.8287 16.8274 16.8274 16.8245 16.8245
          16.8196 16.8196 16.8119 16.8119 16.8006 16.8006 16.7845 16.7845 16.7619 16.7619 16.7307 16.7307
          16.6881 16.6881 16.6301 16.6301 16.5514 16.5514 16.4449 16.4449 16.3008 16.3008 16.106 16.106
          15.8423 15.8423 15.485 15.4851 15.0006 15.0006 14.3421 14.3421 13.4427 13.4427 12.2077 12.2077
          10.4989 10.4989 8.11084 8.11085 4.74769 4.74769 0 0
        </DataArray>
        <DataArray type="Float32" Name="Molarity_Suspended_Biomass" NumberOfComponents="1" format="ascii">
          3.44756e-05 3.45042e-05 3.89755e-05 3.90177e-05 4.34262e-05 4.34991e-05 4.78726e-05 4.79713e-05 5.23693e-05 5.24287e-05 5.68232e-05 5.68921e-05
          6.1282e-05 6.13537e-05 6.57626e-05 6.58091e-05 7.02341e-05 7.02678e-05 7.47099e-05 7.47347e-05 7.91953e-05 7.92135e-05 8.75948e-05 8.76046e-05
          9.59269e-05 9.59301e-05 0.000104191 0.000104192 0.000112393 0.000112395 0.00012054 0.000120543 0.000130314 0.000130322 0.000139939 0.000139944
          0.000149391 0.000149396 0.000158658 0.00015866 0.000167715 0.000167714 0.00017654 0.000176536 0.000185108 0.000185104 0.000193371 0.000193369
          0.000201222 0.00020122 0.000208577 0.000208572 0.000215317 0.00021531 0.000221278 0.000221279 0.000226273 0.000226275 0.000230022 0.000230024
          0.000232176 0.000232179 0.000232275 0.000232277 0.000229709 0.000229711 0.000223576 0.000223578 0.000212717 0.000212721 0.00019552 0.000195526
          0.0001697 0.000169707 0.000131928 0.000131935 7.74913e-05 7.74969e-05 0 0
        </DataArray>
        <DataArray type="Float32" Name="Molarity_NH4" NumberOfComponents="1" format="ascii">
          238.318 238.354 244.823 244.877 251.214 251.309 257.563 257.681 263.916 263.989 270.175 270.261
          276.402 276.488 282.61 282.666 288.769 288.81 294.895 294.925 300.994 301.018 312.314 312.325
          323.405 323.409 334.28 334.277 344.939 344.942 355.414 355.416 367.819 367.828 379.862 379.862
          391.522 391.526 402.79 402.792 413.642 413.642 424.054 424.049 433.991 433.988 443.404 443.401
          452.175 452.173 460.212 460.207 467.375 467.368 473.477 473.476 478.292 478.292 481.493 481.493
          482.663 482.664 481.245 481.245 476.501 476.5 467.369 467.368 452.441 452.44 429.758 429.757
          396.537 396.536 348.763 348.762 280.882 280.882 185.037 185.037
        </DataArray>
        <DataArray type="Float32" Name="Molarity_HCO3" NumberOfComponents="1" format="ascii">
          0.334938 0.334955 0.349472 0.349468 0.357325 0.356988 0.361015 0.363852 0.370991 0.370566 0.377444 0.377171
          0.382678 0.383999 0.390794 0.390809 0.397192 0.396976 0.403484 0.403563 0.411841 0.410327 0.422348 0.422691
          0.435255 0.435115 0.444347 0.447982 0.462144 0.460479 0.473345 0.473743 0.488584 0.488823 0.504266 0.509427
          0.520018 0.520195 0.535917 0.53588 0.552 0.550498 0.566678 0.566608 0.584543 0.583316 0.599428 0.599168
          0.61517 0.61513 0.630896 0.630821 0.646934 0.646706 0.662232 0.662384 0.678266 0.678257 0.693893 0.693875
          0.709544 0.709571 0.725614 0.725596 0.745159 0.745128 0.764116 0.764067 0.786232 0.786202 0.812949 0.812919
          0.840575 0.840526 0.814036 0.813962 0.524531 0.524459 0.00553194 0.00553194
        </DataArray>
        <DataArray type="Float32" Name="Molarity_CO3" NumberOfComponents="1" format="ascii">
          0.000375559 0.000375539 0.000394945 0.00039485 0.000400799 0.000399969 0.000398326 0.000403792 0.000408315 0.000407362 0.000411384 0.000410718
          0.000412094 0.00041452 0.000418356 0.000418299 0.000421313 0.000420842 0.000424069 0.000424173 0.000430671 0.000427805 0.000433403 0.000434016
          0.000440683 0.000440425 0.000441221 0.000447686 0.000457239 0.000454303 0.000461564 0.000462254 0.000469769 0.000470166 0.000478803 0.000487552
          0.000488029 0.000488319 0.000497566 0.000497503 0.000507479 0.000505034 0.000515203 0.000515099 0.000528154 0.000526198 0.000536445 0.000536037
          0.000546331 0.000546272 0.000556459 0.00055635 0.000567411 0.000567068 0.000577651 0.000577887 0.000589551 0.000589537 0.000601482 0.000601454
          0.000614252 0.000614291 0.000628618 0.00062859 0.000649459 0.000649413 0.000670905 0.000670833 0.000699066 0.000699022 0.000736699 0.000736654
          0.000778192 0.000778116 0.000732708 0.000732595 0.000338106 0.000338028 4.26535e-07 4.26535e-07
        </DataArray>
        <DataArray type="Float32" Name="Molarity_CO2" NumberOfComponents="1" format="ascii">
          0.07006 0.0700702 0.0723536 0.0723677 0.0743582 0.0743692 0.0761892 0.0763402 0.0782989 0.0783003 0.0802469 0.0802582
          0.0821449 0.0822259 0.0841767 0.0841925 0.0861321 0.0861335 0.0880862 0.088098 0.0901404 0.0900773 0.0937581 0.0937772
          0.0974697 0.097464 0.100982 0.101159 0.104907 0.104826 0.108503 0.108524 0.112925 0.11294 0.117336 0.117602
          0.121711 0.121722 0.126051 0.12605 0.130351 0.130271 0.134521 0.134516 0.1388 0.138732 0.142843 0.142828
          0.146827 0.146824 0.150685 0.150679 0.154405 0.15439 0.157887 0.157895 0.161169 0.161168 0.164121 0.16412
          0.166688 0.16669 0.168788 0.168786 0.170447 0.170445 0.171232 0.171229 0.171066 0.171064 0.169606 0.169604
          0.166031 0.166028 0.156843 0.156839 0.127912 0.127907 0.00769319 0.00769319
        </DataArray>
        <DataArray type="Float32" Name="Molarity_H" NumberOfComponents="1" format="ascii">
          0.000195683 0.0001957 0.000193341 0.000193378 0.000193986 0.000194193 0.00019638 0.000195229 0.000196034 0.000196258 0.000197118 0.000197284
          0.000198656 0.000198163 0.000198972 0.000198999 0.000199941 0.00020005 0.000200909 0.000200894 0.000201038 0.000201637 0.000203168 0.000203044
          0.000204201 0.000204255 0.000206468 0.000205152 0.000205469 0.000206051 0.000206704 0.000206569 0.00020746 0.000207385 0.000207891 0.000206251
          0.000208131 0.000208078 0.00020817 0.000208182 0.000208004 0.000208443 0.00020809 0.000208108 0.000207131 0.000207466 0.00020684 0.000206908
          0.000206124 0.000206133 0.000205205 0.000205222 0.000203972 0.000204024 0.000202634 0.000202598 0.000200787 0.000200789 0.000198621 0.000198625
          0.000195933 0.000195928 0.000192506 0.00019251 0.000187575 0.00018758 0.000181707 0.000181716 0.000173871 0.000173876 0.000163414 0.000163418
          0.000150205 0.000150211 0.000139636 0.000139645 0.000161165 0.00016118 0.000628379 0.000628379
        </DataArray>
        <DataArray type="Float32" Name="Molarity_OH" NumberOfComponents="1" format="ascii">
          4.77751e-05 4.77712e-05 4.83723e-05 4.83632e-05 4.82296e-05 4.81785e-05 4.76596e-05 4.79409e-05 4.77614e-05 4.77071e-05 4.75164e-05 4.74768e-05
          4.71659e-05 4.72835e-05 4.71082e-05 4.71021e-05 4.68971e-05 4.68715e-05 4.66881e-05 4.66915e-05 4.66748e-05 4.65363e-05 4.62167e-05 4.6245e-05
          4.60132e-05 4.60012e-05 4.55377e-05 4.58298e-05 4.57884e-05 4.5659e-05 4.55435e-05 4.55733e-05 4.5412e-05 4.54284e-05 4.53515e-05 4.57121e-05
          4.53321e-05 4.53438e-05 4.53561e-05 4.53536e-05 4.54245e-05 4.5329e-05 4.54377e-05 4.54338e-05 4.56801e-05 4.56064e-05 4.57767e-05 4.57616e-05
          4.59682e-05 4.59661e-05 4.62076e-05 4.62037e-05 4.65218e-05 4.65097e-05 4.68658e-05 4.68742e-05 4.7337e-05 4.73366e-05 4.78982e-05 4.78972e-05
          4.8607e-05 4.86084e-05 4.9534e-05 4.9533e-05 5.09125e-05 5.0911e-05 5.26543e-05 5.2652e-05 5.5158e-05 5.51566e-05 5.887e-05 5.88685e-05
          6.43132e-05 6.43105e-05 6.9575e-05 6.95704e-05 6.07602e-05 6.07545e-05 1.57575e-05 1.57575e-05
        </DataArray>
        <DataArray type="Float32" Name="Da_ureolysis" NumberOfComponents="1" format="ascii">
          0 0 0 0 0 0 0 0 0 0 0 0
          0 0 0 0 0 0 0 0 0 0 0 0
          0 0 0 0 0 0 0 0 0 0 0 0
          0 0 0 0 0 0 0 0 0 0 0 0
          0 0 0 0 0 0 0 0 0 0 0 0
          0 0 0 0 0 0 0 0 0 0 0 0
          0 0 0 0 0 0 0 0
        </DataArray>
        <DataArray type="Float32" Name="Da_precipitation" NumberOfComponents="1" format="ascii">
          0.91648 0.916203 1.0554 1.05507 1.07476 1.07033 1.02461 1.07178 1.0823 1.07751 1.08044 1.07623
          1.05826 1.07943 1.08322 1.08382 1.07941 1.07538 1.07353 1.07435 1.09949 1.07476 1.06713 1.07213
          1.07248 1.07008 1.02267 1.07388 1.09583 1.07231 1.07483 1.08022 1.07223 1.07547 1.07572 1.14329
          1.07927 1.08149 1.084 1.08348 1.09067 1.07299 1.07963 1.07887 1.1034 1.08961 1.0938 1.09116
          1.09179 1.0914 1.08986 1.08916 1.09055 1.08844 1.08219 1.08363 1.07971 1.07968 1.07023 1.07015
          1.05604 1.05625 1.03653 1.03643 1.03396 1.03372 1.00238 1.00199 0.960311 0.960134 0.891896 0.891729
          0.737417 0.737175 0.316819 0.316653 0.00425971 0.0042557 0 0
        </DataArray>
        <DataArray type="Float32" Name="Vx" NumberOfComponents="1" format="ascii">
          8.96764e-09 8.95899e-09 -3.3312e-07 -3.3398e-07 -7.6859e-07 -7.67e-07 -3.96349e-08 -3.92049e-08 5.5999e-07 5.58441e-07 3.46287e-08 3.53531e-08
          1.53026e-08 1.51978e-08 3.08496e-07 3.08136e-07 2.37913e-07 2.37953e-07 7.76784e-08 7.77216e-08 -1.39529e-08 -1.39518e-08 -2.14833e-08 -2.14866e-08
          2.12097e-08 2.12129e-08 1.69759e-08 1.69744e-08 -5.50715e-08 -5.50744e-08 -5.23183e-08 -5.23109e-08 -8.67393e-09 -8.67073e-09 2.57111e-08 2.5705e-08
          3.84667e-08 3.84642e-08 2.00394e-08 2.00418e-08 3.07102e-09 3.07101e-09 -1.66925e-08 -1.66941e-08 -1.45956e-08 -1.45962e-08 -2.08754e-08 -2.0874e-08
          -1.02578e-08 -1.0259e-08 3.60323e-08 3.60313e-08 5.96224e-09 5.96298e-09 -2.1534e-08 -2.15342e-08 -4.09905e-09 -4.0981e-09 -8.5105e-09 -8.51006e-09
          1.21997e-08 1.21988e-08 2.21545e-08 2.21539e-08 -6.81316e-09 -6.81271e-09 -1.05684e-08 -1.05684e-08 1.73097e-09 1.73102e-09 4.40159e-09 4.40151e-09
          3.4607e-09 3.46072e-09 1.9009e-10 1.90098e-10 -1.89973e-09 -1.89975e-09 -1.18464e-09 -1.18464e-09
        </DataArray>
        <DataArray type="Float32" Name="Vy" NumberOfComponents="1" format="ascii">
          0.000338328 0.000338361 0.000334979 0.000334868 0.000335495 0.000334685 0.000337062 0.000335684 0.000335783 0.000334836 0.000335859 0.000335287
          0.000336267 0.000335626 0.000335781 0.000335352 0.00033571 0.000335622 0.000335669 0.000335751 0.000335871 0.000335962 0.000335752 0.000335794
          0.000335562 0.000335603 0.000335734 0.00033582 0.000335525 0.000335577 0.000335693 0.000335636 0.000335804 0.000335695 0.000335643 0.000335553
          0.000335654 0.000335632 0.000335741 0.000335779 0.000335539 0.0003356 0.000335757 0.000335803 0.000336012 0.000336025 0.000335388 0.000335367
          0.000335822 0.000335764 0.000335801 0.000335773 0.000335593 0.000335615 0.000335826 0.000335825 0.000335704 0.000335677 0.000335652 0.000335613
          0.000335759 0.000335721 0.000335969 0.00033597 0.000335275 0.000335292 0.000335553 0.000335549 0.000335466 0.000335453 0.000335279 0.000335273
          0.000335252 0.000335254 0.000336313 0.000336319 0.000336535 0.000336539 0.000348827 0.000348829
        </DataArray>
      </PointData>
      <CellData Scalars="process rank">
        <DataArray type="Float32" Name="process rank" NumberOfComponents="1" format="ascii">
          0 0 0 0 0 0 0 0 0 0 0 0
          0 0 0 0 0 0 0 0 0 0 0 0
          0 0 0 0 0 0 0 0 0 0 0 0
          0 0 0
        </DataArray>
      </CellData>
      <Points>
        <DataArray type="Float32" Name="Coordinates" NumberOfComponents="3" format="ascii">
          0 0 0 0.0254 0 0 0 0.01 0 0.0254 0.01 0
          0 0.02 0 0.0254 0.02 0 0 0.03 0 0.0254 0.03 0
          0 0.04 0 0.0254 0.04 0 0 0.05 0 0.0254 0.05 0
          0 0.06 0 0.0254 0.06 0 0 0.07 0 0.0254 0.07 0
          0 0.08 0 0.0254 0.08 0 0 0.09 0 0.0254 0.09 0
          0 0.1 0 0.0254 0.1 0 0 0.12 0 0.0254 0.12 0
          0 0.14 0 0.0254 0.14 0 0 0.16 0 0.0254 0.16 0
          0 0.18 0 0.0254 0.18 0 0 0.2 0 0.0254 0.2 0
          0 0.225 0 0.0254 0.225 0 0 0.25 0 0.0254 0.25 0
          0 0.275 0 0.0254 0.275 0 0 0.3 0 0.0254 0.3 0
          0 0.325 0 0.0254 0.325 0 0 0.35 0 0.0254 0.35 0
          0 0.375 0 0.0254 0.375 0 0 0.4 0 0.0254 0.4 0
          0 0.425 0 0.0254 0.425 0 0 0.45 0 0.0254 0.45 0
          0 0.475 0 0.0254 0.475 0 0 0.5 0 0.0254 0.5 0
          0 0.525 0 0.0254 0.525 0 0 0.55 0 0.0254 0.55 0
          0 0.575 0 0.0254 0.575 0 0 0.6 0 0.0254 0.6 0
          0 0.625 0 0.0254 0.625 0 0 0.65 0 0.0254 0.65 0
          0 0.675 0 0.0254 0.675 0 0 0.7 0 0.0254 0.7 0
          0 0.725 0 0.0254 0.725 0 0 0.75 0 0.0254 0.75 0
          0 0.775 0 0.0254 0.775 0 0 0.8 0 0.0254 0.8 0
        </DataArray>
      </Points>
      <Cells>
        <DataArray type="Int32" Name="connectivity" NumberOfComponents="1" format="ascii">
          0 1 3 2 2 3 5 4 4 5 7 6
          6 7 9 8 8 9 11 10 10 11 13 12
          12 13 15 14 14 15 17 16 16 17 19 18
          18 19 21 20 20 21 23 22 22 23 25 24
          24 25 27 26 26 27 29 28 28 29 31 30
          30 31 33 32 32 33 35 34 34 35 37 36
          36 37 39 38 38 39 41 40 40 41 43 42
          42 43 45 44 44 45 47 46 46 47 49 48
          48 49 51 50 50 51 53 52 52 53 55 54
          54 55 57 56 56 57 59 58 58 59 61 60
          60 61 63 62 62 63 65 64 64 65 67 66
          66 67 69 68 68 69 71 70 70 71 73 72
          72 73 75 74 74 75 77 76 76 77 79 78
        </DataArray>
        <DataArray type="Int32" Name="offsets" NumberOfComponents="1" format="ascii">
          4 8 12 16 20 24 28 32 36 40 44 48
          52 56 60 64 68 72 76 80 84 88 92 96
          100 104 108 112 116 120 124 128 132 136 140 144
          148 152 156
        </DataArray>
        <DataArray type="UInt8" Name="types" NumberOfComponents="1" format="ascii">
          9 9 9 9 9 9 9 9 9 9 9 9
          9 9 9 9 9 9 9 9 9 9 9 9
          9 9 9 9 9 9 9 9 9 9 9 9
          9 9 9
        </DataArray>
      </Cells>
    </Piece>
  </UnstructuredGrid>
</VTKFile>
