<?xml version="1.0"?>
<VTKFile type="UnstructuredGrid" version="0.1" byte_order="LittleEndian">
  <UnstructuredGrid>
    <Piece NumberOfCells="39" NumberOfPoints="80">
      <PointData Scalars="Sg">
        <DataArray type="Float32" Name="Sg" NumberOfComponents="1" format="ascii">
          0 0 0 0 0 0 0 0 0 0 0 0
          0 0 0 0 0 0 0 0 0 0 0 0
          0 0 0 0 0 0 0 0 0 0 0 0
          0 0 0 0 0 0 0 0 0 0 0 0
          0 0 0 0 0 0 0 0 0 0 0 0
          0 0 0 0 0 0 0 0 0 0 0 0
          0 0 0 0 0 0 0 0
        </DataArray>
        <DataArray type="Float32" Name="Sl" NumberOfComponents="1" format="ascii">
          1 1 1 1 1 1 1 1 1 1 1 1
          1 1 1 1 1 1 1 1 1 1 1 1
          1 1 1 1 1 1 1 1 1 1 1 1
          1 1 1 1 1 1 1 1 1 1 1 1
          1 1 1 1 1 1 1 1 1 1 1 1
          1 1 1 1 1 1 1 1 1 1 1 1
          1 1 1 1 1 1 1 1
        </DataArray>
        <DataArray type="Float32" Name="pg" NumberOfComponents="1" format="ascii">
          119304 119304 119184 119184 119064 119064 118944 118944 118823 118823 118703 118703
          118582 118582 118461 118461 118340 118340 118219 118219 118098 118098 117856 117856
          117614 117614 117371 117371 117128 117128 116885 116885 116581 116581 116276 116276
          115972 115972 115668 115668 115364 115364 115059 115059 114755 114755 114451 114451
          114148 114148 113844 113844 113540 113540 113237 113237 112934 112934 112632 112632
          112330 112330 112028 112028 111727 111727 111427 111427 111128 111128 110831 110831
          110535 110535 110242 110242 109953 109953 109667 109667
        </DataArray>
        <DataArray type="Float32" Name="pl" NumberOfComponents="1" format="ascii">
          109637 109637 109518 109518 109397 109397 109277 109277 109157 109156 109036 109036
          108915 108915 108795 108794 108674 108674 108553 108553 108432 108432 108189 108189
          107947 107947 107704 107704 107461 107461 107218 107218 106914 106914 106610 106610
          106305 106305 106001 106001 105697 105697 105393 105393 105089 105089 104785 104785
          104481 104481 104177 104177 103874 103874 103570 103570 103268 103268 102965 102965
          102663 102663 102361 102361 102061 102061 101760 101760 101461 101461 101164 101164
          100869 100869 100576 100576 100286 100286 100000 100000
        </DataArray>
        <DataArray type="Float32" Name="pc" NumberOfComponents="1" format="ascii">
          9666.67 9666.67 9666.67 9666.67 9666.67 9666.67 9666.67 9666.67 9666.67 9666.67 9666.67 9666.67
          9666.67 9666.67 9666.67 9666.67 9666.67 9666.67 9666.67 9666.67 9666.67 9666.67 9666.67 9666.67
          9666.67 9666.67 9666.67 9666.67 9666.67 9666.67 9666.67 9666.67 9666.67 9666.67 9666.67 9666.67
          9666.67 9666.67 9666.67 9666.67 9666.67 9666.67 9666.67 9666.67 9666.67 9666.67 9666.67 9666.67
          9666.67 9666.67 9666.67 9666.67 9666.67 9666.67 9666.67 9666.67 9666.67 9666.67 9666.67 9666.67
          9666.67 9666.67 9666.67 9666.67 9666.67 9666.67 9666.67 9666.67 9666.67 9666.67 9666.67 9666.67
          9666.67 9666.67 9666.67 9666.67 9666.67 9666.67 9666.67 9666.67
        </DataArray>
        <DataArray type="Float32" Name="rhoL" NumberOfComponents="1" format="ascii">
          1026.38 1026.38 1026.34 1026.34 1026.29 1026.29 1026.25 1026.25 1026.21 1026.21 1026.17 1026.17
          1026.12 1026.12 1026.08 1026.08 1026.04 1026.04 1025.99 1025.99 1025.95 1025.95 1025.87 1025.87
          1025.79 1025.79 1025.7 1025.7 1025.62 1025.62 1025.54 1025.54 1025.43 1025.43 1025.33 1025.33
          1025.22 1025.22 1025.11 1025.11 1025 1025 1024.88 1024.88 1024.76 1024.76 1024.62 1024.62
          1024.47 1024.47 1024.31 1024.31 1024.12 1024.12 1023.9 1023.9 1023.63 1023.63 1023.3 1023.3
          1022.88 1022.88 1022.35 1022.35 1021.66 1021.66 1020.73 1020.73 1019.5 1019.5 1017.81 1017.81
          1015.5 1015.5 1012.28 1012.28 1007.77 1007.77 1001.45 1001.45
        </DataArray>
        <DataArray type="Float32" Name="rhoG" NumberOfComponents="1" format="ascii">
          2.09963 2.09988 2.09771 2.09771 2.09553 2.09553 2.09335 2.09335 2.09116 2.09116 2.08898 2.08898
          2.08679 2.08679 2.0846 2.0846 2.08241 2.08241 2.08022 2.08022 2.07803 2.07803 2.07364 2.07364
          2.06925 2.06925 2.06485 2.06485 2.06044 2.06044 2.05604 2.05604 2.05053 2.05053 2.04502 2.04502
          2.0395 2.0395 2.03399 2.03399 2.02847 2.02847 2.02296 2.02296 2.01745 2.01745 2.01195 2.01195
          2.00644 2.00644 2.00093 2.00093 1.99543 1.99543 1.98994 1.98994 1.98444 1.98444 1.97896 1.97896
          1.97348 1.97348 1.96801 1.96801 1.96255 1.96255 1.9571 1.9571 1.95166 1.95166 1.94625 1.94625
          1.94086 1.94086 1.9355 1.9355 1.93018 1.93018 1.9249 1.9249
        </DataArray>
        <DataArray type="Float32" Name="mobL" NumberOfComponents="1" format="ascii">
          1007.63 1007.63 1007.74 1007.74 1007.86 1007.86 1007.98 1007.98 1008.1 1008.1 1008.22 1008.22
          1008.34 1008.34 1008.46 1008.46 1008.58 1008.58 1008.7 1008.7 1008.82 1008.82 1009.05 1009.05
          1009.28 1009.28 1009.51 1009.51 1009.74 1009.74 1009.97 1009.97 1010.26 1010.26 1010.55 1010.55
          1010.85 1010.85 1011.16 1011.16 1011.48 1011.48 1011.81 1011.81 1012.17 1012.17 1012.55 1012.55
          1012.98 1012.98 1013.45 1013.45 1014 1014 1014.64 1014.64 1015.41 1015.41 1016.37 1016.37
          1017.59 1017.59 1019.16 1019.16 1021.25 1021.25 1024.05 1024.05 1027.91 1027.91 1033.32 1033.32
          1041.13 1041.12 1052.78 1052.78 1071.12 1071.12 1103.12 1103.12
        </DataArray>
        <DataArray type="Float32" Name="mobG" NumberOfComponents="1" format="ascii">
          0 0 0 0 0 0 0 0 0 0 0 0
          0 0 0 0 0 0 0 0 0 0 0 0
          0 0 0 0 0 0 0 0 0 0 0 0
          0 0 0 0 0 0 0 0 0 0 0 0
          0 0 0 0 0 0 0 0 0 0 0 0
          0 0 0 0 0 0 0 0 0 0 0 0
          0 0 0 0 0 0 0 0
        </DataArray>
        <DataArray type="Float32" Name="porosity" NumberOfComponents="1" format="ascii">
          0.382619 0.382676 0.379719 0.379876 0.378138 0.378532 0.37954 0.377813 0.376783 0.377097 0.376416 0.37654
          0.376589 0.37597 0.375399 0.375422 0.374761 0.374732 0.374259 0.37435 0.373717 0.373777 0.372868 0.372894
          0.371939 0.371833 0.371269 0.371355 0.370429 0.370594 0.370107 0.369959 0.369658 0.369616 0.369349 0.369267
          0.369083 0.369048 0.369057 0.369099 0.369083 0.369028 0.369322 0.369363 0.369522 0.369497 0.369139 0.369202
          0.3697 0.36956 0.369848 0.369908 0.370205 0.370244 0.370846 0.370803 0.371351 0.371315 0.371927 0.371948
          0.372981 0.372894 0.373952 0.373988 0.37461 0.374622 0.376303 0.376282 0.378491 0.378482 0.38136 0.381353
          0.385249 0.385252 0.39021 0.390216 0.395378 0.395379 0.4 0.4
        </DataArray>
        <DataArray type="Float32" Name="temperature" NumberOfComponents="1" format="ascii">
          298.15 298.15 298.15 298.15 298.15 298.15 298.15 298.15 298.15 298.15 298.15 298.15
          298.15 298.15 298.15 298.15 298.15 298.15 298.15 298.15 298.15 298.15 298.15 298.15
          298.15 298.15 298.15 298.15 298.15 298.15 298.15 298.15 298.15 298.15 298.15 298.15
          298.15 298.15 298.15 298.15 298.15 298.15 298.15 298.15 298.15 298.15 298.15 298.15
          298.15 298.15 298.15 298.15 298.15 298.15 298.15 298.15 298.15 298.15 298.15 298.15
          298.15 298.15 298.15 298.15 298.15 298.15 298.15 298.15 298.15 298.15 298.15 298.15
          298.15 298.15 298.15 298.15 298.15 298.15 298.15 298.15
        </DataArray>
        <DataArray type="Float32" Name="phase presence" NumberOfComponents="1" format="ascii">
          1 1 1 1 1 1 1 1 1 1 1 1
          1 1 1 1 1 1 1 1 1 1 1 1
          1 1 1 1 1 1 1 1 1 1 1 1
          1 1 1 1 1 1 1 1 1 1 1 1
          1 1 1 1 1 1 1 1 1 1 1 1
          1 1 1 1 1 1 1 1 1 1 1 1
          1 1 1 1 1 1 1 1
        </DataArray>
        <DataArray type="Float32" Name="potential" NumberOfComponents="1" format="ascii">
          0.157165 0.157164 0.155291 0.155292 0.15338 0.153391 0.15147 0.151472 0.14955 0.149541 0.147601 0.147604
          0.145653 0.145654 0.143697 0.143694 0.141727 0.141725 0.139747 0.139747 0.13776 0.13776 0.133756 0.133757
          0.129722 0.129721 0.12566 0.125659 0.121573 0.121574 0.117464 0.117466 0.112308 0.112308 0.107134 0.107134
          0.101947 0.101947 0.0967547 0.0967548 0.0915623 0.0915624 0.0863763 0.0863762 0.0812013 0.0812012 0.0760246 0.0760252
          0.0708542 0.0708543 0.0657036 0.0657026 0.0605704 0.0605709 0.055466 0.0554665 0.0503956 0.0503955 0.0453616 0.0453618
          0.040378 0.0403779 0.0354568 0.0354563 0.030594 0.0305943 0.0258071 0.0258072 0.0211287 0.0211286 0.0165813 0.0165812
          0.012191 0.0121909 0.00797957 0.00797958 0.00393675 0.00393677 0 0
        </DataArray>
        <DataArray type="Float32" Name="boxVolume" NumberOfComponents="1" format="ascii">
          6.35e-05 6.35e-05 0.000127 0.000127 0.000127 0.000127 0.000127 0.000127 0.000127 0.000127 0.000127 0.000127
          0.000127 0.000127 0.000127 0.000127 0.000127 0.000127 0.000127 0.000127 0.0001905 0.0001905 0.000254 0.000254
          0.000254 0.000254 0.000254 0.000254 0.000254 0.000254 0.00028575 0.00028575 0.0003175 0.0003175 0.0003175 0.0003175
          0.0003175 0.0003175 0.0003175 0.0003175 0.0003175 0.0003175 0.0003175 0.0003175 0.0003175 0.0003175 0.0003175 0.0003175
          0.0003175 0.0003175 0.0003175 0.0003175 0.0003175 0.0003175 0.0003175 0.0003175 0.0003175 0.0003175 0.0003175 0.0003175
          0.0003175 0.0003175 0.0003175 0.0003175 0.0003175 0.0003175 0.0003175 0.0003175 0.0003175 0.0003175 0.0003175 0.0003175
          0.0003175 0.0003175 0.0003175 0.0003175 0.0003175 0.0003175 0.00015875 0.00015875
        </DataArray>
        <DataArray type="Float32" Name="pH" NumberOfComponents="1" format="ascii">
          6.6552 6.65513 6.66729 6.66716 6.66816 6.6675 6.6625 6.66635 6.6653 6.66467 6.66329 6.66306
          6.66006 6.66165 6.65994 6.65994 6.65853 6.6585 6.65702 6.657 6.65566 6.65561 6.65303 6.65303
          6.65068 6.65067 6.64843 6.64845 6.64643 6.64643 6.64458 6.64456 6.64217 6.64234 6.64048 6.64049
          6.63876 6.63884 6.6373 6.63732 6.63594 6.63595 6.63464 6.63455 6.63368 6.6337 6.63413 6.63516
          6.63392 6.63397 6.63391 6.63392 6.63454 6.63455 6.63622 6.63577 6.65507 6.63764 6.64072 6.65116
          6.64443 6.64507 6.64998 6.65004 6.65999 6.65998 6.67211 6.67209 6.68969 6.68969 6.71515 6.71515
          6.75018 6.75017 6.77803 6.778 6.703 6.70297 6.19963 6.19963
        </DataArray>
        <DataArray type="Float32" Name="Omega" NumberOfComponents="1" format="ascii">
          29.6105 29.6006 31.7816 31.7627 32.1757 32.0685 31.4803 32.1208 32.1768 32.0763 32.0674 32.0347
          31.7493 32.0168 31.9389 31.9437 31.9084 31.9065 31.8538 31.8519 31.8175 31.8103 31.7133 31.7137
          31.6271 31.6257 31.5319 31.5357 31.4528 31.4537 31.3751 31.3716 31.219 31.2469 31.1461 31.1472
          31.0304 31.043 30.9205 30.9234 30.7882 30.7895 30.6257 30.6115 30.4737 30.4761 30.4974 30.6643
          30.3554 30.3628 30.1746 30.1752 30.0067 30.0079 29.8931 29.821 32.46 29.592 29.3599 31.0345
          28.9638 29.0618 28.4941 28.5028 28.2023 28.2007 27.5124 27.5085 26.5882 26.587 25.2347 25.2339
          22.7964 22.7946 16.3763 16.374 4.13369 4.13288 0 0
        </DataArray>
        <DataArray type="Float32" Name="rurea" NumberOfComponents="1" format="ascii">
          0 0 0 0 0 0 0 0 0 0 0 0
          0 0 0 0 0 0 0 0 0 0 0 0
          0 0 0 0 0 0 0 0 0 0 0 0
          0 0 0 0 0 0 0 0 0 0 0 0
          0 0 0 0 0 0 0 0 0 0 0 0
          0 0 0 0 0 0 0 0 0 0 0 0
          0 0 0 0 0 0 0 0
        </DataArray>
        <DataArray type="Float32" Name="Volume_Fraction_Biofilm" NumberOfComponents="1" format="ascii">
          0.00667311 0.00666876 0.00662851 0.00662265 0.00674339 0.00661362 0.006013 0.00655592 0.00673582 0.00659705 0.00659395 0.00655722
          0.00631284 0.00654063 0.00653661 0.00651652 0.00650298 0.00650082 0.00647157 0.00647183 0.00646408 0.00645927 0.00641533 0.00641624
          0.0063823 0.00638003 0.00634424 0.00634811 0.00631745 0.00631993 0.00629902 0.00629439 0.00622736 0.00624743 0.0062231 0.00622221
          0.00618513 0.00619393 0.00615659 0.00615889 0.00611359 0.00611414 0.00605104 0.00604108 0.00599226 0.00599035 0.00607147 0.00607349
          0.00602129 0.00602122 0.00595446 0.00595521 0.00590161 0.00590319 0.00581451 0.00581577 0.00575167 0.00575176 0.0056528 0.00564937
          0.00551304 0.00551381 0.00532736 0.00532632 0.00530966 0.00530878 0.00504025 0.0050374 0.00471283 0.00471209 0.00425882 0.00425831
          0.00364008 0.00363907 0.00278684 0.002786 0.00156861 0.00156819 0 0
        </DataArray>
        <DataArray type="Float32" Name="Volume_Fraction_Calcite" NumberOfComponents="1" format="ascii">
          0.010708 0.0106556 0.0136527 0.0135017 0.0151189 0.0148548 0.0144466 0.0156309 0.0164812 0.0163059 0.01699 0.0169032
          0.0170977 0.0174896 0.0180642 0.018061 0.0187356 0.0187669 0.0192695 0.0191786 0.0198191 0.019764 0.020717 0.0206902
          0.0216788 0.0217873 0.0223869 0.0222968 0.0232538 0.0230863 0.0235942 0.0237464 0.0241151 0.0241364 0.0244278 0.0245109
          0.0247322 0.0247579 0.0247866 0.0247424 0.0248033 0.0248581 0.0246267 0.0245957 0.0244858 0.0245124 0.0247891 0.0247241
          0.024279 0.0244187 0.0241971 0.0241366 0.0238935 0.0238531 0.0233392 0.0233817 0.022897 0.0229333 0.0224202 0.022403
          0.0215057 0.0215918 0.0207205 0.0206853 0.0200803 0.0200695 0.0186572 0.0186803 0.0167964 0.0168064 0.0143815 0.0143887
          0.0111107 0.011109 0.00700347 0.00699788 0.00305291 0.00305291 0 0
        </DataArray>
        <DataArray type="Float32" Name="Kxx" NumberOfComponents="1" format="ascii">
          1.75045e-10 1.75123e-10 1.71095e-10 1.71307e-10 1.68966e-10 1.69495e-10 1.70854e-10 1.68532e-10 1.67157e-10 1.67575e-10 1.66669e-10 1.66833e-10
          1.66899e-10 1.66077e-10 1.65322e-10 1.65352e-10 1.64481e-10 1.64442e-10 1.6382e-10 1.63939e-10 1.63109e-10 1.63188e-10 1.62e-10 1.62034e-10
          1.60792e-10 1.60654e-10 1.59925e-10 1.60036e-10 1.58842e-10 1.59054e-10 1.58428e-10 1.58238e-10 1.57852e-10 1.57798e-10 1.57457e-10 1.57352e-10
          1.57116e-10 1.57072e-10 1.57083e-10 1.57137e-10 1.57117e-10 1.57046e-10 1.57422e-10 1.57475e-10 1.57678e-10 1.57646e-10 1.57189e-10 1.57269e-10
          1.57905e-10 1.57727e-10 1.58096e-10 1.58173e-10 1.58554e-10 1.58604e-10 1.59379e-10 1.59323e-10 1.60031e-10 1.59984e-10 1.60777e-10 1.60803e-10
          1.62148e-10 1.62034e-10 1.63417e-10 1.63465e-10 1.64281e-10 1.64297e-10 1.66518e-10 1.66491e-10 1.6944e-10 1.69428e-10 1.73322e-10 1.73313e-10
          1.7868e-10 1.78684e-10 1.85671e-10 1.8568e-10 1.93147e-10 1.93148e-10 2e-10 2e-10
        </DataArray>
        <DataArray type="Float32" Name="X_lBrine" NumberOfComponents="1" format="ascii">
          0.931633 0.931633 0.931734 0.931735 0.931835 0.931837 0.931936 0.931939 0.932038 0.93204 0.93214 0.932142
          0.932242 0.932244 0.932345 0.932346 0.932448 0.932449 0.932551 0.932552 0.932656 0.932656 0.932851 0.932851
          0.933046 0.933046 0.933242 0.933242 0.933438 0.933439 0.933637 0.933637 0.93388 0.93388 0.934126 0.934126
          0.934376 0.934376 0.934633 0.934633 0.934898 0.934898 0.935175 0.935175 0.935469 0.935469 0.935785 0.935785
          0.936131 0.936131 0.936517 0.936517 0.936958 0.936958 0.937475 0.937475 0.938094 0.938096 0.938859 0.938858
          0.939819 0.939819 0.941053 0.941053 0.942666 0.942666 0.944807 0.944807 0.947687 0.947687 0.951613 0.951613
          0.957026 0.957026 0.964576 0.964576 0.975217 0.975217 0.99029 0.99029
        </DataArray>
        <DataArray type="Float32" Name="X_lTotalC" NumberOfComponents="1" format="ascii">
          1.40179e-05 1.40167e-05 1.46686e-05 1.46659e-05 1.49273e-05 1.49061e-05 1.49435e-05 1.50916e-05 1.52747e-05 1.5255e-05 1.54239e-05 1.54196e-05
          1.55246e-05 1.55902e-05 1.57444e-05 1.57482e-05 1.59137e-05 1.59153e-05 1.60779e-05 1.60791e-05 1.62478e-05 1.62473e-05 1.65567e-05 1.65577e-05
          1.68694e-05 1.68695e-05 1.71795e-05 1.71808e-05 1.7494e-05 1.74946e-05 1.781e-05 1.78094e-05 1.81754e-05 1.81837e-05 1.85629e-05 1.85637e-05
          1.89373e-05 1.89414e-05 1.93123e-05 1.93135e-05 1.96798e-05 1.96804e-05 2.00374e-05 2.00328e-05 2.03985e-05 2.03992e-05 2.08186e-05 2.08729e-05
          2.11863e-05 2.11888e-05 2.15427e-05 2.15429e-05 2.19072e-05 2.19077e-05 2.22985e-05 2.22729e-05 2.3662e-05 2.26355e-05 2.30175e-05 2.36386e-05
          2.33704e-05 2.34085e-05 2.37471e-05 2.37506e-05 2.42855e-05 2.42848e-05 2.48003e-05 2.47985e-05 2.5447e-05 2.54464e-05 2.63026e-05 2.63021e-05
          2.73362e-05 2.7335e-05 2.69448e-05 2.69429e-05 1.83433e-05 1.83414e-05 5.81077e-07 5.81077e-07
        </DataArray>
        <DataArray type="Float32" Name="X_lNa" NumberOfComponents="1" format="ascii">
          1.20135e-07 1.20136e-07 1.2028e-07 1.2028e-07 1.20438e-07 1.20438e-07 1.20611e-07 1.20612e-07 1.20801e-07 1.20802e-07 1.21009e-07 1.2101e-07
          1.21238e-07 1.21238e-07 1.21488e-07 1.21488e-07 1.21762e-07 1.21762e-07 1.22062e-07 1.22062e-07 1.2239e-07 1.2239e-07 1.23091e-07 1.23091e-07
          1.23916e-07 1.23916e-07 1.24887e-07 1.24887e-07 1.26029e-07 1.26029e-07 1.27375e-07 1.27375e-07 1.29335e-07 1.29335e-07 1.31726e-07 1.31727e-07
          1.34654e-07 1.34654e-07 1.38254e-07 1.38254e-07 1.42704e-07 1.42704e-07 1.48241e-07 1.48241e-07 1.55177e-07 1.55177e-07 1.63927e-07 1.63927e-07
          1.75056e-07 1.75056e-07 1.89339e-07 1.89339e-07 2.07821e-07 2.07822e-07 2.31944e-07 2.31945e-07 2.63688e-07 2.63689e-07 3.05774e-07 3.05777e-07
          3.61995e-07 3.61996e-07 4.37618e-07 4.37617e-07 5.39887e-07 5.39891e-07 6.79033e-07 6.79036e-07 8.69648e-07 8.69649e-07 1.13246e-06 1.13246e-06
          1.49744e-06 1.49743e-06 2.00833e-06 2.00833e-06 2.72871e-06 2.72871e-06 3.74885e-06 3.74885e-06
        </DataArray>
        <DataArray type="Float32" Name="X_lCl" NumberOfComponents="1" format="ascii">
          0.0300506 0.0300506 0.0300529 0.0300529 0.0300552 0.0300552 0.0300573 0.0300574 0.0300594 0.0300594 0.0300613 0.0300614
          0.0300631 0.0300631 0.0300647 0.0300648 0.0300662 0.0300663 0.0300676 0.0300676 0.0300688 0.0300688 0.0300703 0.0300704
          0.0300711 0.0300711 0.0300708 0.0300708 0.0300693 0.0300693 0.0300665 0.0300665 0.0300609 0.0300609 0.0300524 0.0300524
          0.0300402 0.0300402 0.0300236 0.0300236 0.0300013 0.0300013 0.0299718 0.0299718 0.029933 0.029933 0.0298823 0.0298823
          0.0298159 0.0298159 0.0297287 0.0297287 0.0296139 0.0296139 0.0294621 0.0294621 0.0292603 0.0292604 0.0289908 0.0289907
          0.0286287 0.0286287 0.0281396 0.0281396 0.0274762 0.0274762 0.0265717 0.0265717 0.0253309 0.0253309 0.0236185 0.0236185
          0.021239 0.021239 0.0179073 0.0179073 0.0132092 0.0132092 0.00655617 0.00655617
        </DataArray>
        <DataArray type="Float32" Name="X_lCa" NumberOfComponents="1" format="ascii">
          0.0128561 0.0128558 0.0127929 0.0127924 0.0127298 0.0127289 0.0126669 0.0126654 0.0126034 0.0126023 0.0125403 0.0125391
          0.0124771 0.0124759 0.0124137 0.0124127 0.0123502 0.0123495 0.0122866 0.012286 0.0122227 0.0122223 0.0121036 0.0121033
          0.0119852 0.011985 0.0118674 0.0118673 0.01175 0.0117499 0.0116327 0.0116326 0.0114914 0.0114912 0.0113508 0.0113507
          0.011211 0.0112109 0.0110716 0.0110715 0.0109324 0.0109323 0.0107926 0.0107927 0.0106515 0.0106516 0.0105081 0.0105081
          0.0103617 0.0103617 0.0102108 0.0102108 0.010053 0.010053 0.00988503 0.00988498 0.00970313 0.0097022 0.00949837 0.00949892
          0.0092643 0.00926433 0.00898703 0.00898704 0.00864841 0.00864842 0.00822349 0.0082235 0.00767488 0.0076749 0.0069488 0.00694881
          0.0059663 0.00596632 0.00460946 0.00460947 0.00270186 0.00270186 0 0
        </DataArray>
        <DataArray type="Float32" Name="X_lUrea" NumberOfComponents="1" format="ascii">
          0.0189693 0.0189688 0.0188728 0.018872 0.018777 0.0187756 0.0186819 0.0186794 0.0185853 0.0185837 0.0184897 0.0184879
          0.0183941 0.0183921 0.0182978 0.0182964 0.0182016 0.0182005 0.0181052 0.0181043 0.0180084 0.0180077 0.0178278 0.0178274
          0.0176485 0.0176482 0.01747 0.0174698 0.0172921 0.017292 0.0171145 0.0171144 0.0169005 0.0169002 0.0166877 0.0166875
          0.0164762 0.016476 0.0162654 0.0162653 0.0160549 0.0160549 0.0158439 0.0158439 0.015631 0.015631 0.0154147 0.0154147
          0.0151944 0.0151944 0.0149677 0.0149676 0.014731 0.0147309 0.0144797 0.0144796 0.0142069 0.0142069 0.0139036 0.0139036
          0.0135564 0.0135564 0.0131463 0.0131463 0.0126464 0.0126464 0.0120207 0.0120207 0.011214 0.0112141 0.0101477 0.0101477
          0.00870595 0.00870597 0.00671816 0.00671818 0.00393473 0.00393474 0 0
        </DataArray>
        <DataArray type="Float32" Name="X_lTotalNH" NumberOfComponents="1" format="ascii">
          0.00351981 0.00352012 0.00357518 0.00357565 0.00363008 0.00363087 0.00368457 0.00368598 0.00373981 0.00374075 0.00379451 0.0037955
          0.00384909 0.00385022 0.00390398 0.00390481 0.00395878 0.00395944 0.00401363 0.00401414 0.0040686 0.00406899 0.00417087 0.00417113
          0.00427207 0.00427223 0.00437228 0.00437238 0.00447161 0.00447171 0.00457017 0.00457026 0.00468788 0.00468807 0.00480355 0.00480368
          0.00491682 0.00491695 0.00502755 0.00502764 0.00513549 0.00513552 0.00524036 0.00524033 0.00534194 0.00534191 0.00543981 0.00543981
          0.00553257 0.00553258 0.00561925 0.00561926 0.00569855 0.00569856 0.00576866 0.00576868 0.00582735 0.00582737 0.00587141 0.0058714
          0.00589666 0.00589666 0.00589765 0.00589765 0.00586719 0.00586717 0.00579423 0.00579421 0.00566493 0.00566491 0.00546006 0.00546005
          0.00515284 0.00515283 0.00470518 0.00470517 0.0040629 0.0040629 0.00314947 0.00314947
        </DataArray>
        <DataArray type="Float32" Name="X_lO2" NumberOfComponents="1" format="ascii">
          7.72981e-06 7.7297e-06 7.71127e-06 7.71112e-06 7.69284e-06 7.69257e-06 7.67447e-06 7.674e-06 7.65578e-06 7.65547e-06 7.63721e-06 7.63688e-06
          7.6186e-06 7.61823e-06 7.59982e-06 7.59954e-06 7.58098e-06 7.58076e-06 7.56205e-06 7.56188e-06 7.543e-06 7.54287e-06 7.5073e-06 7.50721e-06
          7.47163e-06 7.47158e-06 7.43593e-06 7.4359e-06 7.40013e-06 7.4001e-06 7.36414e-06 7.36411e-06 7.32041e-06 7.32035e-06 7.27649e-06 7.27644e-06
          7.23229e-06 7.23224e-06 7.1876e-06 7.18757e-06 7.14217e-06 7.14216e-06 7.09558e-06 7.09559e-06 7.04725e-06 7.04726e-06 6.99643e-06 6.99642e-06
          6.94237e-06 6.94236e-06 6.88371e-06 6.88371e-06 6.8186e-06 6.8186e-06 6.74446e-06 6.74445e-06 6.65764e-06 6.65765e-06 6.5533e-06 6.55329e-06
          6.42443e-06 6.42443e-06 6.26131e-06 6.26131e-06 6.05048e-06 6.05048e-06 5.77341e-06 5.77341e-06 5.40302e-06 5.40303e-06 4.90085e-06 4.90086e-06
          4.21111e-06 4.21112e-06 3.2521e-06 3.25211e-06 1.90494e-06 1.90494e-06 0 0
        </DataArray>
        <DataArray type="Float32" Name="X_lSubstrate" NumberOfComponents="1" format="ascii">
          0.00294958 0.00294958 0.00294984 0.00294984 0.0029501 0.0029501 0.00295036 0.00295036 0.00295061 0.00295062 0.00295086 0.00295087
          0.00295111 0.00295111 0.00295135 0.00295136 0.00295159 0.00295159 0.00295182 0.00295183 0.00295205 0.00295205 0.00295245 0.00295245
          0.00295282 0.00295282 0.00295313 0.00295313 0.00295339 0.00295339 0.00295357 0.00295357 0.00295364 0.00295365 0.00295352 0.00295353
          0.00295313 0.00295313 0.00295237 0.00295237 0.00295111 0.00295111 0.00294917 0.00294917 0.00294629 0.00294629 0.00294213 0.00294213
          0.00293623 0.00293623 0.00292793 0.00292793 0.00291634 0.00291634 0.00290024 0.00290024 0.00287792 0.00287793 0.00284709 0.00284709
          0.00280449 0.00280449 0.00274563 0.00274564 0.00266437 0.00266437 0.00255204 0.00255203 0.00239631 0.00239631 0.00217974 0.00217974
          0.0018772 0.0018772 0.00145209 0.00145209 0.000851398 0.000851398 0 0
        </DataArray>
        <DataArray type="Float32" Name="X_lSuspended_Biomass" NumberOfComponents="1" format="ascii">
          1.1198e-08 1.12079e-08 1.27856e-08 1.28003e-08 1.43663e-08 1.43916e-08 1.59409e-08 1.59867e-08 1.75477e-08 1.7578e-08 1.91437e-08 1.91758e-08
          2.07423e-08 2.07793e-08 2.23581e-08 2.23855e-08 2.39777e-08 2.39992e-08 2.56047e-08 2.56215e-08 2.72416e-08 2.72545e-08 3.03045e-08 3.03134e-08
          3.33583e-08 3.33638e-08 3.64047e-08 3.64086e-08 3.94465e-08 3.94501e-08 4.24864e-08 4.24899e-08 4.61464e-08 4.61531e-08 4.9776e-08 4.9781e-08
          5.3363e-08 5.3368e-08 5.69031e-08 5.69066e-08 6.03874e-08 6.03891e-08 6.38085e-08 6.38077e-08 6.71606e-08 6.71601e-08 7.04314e-08 7.0432e-08
          7.35722e-08 7.3573e-08 7.65508e-08 7.65516e-08 7.93251e-08 7.93264e-08 8.18362e-08 8.18376e-08 8.40109e-08 8.40123e-08 8.57425e-08 8.57433e-08
          8.68932e-08 8.68945e-08 8.72834e-08 8.72848e-08 8.66745e-08 8.6676e-08 8.46925e-08 8.46942e-08 8.08735e-08 8.08762e-08 7.45735e-08 7.4577e-08
          6.48939e-08 6.48982e-08 5.05595e-08 5.05639e-08 2.97634e-08 2.97668e-08 0 0
        </DataArray>
        <DataArray type="Float32" Name="X_lNH4" NumberOfComponents="1" format="ascii">
          0.00372179 0.00372212 0.00378015 0.00378064 0.00383817 0.00383902 0.00389587 0.0038973 0.00395422 0.00395523 0.00401208 0.00401313
          0.00406983 0.004071 0.00412787 0.00412874 0.00418583 0.00418652 0.00424384 0.00424438 0.00430198 0.00430239 0.00441014 0.00441041
          0.00451717 0.00451734 0.00462315 0.00462326 0.00472821 0.00472831 0.00483244 0.00483254 0.00495693 0.00495712 0.00507924 0.00507938
          0.00519902 0.00519916 0.00531612 0.00531622 0.00543025 0.00543029 0.00554115 0.00554112 0.00564855 0.00564853 0.005752 0.00575198
          0.00585006 0.00585007 0.00594168 0.00594169 0.00602548 0.00602549 0.00609953 0.00609956 0.00616106 0.00616153 0.00620796 0.00620768
          0.00623448 0.00623447 0.0062353 0.0062353 0.00620271 0.0062027 0.0061251 0.00612508 0.00598772 0.0059877 0.00577016 0.00577015
          0.00544404 0.00544403 0.00496968 0.00496967 0.00429261 0.00429261 0.00333307 0.00333307
        </DataArray>
        <DataArray type="Float32" Name="X_lHCO3" NumberOfComponents="1" format="ascii">
          1.58316e-05 1.58296e-05 1.66476e-05 1.66437e-05 1.69444e-05 1.69158e-05 1.692e-05 1.71151e-05 1.73123e-05 1.72854e-05 1.74637e-05 1.74571e-05
          1.75507e-05 1.76366e-05 1.7795e-05 1.77994e-05 1.79724e-05 1.7974e-05 1.8143e-05 1.81441e-05 1.83206e-05 1.83196e-05 1.86414e-05 1.86424e-05
          1.89673e-05 1.89674e-05 1.92901e-05 1.92918e-05 1.9619e-05 1.96196e-05 1.99498e-05 1.99488e-05 2.0328e-05 2.03388e-05 2.07362e-05 2.07371e-05
          2.11281e-05 2.11334e-05 2.1522e-05 2.15235e-05 2.19073e-05 2.1908e-05 2.2281e-05 2.2275e-05 2.26609e-05 2.26618e-05 2.31198e-05 2.3191e-05
          2.35126e-05 2.35159e-05 2.38939e-05 2.38942e-05 2.42899e-05 2.42905e-05 2.47257e-05 2.46922e-05 2.64419e-05 2.50965e-05 2.55338e-05 2.63471e-05
          2.59425e-05 2.59923e-05 2.63942e-05 2.63987e-05 2.70719e-05 2.70711e-05 2.77384e-05 2.77361e-05 2.86021e-05 2.86012e-05 2.97702e-05 2.97695e-05
          3.12094e-05 3.12079e-05 3.08197e-05 3.08172e-05 1.98785e-05 1.98761e-05 3.37056e-07 3.37056e-07
        </DataArray>
        <DataArray type="Float32" Name="X_lCO3" NumberOfComponents="1" format="ascii">
          1.62521e-08 1.62472e-08 1.75349e-08 1.75252e-08 1.78452e-08 1.77872e-08 1.75511e-08 1.79105e-08 1.80349e-08 1.79802e-08 1.80691e-08 1.80524e-08
          1.79854e-08 1.81388e-08 1.81904e-08 1.81946e-08 1.82716e-08 1.82716e-08 1.83399e-08 1.83397e-08 1.842e-08 1.84165e-08 1.85502e-08 1.85509e-08
          1.86923e-08 1.86918e-08 1.8831e-08 1.88335e-08 1.89815e-08 1.89822e-08 1.91356e-08 1.91336e-08 1.9287e-08 1.93046e-08 1.94928e-08 1.94938e-08
          1.96754e-08 1.96836e-08 1.98655e-08 1.98676e-08 2.0046e-08 2.00469e-08 2.02122e-08 2.02028e-08 2.03929e-08 2.03944e-08 2.07029e-08 2.08161e-08
          2.09142e-08 2.09193e-08 2.11152e-08 2.11156e-08 2.13478e-08 2.13487e-08 2.16518e-08 2.15997e-08 2.3982e-08 2.18652e-08 2.21928e-08 2.34571e-08
          2.24881e-08 2.25641e-08 2.28592e-08 2.28661e-08 2.35813e-08 2.358e-08 2.4288e-08 2.42845e-08 2.52812e-08 2.528e-08 2.66883e-08 2.66874e-08
          2.8351e-08 2.83487e-08 2.67147e-08 2.6711e-08 1.17202e-08 1.17179e-08 2.55591e-11 2.55591e-11
        </DataArray>
        <DataArray type="Float32" Name="X_lCO2" NumberOfComponents="1" format="ascii">
          2.58991e-06 2.59005e-06 2.65116e-06 2.65133e-06 2.69558e-06 2.69519e-06 2.72963e-06 2.73681e-06 2.77766e-06 2.77739e-06 2.81771e-06 2.81813e-06
          2.85566e-06 2.85922e-06 2.89911e-06 2.8998e-06 2.94043e-06 2.94091e-06 2.98166e-06 2.98203e-06 3.02335e-06 3.02356e-06 3.1009e-06 3.1011e-06
          3.17839e-06 3.1785e-06 3.2556e-06 3.25572e-06 3.33292e-06 3.33301e-06 3.4103e-06 3.41033e-06 3.50279e-06 3.50331e-06 3.5958e-06 3.59593e-06
          3.68742e-06 3.68771e-06 3.77828e-06 3.77839e-06 3.86781e-06 3.86787e-06 3.95579e-06 3.95553e-06 4.04286e-06 4.04288e-06 4.13182e-06 4.1347e-06
          4.21607e-06 4.21621e-06 4.29735e-06 4.29736e-06 4.37621e-06 4.37626e-06 4.45298e-06 4.45161e-06 4.5773e-06 4.52246e-06 4.58889e-06 4.62258e-06
          4.64684e-06 4.64895e-06 4.69757e-06 4.69776e-06 4.74668e-06 4.74665e-06 4.7804e-06 4.78028e-06 4.80363e-06 4.80359e-06 4.81589e-06 4.81585e-06
          4.81039e-06 4.81032e-06 4.70124e-06 4.70112e-06 4.00038e-06 4.0002e-06 3.38012e-07 3.38012e-07
        </DataArray>
        <DataArray type="Float32" Name="X_lH" NumberOfComponents="1" format="ascii">
          2.09875e-10 2.09911e-10 2.04142e-10 2.04202e-10 2.03761e-10 2.04074e-10 2.06463e-10 2.04643e-10 2.05165e-10 2.05462e-10 2.06147e-10 2.06253e-10
          2.07713e-10 2.06956e-10 2.07801e-10 2.07798e-10 2.08505e-10 2.08518e-10 2.0926e-10 2.09271e-10 2.09944e-10 2.09969e-10 2.11275e-10 2.11277e-10
          2.1248e-10 2.12485e-10 2.1364e-10 2.1363e-10 2.14684e-10 2.14682e-10 2.15655e-10 2.15667e-10 2.16926e-10 2.16843e-10 2.1784e-10 2.17837e-10
          2.18776e-10 2.18738e-10 2.19586e-10 2.19577e-10 2.20349e-10 2.20345e-10 2.21084e-10 2.21129e-10 2.21652e-10 2.21644e-10 2.21507e-10 2.20981e-10
          2.21703e-10 2.21679e-10 2.21802e-10 2.21799e-10 2.21587e-10 2.21584e-10 2.20853e-10 2.21084e-10 2.11604e-10 2.20272e-10 2.18878e-10 2.13681e-10
          2.17217e-10 2.169e-10 2.14709e-10 2.14681e-10 2.1013e-10 2.10136e-10 2.04747e-10 2.04759e-10 1.97137e-10 1.97141e-10 1.86568e-10 1.8657e-10
          1.72939e-10 1.72945e-10 1.63282e-10 1.63291e-10 1.95885e-10 1.959e-10 6.32454e-10 6.32454e-10
        </DataArray>
        <DataArray type="Float32" Name="X_lOH" NumberOfComponents="1" format="ascii">
          7.23386e-07 7.23264e-07 7.43909e-07 7.43691e-07 7.45508e-07 7.44367e-07 7.35954e-07 7.42502e-07 7.40819e-07 7.39752e-07 7.37493e-07 7.3712e-07
          7.32136e-07 7.34821e-07 7.32031e-07 7.32048e-07 7.29767e-07 7.29723e-07 7.2734e-07 7.27304e-07 7.25174e-07 7.25088e-07 7.20988e-07 7.20983e-07
          7.17278e-07 7.1726e-07 7.13759e-07 7.13794e-07 7.10664e-07 7.1067e-07 7.07837e-07 7.078e-07 7.04143e-07 7.04416e-07 7.01644e-07 7.01653e-07
          6.99095e-07 6.99216e-07 6.96976e-07 6.97004e-07 6.95027e-07 6.95038e-07 6.93192e-07 6.93051e-07 6.91911e-07 6.91935e-07 6.92884e-07 6.94533e-07
          6.92824e-07 6.92898e-07 6.93115e-07 6.93121e-07 6.9445e-07 6.94461e-07 6.97516e-07 6.96785e-07 7.28921e-07 7.00239e-07 7.05764e-07 7.22927e-07
          7.12478e-07 7.1352e-07 7.22482e-07 7.22577e-07 7.40436e-07 7.40418e-07 7.62883e-07 7.62836e-07 7.96467e-07 7.96451e-07 8.47524e-07 8.47513e-07
          9.23144e-07 9.23113e-07 9.9084e-07 9.90783e-07 8.4142e-07 8.41355e-07 2.67481e-07 2.67481e-07
        </DataArray>
        <DataArray type="Float32" Name="X_gBrine" NumberOfComponents="1" format="ascii">
          0.011034 0.0109519 0.0109633 0.0109633 0.0109747 0.0109747 0.0109862 0.0109862 0.0109977 0.0109977 0.0110092 0.0110092
          0.0110208 0.0110208 0.0110324 0.0110324 0.011044 0.011044 0.0110557 0.0110557 0.0110674 0.0110674 0.0110909 0.0110909
          0.0111145 0.0111145 0.0111382 0.0111382 0.0111621 0.0111621 0.011186 0.011186 0.0112162 0.0112162 0.0112465 0.0112465
          0.0112769 0.0112769 0.0113076 0.0113076 0.0113385 0.0113385 0.0113695 0.0113695 0.0114007 0.0114007 0.0114322 0.0114322
          0.0114639 0.0114639 0.0114958 0.0114958 0.011528 0.011528 0.0115606 0.0115606 0.0115935 0.0115935 0.011627 0.011627
          0.011661 0.011661 0.0116958 0.0116958 0.0117317 0.0117317 0.0117689 0.0117689 0.011808 0.011808 0.0118497 0.0118497
          0.0118949 0.0118949 0.0119451 0.0119451 0.0120024 0.0120024 0.0120698 0.0120698
        </DataArray>
        <DataArray type="Float32" Name="X_gTotalC" NumberOfComponents="1" format="ascii">
          0.988966 0.989048 0.989037 0.989037 0.989025 0.989025 0.989014 0.989014 0.989002 0.989002 0.988991 0.988991
          0.988979 0.988979 0.988968 0.988968 0.988956 0.988956 0.988944 0.988944 0.988933 0.988933 0.988909 0.988909
          0.988886 0.988886 0.988862 0.988862 0.988838 0.988838 0.988814 0.988814 0.988784 0.988784 0.988754 0.988754
          0.988723 0.988723 0.988692 0.988692 0.988662 0.988662 0.988631 0.988631 0.988599 0.988599 0.988568 0.988568
          0.988536 0.988536 0.988504 0.988504 0.988472 0.988472 0.988439 0.988439 0.988406 0.988406 0.988373 0.988373
          0.988339 0.988339 0.988304 0.988304 0.988268 0.988268 0.988231 0.988231 0.988192 0.988192 0.98815 0.98815
          0.988105 0.988105 0.988055 0.988055 0.987998 0.987998 0.98793 0.98793
        </DataArray>
        <DataArray type="Float32" Name="X_gNa" NumberOfComponents="1" format="ascii">
          0 0 0 0 0 0 0 0 0 0 0 0
          0 0 0 0 0 0 0 0 0 0 0 0
          0 0 0 0 0 0 0 0 0 0 0 0
          0 0 0 0 0 0 0 0 0 0 0 0
          0 0 0 0 0 0 0 0 0 0 0 0
          0 0 0 0 0 0 0 0 0 0 0 0
          0 0 0 0 0 0 0 0
        </DataArray>
        <DataArray type="Float32" Name="X_gCl" NumberOfComponents="1" format="ascii">
          0 0 0 0 0 0 0 0 0 0 0 0
          0 0 0 0 0 0 0 0 0 0 0 0
          0 0 0 0 0 0 0 0 0 0 0 0
          0 0 0 0 0 0 0 0 0 0 0 0
          0 0 0 0 0 0 0 0 0 0 0 0
          0 0 0 0 0 0 0 0 0 0 0 0
          0 0 0 0 0 0 0 0
        </DataArray>
        <DataArray type="Float32" Name="X_gCa" NumberOfComponents="1" format="ascii">
          0 0 0 0 0 0 0 0 0 0 0 0
          0 0 0 0 0 0 0 0 0 0 0 0
          0 0 0 0 0 0 0 0 0 0 0 0
          0 0 0 0 0 0 0 0 0 0 0 0
          0 0 0 0 0 0 0 0 0 0 0 0
          0 0 0 0 0 0 0 0 0 0 0 0
          0 0 0 0 0 0 0 0
        </DataArray>
        <DataArray type="Float32" Name="X_gUrea" NumberOfComponents="1" format="ascii">
          0 0 0 0 0 0 0 0 0 0 0 0
          0 0 0 0 0 0 0 0 0 0 0 0
          0 0 0 0 0 0 0 0 0 0 0 0
          0 0 0 0 0 0 0 0 0 0 0 0
          0 0 0 0 0 0 0 0 0 0 0 0
          0 0 0 0 0 0 0 0 0 0 0 0
          0 0 0 0 0 0 0 0
        </DataArray>
        <DataArray type="Float32" Name="X_gTotalNH" NumberOfComponents="1" format="ascii">
          0 0 0 0 0 0 0 0 0 0 0 0
          0 0 0 0 0 0 0 0 0 0 0 0
          0 0 0 0 0 0 0 0 0 0 0 0
          0 0 0 0 0 0 0 0 0 0 0 0
          0 0 0 0 0 0 0 0 0 0 0 0
          0 0 0 0 0 0 0 0 0 0 0 0
          0 0 0 0 0 0 0 0
        </DataArray>
        <DataArray type="Float32" Name="X_gO2" NumberOfComponents="1" format="ascii">
          0 0 0 0 0 0 0 0 0 0 0 0
          0 0 0 0 0 0 0 0 0 0 0 0
          0 0 0 0 0 0 0 0 0 0 0 0
          0 0 0 0 0 0 0 0 0 0 0 0
          0 0 0 0 0 0 0 0 0 0 0 0
          0 0 0 0 0 0 0 0 0 0 0 0
          0 0 0 0 0 0 0 0
        </DataArray>
        <DataArray type="Float32" Name="X_gSubstrate" NumberOfComponents="1" format="ascii">
          0 0 0 0 0 0 0 0 0 0 0 0
          0 0 0 0 0 0 0 0 0 0 0 0
          0 0 0 0 0 0 0 0 0 0 0 0
          0 0 0 0 0 0 0 0 0 0 0 0
          0 0 0 0 0 0 0 0 0 0 0 0
          0 0 0 0 0 0 0 0 0 0 0 0
          0 0 0 0 0 0 0 0
        </DataArray>
        <DataArray type="Float32" Name="X_gSuspended_Biomass" NumberOfComponents="1" format="ascii">
          0 0 0 0 0 0 0 0 0 0 0 0
          0 0 0 0 0 0 0 0 0 0 0 0
          0 0 0 0 0 0 0 0 0 0 0 0
          0 0 0 0 0 0 0 0 0 0 0 0
          0 0 0 0 0 0 0 0 0 0 0 0
          0 0 0 0 0 0 0 0 0 0 0 0
          0 0 0 0 0 0 0 0
        </DataArray>
        <DataArray type="Float32" Name="X_gNH4" NumberOfComponents="1" format="ascii">
          0 0 0 0 0 0 0 0 0 0 0 0
          0 0 0 0 0 0 0 0 0 0 0 0
          0 0 0 0 0 0 0 0 0 0 0 0
          0 0 0 0 0 0 0 0 0 0 0 0
          0 0 0 0 0 0 0 0 0 0 0 0
          0 0 0 0 0 0 0 0 0 0 0 0
          0 0 0 0 0 0 0 0
        </DataArray>
        <DataArray type="Float32" Name="X_gHCO3" NumberOfComponents="1" format="ascii">
          0 0 0 0 0 0 0 0 0 0 0 0
          0 0 0 0 0 0 0 0 0 0 0 0
          0 0 0 0 0 0 0 0 0 0 0 0
          0 0 0 0 0 0 0 0 0 0 0 0
          0 0 0 0 0 0 0 0 0 0 0 0
          0 0 0 0 0 0 0 0 0 0 0 0
          0 0 0 0 0 0 0 0
        </DataArray>
        <DataArray type="Float32" Name="X_gCO3" NumberOfComponents="1" format="ascii">
          0 0 0 0 0 0 0 0 0 0 0 0
          0 0 0 0 0 0 0 0 0 0 0 0
          0 0 0 0 0 0 0 0 0 0 0 0
          0 0 0 0 0 0 0 0 0 0 0 0
          0 0 0 0 0 0 0 0 0 0 0 0
          0 0 0 0 0 0 0 0 0 0 0 0
          0 0 0 0 0 0 0 0
        </DataArray>
        <DataArray type="Float32" Name="X_gCO2" NumberOfComponents="1" format="ascii">
          0.988966 0.989048 0.989037 0.989037 0.989025 0.989025 0.989014 0.989014 0.989002 0.989002 0.988991 0.988991
          0.988979 0.988979 0.988968 0.988968 0.988956 0.988956 0.988944 0.988944 0.988933 0.988933 0.988909 0.988909
          0.988886 0.988886 0.988862 0.988862 0.988838 0.988838 0.988814 0.988814 0.988784 0.988784 0.988754 0.988754
          0.988723 0.988723 0.988692 0.988692 0.988662 0.988662 0.988631 0.988631 0.988599 0.988599 0.988568 0.988568
          0.988536 0.988536 0.988504 0.988504 0.988472 0.988472 0.988439 0.988439 0.988406 0.988406 0.988373 0.988373
          0.988339 0.988339 0.988304 0.988304 0.988268 0.988268 0.988231 0.988231 0.988192 0.988192 0.98815 0.98815
          0.988105 0.988105 0.988055 0.988055 0.987998 0.987998 0.98793 0.98793
        </DataArray>
        <DataArray type="Float32" Name="X_gH" NumberOfComponents="1" format="ascii">
          0 0 0 0 0 0 0 0 0 0 0 0
          0 0 0 0 0 0 0 0 0 0 0 0
          0 0 0 0 0 0 0 0 0 0 0 0
          0 0 0 0 0 0 0 0 0 0 0 0
          0 0 0 0 0 0 0 0 0 0 0 0
          0 0 0 0 0 0 0 0 0 0 0 0
          0 0 0 0 0 0 0 0
        </DataArray>
        <DataArray type="Float32" Name="X_gOH" NumberOfComponents="1" format="ascii">
          0 0 0 0 0 0 0 0 0 0 0 0
          0 0 0 0 0 0 0 0 0 0 0 0
          0 0 0 0 0 0 0 0 0 0 0 0
          0 0 0 0 0 0 0 0 0 0 0 0
          0 0 0 0 0 0 0 0 0 0 0 0
          0 0 0 0 0 0 0 0 0 0 0 0
          0 0 0 0 0 0 0 0
        </DataArray>
        <DataArray type="Float32" Name="Molarity_Brine" NumberOfComponents="1" format="ascii">
          53078 53078 53081.5 53081.6 53085.1 53085.1 53088.7 53088.7 53092.3 53092.3 53095.8 53095.9
          53099.4 53099.5 53103 53103.1 53106.7 53106.7 53110.3 53110.3 53114 53114 53120.8 53120.9
          53127.7 53127.7 53134.6 53134.6 53141.5 53141.5 53148.4 53148.4 53156.9 53157 53165.5 53165.6
          53174.3 53174.3 53183.2 53183.2 53192.5 53192.5 53202.1 53202.1 53212.3 53212.3 53223.3 53223.3
          53235.2 53235.2 53248.6 53248.6 53263.8 53263.8 53281.5 53281.6 53302.8 53302.9 53329.1 53329
          53362 53362 53404.3 53404.2 53459.4 53459.4 53532.4 53532.4 53630.5 53630.5 53763.6 53763.6
          53946.5 53946.5 54199.9 54199.9 54553.9 54553.9 55049.2 55049.2
        </DataArray>
        <DataArray type="Float32" Name="Molarity_TotalC" NumberOfComponents="1" format="ascii">
          0.326994 0.326964 0.342157 0.342094 0.348176 0.347684 0.348541 0.351994 0.356252 0.355792 0.359717 0.359616
          0.362049 0.363579 0.367159 0.367248 0.371091 0.371129 0.374906 0.374933 0.37885 0.378838 0.386023 0.386045
          0.393281 0.393285 0.400478 0.400509 0.407778 0.407791 0.41511 0.415096 0.423583 0.423777 0.43257 0.432589
          0.441248 0.441344 0.449939 0.449967 0.458451 0.458464 0.466727 0.466621 0.475081 0.475097 0.484801 0.486066
          0.493291 0.49335 0.501508 0.501512 0.5099 0.509912 0.518894 0.518299 0.55048 0.526599 0.535313 0.549759
          0.543301 0.544185 0.55177 0.551851 0.563895 0.56388 0.57533 0.575288 0.589617 0.589601 0.608434 0.608423
          0.630904 0.630877 0.619902 0.619858 0.420134 0.420091 0.0132254 0.0132254
        </DataArray>
        <DataArray type="Float32" Name="Molarity_Na" NumberOfComponents="1" format="ascii">
          0.0053634 0.0053634 0.00536962 0.00536963 0.00537644 0.00537647 0.00538396 0.00538398 0.00539224 0.00539224 0.0054013 0.00540132
          0.00541126 0.00541128 0.00542221 0.00542221 0.0054342 0.0054342 0.00544735 0.00544735 0.00546177 0.00546177 0.0054926 0.0054926
          0.00552897 0.00552897 0.00557184 0.00557183 0.00562236 0.00562237 0.00568194 0.00568195 0.00576878 0.00576879 0.00587485 0.00587486
          0.00600481 0.00600481 0.00616469 0.0061647 0.00636243 0.00636243 0.0066085 0.0066085 0.00691688 0.00691688 0.00730591 0.00730594
          0.00780081 0.00780082 0.00843593 0.0084359 0.00925763 0.00925768 0.01033 0.0103301 0.0117407 0.0117408 0.0136102 0.0136103
          0.0161061 0.0161061 0.0194606 0.0194605 0.0239921 0.0239923 0.0301484 0.0301485 0.0385647 0.0385647 0.0501363 0.0501363
          0.0661435 0.0661435 0.0884295 0.0884294 0.119614 0.119614 0.1633 0.1633
        </DataArray>
        <DataArray type="Float32" Name="Molarity_Cl" NumberOfComponents="1" format="ascii">
          869.977 869.977 870.009 870.009 870.038 870.039 870.064 870.065 870.087 870.088 870.107 870.108
          870.122 870.123 870.134 870.135 870.14 870.141 870.142 870.143 870.139 870.139 870.115 870.115
          870.066 870.066 869.988 869.988 869.876 869.876 869.724 869.724 869.474 869.474 869.139 869.139
          868.697 868.698 868.124 868.124 867.383 867.383 866.43 866.43 865.204 865.204 863.624 863.624
          861.58 861.58 858.922 858.922 855.448 855.448 850.878 850.877 844.828 844.829 836.777 836.775
          825.99 825.989 811.456 811.456 791.787 791.786 765.032 765.031 728.422 728.422 678.057 678.057
          608.359 608.359 511.301 511.301 375.479 375.479 185.193 185.193
        </DataArray>
        <DataArray type="Float32" Name="Molarity_Ca" NumberOfComponents="1" format="ascii">
          329.24 329.23 327.607 327.593 325.978 325.954 324.354 324.315 322.714 322.685 321.084 321.054
          319.454 319.422 317.816 317.792 316.178 316.159 314.536 314.521 312.887 312.876 309.812 309.805
          306.758 306.753 303.718 303.715 300.689 300.686 297.664 297.661 294.018 294.012 290.392 290.388
          286.786 286.782 283.19 283.188 279.597 279.596 275.992 275.992 272.35 272.351 268.647 268.648
          264.867 264.867 260.967 260.966 256.885 256.885 252.539 252.537 247.827 247.803 242.519 242.533
          236.447 236.447 229.25 229.251 220.463 220.463 209.442 209.442 195.232 195.232 176.47 176.47
          151.174 151.174 116.425 116.425 67.939 67.9391 0 0
        </DataArray>
        <DataArray type="Float32" Name="Molarity_Urea" NumberOfComponents="1" format="ascii">
          321.282 321.273 319.634 319.62 317.999 317.976 316.375 316.333 314.727 314.699 313.094 313.064
          311.462 311.429 309.819 309.795 308.177 308.158 306.531 306.516 304.88 304.868 301.799 301.791
          298.738 298.733 295.693 295.69 292.659 292.657 289.63 289.627 285.98 285.974 282.35 282.346
          278.742 278.738 275.147 275.145 271.557 271.556 267.956 267.957 264.323 264.324 260.631 260.631
          256.87 256.87 252.995 252.995 248.948 248.948 244.648 244.647 239.977 239.977 234.778 234.778
          228.823 228.822 221.784 221.784 213.206 213.206 202.473 202.474 188.658 188.658 170.436 170.436
          145.889 145.889 112.222 112.222 65.4344 65.4345 0 0
        </DataArray>
        <DataArray type="Float32" Name="Molarity_TotalNH" NumberOfComponents="1" format="ascii">
          212.123 212.142 215.451 215.479 218.75 218.798 222.024 222.109 225.344 225.4 228.63 228.69
          231.909 231.977 235.206 235.256 238.498 238.537 241.792 241.823 245.093 245.117 251.233 251.249
          257.309 257.318 263.323 263.33 269.284 269.29 275.197 275.202 282.257 282.268 289.191 289.199
          295.98 295.988 302.614 302.619 309.077 309.079 315.352 315.35 321.425 321.424 327.271 327.271
          332.804 332.804 337.963 337.963 342.669 342.669 346.809 346.81 350.246 350.247 352.781 352.78
          354.154 354.154 354.029 354.029 351.961 351.96 347.271 347.27 339.109 339.108 326.306 326.305
          307.245 307.244 279.664 279.664 240.414 240.413 185.193 185.193
        </DataArray>
        <DataArray type="Float32" Name="Molarity_O2" NumberOfComponents="1" format="ascii">
          0.247929 0.247925 0.247324 0.247319 0.246722 0.246714 0.246123 0.246108 0.245514 0.245504 0.244908 0.244897
          0.244301 0.244289 0.243688 0.243679 0.243074 0.243067 0.242457 0.242451 0.241836 0.241831 0.240672 0.240669
          0.239509 0.239507 0.238346 0.238344 0.237179 0.237178 0.236006 0.236005 0.234581 0.234579 0.23315 0.233148
          0.23171 0.231708 0.230254 0.230253 0.228773 0.228773 0.227255 0.227255 0.225679 0.225679 0.224022 0.224022
          0.222259 0.222259 0.220345 0.220345 0.218221 0.21822 0.215801 0.2158 0.212967 0.212968 0.209562 0.209562
          0.205358 0.205358 0.200039 0.200039 0.193172 0.193172 0.18416 0.18416 0.172136 0.172136 0.155879 0.155879
          0.133636 0.133637 0.102876 0.102876 0.059992 0.0599921 0 0
        </DataArray>
        <DataArray type="Float32" Name="Molarity_Substrate" NumberOfComponents="1" format="ascii">
          16.8039 16.8039 16.8047 16.8047 16.8055 16.8055 16.8062 16.8062 16.807 16.807 16.8077 16.8077
          16.8084 16.8084 16.8091 16.8091 16.8097 16.8097 16.8104 16.8104 16.8109 16.8109 16.8119 16.8119
          16.8126 16.8126 16.813 16.813 16.8131 16.8131 16.8128 16.8128 16.8115 16.8115 16.8091 16.8091
          16.8052 16.8052 16.7991 16.7991 16.79 16.79 16.777 16.777 16.7586 16.7586 16.7328 16.7328
          16.6968 16.6968 16.6469 16.6469 16.5779 16.5779 16.4828 16.4828 16.3517 16.3517 16.1713 16.1713
          15.9229 15.9229 15.5806 15.5806 15.1092 15.1092 14.4591 14.4591 13.5603 13.5603 12.3144 12.3144
          10.5811 10.5811 8.15896 8.15896 4.76253 4.76253 0 0
        </DataArray>
        <DataArray type="Float32" Name="Molarity_Suspended_Biomass" NumberOfComponents="1" format="ascii">
          1.14934e-05 1.15035e-05 1.31223e-05 1.31374e-05 1.47441e-05 1.477e-05 1.63594e-05 1.64064e-05 1.80076e-05 1.80387e-05 1.96447e-05 1.96775e-05
          2.12842e-05 2.13222e-05 2.29412e-05 2.29693e-05 2.4602e-05 2.46241e-05 2.62703e-05 2.62875e-05 2.79485e-05 2.79618e-05 3.10884e-05 3.10975e-05
          3.42185e-05 3.42241e-05 3.73405e-05 3.73444e-05 4.04571e-05 4.04608e-05 4.35714e-05 4.35749e-05 4.73201e-05 4.7327e-05 5.10368e-05 5.10419e-05
          5.4709e-05 5.47141e-05 5.83322e-05 5.83358e-05 6.18972e-05 6.1899e-05 6.53963e-05 6.53955e-05 6.88234e-05 6.88229e-05 7.21656e-05 7.21663e-05
          7.53728e-05 7.53736e-05 7.84116e-05 7.84125e-05 8.12383e-05 8.12396e-05 8.37917e-05 8.37932e-05 8.5996e-05 8.59974e-05 8.77402e-05 8.77411e-05
          8.88817e-05 8.8883e-05 8.92343e-05 8.92357e-05 8.85515e-05 8.8553e-05 8.64485e-05 8.64503e-05 8.24501e-05 8.24529e-05 7.59017e-05 7.59053e-05
          6.58995e-05 6.59038e-05 5.11803e-05 5.11848e-05 2.99947e-05 2.99982e-05 0 0
        </DataArray>
        <DataArray type="Float32" Name="Molarity_NH4" NumberOfComponents="1" format="ascii">
          211.762 211.781 215.073 215.101 218.365 218.414 221.639 221.72 224.949 225.006 228.231 228.291
          231.507 231.573 234.798 234.848 238.085 238.124 241.374 241.405 244.671 244.694 250.802 250.818
          256.868 256.878 262.874 262.88 268.825 268.831 274.729 274.735 281.778 281.789 288.702 288.71
          295.48 295.488 302.103 302.108 308.555 308.557 314.82 314.818 320.883 320.881 326.716 326.715
          332.238 332.238 337.387 337.387 342.081 342.082 346.21 346.212 349.611 349.638 352.159 352.143
          353.52 353.52 353.383 353.382 351.296 351.296 346.588 346.587 338.403 338.402 325.569 325.568
          306.469 306.469 278.879 278.879 239.813 239.813 185.037 185.037
        </DataArray>
        <DataArray type="Float32" Name="Molarity_HCO3" NumberOfComponents="1" format="ascii">
          0.266306 0.266273 0.280021 0.279954 0.285002 0.284519 0.284579 0.287859 0.291165 0.290712 0.293698 0.293588
          0.29515 0.296594 0.299246 0.299319 0.302215 0.302242 0.305071 0.30509 0.308045 0.308028 0.313413 0.31343
          0.318868 0.318869 0.324269 0.324296 0.32977 0.329781 0.335302 0.335287 0.341625 0.341807 0.34845 0.348466
          0.354999 0.355088 0.36158 0.361604 0.368012 0.368023 0.374246 0.374146 0.380581 0.380596 0.388237 0.389432
          0.394776 0.394831 0.401113 0.401117 0.407685 0.407695 0.414909 0.414346 0.443591 0.421021 0.428219 0.441859
          0.434898 0.435732 0.442239 0.442315 0.453286 0.453272 0.464026 0.463987 0.477893 0.477879 0.496588 0.496578
          0.519412 0.519387 0.511301 0.51126 0.328318 0.328279 0.00553194 0.00553194
        </DataArray>
        <DataArray type="Float32" Name="Molarity_CO3" NumberOfComponents="1" format="ascii">
          0.000277972 0.000277887 0.000299899 0.000299734 0.000305195 0.000304202 0.000300152 0.000306297 0.000308413 0.000307477 0.000308984 0.000308699
          0.00030754 0.000310164 0.000311032 0.000311104 0.000312407 0.000312408 0.000313562 0.000313559 0.000314918 0.000314858 0.000317118 0.00031713
          0.000319523 0.000319514 0.000321868 0.000321909 0.000324413 0.000324425 0.00032702 0.000326987 0.000329575 0.000329875 0.000333058 0.000333075
          0.000336143 0.000336284 0.000339356 0.000339391 0.0003424 0.000342416 0.0003452 0.000345038 0.000348243 0.000348269 0.00035349 0.000355423
          0.000357046 0.000357134 0.000360419 0.000360426 0.000364323 0.000364337 0.00036943 0.000368541 0.000409082 0.000372974 0.000378439 0.0004
          0.000383319 0.000384616 0.000389442 0.00038956 0.000401472 0.000401449 0.000413129 0.00041307 0.000429502 0.000429481 0.000452657 0.000452642
          0.000479765 0.000479726 0.000450643 0.000450581 0.000196825 0.000196786 4.26535e-07 4.26535e-07
        </DataArray>
        <DataArray type="Float32" Name="Molarity_CO2" NumberOfComponents="1" format="ascii">
          0.0604144 0.0604175 0.0618405 0.0618445 0.0628742 0.0628649 0.0636657 0.0638331 0.0647832 0.0647769 0.0657145 0.0657243
          0.0665969 0.0666797 0.0676072 0.0676232 0.0685679 0.068579 0.0695265 0.069535 0.0704955 0.0705006 0.072298 0.0723028
          0.0740988 0.0741013 0.0758926 0.0758956 0.0776889 0.0776909 0.0794861 0.0794868 0.0816335 0.0816458 0.0837928 0.0837958
          0.0859189 0.0859257 0.0880265 0.0880292 0.0901025 0.0901039 0.0921414 0.0921354 0.094158 0.0941584 0.0962172 0.0962844
          0.0981649 0.0981682 0.100041 0.100041 0.101858 0.101859 0.103622 0.103591 0.106488 0.105212 0.106723 0.107506
          0.108027 0.108076 0.109149 0.109154 0.110215 0.110215 0.110898 0.110895 0.111302 0.111301 0.111401 0.1114
          0.111021 0.111019 0.108158 0.108156 0.0916244 0.0916205 0.00769319 0.00769319
        </DataArray>
        <DataArray type="Float32" Name="Molarity_H" NumberOfComponents="1" format="ascii">
          0.000213714 0.000213751 0.000207868 0.000207929 0.000207471 0.00020779 0.000210214 0.000208361 0.000208883 0.000209185 0.000209875 0.000209982
          0.000211461 0.000210689 0.000211541 0.000211537 0.000212249 0.000212262 0.000213008 0.000213019 0.000213695 0.000213721 0.000215033 0.000215034
          0.000216242 0.000216247 0.000217405 0.000217394 0.000218449 0.000218448 0.00021942 0.000219432 0.000220691 0.000220606 0.000221598 0.000221595
          0.000222528 0.000222489 0.000223327 0.000223318 0.000224079 0.000224075 0.000224801 0.000224846 0.00022535 0.000225342 0.000225173 0.000224638
          0.000225339 0.000225315 0.000225403 0.000225401 0.000225144 0.00022514 0.000224349 0.000224584 0.000214898 0.0002237 0.000222213 0.000216937
          0.000220438 0.000220116 0.000217779 0.00021775 0.00021299 0.000212995 0.000207346 0.000207358 0.000199397 0.000199401 0.000188395 0.000188397
          0.000174236 0.000174242 0.000163985 0.000163994 0.000195853 0.000195868 0.000628379 0.000628379
        </DataArray>
        <DataArray type="Float32" Name="Molarity_OH" NumberOfComponents="1" format="ascii">
          4.36762e-05 4.36688e-05 4.49135e-05 4.49003e-05 4.50081e-05 4.49392e-05 4.44294e-05 4.48248e-05 4.47213e-05 4.46568e-05 4.45187e-05 4.44961e-05
          4.41935e-05 4.43555e-05 4.41853e-05 4.41862e-05 4.40467e-05 4.40441e-05 4.38984e-05 4.38962e-05 4.37658e-05 4.37606e-05 4.35096e-05 4.35094e-05
          4.32823e-05 4.32812e-05 4.30665e-05 4.30686e-05 4.28763e-05 4.28767e-05 4.27022e-05 4.27e-05 4.24752e-05 4.24916e-05 4.23201e-05 4.23206e-05
          4.2162e-05 4.21693e-05 4.20298e-05 4.20314e-05 4.19076e-05 4.19083e-05 4.17921e-05 4.17836e-05 4.17098e-05 4.17112e-05 4.17629e-05 4.18623e-05
          4.17533e-05 4.17578e-05 4.1764e-05 4.17644e-05 4.18367e-05 4.18374e-05 4.20123e-05 4.19683e-05 4.38924e-05 4.21653e-05 4.24843e-05 4.35175e-05
          4.28711e-05 4.29337e-05 4.34504e-05 4.34561e-05 4.44999e-05 4.44987e-05 4.58075e-05 4.58047e-05 4.7766e-05 4.77651e-05 5.07441e-05 5.07434e-05
          5.5146e-05 5.51441e-05 5.90025e-05 5.89991e-05 4.98818e-05 4.9878e-05 1.57575e-05 1.57575e-05
        </DataArray>
        <DataArray type="Float32" Name="Da_ureolysis" NumberOfComponents="1" format="ascii">
          0 0 0 0 0 0 0 0 0 0 0 0
          0 0 0 0 0 0 0 0 0 0 0 0
          0 0 0 0 0 0 0 0 0 0 0 0
          0 0 0 0 0 0 0 0 0 0 0 0
          0 0 0 0 0 0 0 0 0 0 0 0
          0 0 0 0 0 0 0 0 0 0 0 0
          0 0 0 0 0 0 0 0
        </DataArray>
        <DataArray type="Float32" Name="Da_precipitation" NumberOfComponents="1" format="ascii">
          0.38462 0.384176 0.490367 0.489549 0.512304 0.507406 0.477542 0.511239 0.516076 0.511627 0.512181 0.511007
          0.497381 0.511886 0.509568 0.510218 0.510106 0.510083 0.509317 0.509248 0.509302 0.508884 0.508043 0.508087
          0.507785 0.507635 0.50681 0.506997 0.507065 0.507159 0.50742 0.507169 0.504646 0.506305 0.506667 0.506783
          0.506475 0.50721 0.506618 0.506836 0.505909 0.505944 0.503379 0.502611 0.50154 0.501629 0.51017 0.519749
          0.509271 0.509631 0.50681 0.506897 0.505609 0.50568 0.508049 0.503912 0.68451 0.500821 0.498838 0.601811
          0.489269 0.494875 0.477944 0.478473 0.481205 0.48111 0.46666 0.466428 0.447346 0.447284 0.416258 0.416215
          0.345535 0.34544 0.144268 0.144199 0.00137036 0.0013692 0 0
        </DataArray>
        <DataArray type="Float32" Name="Vx" NumberOfComponents="1" format="ascii">
          5.30031e-08 5.30277e-08 -1.49625e-07 -1.49906e-07 -4.21774e-07 -4.21354e-07 -5.4144e-08 -5.39658e-08 2.89518e-07 2.89113e-07 2.6198e-08 2.63948e-08
          6.44418e-09 6.41442e-09 1.57108e-07 1.57011e-07 1.27563e-07 1.27569e-07 5.64589e-08 5.64721e-08 -7.86675e-09 -7.86577e-09 -3.42596e-08 -3.42614e-08
          2.25671e-08 2.25674e-08 4.72853e-08 4.72854e-08 -4.93978e-08 -4.93979e-08 -6.03814e-08 -6.03771e-08 -6.27801e-10 -6.2387e-10 1.37967e-08 1.37924e-08
          2.57716e-08 2.5769e-08 3.51767e-09 3.51786e-09 4.14303e-10 4.14278e-10 7.98294e-09 7.98301e-09 -7.3247e-10 -7.32946e-10 -2.33938e-08 -2.33929e-08
          3.29928e-09 3.29841e-09 3.13163e-08 3.13152e-08 -1.52944e-08 -1.52929e-08 -1.85716e-08 -1.85713e-08 5.55321e-09 5.55334e-09 -5.70056e-09 -5.70019e-09
          6.26562e-09 6.26502e-09 1.84475e-08 1.84468e-08 -6.80892e-09 -6.80845e-09 -7.21618e-09 -7.21603e-09 2.25971e-09 2.25968e-09 4.14926e-09 4.14917e-09
          3.32727e-09 3.32727e-09 1.79476e-11 1.79547e-11 -1.45187e-09 -1.45188e-09 -8.2258e-10 -8.22581e-10
        </DataArray>
        <DataArray type="Float32" Name="Vy" NumberOfComponents="1" format="ascii">
          0.000336899 0.000336947 0.000335619 0.000335606 0.000335713 0.000335337 0.000336608 0.000335898 0.000335875 0.000335369 0.000335961 0.000335658
          0.000336153 0.000335817 0.000335933 0.000335704 0.00033584 0.000335787 0.000335851 0.0003359 0.000336011 0.000336073 0.000335909 0.000335917
          0.000335752 0.000335742 0.000335905 0.000335973 0.000335738 0.000335809 0.000335891 0.000335844 0.000335903 0.000335807 0.000335888 0.000335808
          0.00033581 0.000335771 0.000335892 0.000335884 0.000335775 0.000335767 0.000335915 0.000335917 0.000336039 0.000336052 0.000335611 0.000335597
          0.000335965 0.000335924 0.000335837 0.000335839 0.000335773 0.000335794 0.000335908 0.000335887 0.000335845 0.000335813 0.000335737 0.000335707
          0.000335852 0.000335819 0.00033596 0.000335956 0.000335462 0.00033547 0.000335619 0.00033561 0.000335536 0.000335522 0.000335379 0.000335372
          0.000335317 0.000335318 0.000335533 0.000335537 0.00033573 0.000335733 0.000345601 0.000345602
        </DataArray>
      </PointData>
      <CellData Scalars="process rank">
        <DataArray type="Float32" Name="process rank" NumberOfComponents="1" format="ascii">
          0 0 0 0 0 0 0 0 0 0 0 0
          0 0 0 0 0 0 0 0 0 0 0 0
          0 0 0 0 0 0 0 0 0 0 0 0
          0 0 0
        </DataArray>
      </CellData>
      <Points>
        <DataArray type="Float32" Name="Coordinates" NumberOfComponents="3" format="ascii">
          0 0 0 0.0254 0 0 0 0.01 0 0.0254 0.01 0
          0 0.02 0 0.0254 0.02 0 0 0.03 0 0.0254 0.03 0
          0 0.04 0 0.0254 0.04 0 0 0.05 0 0.0254 0.05 0
          0 0.06 0 0.0254 0.06 0 0 0.07 0 0.0254 0.07 0
          0 0.08 0 0.0254 0.08 0 0 0.09 0 0.0254 0.09 0
          0 0.1 0 0.0254 0.1 0 0 0.12 0 0.0254 0.12 0
          0 0.14 0 0.0254 0.14 0 0 0.16 0 0.0254 0.16 0
          0 0.18 0 0.0254 0.18 0 0 0.2 0 0.0254 0.2 0
          0 0.225 0 0.0254 0.225 0 0 0.25 0 0.0254 0.25 0
          0 0.275 0 0.0254 0.275 0 0 0.3 0 0.0254 0.3 0
          0 0.325 0 0.0254 0.325 0 0 0.35 0 0.0254 0.35 0
          0 0.375 0 0.0254 0.375 0 0 0.4 0 0.0254 0.4 0
          0 0.425 0 0.0254 0.425 0 0 0.45 0 0.0254 0.45 0
          0 0.475 0 0.0254 0.475 0 0 0.5 0 0.0254 0.5 0
          0 0.525 0 0.0254 0.525 0 0 0.55 0 0.0254 0.55 0
          0 0.575 0 0.0254 0.575 0 0 0.6 0 0.0254 0.6 0
          0 0.625 0 0.0254 0.625 0 0 0.65 0 0.0254 0.65 0
          0 0.675 0 0.0254 0.675 0 0 0.7 0 0.0254 0.7 0
          0 0.725 0 0.0254 0.725 0 0 0.75 0 0.0254 0.75 0
          0 0.775 0 0.0254 0.775 0 0 0.8 0 0.0254 0.8 0
        </DataArray>
      </Points>
      <Cells>
        <DataArray type="Int32" Name="connectivity" NumberOfComponents="1" format="ascii">
          0 1 3 2 2 3 5 4 4 5 7 6
          6 7 9 8 8 9 11 10 10 11 13 12
          12 13 15 14 14 15 17 16 16 17 19 18
          18 19 21 20 20 21 23 22 22 23 25 24
          24 25 27 26 26 27 29 28 28 29 31 30
          30 31 33 32 32 33 35 34 34 35 37 36
          36 37 39 38 38 39 41 40 40 41 43 42
          42 43 45 44 44 45 47 46 46 47 49 48
          48 49 51 50 50 51 53 52 52 53 55 54
          54 55 57 56 56 57 59 58 58 59 61 60
          60 61 63 62 62 63 65 64 64 65 67 66
          66 67 69 68 68 69 71 70 70 71 73 72
          72 73 75 74 74 75 77 76 76 77 79 78
        </DataArray>
        <DataArray type="Int32" Name="offsets" NumberOfComponents="1" format="ascii">
          4 8 12 16 20 24 28 32 36 40 44 48
          52 56 60 64 68 72 76 80 84 88 92 96
          100 104 108 112 116 120 124 128 132 136 140 144
          148 152 156
        </DataArray>
        <DataArray type="UInt8" Name="types" NumberOfComponents="1" format="ascii">
          9 9 9 9 9 9 9 9 9 9 9 9
          9 9 9 9 9 9 9 9 9 9 9 9
          9 9 9 9 9 9 9 9 9 9 9 9
          9 9 9
        </DataArray>
      </Cells>
    </Piece>
  </UnstructuredGrid>
</VTKFile>
