<?xml version="1.0"?>
<VTKFile type="UnstructuredGrid" version="0.1" byte_order="LittleEndian">
  <UnstructuredGrid>
    <Piece NumberOfCells="39" NumberOfPoints="80">
      <PointData Scalars="Sg">
        <DataArray type="Float32" Name="Sg" NumberOfComponents="1" format="ascii">
          0 0 0 0 0 0 0 0 0 0 0 0
          0 0 0 0 0 0 0 0 0 0 0 0
          0 0 0 0 0 0 0 0 0 0 0 0
          0 0 0 0 0 0 0 0 0 0 0 0
          0 0 0 0 0 0 0 0 0 0 0 0
          0 0 0 0 0 0 0 0 0 0 0 0
          0 0 0 0 0 0 0 0
        </DataArray>
        <DataArray type="Float32" Name="Sl" NumberOfComponents="1" format="ascii">
          1 1 1 1 1 1 1 1 1 1 1 1
          1 1 1 1 1 1 1 1 1 1 1 1
          1 1 1 1 1 1 1 1 1 1 1 1
          1 1 1 1 1 1 1 1 1 1 1 1
          1 1 1 1 1 1 1 1 1 1 1 1
          1 1 1 1 1 1 1 1 1 1 1 1
          1 1 1 1 1 1 1 1
        </DataArray>
        <DataArray type="Float32" Name="pg" NumberOfComponents="1" format="ascii">
          117624 117624 117526 117526 117427 117427 117328 117328 117230 117230 117131 117131
          117032 117032 116933 116933 116834 116834 116735 116735 116636 116636 116438 116438
          116239 116239 116041 116041 115842 115842 115643 115643 115394 115394 115145 115145
          114896 114896 114647 114647 114398 114398 114148 114148 113899 113899 113649 113649
          113400 113400 113150 113150 112900 112900 112651 112651 112401 112401 112152 112152
          111902 111902 111653 111653 111403 111403 111154 111154 110905 110905 110657 110657
          110408 110408 110160 110160 109913 109913 109667 109667
        </DataArray>
        <DataArray type="Float32" Name="pl" NumberOfComponents="1" format="ascii">
          107958 107958 107859 107859 107760 107760 107662 107662 107563 107563 107464 107464
          107365 107365 107266 107266 107167 107167 107068 107068 106969 106969 106771 106771
          106573 106573 106374 106374 106175 106175 105977 105977 105728 105728 105479 105479
          105230 105230 104980 104980 104731 104731 104482 104482 104232 104232 103983 103983
          103733 103733 103483 103483 103234 103234 102984 102984 102735 102735 102485 102485
          102236 102236 101986 101986 101737 101737 101488 101488 101239 101239 100990 100990
          100741 100741 100493 100493 100246 100246 100000 100000
        </DataArray>
        <DataArray type="Float32" Name="pc" NumberOfComponents="1" format="ascii">
          9666.67 9666.67 9666.67 9666.67 9666.67 9666.67 9666.67 9666.67 9666.67 9666.67 9666.67 9666.67
          9666.67 9666.67 9666.67 9666.67 9666.67 9666.67 9666.67 9666.67 9666.67 9666.67 9666.67 9666.67
          9666.67 9666.67 9666.67 9666.67 9666.67 9666.67 9666.67 9666.67 9666.67 9666.67 9666.67 9666.67
          9666.67 9666.67 9666.67 9666.67 9666.67 9666.67 9666.67 9666.67 9666.67 9666.67 9666.67 9666.67
          9666.67 9666.67 9666.67 9666.67 9666.67 9666.67 9666.67 9666.67 9666.67 9666.67 9666.67 9666.67
          9666.67 9666.67 9666.67 9666.67 9666.67 9666.67 9666.67 9666.67 9666.67 9666.67 9666.67 9666.67
          9666.67 9666.67 9666.67 9666.67 9666.67 9666.67 9666.67 9666.67
        </DataArray>
        <DataArray type="Float32" Name="rhoL" NumberOfComponents="1" format="ascii">
          1005.09 1005.08 1005.51 1005.52 1005.96 1005.97 1006.43 1006.44 1006.91 1006.9 1007.39 1007.39
          1007.89 1007.89 1008.39 1008.39 1008.89 1008.89 1009.39 1009.39 1009.89 1009.89 1010.82 1010.82
          1011.71 1011.72 1012.56 1012.56 1013.34 1013.34 1014.06 1014.06 1014.85 1014.85 1015.52 1015.52
          1016.09 1016.09 1016.56 1016.56 1016.94 1016.94 1017.23 1017.23 1017.46 1017.46 1017.61 1017.61
          1017.71 1017.71 1017.77 1017.77 1017.76 1017.77 1017.72 1017.72 1017.61 1017.61 1017.45 1017.45
          1017.21 1017.21 1016.87 1016.87 1016.39 1016.39 1015.76 1015.76 1014.9 1014.9 1013.73 1013.73
          1012.11 1012.11 1009.83 1009.83 1006.56 1006.56 1001.45 1001.45
        </DataArray>
        <DataArray type="Float32" Name="rhoG" NumberOfComponents="1" format="ascii">
          2.06906 2.06911 2.06733 2.06733 2.06555 2.06555 2.06377 2.06377 2.06199 2.06199 2.06021 2.06021
          2.05842 2.05842 2.05664 2.05664 2.05486 2.05486 2.05307 2.05307 2.05129 2.05129 2.04771 2.04771
          2.04413 2.04413 2.04054 2.04054 2.03696 2.03696 2.03337 2.03337 2.02887 2.02887 2.02437 2.02437
          2.01987 2.01987 2.01536 2.01536 2.01085 2.01085 2.00633 2.00633 2.00182 2.00182 1.9973 1.9973
          1.99278 1.99278 1.98826 1.98826 1.98374 1.98374 1.97922 1.97922 1.97469 1.97469 1.97017 1.97017
          1.96565 1.96565 1.96112 1.96112 1.9566 1.9566 1.95207 1.95207 1.94755 1.94755 1.94302 1.94302
          1.9385 1.9385 1.93397 1.93397 1.92944 1.92944 1.9249 1.9249
        </DataArray>
        <DataArray type="Float32" Name="mobL" NumberOfComponents="1" format="ascii">
          1083.69 1083.76 1081.66 1081.62 1079.51 1079.47 1077.31 1077.26 1075.13 1075.17 1072.95 1072.95
          1070.76 1070.76 1068.6 1068.6 1066.46 1066.47 1064.36 1064.36 1062.3 1062.3 1058.54 1058.54
          1055.05 1055.05 1051.83 1051.83 1048.93 1048.93 1046.29 1046.29 1043.49 1043.49 1041.14 1041.14
          1039.18 1039.18 1037.58 1037.58 1036.31 1036.31 1035.32 1035.32 1034.57 1034.57 1034.07 1034.07
          1033.73 1033.73 1033.56 1033.56 1033.56 1033.56 1033.72 1033.72 1034.06 1034.06 1034.61 1034.61
          1035.4 1035.4 1036.53 1036.53 1038.13 1038.13 1040.28 1040.28 1043.28 1043.27 1047.48 1047.48
          1053.5 1053.5 1062.47 1062.47 1076.64 1076.64 1103.12 1103.12
        </DataArray>
        <DataArray type="Float32" Name="mobG" NumberOfComponents="1" format="ascii">
          0 0 0 0 0 0 0 0 0 0 0 0
          0 0 0 0 0 0 0 0 0 0 0 0
          0 0 0 0 0 0 0 0 0 0 0 0
          0 0 0 0 0 0 0 0 0 0 0 0
          0 0 0 0 0 0 0 0 0 0 0 0
          0 0 0 0 0 0 0 0 0 0 0 0
          0 0 0 0 0 0 0 0
        </DataArray>
        <DataArray type="Float32" Name="porosity" NumberOfComponents="1" format="ascii">
          0.331278 0.331338 0.32308 0.323258 0.320197 0.320813 0.323027 0.319477 0.317759 0.318478 0.317278 0.317496
          0.317937 0.316692 0.315826 0.315884 0.315128 0.315181 0.314402 0.314634 0.313699 0.313746 0.312845 0.312925
          0.311852 0.311794 0.311787 0.311412 0.308738 0.31032 0.31099 0.310314 0.310479 0.310397 0.310547 0.310484
          0.311033 0.311056 0.311868 0.311893 0.312727 0.312767 0.314041 0.314098 0.315389 0.315366 0.31584 0.315879
          0.317531 0.317458 0.319128 0.319112 0.320623 0.320742 0.322732 0.322713 0.324737 0.324702 0.327 0.326978
          0.329808 0.329742 0.332808 0.33284 0.3354 0.335426 0.339786 0.33977 0.345245 0.345236 0.352355 0.352354
          0.362193 0.362198 0.375558 0.375568 0.388294 0.388296 0.4 0.4
        </DataArray>
        <DataArray type="Float32" Name="temperature" NumberOfComponents="1" format="ascii">
          298.15 298.15 298.15 298.15 298.15 298.15 298.15 298.15 298.15 298.15 298.15 298.15
          298.15 298.15 298.15 298.15 298.15 298.15 298.15 298.15 298.15 298.15 298.15 298.15
          298.15 298.15 298.15 298.15 298.15 298.15 298.15 298.15 298.15 298.15 298.15 298.15
          298.15 298.15 298.15 298.15 298.15 298.15 298.15 298.15 298.15 298.15 298.15 298.15
          298.15 298.15 298.15 298.15 298.15 298.15 298.15 298.15 298.15 298.15 298.15 298.15
          298.15 298.15 298.15 298.15 298.15 298.15 298.15 298.15 298.15 298.15 298.15 298.15
          298.15 298.15 298.15 298.15 298.15 298.15 298.15 298.15
        </DataArray>
        <DataArray type="Float32" Name="phase presence" NumberOfComponents="1" format="ascii">
          1 1 1 1 1 1 1 1 1 1 1 1
          1 1 1 1 1 1 1 1 1 1 1 1
          1 1 1 1 1 1 1 1 1 1 1 1
          1 1 1 1 1 1 1 1 1 1 1 1
          1 1 1 1 1 1 1 1 1 1 1 1
          1 1 1 1 1 1 1 1 1 1 1 1
          1 1 1 1 1 1 1 1
        </DataArray>
        <DataArray type="Float32" Name="potential" NumberOfComponents="1" format="ascii">
          0.00706899 0.00708049 0.00673495 0.00672867 0.00637947 0.00637373 0.00601532 0.00600726 0.0056516 0.00565822 0.0052863 0.0052857
          0.00491644 0.00491633 0.00455166 0.00455246 0.00418903 0.00419036 0.00383144 0.00383144 0.00348137 0.0034809 0.00284141 0.002841
          0.00224811 0.00224721 0.0017025 0.00170337 0.00121673 0.00121637 0.000780839 0.000780409 0.000325776 0.000326033 -4.67242e-05 -4.67559e-05
          -0.000347024 -0.000347068 -0.000583295 -0.000583291 -0.000764467 -0.0007645 -0.000899084 -0.000899401 -0.000995759 -0.000995743 -0.001057 -0.00105721
          -0.00109569 -0.00109579 -0.00111368 -0.00111396 -0.00111322 -0.0011137 -0.00109819 -0.00109826 -0.00106882 -0.00106862 -0.00102587 -0.00102589
          -0.000969708 -0.000969671 -0.000899435 -0.000899462 -0.000811984 -0.000811996 -0.000711341 -0.000711357 -0.000595128 -0.000595145 -0.000465175 -0.000465187
          -0.00032552 -0.000325529 -0.000185244 -0.000185246 -6.37523e-05 -6.37527e-05 0 0
        </DataArray>
        <DataArray type="Float32" Name="boxVolume" NumberOfComponents="1" format="ascii">
          6.35e-05 6.35e-05 0.000127 0.000127 0.000127 0.000127 0.000127 0.000127 0.000127 0.000127 0.000127 0.000127
          0.000127 0.000127 0.000127 0.000127 0.000127 0.000127 0.000127 0.000127 0.0001905 0.0001905 0.000254 0.000254
          0.000254 0.000254 0.000254 0.000254 0.000254 0.000254 0.00028575 0.00028575 0.0003175 0.0003175 0.0003175 0.0003175
          0.0003175 0.0003175 0.0003175 0.0003175 0.0003175 0.0003175 0.0003175 0.0003175 0.0003175 0.0003175 0.0003175 0.0003175
          0.0003175 0.0003175 0.0003175 0.0003175 0.0003175 0.0003175 0.0003175 0.0003175 0.0003175 0.0003175 0.0003175 0.0003175
          0.0003175 0.0003175 0.0003175 0.0003175 0.0003175 0.0003175 0.0003175 0.0003175 0.0003175 0.0003175 0.0003175 0.0003175
          0.0003175 0.0003175 0.0003175 0.0003175 0.0003175 0.0003175 0.00015875 0.00015875
        </DataArray>
        <DataArray type="Float32" Name="pH" NumberOfComponents="1" format="ascii">
          7.37385 7.3779 7.36021 7.36003 7.34332 7.34282 7.3243 7.32537 7.3096 7.30961 7.29311 7.29293
          7.27619 7.27694 7.26165 7.26152 7.24642 7.24633 7.23181 7.2317 7.21819 7.21809 7.19279 7.19272
          7.1703 7.17018 7.14961 7.1497 7.1322 7.13163 7.11578 7.11581 7.09816 7.09832 7.08439 7.08431
          7.0727 7.07269 7.06315 7.06315 7.05542 7.05536 7.04936 7.04914 7.04428 7.04433 7.04304 7.04296
          7.0406 7.04051 7.0386 7.03836 7.03787 7.03746 7.03702 7.03693 7.03694 7.03715 7.0375 7.0375
          7.03823 7.03829 7.03954 7.03952 7.04594 7.04591 7.04992 7.04985 7.05604 7.056 7.06414 7.0641
          7.07602 7.07596 7.09725 7.09719 7.14963 7.14959 6.19963 6.19963
        </DataArray>
        <DataArray type="Float32" Name="Omega" NumberOfComponents="1" format="ascii">
          9.71975 9.93311 10.258 10.2678 10.5316 10.5814 11.1909 10.8821 11.0513 11.1239 11.3984 11.4298
          11.8525 11.7181 11.9896 12.0124 12.3048 12.3246 12.5986 12.6153 12.8342 12.8455 13.3935 13.4007
          13.8452 13.8539 14.2994 14.2902 14.5979 14.662 14.9848 14.9749 15.3886 15.3759 15.652 15.6575
          15.8856 15.8865 16.0705 16.0708 16.2113 16.2154 16.3103 16.3248 16.3968 16.3938 16.2799 16.2849
          16.2897 16.2948 16.3097 16.325 16.2851 16.3122 16.3077 16.313 16.3209 16.3084 16.3394 16.3388
          16.3964 16.3932 16.4704 16.4717 16.3755 16.3773 16.4705 16.4735 16.5575 16.5588 16.6297 16.6307
          16.5729 16.5739 16.0438 16.0442 13.8077 13.8071 0 0
        </DataArray>
        <DataArray type="Float32" Name="rurea" NumberOfComponents="1" format="ascii">
          0 0 0 0 0 0 0 0 0 0 0 0
          0 0 0 0 0 0 0 0 0 0 0 0
          0 0 0 0 0 0 0 0 0 0 0 0
          0 0 0 0 0 0 0 0 0 0 0 0
          0 0 0 0 0 0 0 0 0 0 0 0
          0 0 0 0 0 0 0 0 0 0 0 0
          0 0 0 0 0 0 0 0
        </DataArray>
        <DataArray type="Float32" Name="Volume_Fraction_Biofilm" NumberOfComponents="1" format="ascii">
          0.0178206 0.0178203 0.0172706 0.0172916 0.0172928 0.017163 0.0164038 0.0170605 0.0173131 0.0171462 0.0170999 0.0170279
          0.0167023 0.016963 0.0169317 0.0168737 0.0167647 0.0167211 0.0166417 0.01662 0.0166382 0.0166176 0.0163601 0.0163512
          0.0162195 0.0161996 0.0160518 0.016046 0.0159041 0.0158856 0.0158378 0.0158162 0.0155861 0.0156018 0.0154927 0.0154804
          0.015365 0.0153653 0.01525 0.0152511 0.0151252 0.0151214 0.0150229 0.0150037 0.0148754 0.0148792 0.014942 0.0149365
          0.0148377 0.0148258 0.0146803 0.0146579 0.0145562 0.0145229 0.0143605 0.014352 0.0141454 0.0141634 0.0139015 0.0139002
          0.0135789 0.0135808 0.0131701 0.0131694 0.0129593 0.0129573 0.0123703 0.0123642 0.0116483 0.0116456 0.0106508 0.0106486
          0.00927054 0.00926756 0.00728511 0.00728267 0.00423123 0.00422971 0 0
        </DataArray>
        <DataArray type="Float32" Name="Volume_Fraction_Calcite" NumberOfComponents="1" format="ascii">
          0.0509016 0.050842 0.0596496 0.0594503 0.0625107 0.0620242 0.0605696 0.0634621 0.0649283 0.064376 0.0656226 0.0654756
          0.0653611 0.0663455 0.0672423 0.067242 0.0681076 0.0680974 0.0689561 0.0687463 0.0696626 0.0696359 0.0707945 0.0707235
          0.0719289 0.0720063 0.0721615 0.0725418 0.0753584 0.0737947 0.0731723 0.07387 0.0739354 0.0740011 0.0739604 0.0740352
          0.0736021 0.0735783 0.0728821 0.0728556 0.0721477 0.0721115 0.0709359 0.0708979 0.0697356 0.0697551 0.0692183 0.0691845
          0.0676317 0.0677165 0.0661917 0.06623 0.0648208 0.064735 0.0629079 0.0629347 0.061118 0.0611343 0.0590988 0.0591219
          0.0566129 0.0566768 0.054022 0.0539904 0.0516408 0.0516168 0.047844 0.0478662 0.0431067 0.0431183 0.0369938 0.0369978
          0.0285362 0.0285348 0.0171567 0.0171492 0.00747526 0.00747451 0 0
        </DataArray>
        <DataArray type="Float32" Name="Kxx" NumberOfComponents="1" format="ascii">
          1.13613e-10 1.13674e-10 1.05385e-10 1.0556e-10 1.02589e-10 1.03182e-10 1.05333e-10 1.01899e-10 1.00263e-10 1.00946e-10 9.98087e-11 1.00015e-10
          1.00432e-10 9.92566e-11 9.8445e-11 9.84995e-11 9.77934e-11 9.78435e-11 9.71196e-11 9.73343e-11 9.64695e-11 9.65132e-11 9.5684e-11 9.57574e-11
          9.4775e-11 9.47227e-11 9.47159e-11 9.43749e-11 9.19641e-11 9.33852e-11 9.39916e-11 9.33799e-11 9.35286e-11 9.34551e-11 9.35905e-11 9.3534e-11
          9.40305e-11 9.40518e-11 9.47899e-11 9.48131e-11 9.55754e-11 9.56121e-11 9.67854e-11 9.68383e-11 9.80369e-11 9.80152e-11 9.84578e-11 9.84946e-11
          1.00048e-10 9.99788e-11 1.01565e-10 1.0155e-10 1.02999e-10 1.03114e-10 1.05045e-10 1.05027e-10 1.07015e-10 1.06981e-10 1.09268e-10 1.09246e-10
          1.12107e-10 1.1204e-10 1.15194e-10 1.15228e-10 1.17907e-10 1.17934e-10 1.22593e-10 1.22576e-10 1.28597e-10 1.28587e-10 1.36708e-10 1.36706e-10
          1.48481e-10 1.48486e-10 1.65532e-10 1.65545e-10 1.82949e-10 1.82952e-10 2e-10 2e-10
        </DataArray>
        <DataArray type="Float32" Name="X_lBrine" NumberOfComponents="1" format="ascii">
          0.979384 0.979415 0.978476 0.978459 0.977498 0.977482 0.97648 0.97646 0.975455 0.975474 0.974409 0.974407
          0.973335 0.973335 0.972263 0.972265 0.971181 0.971185 0.970099 0.970099 0.969025 0.969023 0.967017 0.967016
          0.9651 0.965097 0.963282 0.963285 0.961612 0.96161 0.960063 0.960062 0.958384 0.958385 0.956948 0.956948
          0.955737 0.955737 0.954738 0.954738 0.953933 0.953932 0.953303 0.953301 0.952827 0.952827 0.952511 0.95251
          0.952301 0.952301 0.952203 0.952201 0.952219 0.952215 0.95234 0.952339 0.952584 0.952586 0.952971 0.952971
          0.953527 0.953527 0.954302 0.954302 0.955397 0.955397 0.95685 0.95685 0.958834 0.958833 0.961547 0.961546
          0.965298 0.965298 0.970579 0.970579 0.978215 0.978215 0.99029 0.99029
        </DataArray>
        <DataArray type="Float32" Name="X_lTotalC" NumberOfComponents="1" format="ascii">
          0.000158624 0.000159936 0.000160949 0.000161021 0.00016226 0.000162133 0.000162123 0.000163065 0.000164269 0.000164059 0.000164909 0.000164815
          0.000165061 0.000165515 0.00016617 0.000166078 0.00016652 0.000166437 0.000166835 0.000166773 0.000167297 0.00016725 0.000167343 0.000167312
          0.000167463 0.000167416 0.000167202 0.000167236 0.000167299 0.000166994 0.000166794 0.000166825 0.000165967 0.000166046 0.000165631 0.000165591
          0.000165113 0.000165109 0.000164614 0.000164614 0.000164124 0.000164097 0.000163703 0.000163599 0.000163132 0.000163154 0.00016384 0.000163806
          0.00016352 0.000163478 0.000162989 0.000162877 0.000162664 0.000162468 0.000161879 0.000161838 0.000161019 0.000161119 0.000159955 0.000159955
          0.000158342 0.000158367 0.000156186 0.000156175 0.000155224 0.000155207 0.000151646 0.000151611 0.000146825 0.000146809 0.000139625 0.000139609
          0.000128992 0.000128968 0.000113668 0.000113647 9.37204e-05 9.37078e-05 5.81077e-07 5.81077e-07
        </DataArray>
        <DataArray type="Float32" Name="X_lNa" NumberOfComponents="1" format="ascii">
          2.9873e-06 2.99065e-06 2.89647e-06 2.89472e-06 2.79804e-06 2.79663e-06 2.69761e-06 2.69403e-06 2.59259e-06 2.59482e-06 2.48783e-06 2.48779e-06
          2.38087e-06 2.38019e-06 2.27247e-06 2.27283e-06 2.16414e-06 2.16465e-06 2.05576e-06 2.05585e-06 1.94788e-06 1.94779e-06 1.74721e-06 1.74713e-06
          1.55528e-06 1.55505e-06 1.37367e-06 1.37391e-06 1.20613e-06 1.20647e-06 1.05171e-06 1.05149e-06 8.84483e-07 8.84467e-07 7.40873e-07 7.40916e-07
          6.19926e-07 6.19915e-07 5.20127e-07 5.2013e-07 4.39688e-07 4.39715e-07 3.76635e-07 3.76642e-07 3.29006e-07 3.2898e-07 2.95112e-07 2.95054e-07
          2.7339e-07 2.73392e-07 2.62903e-07 2.62906e-07 2.63175e-07 2.63162e-07 2.7432e-07 2.74335e-07 2.97313e-07 2.97317e-07 3.33974e-07 3.33948e-07
          3.87284e-07 3.8728e-07 4.61836e-07 4.61823e-07 5.64049e-07 5.6406e-07 7.03231e-07 7.03257e-07 8.93039e-07 8.93033e-07 1.15307e-06 1.15306e-06
          1.51263e-06 1.51264e-06 2.01658e-06 2.0166e-06 2.73065e-06 2.73066e-06 3.74885e-06 3.74885e-06
        </DataArray>
        <DataArray type="Float32" Name="X_lCl" NumberOfComponents="1" format="ascii">
          0.0116668 0.0116445 0.0122692 0.0122808 0.0129223 0.0129316 0.0135879 0.0136122 0.0142853 0.0142704 0.0149802 0.0149804
          0.0156894 0.0156941 0.0164088 0.0164063 0.0171273 0.0171239 0.0178461 0.0178455 0.0185618 0.0185624 0.0198927 0.0198932
          0.0211657 0.0211673 0.0223702 0.0223686 0.0234815 0.0234791 0.0245055 0.024507 0.0256143 0.0256145 0.0265668 0.0265665
          0.0273688 0.0273689 0.0280306 0.0280305 0.0285639 0.0285637 0.0289819 0.0289818 0.0292975 0.0292977 0.0295227 0.0295231
          0.0296666 0.0296665 0.0297357 0.0297356 0.0297334 0.0297334 0.0296587 0.0296586 0.0295052 0.0295052 0.0292607 0.0292609
          0.0289052 0.0289052 0.0284081 0.0284082 0.0277277 0.0277276 0.0268001 0.0267999 0.0255351 0.0255351 0.023802 0.023802
          0.0214056 0.0214055 0.0180475 0.0180473 0.0132943 0.0132942 0.00655617 0.00655617
        </DataArray>
        <DataArray type="Float32" Name="X_lCa" NumberOfComponents="1" format="ascii">
          0.000246839 0.000247584 0.00026258 0.000262795 0.000276147 0.000277738 0.000302654 0.000293406 0.000305114 0.000307145 0.000322887 0.00032392
          0.00034517 0.000340539 0.000356927 0.000357757 0.000375548 0.000376279 0.00039388 0.000394527 0.000410172 0.000410654 0.000447064 0.000447396
          0.000480258 0.000480735 0.000514507 0.000514056 0.000541304 0.000544691 0.000572558 0.000572122 0.000608081 0.000607245 0.000634305 0.000634711
          0.000658378 0.000658429 0.000678637 0.000678648 0.000695425 0.000695734 0.000708553 0.000709731 0.000720651 0.000720403 0.000715696 0.000716098
          0.00072061 0.000721066 0.000726104 0.000727396 0.000727496 0.000729774 0.000732494 0.000732956 0.000736409 0.000735273 0.000740428 0.000740408
          0.00074782 0.00074753 0.000757322 0.00075745 0.000748609 0.000748796 0.000761108 0.000761475 0.000776078 0.000776253 0.000799512 0.000799683
          0.000832062 0.000832331 0.000863516 0.000863759 0.000810984 0.000811111 0 0
        </DataArray>
        <DataArray type="Float32" Name="X_lUrea" NumberOfComponents="1" format="ascii">
          5.81329e-05 5.78784e-05 6.72222e-05 6.72265e-05 7.34533e-05 7.58565e-05 0.000101002 8.52594e-05 8.84446e-05 9.20888e-05 0.00010116 0.000102847
          0.000121093 0.000113376 0.0001236 0.000125029 0.000137547 0.000138832 0.000151099 0.000152174 0.000161426 0.000162208 0.000191721 0.000192256
          0.00021743 0.000218187 0.000246573 0.000245875 0.000265737 0.000271323 0.000294139 0.000293408 0.000327825 0.00032645 0.000349768 0.000350443
          0.000371589 0.00037167 0.000390299 0.000390317 0.00040621 0.000406718 0.000418701 0.000420626 0.000431801 0.000431391 0.000419089 0.000419737
          0.000424273 0.000425021 0.000432056 0.000434165 0.000434719 0.000438433 0.000444854 0.000445611 0.000454961 0.000453104 0.000467242 0.000467206
          0.000487492 0.000487018 0.000514375 0.000514581 0.000515562 0.000515868 0.00055712 0.000557728 0.000610539 0.000610827 0.000688929 0.000689209
          0.00079844 0.000798881 0.000931038 0.000931438 0.000969563 0.000969775 0 0
        </DataArray>
        <DataArray type="Float32" Name="X_lTotalNH" NumberOfComponents="1" format="ascii">
          0.0055171 0.00550677 0.00579489 0.00580035 0.00609809 0.00610111 0.00639522 0.00641548 0.00672979 0.00672075 0.007049 0.00704815
          0.00737088 0.00737743 0.00770732 0.00770537 0.00803692 0.00803459 0.0083669 0.00836602 0.00869721 0.00869703 0.00930522 0.00930518
          0.00988865 0.00988894 0.0104379 0.0104376 0.0109491 0.0109448 0.0114141 0.0114152 0.0119159 0.0119167 0.0123509 0.0123503
          0.0127153 0.0127153 0.0130156 0.0130155 0.0132571 0.0132567 0.0134464 0.0134453 0.0135873 0.0135876 0.0137003 0.0137001
          0.0137649 0.0137645 0.0137931 0.0137918 0.0137906 0.0137885 0.0137498 0.0137493 0.0136721 0.0136731 0.0135504 0.0135505
          0.0133721 0.0133723 0.0131235 0.0131235 0.0128034 0.0128031 0.0123443 0.0123439 0.0117202 0.0117201 0.0108622 0.010862
          0.00967508 0.00967479 0.00802332 0.00802301 0.00576921 0.00576904 0.00314947 0.00314947
        </DataArray>
        <DataArray type="Float32" Name="X_lO2" NumberOfComponents="1" format="ascii">
          -3.10431e-09 -2.49752e-09 -2.14855e-09 -4.01604e-09 -1.56307e-08 -1.49629e-08 -3.41457e-08 -1.63652e-08 -1.67497e-08 4.36179e-10 -1.17012e-08 3.54941e-10
          -1.48818e-08 -1.1925e-08 -1.6394e-08 -1.52383e-08 -1.60852e-08 -1.45752e-08 -1.56283e-08 -1.55179e-08 -1.26397e-12 -8.56378e-13 5.5753e-12 4.78952e-12
          -9.97903e-09 -1.00394e-11 -1.23052e-08 -1.31179e-08 -9.25449e-12 -1.35796e-08 3.23439e-12 4.71312e-12 3.26347e-12 2.95909e-12 -1.22712e-08 -1.18223e-08
          5.81244e-12 5.77158e-12 5.5167e-12 5.52257e-12 3.76371e-12 3.75626e-12 -8.52752e-09 3.2295e-13 -1.0983e-08 -1.09853e-08 2.29355e-12 2.78311e-12
          -7.93834e-09 1.2011e-12 -1.00068e-08 -9.47018e-09 -6.15589e-12 -6.15546e-12 1.56361e-14 1.59573e-14 1.45995e-14 1.36798e-14 1.31015e-14 1.30656e-14
          1.42525e-14 1.39948e-14 1.66262e-14 1.67448e-14 2.27877e-14 2.29735e-14 2.62207e-14 2.65662e-14 3.52873e-14 3.57113e-14 1.53553e-14 1.54744e-14
          5.47927e-13 5.5636e-13 1.27159e-13 1.28029e-13 9.79806e-12 9.91801e-12 0 0
        </DataArray>
        <DataArray type="Float32" Name="X_lSubstrate" NumberOfComponents="1" format="ascii">
          0.00296481 0.00296477 0.0029657 0.00296572 0.00296666 0.00296667 0.00296756 0.00296768 0.00296869 0.00296869 0.00296972 0.00296974
          0.00297072 0.00297076 0.00297178 0.00297178 0.00297281 0.00297281 0.00297383 0.00297382 0.00297487 0.00297487 0.00297667 0.00297667
          0.00297831 0.00297833 0.00297978 0.00297978 0.00298106 0.00298101 0.00298202 0.00298203 0.00298278 0.00298278 0.002983 0.002983
          0.00298265 0.00298265 0.00298154 0.00298154 0.00297957 0.00297957 0.00297652 0.00297653 0.00297213 0.00297213 0.00296614 0.00296613
          0.00295786 0.00295787 0.00294668 0.0029467 0.00293178 0.00293177 0.0029118 0.00291178 0.00288509 0.00288509 0.00284937 0.0028494
          0.00280156 0.00280157 0.00273734 0.00273735 0.0026511 0.00265109 0.00253456 0.00253454 0.00237621 0.00237621 0.00215947 0.00215948
          0.00185977 0.00185976 0.00143965 0.00143962 0.000844656 0.000844642 0 0
        </DataArray>
        <DataArray type="Float32" Name="X_lSuspended_Biomass" NumberOfComponents="1" format="ascii">
          4.44411e-07 4.43603e-07 4.47075e-07 4.47734e-07 4.55121e-07 4.52077e-07 4.40201e-07 4.56101e-07 4.66313e-07 4.60995e-07 4.64566e-07 4.62575e-07
          4.62444e-07 4.68457e-07 4.72638e-07 4.71331e-07 4.74754e-07 4.73376e-07 4.77113e-07 4.75992e-07 4.78681e-07 4.77637e-07 4.85763e-07 4.85063e-07
          4.91652e-07 4.90434e-07 4.96537e-07 4.96233e-07 4.66825e-07 4.82624e-07 5.0611e-07 5.05699e-07 5.34498e-07 5.36272e-07 5.16722e-07 5.15916e-07
          5.32186e-07 5.30837e-07 5.26716e-07 5.25455e-07 5.3098e-07 5.2982e-07 5.35382e-07 5.33237e-07 5.40315e-07 5.38669e-07 5.44306e-07 5.43744e-07
          5.4715e-07 5.45609e-07 5.48119e-07 5.41538e-07 5.48145e-07 5.47596e-07 5.46923e-07 5.46841e-07 5.42674e-07 5.44061e-07 5.28116e-07 5.38182e-07
          5.27228e-07 5.28759e-07 5.13499e-07 5.14835e-07 4.97497e-07 4.98431e-07 4.71017e-07 4.7179e-07 4.35291e-07 4.35908e-07 3.87e-07 3.87472e-07
          3.22661e-07 3.22976e-07 2.37931e-07 2.38111e-07 1.29819e-07 1.29892e-07 0 0
        </DataArray>
        <DataArray type="Float32" Name="X_lNH4" NumberOfComponents="1" format="ascii">
          0.00577205 0.00576058 0.00606521 0.00607096 0.0063857 0.00638895 0.00670038 0.00672142 0.00705371 0.00704423 0.00739144 0.00739058
          0.00773221 0.00773895 0.00808798 0.00808596 0.00843685 0.00843442 0.00878614 0.00878523 0.00913571 0.00913554 0.00977953 0.00977951
          0.0103973 0.0103976 0.0109791 0.0109787 0.0115204 0.011516 0.012013 0.0120141 0.0125448 0.0125456 0.0130056 0.0130051
          0.0133917 0.0133917 0.01371 0.01371 0.013966 0.0139656 0.0141667 0.0141655 0.0143162 0.0143165 0.0144355 0.0144353
          0.0145041 0.0145036 0.0145341 0.0145328 0.0145316 0.0145294 0.0144888 0.0144883 0.0144068 0.0144079 0.0142784 0.0142785
          0.0140902 0.0140905 0.013828 0.0138279 0.0134893 0.0134891 0.0130048 0.0130043 0.0123459 0.0123457 0.0114403 0.0114402
          0.0101878 0.0101875 0.00844514 0.00844482 0.0060666 0.00606642 0.00333307 0.00333307
        </DataArray>
        <DataArray type="Float32" Name="X_lHCO3" NumberOfComponents="1" format="ascii">
          0.000203237 0.000205061 0.000205808 0.000205894 0.000206931 0.000206759 0.000206165 0.00020736 0.000208329 0.000208073 0.000208557 0.000208435
          0.000208148 0.000208731 0.000208975 0.000208858 0.00020883 0.000208725 0.000208647 0.000208567 0.000208665 0.000208605 0.000207674 0.000207634
          0.000206852 0.000206791 0.000205619 0.000205662 0.000204934 0.000204545 0.000203563 0.000203601 0.000201735 0.000201836 0.000200662 0.00020061
          0.000199467 0.000199462 0.000198396 0.000198396 0.000197422 0.000197388 0.000196613 0.00019648 0.000195677 0.000195705 0.00019643 0.000196386
          0.000195921 0.000195867 0.000195187 0.000195044 0.000194759 0.00019451 0.000193791 0.000193738 0.000192773 0.000192901 0.000191549 0.000191549
          0.00018969 0.000189722 0.000187221 0.000187208 0.000186397 0.000186375 0.000182368 0.000182323 0.000176947 0.000176926 0.000168749 0.000168729
          0.000156526 0.000156495 0.000138819 0.000138792 0.000115902 0.000115885 3.37056e-07 3.37056e-07
        </DataArray>
        <DataArray type="Float32" Name="X_lCO3" NumberOfComponents="1" format="ascii">
          3.04585e-07 3.10346e-07 3.01805e-07 3.01841e-07 2.94242e-07 2.93932e-07 2.84875e-07 2.85743e-07 2.78671e-07 2.78652e-07 2.71213e-07 2.71091e-07
          2.6342e-07 2.63978e-07 2.57315e-07 2.57206e-07 2.50613e-07 2.50529e-07 2.44291e-07 2.44214e-07 2.38622e-07 2.38552e-07 2.27839e-07 2.27791e-07
          2.18666e-07 2.18584e-07 2.10275e-07 2.10325e-07 2.03567e-07 2.03187e-07 1.97131e-07 1.97151e-07 1.90171e-07 1.90276e-07 1.8506e-07 1.85005e-07
          1.80648e-07 1.80644e-07 1.77048e-07 1.77048e-07 1.74092e-07 1.74059e-07 1.71758e-07 1.71625e-07 1.69657e-07 1.69685e-07 1.69544e-07 1.695e-07
          1.6844e-07 1.68385e-07 1.67347e-07 1.67205e-07 1.66779e-07 1.66533e-07 1.65899e-07 1.65847e-07 1.65205e-07 1.65335e-07 1.64583e-07 1.64581e-07
          1.63649e-07 1.63681e-07 1.62497e-07 1.62482e-07 1.63694e-07 1.63671e-07 1.62264e-07 1.62214e-07 1.60411e-07 1.60387e-07 1.5697e-07 1.56946e-07
          1.51087e-07 1.51048e-07 1.41958e-07 1.41921e-07 1.31471e-07 1.31446e-07 2.55591e-11 2.55591e-11
        </DataArray>
        <DataArray type="Float32" Name="X_lCO2" NumberOfComponents="1" format="ascii">
          1.18474e-05 1.18398e-05 1.23199e-05 1.23295e-05 1.28262e-05 1.28242e-05 1.32494e-05 1.33283e-05 1.38396e-05 1.38143e-05 1.43205e-05 1.43141e-05
          1.47726e-05 1.48064e-05 1.52896e-05 1.52821e-05 1.57498e-05 1.57422e-05 1.62012e-05 1.61965e-05 1.66534e-05 1.66506e-05 1.74229e-05 1.74211e-05
          1.81421e-05 1.81399e-05 1.87768e-05 1.87786e-05 1.93723e-05 1.9348e-05 1.98603e-05 1.9864e-05 2.0357e-05 2.03628e-05 2.07984e-05 2.07953e-05
          2.11454e-05 2.11451e-05 2.14216e-05 2.14215e-05 2.16354e-05 2.16332e-05 2.17995e-05 2.17914e-05 2.19052e-05 2.1907e-05 2.20707e-05 2.20682e-05
          2.21188e-05 2.21156e-05 2.21173e-05 2.21084e-05 2.21006e-05 2.2085e-05 2.20155e-05 2.20123e-05 2.18902e-05 2.1898e-05 2.17088e-05 2.1709e-05
          2.14365e-05 2.14385e-05 2.10619e-05 2.10611e-05 2.06933e-05 2.0692e-05 2.0022e-05 2.00194e-05 1.9111e-05 1.91099e-05 1.78253e-05 1.78243e-05
          1.60106e-05 1.6009e-05 1.34621e-05 1.34608e-05 1.00474e-05 1.00467e-05 3.38012e-07 3.38012e-07
        </DataArray>
        <DataArray type="Float32" Name="X_lH" NumberOfComponents="1" format="ascii">
          4.20009e-11 4.16113e-11 4.33136e-11 4.33316e-11 4.50015e-11 4.50527e-11 4.69835e-11 4.68677e-11 4.85674e-11 4.85661e-11 5.04101e-11 5.0431e-11
          5.23749e-11 5.22848e-11 5.41187e-11 5.41341e-11 5.60082e-11 5.60194e-11 5.78817e-11 5.7896e-11 5.96814e-11 5.96953e-11 6.31882e-11 6.31985e-11
          6.64577e-11 6.64761e-11 6.96137e-11 6.95993e-11 7.23769e-11 7.24722e-11 7.50859e-11 7.50794e-11 7.81023e-11 7.80737e-11 8.05373e-11 8.05521e-11
          8.26653e-11 8.26669e-11 8.44442e-11 8.44442e-11 8.59136e-11 8.59243e-11 8.70819e-11 8.71255e-11 8.80759e-11 8.80667e-11 8.83103e-11 8.83256e-11
          8.87947e-11 8.88129e-11 8.91991e-11 8.92477e-11 8.93492e-11 8.94345e-11 8.9532e-11 8.95497e-11 8.95645e-11 8.95201e-11 8.94716e-11 8.94718e-11
          8.9355e-11 8.93441e-11 8.91333e-11 8.91385e-11 8.78975e-11 8.79049e-11 8.71824e-11 8.71979e-11 8.60798e-11 8.60874e-11 8.46472e-11 8.46547e-11
          8.25748e-11 8.25864e-11 7.89195e-11 7.89299e-11 7.03233e-11 7.03298e-11 6.32454e-10 6.32454e-10
        </DataArray>
        <DataArray type="Float32" Name="X_lOH" NumberOfComponents="1" format="ascii">
          3.96246e-06 3.99972e-06 3.8376e-06 3.83592e-06 3.68874e-06 3.68446e-06 3.52815e-06 3.53684e-06 3.40841e-06 3.40856e-06 3.27911e-06 3.27773e-06
          3.15142e-06 3.15688e-06 3.04543e-06 3.04457e-06 2.93831e-06 2.93774e-06 2.83898e-06 2.83828e-06 2.74931e-06 2.74867e-06 2.58955e-06 2.58912e-06
          2.45564e-06 2.45495e-06 2.33842e-06 2.33891e-06 2.24396e-06 2.24099e-06 2.15835e-06 2.15853e-06 2.07013e-06 2.07089e-06 2.00354e-06 2.00317e-06
          1.94867e-06 1.94863e-06 1.90496e-06 1.90496e-06 1.87027e-06 1.87004e-06 1.84356e-06 1.84263e-06 1.82153e-06 1.82172e-06 1.81594e-06 1.81562e-06
          1.80551e-06 1.80514e-06 1.79708e-06 1.79609e-06 1.7941e-06 1.79237e-06 1.79073e-06 1.79037e-06 1.79069e-06 1.79158e-06 1.7935e-06 1.7935e-06
          1.79721e-06 1.79743e-06 1.80359e-06 1.80349e-06 1.83178e-06 1.83162e-06 1.85049e-06 1.85016e-06 1.87931e-06 1.87914e-06 1.91823e-06 1.91806e-06
          1.97648e-06 1.9762e-06 2.08302e-06 2.08274e-06 2.36254e-06 2.36232e-06 2.67481e-07 2.67481e-07
        </DataArray>
        <DataArray type="Float32" Name="X_gBrine" NumberOfComponents="1" format="ascii">
          0.0112393 0.0112226 0.0112299 0.0112298 0.011237 0.011237 0.0112442 0.0112441 0.0112513 0.0112513 0.0112583 0.0112583
          0.0112654 0.0112654 0.0112724 0.0112724 0.0112794 0.0112794 0.0112865 0.0112865 0.0112936 0.0112935 0.0113081 0.0113081
          0.0113229 0.0113229 0.0113381 0.0113381 0.0113536 0.0113536 0.0113695 0.0113695 0.0113902 0.0113902 0.0114116 0.0114116
          0.0114336 0.0114336 0.0114563 0.0114563 0.0114795 0.0114795 0.0115034 0.0115034 0.0115277 0.0115277 0.0115526 0.0115526
          0.0115778 0.0115778 0.0116035 0.0116035 0.0116295 0.0116295 0.0116559 0.0116559 0.0116828 0.0116828 0.0117101 0.0117101
          0.0117379 0.0117379 0.0117664 0.0117664 0.0117958 0.0117958 0.0118262 0.0118262 0.011858 0.011858 0.0118916 0.0118916
          0.0119279 0.0119279 0.011968 0.011968 0.0120137 0.0120137 0.0120698 0.0120698
        </DataArray>
        <DataArray type="Float32" Name="X_gTotalC" NumberOfComponents="1" format="ascii">
          0.988761 0.988777 0.98877 0.98877 0.988763 0.988763 0.988756 0.988756 0.988749 0.988749 0.988742 0.988742
          0.988735 0.988735 0.988728 0.988728 0.988721 0.988721 0.988714 0.988714 0.988706 0.988706 0.988692 0.988692
          0.988677 0.988677 0.988662 0.988662 0.988646 0.988646 0.98863 0.98863 0.98861 0.98861 0.988588 0.988588
          0.988566 0.988566 0.988544 0.988544 0.98852 0.98852 0.988497 0.988497 0.988472 0.988472 0.988447 0.988447
          0.988422 0.988422 0.988397 0.988397 0.98837 0.988371 0.988344 0.988344 0.988317 0.988317 0.98829 0.98829
          0.988262 0.988262 0.988234 0.988234 0.988204 0.988204 0.988174 0.988174 0.988142 0.988142 0.988108 0.988108
          0.988072 0.988072 0.988032 0.988032 0.987986 0.987986 0.98793 0.98793
        </DataArray>
        <DataArray type="Float32" Name="X_gNa" NumberOfComponents="1" format="ascii">
          0 0 0 0 0 0 0 0 0 0 0 0
          0 0 0 0 0 0 0 0 0 0 0 0
          0 0 0 0 0 0 0 0 0 0 0 0
          0 0 0 0 0 0 0 0 0 0 0 0
          0 0 0 0 0 0 0 0 0 0 0 0
          0 0 0 0 0 0 0 0 0 0 0 0
          0 0 0 0 0 0 0 0
        </DataArray>
        <DataArray type="Float32" Name="X_gCl" NumberOfComponents="1" format="ascii">
          0 0 0 0 0 0 0 0 0 0 0 0
          0 0 0 0 0 0 0 0 0 0 0 0
          0 0 0 0 0 0 0 0 0 0 0 0
          0 0 0 0 0 0 0 0 0 0 0 0
          0 0 0 0 0 0 0 0 0 0 0 0
          0 0 0 0 0 0 0 0 0 0 0 0
          0 0 0 0 0 0 0 0
        </DataArray>
        <DataArray type="Float32" Name="X_gCa" NumberOfComponents="1" format="ascii">
          0 0 0 0 0 0 0 0 0 0 0 0
          0 0 0 0 0 0 0 0 0 0 0 0
          0 0 0 0 0 0 0 0 0 0 0 0
          0 0 0 0 0 0 0 0 0 0 0 0
          0 0 0 0 0 0 0 0 0 0 0 0
          0 0 0 0 0 0 0 0 0 0 0 0
          0 0 0 0 0 0 0 0
        </DataArray>
        <DataArray type="Float32" Name="X_gUrea" NumberOfComponents="1" format="ascii">
          0 0 0 0 0 0 0 0 0 0 0 0
          0 0 0 0 0 0 0 0 0 0 0 0
          0 0 0 0 0 0 0 0 0 0 0 0
          0 0 0 0 0 0 0 0 0 0 0 0
          0 0 0 0 0 0 0 0 0 0 0 0
          0 0 0 0 0 0 0 0 0 0 0 0
          0 0 0 0 0 0 0 0
        </DataArray>
        <DataArray type="Float32" Name="X_gTotalNH" NumberOfComponents="1" format="ascii">
          0 0 0 0 0 0 0 0 0 0 0 0
          0 0 0 0 0 0 0 0 0 0 0 0
          0 0 0 0 0 0 0 0 0 0 0 0
          0 0 0 0 0 0 0 0 0 0 0 0
          0 0 0 0 0 0 0 0 0 0 0 0
          0 0 0 0 0 0 0 0 0 0 0 0
          0 0 0 0 0 0 0 0
        </DataArray>
        <DataArray type="Float32" Name="X_gO2" NumberOfComponents="1" format="ascii">
          0 0 0 0 0 0 0 0 0 0 0 0
          0 0 0 0 0 0 0 0 0 0 0 0
          0 0 0 0 0 0 0 0 0 0 0 0
          0 0 0 0 0 0 0 0 0 0 0 0
          0 0 0 0 0 0 0 0 0 0 0 0
          0 0 0 0 0 0 0 0 0 0 0 0
          0 0 0 0 0 0 0 0
        </DataArray>
        <DataArray type="Float32" Name="X_gSubstrate" NumberOfComponents="1" format="ascii">
          0 0 0 0 0 0 0 0 0 0 0 0
          0 0 0 0 0 0 0 0 0 0 0 0
          0 0 0 0 0 0 0 0 0 0 0 0
          0 0 0 0 0 0 0 0 0 0 0 0
          0 0 0 0 0 0 0 0 0 0 0 0
          0 0 0 0 0 0 0 0 0 0 0 0
          0 0 0 0 0 0 0 0
        </DataArray>
        <DataArray type="Float32" Name="X_gSuspended_Biomass" NumberOfComponents="1" format="ascii">
          0 0 0 0 0 0 0 0 0 0 0 0
          0 0 0 0 0 0 0 0 0 0 0 0
          0 0 0 0 0 0 0 0 0 0 0 0
          0 0 0 0 0 0 0 0 0 0 0 0
          0 0 0 0 0 0 0 0 0 0 0 0
          0 0 0 0 0 0 0 0 0 0 0 0
          0 0 0 0 0 0 0 0
        </DataArray>
        <DataArray type="Float32" Name="X_gNH4" NumberOfComponents="1" format="ascii">
          0 0 0 0 0 0 0 0 0 0 0 0
          0 0 0 0 0 0 0 0 0 0 0 0
          0 0 0 0 0 0 0 0 0 0 0 0
          0 0 0 0 0 0 0 0 0 0 0 0
          0 0 0 0 0 0 0 0 0 0 0 0
          0 0 0 0 0 0 0 0 0 0 0 0
          0 0 0 0 0 0 0 0
        </DataArray>
        <DataArray type="Float32" Name="X_gHCO3" NumberOfComponents="1" format="ascii">
          0 0 0 0 0 0 0 0 0 0 0 0
          0 0 0 0 0 0 0 0 0 0 0 0
          0 0 0 0 0 0 0 0 0 0 0 0
          0 0 0 0 0 0 0 0 0 0 0 0
          0 0 0 0 0 0 0 0 0 0 0 0
          0 0 0 0 0 0 0 0 0 0 0 0
          0 0 0 0 0 0 0 0
        </DataArray>
        <DataArray type="Float32" Name="X_gCO3" NumberOfComponents="1" format="ascii">
          0 0 0 0 0 0 0 0 0 0 0 0
          0 0 0 0 0 0 0 0 0 0 0 0
          0 0 0 0 0 0 0 0 0 0 0 0
          0 0 0 0 0 0 0 0 0 0 0 0
          0 0 0 0 0 0 0 0 0 0 0 0
          0 0 0 0 0 0 0 0 0 0 0 0
          0 0 0 0 0 0 0 0
        </DataArray>
        <DataArray type="Float32" Name="X_gCO2" NumberOfComponents="1" format="ascii">
          0.988761 0.988777 0.98877 0.98877 0.988763 0.988763 0.988756 0.988756 0.988749 0.988749 0.988742 0.988742
          0.988735 0.988735 0.988728 0.988728 0.988721 0.988721 0.988714 0.988714 0.988706 0.988706 0.988692 0.988692
          0.988677 0.988677 0.988662 0.988662 0.988646 0.988646 0.98863 0.98863 0.98861 0.98861 0.988588 0.988588
          0.988566 0.988566 0.988544 0.988544 0.98852 0.98852 0.988497 0.988497 0.988472 0.988472 0.988447 0.988447
          0.988422 0.988422 0.988397 0.988397 0.98837 0.988371 0.988344 0.988344 0.988317 0.988317 0.98829 0.98829
          0.988262 0.988262 0.988234 0.988234 0.988204 0.988204 0.988174 0.988174 0.988142 0.988142 0.988108 0.988108
          0.988072 0.988072 0.988032 0.988032 0.987986 0.987986 0.98793 0.98793
        </DataArray>
        <DataArray type="Float32" Name="X_gH" NumberOfComponents="1" format="ascii">
          0 0 0 0 0 0 0 0 0 0 0 0
          0 0 0 0 0 0 0 0 0 0 0 0
          0 0 0 0 0 0 0 0 0 0 0 0
          0 0 0 0 0 0 0 0 0 0 0 0
          0 0 0 0 0 0 0 0 0 0 0 0
          0 0 0 0 0 0 0 0 0 0 0 0
          0 0 0 0 0 0 0 0
        </DataArray>
        <DataArray type="Float32" Name="X_gOH" NumberOfComponents="1" format="ascii">
          0 0 0 0 0 0 0 0 0 0 0 0
          0 0 0 0 0 0 0 0 0 0 0 0
          0 0 0 0 0 0 0 0 0 0 0 0
          0 0 0 0 0 0 0 0 0 0 0 0
          0 0 0 0 0 0 0 0 0 0 0 0
          0 0 0 0 0 0 0 0 0 0 0 0
          0 0 0 0 0 0 0 0
        </DataArray>
        <DataArray type="Float32" Name="Molarity_Brine" NumberOfComponents="1" format="ascii">
          54641.3 54642.3 54613.4 54612.9 54583.3 54582.8 54551.9 54551.3 54520.4 54520.9 54488.1 54488
          54454.9 54454.9 54421.7 54421.8 54388.2 54388.3 54354.6 54354.6 54321.3 54321.2 54258.8 54258.7
          54199 54198.9 54142.2 54142.3 54090 54089.9 54041.4 54041.3 53988.6 53988.6 53943.5 53943.5
          53905.3 53905.3 53873.8 53873.8 53848.4 53848.4 53828.6 53828.6 53813.6 53813.6 53803.9 53803.8
          53797.4 53797.4 53794.6 53794.5 53795.4 53795.3 53799.7 53799.7 53808.1 53808.1 53821.1 53821.1
          53839.8 53839.8 53865.7 53865.7 53902.4 53902.4 53950.8 53950.8 54016.9 54016.9 54107 54107
          54231.3 54231.3 54405.4 54405.4 54655.8 54655.8 55049.2 55049.2
        </DataArray>
        <DataArray type="Float32" Name="Molarity_TotalC" NumberOfComponents="1" format="ascii">
          3.62346 3.65338 3.67811 3.67977 3.70972 3.70685 3.70833 3.7299 3.75919 3.75435 3.77565 3.77349
          3.78098 3.79139 3.80827 3.80615 3.81819 3.81628 3.82731 3.82589 3.8398 3.83874 3.84441 3.84371
          3.85057 3.8495 3.84778 3.84855 3.85297 3.84595 3.84407 3.84479 3.82799 3.8298 3.82276 3.82184
          3.81294 3.81285 3.80318 3.80318 3.79326 3.79264 3.78463 3.78224 3.77227 3.77279 3.78922 3.78843
          3.7822 3.78123 3.77009 3.76751 3.76257 3.75806 3.74425 3.7433 3.72398 3.7263 3.69876 3.69877
          3.6606 3.66117 3.60956 3.60931 3.58565 3.58526 3.50083 3.50002 3.38667 3.38629 3.21686 3.2165
          2.96714 2.96658 2.60878 2.60829 2.14399 2.1437 0.0132254 0.0132254
        </DataArray>
        <DataArray type="Float32" Name="Molarity_Na" NumberOfComponents="1" format="ascii">
          0.130601 0.130746 0.126683 0.126607 0.122433 0.122372 0.118093 0.117938 0.11355 0.113646 0.109013 0.109012
          0.104378 0.104349 0.0996748 0.0996906 0.0949706 0.0949928 0.0902596 0.0902633 0.0855652 0.0855614 0.0768213 0.0768175
          0.0684427 0.0684325 0.0605012 0.0605116 0.0531632 0.0531781 0.0463898 0.0463801 0.0390438 0.0390431 0.0327261 0.0327279
          0.0273989 0.0273984 0.0229987 0.0229988 0.0194491 0.0194503 0.0166649 0.0166652 0.0145607 0.0145595 0.0130626 0.0130601
          0.0121023 0.0121024 0.0116387 0.0116388 0.0116507 0.0116502 0.0121435 0.0121442 0.01316 0.0131602 0.0147804 0.0147792
          0.0171356 0.0171354 0.0204275 0.0204269 0.0249368 0.0249373 0.0310707 0.0310719 0.0394236 0.0394233 0.0508437 0.0508435
          0.0665916 0.0665921 0.0885781 0.0885792 0.119555 0.119556 0.1633 0.1633
        </DataArray>
        <DataArray type="Float32" Name="Molarity_Cl" NumberOfComponents="1" format="ascii">
          330.755 330.118 347.978 348.31 366.664 366.931 385.732 386.425 405.719 405.293 425.66 425.666
          446.033 446.167 466.713 466.644 487.392 487.294 508.101 508.084 528.739 528.755 567.172 567.188
          604.002 604.046 638.907 638.861 671.163 671.095 700.932 700.975 733.215 733.219 760.983 760.974
          784.394 784.397 803.731 803.731 819.329 819.323 831.562 831.559 840.804 840.809 847.394 847.405
          851.608 851.607 853.635 853.633 853.571 853.571 851.385 851.382 846.892 846.892 839.737 839.742
          829.338 829.339 814.806 814.808 794.921 794.918 767.849 767.844 730.987 730.988 680.586 680.586
          611.084 611.081 514.06 514.055 377.446 377.443 185.193 185.193
        </DataArray>
        <DataArray type="Float32" Name="Molarity_Ca" NumberOfComponents="1" format="ascii">
          6.19034 6.20895 6.58785 6.5933 6.93133 6.97133 7.60021 7.36806 7.6656 7.71657 8.11602 8.14199
          8.6804 8.56395 8.9805 9.00137 9.45371 9.47211 9.92011 9.93641 10.3356 10.3477 11.2756 11.284
          12.1234 12.1355 12.9989 12.9875 13.6864 13.7721 14.487 14.476 15.3977 15.3765 16.0724 16.0827
          16.6917 16.693 17.2133 17.2136 17.6457 17.6535 17.984 18.0139 18.2952 18.2889 18.1721 18.1823
          18.2987 18.3103 18.4391 18.472 18.4745 18.5323 18.6005 18.6122 18.698 18.6691 18.797 18.7965
          18.9802 18.9728 19.215 19.2182 18.985 18.9898 19.29 19.2994 19.6528 19.6572 20.2228 20.2271
          21.0124 21.0192 21.7578 21.7639 20.3679 20.3711 0 0
        </DataArray>
        <DataArray type="Float32" Name="Molarity_Urea" NumberOfComponents="1" format="ascii">
          0.964175 0.959941 1.11539 1.11547 1.21933 1.25923 1.67741 1.41599 1.46956 1.5301 1.68165 1.7097
          2.014 1.88565 2.05672 2.08048 2.28993 2.31131 2.51679 2.5347 2.69014 2.70317 3.19795 3.20687
          3.62999 3.64262 4.11997 4.1083 4.4436 4.53701 4.92203 4.90982 5.48997 5.46694 5.86134 5.87264
          6.23048 6.23184 6.54723 6.54752 6.81667 6.82519 7.02832 7.06065 7.24983 7.24295 7.03746 7.04834
          7.12522 7.13778 7.2563 7.29173 7.30102 7.3634 7.47088 7.4836 7.63983 7.60864 7.84477 7.84418
          8.18283 8.17488 8.63122 8.63468 8.6471 8.65224 9.33833 9.34852 10.2251 10.2299 11.5246 11.5292
          13.3351 13.3425 15.5148 15.5214 16.1044 16.1079 0 0
        </DataArray>
        <DataArray type="Float32" Name="Molarity_TotalNH" NumberOfComponents="1" format="ascii">
          325.595 324.98 342.131 342.456 360.194 360.375 377.921 379.122 397.879 397.341 416.952 416.902
          436.206 436.594 456.342 456.226 476.094 475.955 495.888 495.836 515.719 515.709 552.282 552.28
          587.428 587.446 620.576 620.555 651.468 651.214 679.618 679.684 710.047 710.097 736.455 736.424
          758.608 758.607 776.882 776.881 791.595 791.572 803.134 803.067 811.729 811.748 818.599 818.588
          822.546 822.52 824.268 824.195 824.118 823.993 821.643 821.615 816.915 816.977 809.511 809.517
          798.67 798.686 783.566 783.562 764.093 764.08 736.242 736.216 698.426 698.417 646.545 646.537
          574.965 574.948 475.734 475.716 340.971 340.961 185.193 185.193
        </DataArray>
        <DataArray type="Float32" Name="Molarity_O2" NumberOfComponents="1" format="ascii">
          -9.75039e-05 -7.84441e-05 -6.75124e-05 -0.000126194 -0.000491374 -0.000470382 -0.00107392 -0.000514707 -0.000527045 1.37247e-05 -0.000368365 1.11739e-05
          -0.000468726 -0.000375597 -0.000516609 -0.00048019 -0.000507129 -0.000459524 -0.000492971 -0.000489487 -3.98898e-08 -2.70265e-08 1.76114e-07 1.51292e-07
          -0.000315498 -3.17405e-07 -0.000389369 -0.000415083 -2.93061e-07 -0.000430023 1.02496e-07 1.49356e-07 1.03498e-07 9.38446e-08 -0.000389427 -0.000375181
          1.84561e-07 1.83264e-07 1.75251e-07 1.75438e-07 1.19608e-07 1.19371e-07 -0.000271078 1.02661e-08 -0.000349213 -0.000349286 7.29357e-08 8.85038e-08
          -0.000252468 3.81991e-08 -0.000318267 -0.000301201 -1.95789e-07 -1.95776e-07 4.97286e-10 5.075e-10 4.6427e-10 4.35023e-10 4.16564e-10 4.15424e-10
          4.53053e-10 4.44862e-10 5.28333e-10 5.32102e-10 7.23792e-10 7.29693e-10 8.32313e-10 8.43282e-10 1.11916e-09 1.13261e-09 4.86441e-10 4.90216e-10
          1.733e-08 1.75968e-08 4.01279e-09 4.04025e-09 3.08199e-07 3.11972e-07 0 0
        </DataArray>
        <DataArray type="Float32" Name="Molarity_Substrate" NumberOfComponents="1" format="ascii">
          16.5404 16.5399 16.5522 16.5525 16.565 16.5652 16.5778 16.5786 16.5919 16.5918 16.6056 16.6058
          16.6194 16.6196 16.6336 16.6335 16.6476 16.6475 16.6616 16.6616 16.6757 16.6757 16.7012 16.7012
          16.7251 16.7253 16.7474 16.7473 16.7675 16.7672 16.7849 16.7849 16.8021 16.8021 16.8145 16.8145
          16.8219 16.8219 16.8234 16.8234 16.8186 16.8186 16.8062 16.8063 16.7852 16.7852 16.7539 16.7538
          16.7088 16.7088 16.6465 16.6466 16.5623 16.5622 16.4487 16.4485 16.2961 16.2961 16.0917 16.0919
          15.818 15.818 15.4503 15.4503 14.9565 14.9564 14.2902 14.29 13.386 13.386 12.151 12.151
          10.4479 10.4478 8.06952 8.06939 4.71913 4.71906 0 0
        </DataArray>
        <DataArray type="Float32" Name="Molarity_Suspended_Biomass" NumberOfComponents="1" format="ascii">
          0.000446675 0.000445857 0.000449539 0.000450206 0.000457836 0.000454777 0.000443033 0.00045904 0.000469535 0.000464176 0.000468 0.000465995
          0.000466093 0.000472153 0.000476602 0.000475283 0.000478974 0.000477583 0.000481593 0.000480462 0.000483415 0.000482361 0.00049102 0.000490312
          0.000497411 0.00049618 0.000502774 0.000502466 0.000473052 0.000489063 0.000513227 0.000512811 0.000542435 0.000544235 0.000524742 0.000523923
          0.000540748 0.000539377 0.000535438 0.000534155 0.000539973 0.000538793 0.000544608 0.000542427 0.000549748 0.000548073 0.000553891 0.000553321
          0.000556842 0.000555274 0.000557856 0.000551159 0.000557882 0.000557324 0.000556612 0.000556528 0.000552232 0.000553642 0.00053733 0.000547572
          0.000536299 0.000537857 0.000522162 0.00052352 0.000505653 0.000506602 0.000478443 0.000479228 0.000441778 0.000442404 0.000392314 0.000392791
          0.000326568 0.000326887 0.000240271 0.000240452 0.000130671 0.000130744 0 0
        </DataArray>
        <DataArray type="Float32" Name="Molarity_NH4" NumberOfComponents="1" format="ascii">
          321.606 320.962 338.082 338.405 356.106 356.289 373.828 375.006 393.727 393.194 412.777 412.729
          432.02 432.397 452.121 452.007 471.858 471.721 491.637 491.586 511.45 511.441 547.999 547.998
          583.131 583.15 616.276 616.254 647.156 646.91 675.31 675.376 705.752 705.8 732.161 732.131
          754.321 754.321 772.603 772.602 787.324 787.303 798.871 798.807 807.478 807.497 814.329 814.319
          818.283 818.258 820.017 819.948 819.875 819.755 817.42 817.393 812.714 812.774 805.338 805.344
          794.539 794.555 779.492 779.487 760.046 760.034 732.289 732.264 694.6 694.591 642.907 642.898
          571.602 571.585 472.764 472.746 338.512 338.502 185.037 185.037
        </DataArray>
        <DataArray type="Float32" Name="Molarity_HCO3" NumberOfComponents="1" format="ascii">
          3.34778 3.37778 3.39156 3.393 3.41159 3.40877 3.40054 3.42029 3.43785 3.4336 3.44327 3.44126
          3.43821 3.44785 3.45359 3.45164 3.45289 3.45117 3.45159 3.45027 3.4536 3.45261 3.44037 3.4397
          3.42978 3.42876 3.41218 3.4129 3.40343 3.39698 3.38308 3.38371 3.3553 3.35697 3.33966 3.3388
          3.32162 3.32154 3.30532 3.30531 3.29032 3.28975 3.27779 3.27558 3.26291 3.26338 3.27595 3.27523
          3.26779 3.26689 3.25571 3.25333 3.24858 3.24443 3.23227 3.2314 3.21496 3.21709 3.19403 3.19404
          3.1623 3.16282 3.1201 3.11987 3.10491 3.10455 3.03591 3.03516 2.94318 2.94283 2.80357 2.80323
          2.59634 2.59583 2.29745 2.297 1.91196 1.91169 0.00553194 0.00553194
        </DataArray>
        <DataArray type="Float32" Name="Molarity_CO3" NumberOfComponents="1" format="ascii">
          0.00510149 0.00519791 0.00505704 0.00505769 0.00493252 0.00492737 0.00477773 0.00479234 0.00467589 0.00467553 0.00455293 0.0045509
          0.00442429 0.00443367 0.0043239 0.00432205 0.00421336 0.00421193 0.00410912 0.00410782 0.00401575 0.00401457 0.00383782 0.00383701
          0.00368655 0.00368518 0.00354806 0.0035489 0.00343752 0.00343111 0.00333121 0.00333156 0.00321608 0.00321786 0.00313172 0.0031308
          0.00305878 0.0030587 0.0029992 0.0029992 0.00295023 0.00294966 0.00291153 0.00290927 0.00287654 0.00287701 0.00287505 0.00287431
          0.00285662 0.00285569 0.00283822 0.00283583 0.0028286 0.00282443 0.00281353 0.00281265 0.00280149 0.00280368 0.00279047 0.00279045
          0.00277399 0.00277452 0.00275355 0.0027533 0.00277253 0.00277214 0.00274661 0.00274577 0.00271295 0.00271253 0.00265168 0.00265127
          0.00254821 0.00254755 0.00238886 0.00238824 0.00220523 0.0022048 4.26535e-07 4.26535e-07
        </DataArray>
        <DataArray type="Float32" Name="Molarity_CO2" NumberOfComponents="1" format="ascii">
          0.270631 0.270454 0.281542 0.281764 0.293243 0.2932 0.303059 0.304867 0.31671 0.316128 0.327872 0.327725
          0.33839 0.339163 0.350405 0.350233 0.361131 0.360957 0.371666 0.371558 0.382229 0.382165 0.400261 0.40022
          0.417151 0.417101 0.432106 0.432147 0.446152 0.445593 0.457719 0.457804 0.469528 0.469662 0.480027 0.479957
          0.48831 0.488303 0.494916 0.494914 0.500043 0.499992 0.503982 0.503795 0.506537 0.506579 0.510441 0.510382
          0.511605 0.511531 0.511595 0.51139 0.511209 0.51085 0.509218 0.509143 0.506266 0.506446 0.50199 0.501995
          0.495576 0.495621 0.486754 0.486736 0.478013 0.477984 0.462218 0.462159 0.440814 0.440789 0.410682 0.410658
          0.368283 0.368246 0.308967 0.308935 0.229849 0.229833 0.00769319 0.00769319
        </DataArray>
        <DataArray type="Float32" Name="Molarity_H" NumberOfComponents="1" format="ascii">
          4.18823e-05 4.14932e-05 4.32093e-05 4.32276e-05 4.49133e-05 4.49647e-05 4.69133e-05 4.67982e-05 4.85177e-05 4.8516e-05 5.03827e-05 5.04037e-05
          5.23723e-05 5.22821e-05 5.41426e-05 5.4158e-05 5.60609e-05 5.6072e-05 5.7965e-05 5.79793e-05 5.97968e-05 5.98108e-05 6.33689e-05 6.33792e-05
          6.67065e-05 6.67251e-05 6.99329e-05 6.99183e-05 7.27646e-05 7.28605e-05 7.5542e-05 7.55355e-05 7.86377e-05 7.86088e-05 8.11431e-05 8.1158e-05
          8.33336e-05 8.33353e-05 8.51662e-05 8.51662e-05 8.66805e-05 8.66912e-05 8.78848e-05 8.79289e-05 8.89077e-05 8.88985e-05 8.91577e-05 8.91732e-05
          8.96557e-05 8.96741e-05 9.00685e-05 9.01177e-05 9.02201e-05 9.03063e-05 9.04003e-05 9.04182e-05 9.04239e-05 9.03791e-05 9.03154e-05 9.03157e-05
          9.01764e-05 9.01654e-05 8.9923e-05 8.99282e-05 8.86348e-05 8.86422e-05 8.78591e-05 8.78748e-05 8.66745e-05 8.66822e-05 8.51334e-05 8.5141e-05
          8.29163e-05 8.2928e-05 7.90678e-05 7.90782e-05 7.02272e-05 7.02337e-05 0.000628379 0.000628379
        </DataArray>
        <DataArray type="Float32" Name="Molarity_OH" NumberOfComponents="1" format="ascii">
          0.000234281 0.000236481 0.000226994 0.000226896 0.000218287 0.000218035 0.000208881 0.000209397 0.000201887 0.000201894 0.000194321 0.00019424
          0.000186847 0.000187171 0.000180652 0.0001806 0.000174384 0.00017435 0.000168573 0.000168531 0.000163329 0.000163291 0.00015398 0.000153955
          0.000146147 0.000146106 0.000139287 0.000139316 0.000133763 0.000133586 0.000128752 0.000128763 0.000123585 0.00012363 0.000119689 0.000119667
          0.000116476 0.000116474 0.000113916 0.000113916 0.000111883 0.000111869 0.000110317 0.000110262 0.000109024 0.000109035 0.000108705 0.000108686
          0.000108092 0.000108069 0.000107592 0.000107533 0.000107414 0.000107311 0.000107207 0.000107186 0.000107193 0.000107247 0.000107344 0.000107344
          0.000107541 0.000107554 0.000107887 0.000107881 0.000109522 0.000109513 0.000110572 0.000110552 0.000112199 0.000112189 0.00011439 0.00011438
          0.000117675 0.000117659 0.00012374 0.000123723 0.00013989 0.000139877 1.57575e-05 1.57575e-05
        </DataArray>
        <DataArray type="Float32" Name="Da_ureolysis" NumberOfComponents="1" format="ascii">
          0 0 0 0 0 0 0 0 0 0 0 0
          0 0 0 0 0 0 0 0 0 0 0 0
          0 0 0 0 0 0 0 0 0 0 0 0
          0 0 0 0 0 0 0 0 0 0 0 0
          0 0 0 0 0 0 0 0 0 0 0 0
          0 0 0 0 0 0 0 0 0 0 0 0
          0 0 0 0 0 0 0 0
        </DataArray>
        <DataArray type="Float32" Name="Da_precipitation" NumberOfComponents="1" format="ascii">
          1788.62 1944.42 44708.1 69376.4 48997 218715 86407.9 57846.2 76270.6 86992.6 737009 599741
          209042 379006 242961 777369 174322 334154 133440 153679 2460.98 2471.54 37912.5 35707.7
          33440.6 32358.9 25693.2 25655.9 28216.3 28308.7 11068.5 11105.8 15379.8 15350.4 15928.7 15956.5
          16230.3 16214.4 16716.4 16686.6 17266.7 17161.7 17830.3 17664.6 16881 16720.2 19192.3 18975.1
          18104.7 17803.5 17168.7 16735.4 16785.6 16345.8 15149.6 15013.1 13748.5 13810.1 12171.2 12221.9
          10455.5 10459.1 8256.01 8250.95 7417.74 7407.79 5540.76 5533.71 4214.08 4208.87 2989.23 2986.41
          1916.95 1915.78 1030.47 1030.09 331.049 330.94 0 0
        </DataArray>
        <DataArray type="Float32" Name="Vx" NumberOfComponents="1" format="ascii">
          -1.54485e-09 -1.54384e-09 -2.05818e-09 -2.05885e-09 -3.75915e-10 -3.83696e-10 1.93972e-09 1.92038e-09 1.58308e-09 1.57137e-09 7.76949e-11 7.91526e-11
          3.10726e-12 3.13268e-12 1.29064e-10 1.28659e-10 -1.75947e-10 -1.76115e-10 -3.65934e-10 -3.6627e-10 -2.38289e-10 -2.38463e-10 -4.171e-11 -4.17334e-11
          1.66645e-10 1.66542e-10 5.93378e-11 5.90932e-11 -1.15589e-10 -1.15813e-10 4.40518e-11 4.38745e-11 5.89744e-11 5.88809e-11 -2.48801e-11 -2.48797e-11
          -7.39888e-12 -7.39725e-12 -1.47902e-11 -1.47935e-11 -5.29432e-11 -5.29511e-11 -3.71037e-12 -3.714e-12 9.91869e-12 9.91932e-12 -2.83625e-11 -2.83611e-11
          -6.30472e-11 -6.30348e-11 -9.62531e-11 -9.62478e-11 7.16482e-11 7.16653e-11 2.06756e-10 2.06769e-10 5.41231e-11 5.41152e-11 -4.69673e-11 -4.69611e-11
          -2.53311e-11 -2.5326e-11 -2.3054e-11 -2.30543e-11 -6.65801e-12 -6.65915e-12 -7.71576e-12 -7.71557e-12 -5.40991e-12 -5.40964e-12 2.07629e-12 2.07633e-12
          1.21371e-11 1.21374e-11 1.67442e-11 1.67446e-11 9.59059e-12 9.59078e-12 3.61053e-12 3.61055e-12
        </DataArray>
        <DataArray type="Float32" Name="Vy" NumberOfComponents="1" format="ascii">
          7.35821e-08 7.30426e-08 2.59086e-09 5.79488e-10 3.11609e-09 -5.99535e-10 5.90661e-10 -2.05023e-09 1.46726e-09 1.11507e-09 -2.22228e-10 2.80362e-10
          -8.92908e-10 -4.78311e-10 -7.59933e-10 -2.04947e-10 -1.10353e-09 -5.58047e-10 -1.46538e-09 -1.26405e-09 8.3827e-08 8.36362e-08 -5.78729e-09 -6.15261e-09
          -6.84266e-09 -7.07896e-09 -9.30381e-09 -9.29717e-09 -8.59498e-09 -8.67328e-09 2.27926e-08 2.26488e-08 -1.69122e-08 -1.69168e-08 -1.65994e-08 -1.65774e-08
          -1.65313e-08 -1.655e-08 -1.6229e-08 -1.62597e-08 -1.58238e-08 -1.59287e-08 -1.53954e-08 -1.55634e-08 -1.63213e-08 -1.6473e-08 -1.41121e-08 -1.42817e-08
          -1.4935e-08 -1.51919e-08 -1.57412e-08 -1.61715e-08 -1.60294e-08 -1.65073e-08 -1.7792e-08 -1.79615e-08 -1.96282e-08 -1.95181e-08 -2.22302e-08 -2.21349e-08
          -2.60672e-08 -2.60474e-08 -3.32897e-08 -3.33157e-08 -3.6922e-08 -3.69784e-08 -4.99986e-08 -5.00671e-08 -6.63079e-08 -6.63909e-08 -9.32781e-08 -9.33648e-08
          -1.40472e-07 -1.40545e-07 -2.29974e-07 -2.30017e-07 -4.59398e-07 -4.59415e-07 2.72899e-06 2.72899e-06
        </DataArray>
      </PointData>
      <CellData Scalars="process rank">
        <DataArray type="Float32" Name="process rank" NumberOfComponents="1" format="ascii">
          0 0 0 0 0 0 0 0 0 0 0 0
          0 0 0 0 0 0 0 0 0 0 0 0
          0 0 0 0 0 0 0 0 0 0 0 0
          0 0 0
        </DataArray>
      </CellData>
      <Points>
        <DataArray type="Float32" Name="Coordinates" NumberOfComponents="3" format="ascii">
          0 0 0 0.0254 0 0 0 0.01 0 0.0254 0.01 0
          0 0.02 0 0.0254 0.02 0 0 0.03 0 0.0254 0.03 0
          0 0.04 0 0.0254 0.04 0 0 0.05 0 0.0254 0.05 0
          0 0.06 0 0.0254 0.06 0 0 0.07 0 0.0254 0.07 0
          0 0.08 0 0.0254 0.08 0 0 0.09 0 0.0254 0.09 0
          0 0.1 0 0.0254 0.1 0 0 0.12 0 0.0254 0.12 0
          0 0.14 0 0.0254 0.14 0 0 0.16 0 0.0254 0.16 0
          0 0.18 0 0.0254 0.18 0 0 0.2 0 0.0254 0.2 0
          0 0.225 0 0.0254 0.225 0 0 0.25 0 0.0254 0.25 0
          0 0.275 0 0.0254 0.275 0 0 0.3 0 0.0254 0.3 0
          0 0.325 0 0.0254 0.325 0 0 0.35 0 0.0254 0.35 0
          0 0.375 0 0.0254 0.375 0 0 0.4 0 0.0254 0.4 0
          0 0.425 0 0.0254 0.425 0 0 0.45 0 0.0254 0.45 0
          0 0.475 0 0.0254 0.475 0 0 0.5 0 0.0254 0.5 0
          0 0.525 0 0.0254 0.525 0 0 0.55 0 0.0254 0.55 0
          0 0.575 0 0.0254 0.575 0 0 0.6 0 0.0254 0.6 0
          0 0.625 0 0.0254 0.625 0 0 0.65 0 0.0254 0.65 0
          0 0.675 0 0.0254 0.675 0 0 0.7 0 0.0254 0.7 0
          0 0.725 0 0.0254 0.725 0 0 0.75 0 0.0254 0.75 0
          0 0.775 0 0.0254 0.775 0 0 0.8 0 0.0254 0.8 0
        </DataArray>
      </Points>
      <Cells>
        <DataArray type="Int32" Name="connectivity" NumberOfComponents="1" format="ascii">
          0 1 3 2 2 3 5 4 4 5 7 6
          6 7 9 8 8 9 11 10 10 11 13 12
          12 13 15 14 14 15 17 16 16 17 19 18
          18 19 21 20 20 21 23 22 22 23 25 24
          24 25 27 26 26 27 29 28 28 29 31 30
          30 31 33 32 32 33 35 34 34 35 37 36
          36 37 39 38 38 39 41 40 40 41 43 42
          42 43 45 44 44 45 47 46 46 47 49 48
          48 49 51 50 50 51 53 52 52 53 55 54
          54 55 57 56 56 57 59 58 58 59 61 60
          60 61 63 62 62 63 65 64 64 65 67 66
          66 67 69 68 68 69 71 70 70 71 73 72
          72 73 75 74 74 75 77 76 76 77 79 78
        </DataArray>
        <DataArray type="Int32" Name="offsets" NumberOfComponents="1" format="ascii">
          4 8 12 16 20 24 28 32 36 40 44 48
          52 56 60 64 68 72 76 80 84 88 92 96
          100 104 108 112 116 120 124 128 132 136 140 144
          148 152 156
        </DataArray>
        <DataArray type="UInt8" Name="types" NumberOfComponents="1" format="ascii">
          9 9 9 9 9 9 9 9 9 9 9 9
          9 9 9 9 9 9 9 9 9 9 9 9
          9 9 9 9 9 9 9 9 9 9 9 9
          9 9 9
        </DataArray>
      </Cells>
    </Piece>
  </UnstructuredGrid>
</VTKFile>
