<?xml version="1.0"?>
<VTKFile type="UnstructuredGrid" version="0.1" byte_order="LittleEndian">
  <UnstructuredGrid>
    <Piece NumberOfCells="39" NumberOfPoints="80">
      <PointData Scalars="Sg">
        <DataArray type="Float32" Name="Sg" NumberOfComponents="1" format="ascii">
          0 0 0 0 0 0 0 0 0 0 0 0
          0 0 0 0 0 0 0 0 0 0 0 0
          0 0 0 0 0 0 0 0 0 0 0 0
          0 0 0 0 0 0 0 0 0 0 0 0
          0 0 0 0 0 0 0 0 0 0 0 0
          0 0 0 0 0 0 0 0 0 0 0 0
          0 0 0 0 0 0 0 0
        </DataArray>
        <DataArray type="Float32" Name="Sl" NumberOfComponents="1" format="ascii">
          1 1 1 1 1 1 1 1 1 1 1 1
          1 1 1 1 1 1 1 1 1 1 1 1
          1 1 1 1 1 1 1 1 1 1 1 1
          1 1 1 1 1 1 1 1 1 1 1 1
          1 1 1 1 1 1 1 1 1 1 1 1
          1 1 1 1 1 1 1 1 1 1 1 1
          1 1 1 1 1 1 1 1
        </DataArray>
        <DataArray type="Float32" Name="pg" NumberOfComponents="1" format="ascii">
          117674 117674 117575 117575 117476 117476 117377 117377 117278 117278 117179 117179
          117079 117079 116980 116980 116880 116880 116781 116781 116681 116681 116482 116482
          116282 116282 116082 116082 115882 115882 115681 115681 115430 115430 115179 115179
          114928 114928 114677 114677 114426 114426 114174 114174 113923 113923 113671 113671
          113420 113420 113168 113168 112917 112917 112666 112666 112414 112414 112163 112163
          111912 111912 111661 111661 111410 111410 111159 111159 110909 110909 110659 110659
          110410 110410 110161 110161 109913 109913 109667 109667
        </DataArray>
        <DataArray type="Float32" Name="pl" NumberOfComponents="1" format="ascii">
          108007 108007 107908 107908 107809 107809 107710 107710 107611 107611 107512 107512
          107413 107413 107313 107313 107214 107214 107114 107114 107015 107015 106815 106815
          106615 106615 106415 106415 106215 106215 106014 106014 105764 105764 105513 105513
          105261 105261 105010 105010 104759 104759 104507 104507 104256 104256 104005 104005
          103753 103753 103502 103502 103250 103250 102999 102999 102748 102748 102496 102496
          102245 102245 101994 101994 101743 101743 101493 101493 101242 101242 100992 100992
          100743 100743 100494 100494 100246 100246 100000 100000
        </DataArray>
        <DataArray type="Float32" Name="pc" NumberOfComponents="1" format="ascii">
          9666.67 9666.67 9666.67 9666.67 9666.67 9666.67 9666.67 9666.67 9666.67 9666.67 9666.67 9666.67
          9666.67 9666.67 9666.67 9666.67 9666.67 9666.67 9666.67 9666.67 9666.67 9666.67 9666.67 9666.67
          9666.67 9666.67 9666.67 9666.67 9666.67 9666.67 9666.67 9666.67 9666.67 9666.67 9666.67 9666.67
          9666.67 9666.67 9666.67 9666.67 9666.67 9666.67 9666.67 9666.67 9666.67 9666.67 9666.67 9666.67
          9666.67 9666.67 9666.67 9666.67 9666.67 9666.67 9666.67 9666.67 9666.67 9666.67 9666.67 9666.67
          9666.67 9666.67 9666.67 9666.67 9666.67 9666.67 9666.67 9666.67 9666.67 9666.67 9666.67 9666.67
          9666.67 9666.67 9666.67 9666.67 9666.67 9666.67 9666.67 9666.67
        </DataArray>
        <DataArray type="Float32" Name="rhoL" NumberOfComponents="1" format="ascii">
          1007.31 1007.38 1007.99 1007.98 1008.87 1008.88 1009.76 1009.76 1010.68 1010.69 1011.61 1011.61
          1012.52 1012.53 1013.46 1013.47 1014.38 1014.38 1015.26 1015.26 1016.14 1016.14 1017.68 1017.68
          1019.06 1019.06 1020.27 1020.27 1021.33 1021.33 1022.23 1022.23 1023.13 1023.13 1023.83 1023.83
          1024.35 1024.35 1024.74 1024.74 1025 1025 1025.18 1025.18 1025.26 1025.26 1025.29 1025.29
          1025.25 1025.25 1025.16 1025.16 1025.02 1025.02 1024.82 1024.82 1024.56 1024.56 1024.22 1024.22
          1023.79 1023.79 1023.23 1023.23 1022.49 1022.49 1021.52 1021.52 1020.2 1020.2 1018.43 1018.43
          1015.97 1015.97 1012.6 1012.6 1007.91 1007.91 1001.45 1001.45
        </DataArray>
        <DataArray type="Float32" Name="rhoG" NumberOfComponents="1" format="ascii">
          2.06996 2.07004 2.06826 2.06826 2.06648 2.06648 2.0647 2.0647 2.06292 2.06292 2.06114 2.06114
          2.05936 2.05936 2.05757 2.05757 2.05578 2.05578 2.05399 2.05399 2.0522 2.0522 2.04861 2.04861
          2.04502 2.04502 2.04141 2.04141 2.0378 2.0378 2.03418 2.03418 2.02965 2.02965 2.02512 2.02512
          2.02058 2.02058 2.01603 2.01603 2.01148 2.01148 2.00693 2.00693 2.00238 2.00238 1.99782 1.99782
          1.99327 1.99327 1.98871 1.98871 1.98415 1.98415 1.9796 1.9796 1.97504 1.97504 1.97048 1.97048
          1.96593 1.96593 1.96137 1.96137 1.95682 1.95682 1.95226 1.95226 1.9477 1.9477 1.94315 1.94315
          1.93859 1.93859 1.93403 1.93403 1.92947 1.92947 1.9249 1.9249
        </DataArray>
        <DataArray type="Float32" Name="mobL" NumberOfComponents="1" format="ascii">
          1073.17 1072.88 1070.19 1070.23 1066.42 1066.36 1062.7 1062.68 1058.97 1058.92 1055.35 1055.32
          1051.84 1051.81 1048.37 1048.34 1045.06 1045.04 1041.95 1041.93 1038.89 1038.89 1033.75 1033.75
          1029.29 1029.29 1025.47 1025.47 1022.22 1022.22 1019.5 1019.5 1016.86 1016.86 1014.83 1014.83
          1013.32 1013.32 1012.22 1012.22 1011.46 1011.46 1010.98 1010.97 1010.72 1010.72 1010.66 1010.66
          1010.77 1010.77 1011.02 1011.02 1011.43 1011.43 1011.99 1011.99 1012.73 1012.73 1013.69 1013.69
          1014.93 1014.93 1016.57 1016.57 1018.72 1018.72 1021.65 1021.65 1025.67 1025.67 1031.29 1031.29
          1039.46 1039.47 1051.53 1051.53 1070.5 1070.5 1103.12 1103.12
        </DataArray>
        <DataArray type="Float32" Name="mobG" NumberOfComponents="1" format="ascii">
          0 0 0 0 0 0 0 0 0 0 0 0
          0 0 0 0 0 0 0 0 0 0 0 0
          0 0 0 0 0 0 0 0 0 0 0 0
          0 0 0 0 0 0 0 0 0 0 0 0
          0 0 0 0 0 0 0 0 0 0 0 0
          0 0 0 0 0 0 0 0 0 0 0 0
          0 0 0 0 0 0 0 0
        </DataArray>
        <DataArray type="Float32" Name="porosity" NumberOfComponents="1" format="ascii">
          0.4 0.4 0.4 0.4 0.4 0.4 0.4 0.4 0.4 0.4 0.4 0.4
          0.4 0.4 0.4 0.4 0.4 0.4 0.4 0.4 0.4 0.4 0.4 0.4
          0.4 0.4 0.4 0.4 0.4 0.4 0.4 0.4 0.4 0.4 0.4 0.4
          0.4 0.4 0.4 0.4 0.4 0.4 0.4 0.4 0.4 0.4 0.4 0.4
          0.4 0.4 0.4 0.4 0.4 0.4 0.4 0.4 0.4 0.4 0.4 0.4
          0.4 0.4 0.4 0.4 0.4 0.4 0.4 0.4 0.4 0.4 0.4 0.4
          0.4 0.4 0.4 0.4 0.4 0.4 0.4 0.4
        </DataArray>
        <DataArray type="Float32" Name="temperature" NumberOfComponents="1" format="ascii">
          298.15 298.15 298.15 298.15 298.15 298.15 298.15 298.15 298.15 298.15 298.15 298.15
          298.15 298.15 298.15 298.15 298.15 298.15 298.15 298.15 298.15 298.15 298.15 298.15
          298.15 298.15 298.15 298.15 298.15 298.15 298.15 298.15 298.15 298.15 298.15 298.15
          298.15 298.15 298.15 298.15 298.15 298.15 298.15 298.15 298.15 298.15 298.15 298.15
          298.15 298.15 298.15 298.15 298.15 298.15 298.15 298.15 298.15 298.15 298.15 298.15
          298.15 298.15 298.15 298.15 298.15 298.15 298.15 298.15 298.15 298.15 298.15 298.15
          298.15 298.15 298.15 298.15 298.15 298.15 298.15 298.15
        </DataArray>
        <DataArray type="Float32" Name="phase presence" NumberOfComponents="1" format="ascii">
          1 1 1 1 1 1 1 1 1 1 1 1
          1 1 1 1 1 1 1 1 1 1 1 1
          1 1 1 1 1 1 1 1 1 1 1 1
          1 1 1 1 1 1 1 1 1 1 1 1
          1 1 1 1 1 1 1 1 1 1 1 1
          1 1 1 1 1 1 1 1 1 1 1 1
          1 1 1 1 1 1 1 1
        </DataArray>
        <DataArray type="Float32" Name="potential" NumberOfComponents="1" format="ascii">
          0.0102832 0.0102301 0.00974324 0.00975139 0.00905106 0.00904008 0.0083576 0.0083533 0.00765024 0.00764171 0.00695502 0.00694856
          0.00627243 0.00626574 0.00558736 0.00558141 0.00492873 0.00492445 0.00430396 0.00430041 0.00368591 0.0036859 0.00264036 0.00263974
          0.00172922 0.00172872 0.00095364 0.000953571 0.000297841 0.00029779 -0.000240594 -0.000240725 -0.000753428 -0.000753392 -0.00113633 -0.00113637
          -0.00141163 -0.00141163 -0.00160398 -0.00160404 -0.00173036 -0.0017302 -0.00180767 -0.00180784 -0.00184568 -0.00184564 -0.00185431 -0.00185431
          -0.00184031 -0.00184033 -0.00180823 -0.00180821 -0.00176152 -0.00176148 -0.00170139 -0.00170143 -0.00162897 -0.00162894 -0.00154334 -0.00154335
          -0.00144373 -0.0014437 -0.0013278 -0.00132782 -0.00119452 -0.00119453 -0.00104002 -0.00104003 -0.000864478 -0.000864475 -0.000669886 -0.000669922
          -0.000459916 -0.000459876 -0.000253548 -0.000253562 -8.02058e-05 -8.02012e-05 0 0
        </DataArray>
        <DataArray type="Float32" Name="boxVolume" NumberOfComponents="1" format="ascii">
          6.35e-05 6.35e-05 0.000127 0.000127 0.000127 0.000127 0.000127 0.000127 0.000127 0.000127 0.000127 0.000127
          0.000127 0.000127 0.000127 0.000127 0.000127 0.000127 0.000127 0.000127 0.0001905 0.0001905 0.000254 0.000254
          0.000254 0.000254 0.000254 0.000254 0.000254 0.000254 0.00028575 0.00028575 0.0003175 0.0003175 0.0003175 0.0003175
          0.0003175 0.0003175 0.0003175 0.0003175 0.0003175 0.0003175 0.0003175 0.0003175 0.0003175 0.0003175 0.0003175 0.0003175
          0.0003175 0.0003175 0.0003175 0.0003175 0.0003175 0.0003175 0.0003175 0.0003175 0.0003175 0.0003175 0.0003175 0.0003175
          0.0003175 0.0003175 0.0003175 0.0003175 0.0003175 0.0003175 0.0003175 0.0003175 0.0003175 0.0003175 0.0003175 0.0003175
          0.0003175 0.0003175 0.0003175 0.0003175 0.0003175 0.0003175 0.00015875 0.00015875
        </DataArray>
        <DataArray type="Float32" Name="pH" NumberOfComponents="1" format="ascii">
          6.11662 6.11552 6.1052 6.10538 6.08958 6.08932 6.07272 6.07261 6.05411 6.05387 6.03424 6.03405
          6.01299 6.01277 5.98967 5.98946 5.96507 5.9649 5.93942 5.93927 5.91146 5.91146 5.85683 5.85679
          5.79933 5.79929 5.74032 5.74031 5.68041 5.6804 5.62178 5.62177 5.55491 5.55491 5.49519 5.49518
          5.44505 5.44505 5.4051 5.40509 5.37578 5.37582 5.35608 5.35604 5.34557 5.34558 5.34307 5.34307
          5.34741 5.3474 5.35799 5.358 5.37422 5.37423 5.39612 5.3961 5.42362 5.42364 5.45738 5.45737
          5.49786 5.49787 5.54609 5.54608 5.60245 5.60245 5.66816 5.66815 5.7428 5.7428 5.82554 5.82552
          5.91594 5.91596 6.01007 6.01006 6.10562 6.10563 6.19963 6.19963
        </DataArray>
        <DataArray type="Float32" Name="Omega" NumberOfComponents="1" format="ascii">
          0.026248 0.0266007 0.0298126 0.0297585 0.0343212 0.0343919 0.0386666 0.0386928 0.0428081 0.0428558 0.0464756 0.0465074
          0.049572 0.0495995 0.0520589 0.0520774 0.0537522 0.0537607 0.0546287 0.0546315 0.0547077 0.0547078 0.0528291 0.0528272
          0.0489026 0.0488998 0.043766 0.0437655 0.0381372 0.0381367 0.032698 0.0326966 0.0269313 0.0269318 0.0223423 0.0223419
          0.0189431 0.0189431 0.0165322 0.0165315 0.0149257 0.0149278 0.0139206 0.0139185 0.013408 0.0134086 0.0132911 0.0132911
          0.0134983 0.013498 0.0140161 0.0140164 0.0148432 0.0148439 0.0160234 0.0160226 0.0176137 0.0176143 0.0197336 0.0197334
          0.0225251 0.0225261 0.0262039 0.0262032 0.0309573 0.0309571 0.0369614 0.0369611 0.0439616 0.0439617 0.050824 0.050823
          0.0546713 0.0546715 0.0498183 0.0498193 0.0295386 0.0295375 0 0
        </DataArray>
        <DataArray type="Float32" Name="rurea" NumberOfComponents="1" format="ascii">
          0 0 0 0 0 0 0 0 0 0 0 0
          0 0 0 0 0 0 0 0 0 0 0 0
          0 0 0 0 0 0 0 0 0 0 0 0
          0 0 0 0 0 0 0 0 0 0 0 0
          0 0 0 0 0 0 0 0 0 0 0 0
          0 0 0 0 0 0 0 0 0 0 0 0
          0 0 0 0 0 0 0 0
        </DataArray>
        <DataArray type="Float32" Name="Volume_Fraction_Biofilm" NumberOfComponents="1" format="ascii">
          1.35283e-10 1.35283e-10 1.35047e-10 1.35065e-10 1.34862e-10 1.34868e-10 1.34678e-10 1.3468e-10 1.34456e-10 1.34454e-10 1.34193e-10 1.3419e-10
          1.33946e-10 1.33942e-10 1.3368e-10 1.33676e-10 1.33396e-10 1.3339e-10 1.3307e-10 1.33064e-10 1.32758e-10 1.32753e-10 1.31967e-10 1.31959e-10
          1.31078e-10 1.31071e-10 1.29973e-10 1.29965e-10 1.28685e-10 1.28676e-10 1.27361e-10 1.27352e-10 1.25445e-10 1.25436e-10 1.23428e-10 1.23418e-10
          1.21238e-10 1.21228e-10 1.18916e-10 1.18906e-10 1.16515e-10 1.16505e-10 1.13933e-10 1.13924e-10 1.1137e-10 1.11361e-10 1.19212e-10 1.19202e-10
          1.16971e-10 1.16964e-10 1.14962e-10 1.14955e-10 1.12652e-10 1.12645e-10 1.10265e-10 1.10258e-10 1.07778e-10 1.07771e-10 1.04828e-10 1.04821e-10
          1.00406e-10 1.00399e-10 9.56257e-11 9.56195e-11 9.98429e-11 9.9837e-11 9.40747e-11 9.40682e-11 8.69887e-11 8.69828e-11 7.73417e-11 7.7337e-11
          6.49224e-11 6.49183e-11 4.8722e-11 4.87201e-11 2.69928e-11 2.69917e-11 0 0
        </DataArray>
        <DataArray type="Float32" Name="Volume_Fraction_Calcite" NumberOfComponents="1" format="ascii">
          0 0 0 0 0 0 0 0 0 0 0 0
          0 0 0 0 0 0 0 0 0 0 0 0
          0 0 0 0 0 0 0 0 0 0 0 0
          0 0 0 0 0 0 0 0 0 0 0 0
          0 0 0 0 0 0 0 0 0 0 0 0
          0 0 0 0 0 0 0 0 0 0 0 0
          0 0 0 0 0 0 0 0
        </DataArray>
        <DataArray type="Float32" Name="Kxx" NumberOfComponents="1" format="ascii">
          2e-10 2e-10 2e-10 2e-10 2e-10 2e-10 2e-10 2e-10 2e-10 2e-10 2e-10 2e-10
          2e-10 2e-10 2e-10 2e-10 2e-10 2e-10 2e-10 2e-10 2e-10 2e-10 2e-10 2e-10
          2e-10 2e-10 2e-10 2e-10 2e-10 2e-10 2e-10 2e-10 2e-10 2e-10 2e-10 2e-10
          2e-10 2e-10 2e-10 2e-10 2e-10 2e-10 2e-10 2e-10 2e-10 2e-10 2e-10 2e-10
          2e-10 2e-10 2e-10 2e-10 2e-10 2e-10 2e-10 2e-10 2e-10 2e-10 2e-10 2e-10
          2e-10 2e-10 2e-10 2e-10 2e-10 2e-10 2e-10 2e-10 2e-10 2e-10 2e-10 2e-10
          2e-10 2e-10 2e-10 2e-10 2e-10 2e-10 2e-10 2e-10
        </DataArray>
        <DataArray type="Float32" Name="X_lBrine" NumberOfComponents="1" format="ascii">
          0.974012 0.973862 0.972486 0.972509 0.970505 0.970474 0.968495 0.968483 0.966417 0.966392 0.964347 0.964328
          0.962287 0.962266 0.96019 0.960172 0.958146 0.958133 0.956179 0.956168 0.954205 0.954206 0.950792 0.95079
          0.947727 0.947725 0.945036 0.945036 0.942687 0.942687 0.940695 0.940694 0.938723 0.938723 0.937185 0.937185
          0.936027 0.936027 0.935178 0.935178 0.934592 0.934593 0.934215 0.934214 0.934019 0.934019 0.933974 0.933974
          0.934059 0.934059 0.934265 0.934265 0.934587 0.934587 0.935036 0.935035 0.935625 0.935625 0.936391 0.936391
          0.937381 0.937382 0.938675 0.938675 0.940367 0.940367 0.942639 0.942638 0.945698 0.945698 0.949855 0.949854
          0.955633 0.955634 0.963596 0.963596 0.974761 0.974761 0.99029 0.99029
        </DataArray>
        <DataArray type="Float32" Name="X_lTotalC" NumberOfComponents="1" format="ascii">
          5.84258e-07 5.84388e-07 5.8558e-07 5.8556e-07 5.87294e-07 5.87321e-07 5.8903e-07 5.89041e-07 5.90821e-07 5.90843e-07 5.92601e-07 5.92618e-07
          5.9437e-07 5.94388e-07 5.96168e-07 5.96183e-07 5.97917e-07 5.97928e-07 5.99598e-07 5.99607e-07 6.01282e-07 6.01282e-07 6.04188e-07 6.0419e-07
          6.06791e-07 6.06793e-07 6.0907e-07 6.0907e-07 6.11053e-07 6.11053e-07 6.12731e-07 6.12731e-07 6.14384e-07 6.14384e-07 6.15667e-07 6.15667e-07
          6.16626e-07 6.16626e-07 6.17323e-07 6.17323e-07 6.17797e-07 6.17796e-07 6.18094e-07 6.18095e-07 6.18242e-07 6.18242e-07 6.18381e-07 6.18381e-07
          6.18304e-07 6.18305e-07 6.18135e-07 6.18135e-07 6.17876e-07 6.17875e-07 6.17524e-07 6.17524e-07 6.17073e-07 6.17073e-07 6.16499e-07 6.16499e-07
          6.15763e-07 6.15763e-07 6.1483e-07 6.1483e-07 6.13735e-07 6.13735e-07 6.1217e-07 6.1217e-07 6.10093e-07 6.10093e-07 6.07301e-07 6.07302e-07
          6.03464e-07 6.03463e-07 5.98231e-07 5.98231e-07 5.90979e-07 5.90979e-07 5.81077e-07 5.81077e-07
        </DataArray>
        <DataArray type="Float32" Name="X_lNa" NumberOfComponents="1" format="ascii">
          2.89985e-06 2.89017e-06 2.80138e-06 2.80289e-06 2.67354e-06 2.67149e-06 2.54377e-06 2.54296e-06 2.40963e-06 2.408e-06 2.27602e-06 2.27477e-06
          2.14303e-06 2.14172e-06 2.0077e-06 2.00652e-06 1.87575e-06 1.8749e-06 1.7488e-06 1.74808e-06 1.62139e-06 1.62139e-06 1.40107e-06 1.40093e-06
          1.20322e-06 1.20311e-06 1.02953e-06 1.02951e-06 8.77928e-07 8.77916e-07 7.49315e-07 7.49283e-07 6.22066e-07 6.22075e-07 5.22784e-07 5.22776e-07
          4.48048e-07 4.4805e-07 3.93257e-07 3.93241e-07 3.55391e-07 3.55441e-07 3.30955e-07 3.30902e-07 3.18237e-07 3.18251e-07 3.15146e-07 3.15146e-07
          3.20384e-07 3.20377e-07 3.33274e-07 3.33282e-07 3.53455e-07 3.53472e-07 3.8153e-07 3.81511e-07 4.18298e-07 4.18312e-07 4.65939e-07 4.65934e-07
          5.27206e-07 5.27228e-07 6.06943e-07 6.06929e-07 7.1088e-07 7.10877e-07 8.49976e-07 8.49969e-07 1.03686e-06 1.03686e-06 1.29022e-06 1.29017e-06
          1.64196e-06 1.64204e-06 2.12632e-06 2.12628e-06 2.80501e-06 2.80504e-06 3.74885e-06 3.74885e-06
        </DataArray>
        <DataArray type="Float32" Name="X_lCl" NumberOfComponents="1" format="ascii">
          0.0120977 0.0121602 0.0127329 0.0127231 0.0135575 0.0135707 0.0143946 0.0143998 0.0152598 0.0152703 0.0161217 0.0161297
          0.0169795 0.0169879 0.0178524 0.01786 0.0187035 0.018709 0.0195224 0.019527 0.0203442 0.0203442 0.0217654 0.0217662
          0.0230416 0.0230423 0.0241619 0.024162 0.0251398 0.0251399 0.0259694 0.0259696 0.0267901 0.0267901 0.0274305 0.0274306
          0.0279125 0.0279125 0.0282659 0.028266 0.0285101 0.0285098 0.0286676 0.028668 0.0287496 0.0287495 0.0287694 0.0287694
          0.0287354 0.0287355 0.0286521 0.028652 0.0285216 0.0285215 0.0283401 0.0283402 0.0281024 0.0281023 0.0277944 0.0277945
          0.0273983 0.0273981 0.0268826 0.0268827 0.0262104 0.0262105 0.0253107 0.0253108 0.0241018 0.0241018 0.0224628 0.0224631
          0.0201872 0.0201867 0.0170536 0.0170539 0.0126626 0.0126624 0.00655617 0.00655617
        </DataArray>
        <DataArray type="Float32" Name="X_lCa" NumberOfComponents="1" format="ascii">
          0.00313218 0.00316758 0.00349209 0.00348657 0.00395934 0.00396682 0.00443362 0.00443659 0.00492386 0.00492982 0.00541221 0.00541678
          0.00589827 0.00590305 0.00639287 0.00639718 0.0068751 0.00687824 0.0073391 0.00734172 0.00780475 0.00780474 0.00861001 0.0086105
          0.00933311 0.00933351 0.0099679 0.00996796 0.010522 0.010522 0.010992 0.0109921 0.0114571 0.0114571 0.0118199 0.01182
          0.0120931 0.0120931 0.0122933 0.0122934 0.0124317 0.0124315 0.0125209 0.0125211 0.0125674 0.0125673 0.0125786 0.0125786
          0.0125594 0.0125594 0.0125122 0.0125122 0.0124383 0.0124382 0.0123355 0.0123356 0.0122009 0.0122008 0.0120265 0.0120265
          0.0118021 0.011802 0.0115101 0.0115102 0.0111294 0.0111295 0.01062 0.01062 0.00993537 0.00993536 0.00900724 0.00900742
          0.00771867 0.00771838 0.00594422 0.00594439 0.00345782 0.0034577 0 0
        </DataArray>
        <DataArray type="Float32" Name="X_lUrea" NumberOfComponents="1" format="ascii">
          0.00463005 0.00468238 0.00516207 0.00515391 0.00585277 0.00586383 0.00655388 0.00655826 0.00727858 0.00728738 0.00800048 0.00800723
          0.008719 0.00872608 0.00945018 0.00945654 0.0101631 0.0101677 0.010849 0.0108529 0.0115374 0.0115374 0.0127279 0.0127286
          0.013797 0.0137976 0.0147357 0.0147357 0.015555 0.0155551 0.0162502 0.0162504 0.0169383 0.0169382 0.0174753 0.0174754
          0.0178799 0.0178799 0.0181768 0.0181769 0.0183824 0.0183821 0.0185156 0.0185159 0.0185856 0.0185855 0.0186038 0.0186038
          0.018577 0.0185771 0.0185091 0.018509 0.0184018 0.0184017 0.0182519 0.018252 0.018055 0.0180549 0.0177993 0.0177993
          0.0174696 0.0174695 0.0170397 0.0170398 0.0164784 0.0164784 0.0157261 0.0157261 0.0147141 0.0147141 0.013341 0.0133413
          0.0114334 0.011433 0.00880558 0.00880583 0.00512251 0.00512233 0 0
        </DataArray>
        <DataArray type="Float32" Name="X_lTotalNH" NumberOfComponents="1" format="ascii">
          0.00314949 0.00314942 0.00314875 0.00314876 0.00314778 0.00314776 0.00314679 0.00314679 0.00314578 0.00314576 0.00314476 0.00314475
          0.00314375 0.00314374 0.00314273 0.00314272 0.00314173 0.00314172 0.00314076 0.00314076 0.0031398 0.0031398 0.00313813 0.00313812
          0.00313662 0.00313662 0.00313531 0.00313531 0.00313415 0.00313415 0.00313318 0.00313318 0.00313221 0.00313221 0.00313145 0.00313145
          0.00313088 0.00313088 0.00313046 0.00313046 0.00313017 0.00313017 0.00312998 0.00312997 0.00312987 0.00312987 0.00312983 0.00312983
          0.00312985 0.00312985 0.00312993 0.00312993 0.00313005 0.00313005 0.00313023 0.00313023 0.00313046 0.00313046 0.00313075 0.00313075
          0.00313112 0.00313112 0.00313159 0.00313159 0.00313221 0.00313221 0.00313302 0.00313302 0.00313409 0.00313409 0.00313554 0.00313554
          0.00313754 0.00313754 0.00314029 0.00314029 0.00314413 0.00314413 0.00314947 0.00314947
        </DataArray>
        <DataArray type="Float32" Name="X_lO2" NumberOfComponents="1" format="ascii">
          7.91355e-06 7.91336e-06 7.91166e-06 7.91168e-06 7.90919e-06 7.90915e-06 7.90669e-06 7.90668e-06 7.9041e-06 7.90407e-06 7.90151e-06 7.90149e-06
          7.89893e-06 7.89891e-06 7.8963e-06 7.89628e-06 7.89372e-06 7.89371e-06 7.89123e-06 7.89122e-06 7.88872e-06 7.88872e-06 7.88433e-06 7.88432e-06
          7.8803e-06 7.8803e-06 7.87665e-06 7.87665e-06 7.87331e-06 7.87331e-06 7.87027e-06 7.87027e-06 7.86687e-06 7.86687e-06 7.86362e-06 7.86362e-06
          7.86029e-06 7.86029e-06 7.85658e-06 7.85658e-06 7.85216e-06 7.85217e-06 7.84645e-06 7.84643e-06 7.83892e-06 7.83892e-06 7.82853e-06 7.82855e-06
          7.8144e-06 7.8144e-06 7.79451e-06 7.7945e-06 7.76688e-06 7.76686e-06 7.72799e-06 7.72802e-06 7.67372e-06 7.6737e-06 7.59738e-06 7.59739e-06
          7.49057e-06 7.49053e-06 7.34034e-06 7.34037e-06 7.13111e-06 7.13112e-06 6.83558e-06 6.83559e-06 6.42154e-06 6.42153e-06 5.84278e-06 5.8429e-06
          5.02193e-06 5.02175e-06 3.87597e-06 3.87608e-06 2.25777e-06 2.25769e-06 0 0
        </DataArray>
        <DataArray type="Float32" Name="X_lSubstrate" NumberOfComponents="1" format="ascii">
          0.00296758 0.00296751 0.00296687 0.00296688 0.00296595 0.00296593 0.00296501 0.002965 0.00296404 0.00296403 0.00296307 0.00296306
          0.0029621 0.00296209 0.00296111 0.0029611 0.00296015 0.00296014 0.00295921 0.00295921 0.00295827 0.00295827 0.00295662 0.00295662
          0.00295511 0.00295511 0.00295374 0.00295374 0.00295249 0.00295249 0.00295135 0.00295135 0.00295008 0.00295008 0.00294886 0.00294886
          0.00294761 0.00294761 0.00294622 0.00294622 0.00294456 0.00294456 0.00294242 0.00294241 0.0029396 0.00293959 0.0029357 0.00293571
          0.0029304 0.0029304 0.00292294 0.00292294 0.00291258 0.00291257 0.002898 0.00289801 0.00287765 0.00287764 0.00284902 0.00284902
          0.00280896 0.00280895 0.00275263 0.00275264 0.00267417 0.00267417 0.00256334 0.00256335 0.00240808 0.00240808 0.00219104 0.00219109
          0.00188322 0.00188316 0.00145349 0.00145353 0.000846664 0.000846634 0 0
        </DataArray>
        <DataArray type="Float32" Name="X_lSuspended_Biomass" NumberOfComponents="1" format="ascii">
          2.84562e-16 3.15001e-16 6.10638e-16 6.09494e-16 6.49694e-16 6.50838e-16 7.28688e-16 7.28909e-16 7.55842e-16 7.56221e-16 8.05235e-16 8.06027e-16
          7.9495e-16 7.94724e-16 7.86337e-16 7.86942e-16 8.4337e-16 8.43968e-16 8.50995e-16 8.50519e-16 7.57053e-16 7.55727e-16 1.06608e-15 1.06626e-15
          1.07097e-15 1.07106e-15 1.03023e-15 1.03042e-15 1.13139e-15 1.13236e-15 9.92075e-16 9.92392e-16 1.08456e-15 1.08478e-15 1.12789e-15 1.12856e-15
          1.03284e-15 1.03273e-15 1.022e-15 1.02201e-15 1.03126e-15 1.03178e-15 5.85725e-16 5.85483e-16 8.39771e-16 8.38832e-16 7.71211e-16 7.76628e-16
          1.08049e-15 1.07984e-15 1.28589e-15 1.28549e-15 1.28088e-15 1.28085e-15 1.46515e-15 1.46505e-15 1.44597e-15 1.44615e-15 1.53386e-15 1.53378e-15
          1.5521e-15 1.55208e-15 1.52486e-15 1.52482e-15 1.58115e-15 1.58117e-15 1.60799e-15 1.60823e-15 1.61118e-15 1.61156e-15 1.52691e-15 1.52701e-15
          1.34662e-15 1.3455e-15 1.09695e-15 1.09707e-15 6.71755e-16 6.7172e-16 0 0
        </DataArray>
        <DataArray type="Float32" Name="X_lNH4" NumberOfComponents="1" format="ascii">
          0.00333377 0.0033337 0.00333306 0.00333307 0.00333213 0.00333212 0.00333119 0.00333118 0.00333021 0.0033302 0.00332924 0.00332923
          0.00332828 0.00332827 0.00332729 0.00332729 0.00332633 0.00332633 0.00332541 0.0033254 0.00332448 0.00332448 0.00332288 0.00332287
          0.00332143 0.00332143 0.00332016 0.00332016 0.00331905 0.00331905 0.0033181 0.0033181 0.00331716 0.00331716 0.00331643 0.00331643
          0.00331587 0.00331587 0.00331546 0.00331546 0.00331517 0.00331517 0.00331498 0.00331498 0.00331487 0.00331487 0.00331484 0.00331484
          0.00331486 0.00331486 0.00331493 0.00331493 0.00331505 0.00331505 0.00331522 0.00331522 0.00331544 0.00331544 0.00331572 0.00331572
          0.00331607 0.00331607 0.00331652 0.00331652 0.0033171 0.0033171 0.00331786 0.00331786 0.00331887 0.00331887 0.00332022 0.00332022
          0.00332208 0.00332208 0.00332462 0.00332462 0.00332817 0.00332817 0.00333307 0.00333307
        </DataArray>
        <DataArray type="Float32" Name="X_lHCO3" NumberOfComponents="1" format="ascii">
          3.95727e-07 3.95735e-07 3.95533e-07 3.95541e-07 3.94403e-07 3.94378e-07 3.92289e-07 3.92273e-07 3.89103e-07 3.89058e-07 3.84915e-07 3.84871e-07
          3.79715e-07 3.79659e-07 3.73322e-07 3.73262e-07 3.65955e-07 3.65903e-07 3.57734e-07 3.57684e-07 3.48278e-07 3.48278e-07 3.28755e-07 3.28742e-07
          3.07318e-07 3.07305e-07 2.84969e-07 2.84967e-07 2.62401e-07 2.62399e-07 2.40796e-07 2.40791e-07 2.17074e-07 2.17076e-07 1.9695e-07 1.96948e-07
          1.80937e-07 1.80938e-07 1.68796e-07 1.68793e-07 1.60247e-07 1.60258e-07 1.54675e-07 1.54663e-07 1.51759e-07 1.51762e-07 1.51097e-07 1.51097e-07
          1.52288e-07 1.52286e-07 1.55226e-07 1.55227e-07 1.59812e-07 1.59816e-07 1.66155e-07 1.66151e-07 1.7437e-07 1.74373e-07 1.84818e-07 1.84817e-07
          1.97862e-07 1.97867e-07 2.14106e-07 2.14103e-07 2.33992e-07 2.33992e-07 2.58118e-07 2.58117e-07 2.86383e-07 2.86383e-07 3.17947e-07 3.17941e-07
          3.51127e-07 3.51133e-07 3.81073e-07 3.81071e-07 3.98909e-07 3.9891e-07 3.37056e-07 3.37056e-07
        </DataArray>
        <DataArray type="Float32" Name="X_lCO3" NumberOfComponents="1" format="ascii">
          6.39672e-11 6.40845e-11 6.49842e-11 6.49716e-11 6.57436e-11 6.57509e-11 6.58998e-11 6.58988e-11 6.54431e-11 6.54337e-11 6.43922e-11 6.43796e-11
          6.27826e-11 6.27642e-11 6.05952e-11 6.05739e-11 5.79572e-11 5.79385e-11 5.49768e-11 5.49587e-11 5.15813e-11 5.15814e-11 4.48644e-11 4.486e-11
          3.80927e-11 3.80888e-11 3.17595e-11 3.17589e-11 2.61017e-11 2.61013e-11 2.13416e-11 2.13404e-11 1.68015e-11 1.68018e-11 1.34713e-11 1.34711e-11
          1.11393e-11 1.11394e-11 9.54787e-12 9.54743e-12 8.51467e-12 8.51598e-12 7.87901e-12 7.87764e-12 7.55803e-12 7.55839e-12 7.4848e-12 7.48481e-12
          7.61435e-12 7.61415e-12 7.9394e-12 7.9396e-12 8.46299e-12 8.46345e-12 9.2199e-12 9.21936e-12 1.02583e-11 1.02587e-11 1.16766e-11 1.16765e-11
          1.36073e-11 1.3608e-11 1.6271e-11 1.62705e-11 1.99438e-11 1.99437e-11 2.50616e-11 2.50613e-11 3.20461e-11 3.20462e-11 4.11862e-11 4.11844e-11
          5.22613e-11 5.22635e-11 6.27593e-11 6.27586e-11 6.52971e-11 6.52969e-11 2.55591e-11 2.55591e-11
        </DataArray>
        <DataArray type="Float32" Name="X_lCO2" NumberOfComponents="1" format="ascii">
          2.98857e-07 2.98981e-07 3.00318e-07 3.00292e-07 3.02846e-07 3.02892e-07 3.06106e-07 3.06129e-07 3.10195e-07 3.10249e-07 3.14996e-07 3.15045e-07
          3.20516e-07 3.20574e-07 3.26925e-07 3.26984e-07 3.33989e-07 3.34038e-07 3.416e-07 3.41645e-07 3.50106e-07 3.50106e-07 3.67095e-07 3.67107e-07
          3.85162e-07 3.85172e-07 4.03561e-07 4.03563e-07 4.21822e-07 4.21824e-07 4.39083e-07 4.39088e-07 4.57846e-07 4.57844e-07 4.73644e-07 4.73645e-07
          4.86151e-07 4.8615e-07 4.95603e-07 4.95606e-07 5.02243e-07 5.02235e-07 5.06559e-07 5.06569e-07 5.08809e-07 5.08807e-07 5.09426e-07 5.09426e-07
          5.08491e-07 5.08492e-07 5.06203e-07 5.06202e-07 5.02635e-07 5.02632e-07 4.97709e-07 4.97712e-07 4.91334e-07 4.91332e-07 4.83225e-07 4.83226e-07
          4.73081e-07 4.73078e-07 4.60433e-07 4.60435e-07 4.44995e-07 4.44995e-07 4.26028e-07 4.26029e-07 4.03564e-07 4.03564e-07 3.78005e-07 3.78009e-07
          3.50233e-07 3.50228e-07 3.23398e-07 3.234e-07 3.03282e-07 3.03281e-07 3.38012e-07 3.38012e-07
        </DataArray>
        <DataArray type="Float32" Name="X_lH" NumberOfComponents="1" format="ascii">
          7.54406e-10 7.56218e-10 7.73423e-10 7.7312e-10 8.0029e-10 8.00741e-10 8.30438e-10 8.30637e-10 8.65141e-10 8.65589e-10 9.03911e-10 9.04296e-10
          9.4743e-10 9.47885e-10 9.97755e-10 9.98223e-10 1.05391e-09 1.0543e-09 1.11597e-09 1.11635e-09 1.18801e-09 1.188e-09 1.34296e-09 1.34307e-09
          1.52867e-09 1.52879e-09 1.74673e-09 1.74675e-09 2.00066e-09 2.00068e-09 2.2855e-09 2.28558e-09 2.66102e-09 2.66099e-09 3.04882e-09 3.04886e-09
          3.41816e-09 3.41815e-09 3.7445e-09 3.7446e-09 4.00379e-09 4.00343e-09 4.18811e-09 4.18853e-09 4.28989e-09 4.28977e-09 4.31448e-09 4.31448e-09
          4.27194e-09 4.27201e-09 4.16994e-09 4.16988e-09 4.01821e-09 4.01808e-09 3.82226e-09 3.82239e-09 3.58968e-09 3.58959e-09 3.32368e-09 3.32371e-09
          3.03075e-09 3.03065e-09 2.71548e-09 2.71553e-09 2.38883e-09 2.38884e-09 2.05782e-09 2.05784e-09 1.73786e-09 1.73785e-09 1.44203e-09 1.44208e-09
          1.17737e-09 1.17732e-09 9.54982e-10 9.54998e-10 7.74287e-10 7.7428e-10 6.32454e-10 6.32454e-10
        </DataArray>
        <DataArray type="Float32" Name="X_lOH" NumberOfComponents="1" format="ascii">
          2.177e-07 2.17119e-07 2.11754e-07 2.11846e-07 2.03902e-07 2.03775e-07 1.95774e-07 1.95723e-07 1.87203e-07 1.87097e-07 1.7849e-07 1.78407e-07
          1.69643e-07 1.69555e-07 1.60462e-07 1.60381e-07 1.51337e-07 1.51277e-07 1.42398e-07 1.42346e-07 1.33272e-07 1.33272e-07 1.17145e-07 1.17135e-07
          1.02325e-07 1.02316e-07 8.90985e-08 8.90973e-08 7.74462e-08 7.74452e-08 6.75396e-08 6.75371e-08 5.77926e-08 5.77933e-08 5.02947e-08 5.0294e-08
          4.47619e-08 4.4762e-08 4.0795e-08 4.07939e-08 3.81106e-08 3.8114e-08 3.64072e-08 3.64035e-08 3.55303e-08 3.55313e-08 3.53247e-08 3.53247e-08
          3.56823e-08 3.56817e-08 3.65695e-08 3.657e-08 3.79736e-08 3.79748e-08 3.99544e-08 3.99531e-08 4.25908e-08 4.25918e-08 4.60664e-08 4.6066e-08
          5.06139e-08 5.06155e-08 5.66288e-08 5.66278e-08 6.45787e-08 6.45784e-08 7.52887e-08 7.52882e-08 8.96659e-08 8.96661e-08 1.08907e-07 1.08903e-07
          1.34836e-07 1.34842e-07 1.68711e-07 1.68708e-07 2.12403e-07 2.12405e-07 2.67481e-07 2.67481e-07
        </DataArray>
        <DataArray type="Float32" Name="X_gBrine" NumberOfComponents="1" format="ascii">
          0.0112334 0.0112056 0.011212 0.011212 0.0112169 0.0112169 0.0112218 0.0112218 0.0112266 0.0112265 0.0112313 0.0112313
          0.0112361 0.0112361 0.0112409 0.0112408 0.0112457 0.0112457 0.0112508 0.0112507 0.0112558 0.0112558 0.0112672 0.0112672
          0.0112794 0.0112794 0.0112927 0.0112927 0.0113068 0.0113068 0.0113218 0.0113218 0.0113419 0.0113419 0.0113632 0.0113632
          0.0113855 0.0113855 0.0114087 0.0114087 0.0114327 0.0114327 0.0114573 0.0114573 0.0114825 0.0114825 0.0115081 0.0115081
          0.0115342 0.0115342 0.0115607 0.0115607 0.0115876 0.0115876 0.011615 0.011615 0.0116428 0.0116428 0.0116711 0.0116711
          0.0117001 0.0117001 0.01173 0.01173 0.0117609 0.0117609 0.0117933 0.0117933 0.0118277 0.0118277 0.0118648 0.0118648
          0.0119059 0.0119059 0.0119522 0.0119522 0.012006 0.012006 0.0120698 0.0120698
        </DataArray>
        <DataArray type="Float32" Name="X_gTotalC" NumberOfComponents="1" format="ascii">
          0.988767 0.988794 0.988788 0.988788 0.988783 0.988783 0.988778 0.988778 0.988773 0.988773 0.988769 0.988769
          0.988764 0.988764 0.988759 0.988759 0.988754 0.988754 0.988749 0.988749 0.988744 0.988744 0.988733 0.988733
          0.988721 0.988721 0.988707 0.988707 0.988693 0.988693 0.988678 0.988678 0.988658 0.988658 0.988637 0.988637
          0.988614 0.988614 0.988591 0.988591 0.988567 0.988567 0.988543 0.988543 0.988518 0.988518 0.988492 0.988492
          0.988466 0.988466 0.988439 0.988439 0.988412 0.988412 0.988385 0.988385 0.988357 0.988357 0.988329 0.988329
          0.9883 0.9883 0.98827 0.98827 0.988239 0.988239 0.988207 0.988207 0.988172 0.988172 0.988135 0.988135
          0.988094 0.988094 0.988048 0.988048 0.987994 0.987994 0.98793 0.98793
        </DataArray>
        <DataArray type="Float32" Name="X_gNa" NumberOfComponents="1" format="ascii">
          0 0 0 0 0 0 0 0 0 0 0 0
          0 0 0 0 0 0 0 0 0 0 0 0
          0 0 0 0 0 0 0 0 0 0 0 0
          0 0 0 0 0 0 0 0 0 0 0 0
          0 0 0 0 0 0 0 0 0 0 0 0
          0 0 0 0 0 0 0 0 0 0 0 0
          0 0 0 0 0 0 0 0
        </DataArray>
        <DataArray type="Float32" Name="X_gCl" NumberOfComponents="1" format="ascii">
          0 0 0 0 0 0 0 0 0 0 0 0
          0 0 0 0 0 0 0 0 0 0 0 0
          0 0 0 0 0 0 0 0 0 0 0 0
          0 0 0 0 0 0 0 0 0 0 0 0
          0 0 0 0 0 0 0 0 0 0 0 0
          0 0 0 0 0 0 0 0 0 0 0 0
          0 0 0 0 0 0 0 0
        </DataArray>
        <DataArray type="Float32" Name="X_gCa" NumberOfComponents="1" format="ascii">
          0 0 0 0 0 0 0 0 0 0 0 0
          0 0 0 0 0 0 0 0 0 0 0 0
          0 0 0 0 0 0 0 0 0 0 0 0
          0 0 0 0 0 0 0 0 0 0 0 0
          0 0 0 0 0 0 0 0 0 0 0 0
          0 0 0 0 0 0 0 0 0 0 0 0
          0 0 0 0 0 0 0 0
        </DataArray>
        <DataArray type="Float32" Name="X_gUrea" NumberOfComponents="1" format="ascii">
          0 0 0 0 0 0 0 0 0 0 0 0
          0 0 0 0 0 0 0 0 0 0 0 0
          0 0 0 0 0 0 0 0 0 0 0 0
          0 0 0 0 0 0 0 0 0 0 0 0
          0 0 0 0 0 0 0 0 0 0 0 0
          0 0 0 0 0 0 0 0 0 0 0 0
          0 0 0 0 0 0 0 0
        </DataArray>
        <DataArray type="Float32" Name="X_gTotalNH" NumberOfComponents="1" format="ascii">
          0 0 0 0 0 0 0 0 0 0 0 0
          0 0 0 0 0 0 0 0 0 0 0 0
          0 0 0 0 0 0 0 0 0 0 0 0
          0 0 0 0 0 0 0 0 0 0 0 0
          0 0 0 0 0 0 0 0 0 0 0 0
          0 0 0 0 0 0 0 0 0 0 0 0
          0 0 0 0 0 0 0 0
        </DataArray>
        <DataArray type="Float32" Name="X_gO2" NumberOfComponents="1" format="ascii">
          0 0 0 0 0 0 0 0 0 0 0 0
          0 0 0 0 0 0 0 0 0 0 0 0
          0 0 0 0 0 0 0 0 0 0 0 0
          0 0 0 0 0 0 0 0 0 0 0 0
          0 0 0 0 0 0 0 0 0 0 0 0
          0 0 0 0 0 0 0 0 0 0 0 0
          0 0 0 0 0 0 0 0
        </DataArray>
        <DataArray type="Float32" Name="X_gSubstrate" NumberOfComponents="1" format="ascii">
          0 0 0 0 0 0 0 0 0 0 0 0
          0 0 0 0 0 0 0 0 0 0 0 0
          0 0 0 0 0 0 0 0 0 0 0 0
          0 0 0 0 0 0 0 0 0 0 0 0
          0 0 0 0 0 0 0 0 0 0 0 0
          0 0 0 0 0 0 0 0 0 0 0 0
          0 0 0 0 0 0 0 0
        </DataArray>
        <DataArray type="Float32" Name="X_gSuspended_Biomass" NumberOfComponents="1" format="ascii">
          0 0 0 0 0 0 0 0 0 0 0 0
          0 0 0 0 0 0 0 0 0 0 0 0
          0 0 0 0 0 0 0 0 0 0 0 0
          0 0 0 0 0 0 0 0 0 0 0 0
          0 0 0 0 0 0 0 0 0 0 0 0
          0 0 0 0 0 0 0 0 0 0 0 0
          0 0 0 0 0 0 0 0
        </DataArray>
        <DataArray type="Float32" Name="X_gNH4" NumberOfComponents="1" format="ascii">
          0 0 0 0 0 0 0 0 0 0 0 0
          0 0 0 0 0 0 0 0 0 0 0 0
          0 0 0 0 0 0 0 0 0 0 0 0
          0 0 0 0 0 0 0 0 0 0 0 0
          0 0 0 0 0 0 0 0 0 0 0 0
          0 0 0 0 0 0 0 0 0 0 0 0
          0 0 0 0 0 0 0 0
        </DataArray>
        <DataArray type="Float32" Name="X_gHCO3" NumberOfComponents="1" format="ascii">
          0 0 0 0 0 0 0 0 0 0 0 0
          0 0 0 0 0 0 0 0 0 0 0 0
          0 0 0 0 0 0 0 0 0 0 0 0
          0 0 0 0 0 0 0 0 0 0 0 0
          0 0 0 0 0 0 0 0 0 0 0 0
          0 0 0 0 0 0 0 0 0 0 0 0
          0 0 0 0 0 0 0 0
        </DataArray>
        <DataArray type="Float32" Name="X_gCO3" NumberOfComponents="1" format="ascii">
          0 0 0 0 0 0 0 0 0 0 0 0
          0 0 0 0 0 0 0 0 0 0 0 0
          0 0 0 0 0 0 0 0 0 0 0 0
          0 0 0 0 0 0 0 0 0 0 0 0
          0 0 0 0 0 0 0 0 0 0 0 0
          0 0 0 0 0 0 0 0 0 0 0 0
          0 0 0 0 0 0 0 0
        </DataArray>
        <DataArray type="Float32" Name="X_gCO2" NumberOfComponents="1" format="ascii">
          0.988767 0.988794 0.988788 0.988788 0.988783 0.988783 0.988778 0.988778 0.988773 0.988773 0.988769 0.988769
          0.988764 0.988764 0.988759 0.988759 0.988754 0.988754 0.988749 0.988749 0.988744 0.988744 0.988733 0.988733
          0.988721 0.988721 0.988707 0.988707 0.988693 0.988693 0.988678 0.988678 0.988658 0.988658 0.988637 0.988637
          0.988614 0.988614 0.988591 0.988591 0.988567 0.988567 0.988543 0.988543 0.988518 0.988518 0.988492 0.988492
          0.988466 0.988466 0.988439 0.988439 0.988412 0.988412 0.988385 0.988385 0.988357 0.988357 0.988329 0.988329
          0.9883 0.9883 0.98827 0.98827 0.988239 0.988239 0.988207 0.988207 0.988172 0.988172 0.988135 0.988135
          0.988094 0.988094 0.988048 0.988048 0.987994 0.987994 0.98793 0.98793
        </DataArray>
        <DataArray type="Float32" Name="X_gH" NumberOfComponents="1" format="ascii">
          0 0 0 0 0 0 0 0 0 0 0 0
          0 0 0 0 0 0 0 0 0 0 0 0
          0 0 0 0 0 0 0 0 0 0 0 0
          0 0 0 0 0 0 0 0 0 0 0 0
          0 0 0 0 0 0 0 0 0 0 0 0
          0 0 0 0 0 0 0 0 0 0 0 0
          0 0 0 0 0 0 0 0
        </DataArray>
        <DataArray type="Float32" Name="X_gOH" NumberOfComponents="1" format="ascii">
          0 0 0 0 0 0 0 0 0 0 0 0
          0 0 0 0 0 0 0 0 0 0 0 0
          0 0 0 0 0 0 0 0 0 0 0 0
          0 0 0 0 0 0 0 0 0 0 0 0
          0 0 0 0 0 0 0 0 0 0 0 0
          0 0 0 0 0 0 0 0 0 0 0 0
          0 0 0 0 0 0 0 0
        </DataArray>
        <DataArray type="Float32" Name="Molarity_Brine" NumberOfComponents="1" format="ascii">
          54461.5 54456.7 54412.7 54413.4 54349.2 54348.2 54284.6 54284.2 54217.7 54216.9 54150.9 54150.3
          54084.3 54083.7 54016.4 54015.8 53950.1 53949.6 53886.1 53885.7 53821.7 53821.7 53710.2 53710.1
          53609.6 53609.6 53521.1 53521.1 53443.6 53443.6 53377.8 53377.7 53312.4 53312.5 53261.4 53261.4
          53222.9 53222.9 53194.7 53194.7 53175.2 53175.2 53162.6 53162.6 53156.1 53156.1 53154.7 53154.7
          53157.6 53157.6 53164.6 53164.6 53175.5 53175.5 53190.7 53190.7 53210.8 53210.8 53236.9 53236.9
          53270.7 53270.7 53314.9 53314.9 53372.8 53372.8 53450.5 53450.5 53555.1 53555.1 53696.9 53696.9
          53893.2 53893.3 54162.2 54162.1 54535.9 54535.9 55049.2 55049.2
        </DataArray>
        <DataArray type="Float32" Name="Molarity_TotalC" NumberOfComponents="1" format="ascii">
          0.0133757 0.0133795 0.0134149 0.0134143 0.0134659 0.0134667 0.0135177 0.013518 0.0135712 0.0135719 0.0136245 0.013625
          0.0136776 0.0136781 0.0137317 0.0137321 0.0137844 0.0137847 0.0138351 0.0138354 0.0138861 0.0138861 0.0139743 0.0139743
          0.0140535 0.0140536 0.0141231 0.0141231 0.0141838 0.0141838 0.0142353 0.0142353 0.0142862 0.0142862 0.0143258 0.0143258
          0.0143555 0.0143555 0.0143771 0.0143771 0.0143919 0.0143919 0.0144013 0.0144013 0.0144059 0.0144059 0.0144095 0.0144095
          0.0144072 0.0144072 0.014402 0.014402 0.0143939 0.0143939 0.0143829 0.0143829 0.0143688 0.0143688 0.0143507 0.0143507
          0.0143275 0.0143275 0.014298 0.014298 0.0142623 0.0142623 0.0142123 0.0142123 0.0141459 0.0141459 0.0140567 0.0140567
          0.0139342 0.0139341 0.0137675 0.0137675 0.0135376 0.0135376 0.0132254 0.0132254
        </DataArray>
        <DataArray type="Float32" Name="Molarity_Na" NumberOfComponents="1" format="ascii">
          0.127058 0.126642 0.122825 0.12289 0.117322 0.117234 0.111727 0.111691 0.105932 0.105861 0.100149 0.100095
          0.0943831 0.0943263 0.0885047 0.0884535 0.0827629 0.0827255 0.0772284 0.0771971 0.0716644 0.0716645 0.0620196 0.0620138
          0.0533339 0.0533291 0.0456894 0.0456887 0.039002 0.0390015 0.0333178 0.0333164 0.0276839 0.0276843 0.0232814 0.023281
          0.0199634 0.0199635 0.0175287 0.017528 0.015845 0.0158472 0.014758 0.0147556 0.0141921 0.0141928 0.0140546 0.0140546
          0.0142877 0.0142873 0.0148612 0.0148615 0.0157589 0.0157596 0.0170073 0.0170065 0.0186416 0.0186422 0.0207579 0.0207577
          0.0234775 0.0234785 0.0270135 0.0270129 0.0316168 0.0316167 0.037767 0.0377667 0.0460118 0.0460119 0.0571554 0.0571532
          0.0725615 0.072565 0.0936548 0.0936527 0.122975 0.122977 0.1633 0.1633
        </DataArray>
        <DataArray type="Float32" Name="Molarity_Cl" NumberOfComponents="1" format="ascii">
          343.726 345.524 362.016 361.736 385.798 386.18 409.981 410.132 435.021 435.326 460.011 460.244
          484.928 485.173 510.33 510.551 535.141 535.303 559.056 559.192 583.099 583.098 624.774 624.799
          662.304 662.325 695.334 695.337 724.228 724.23 748.787 748.793 773.128 773.127 792.149 792.15
          806.483 806.483 817 817.003 824.273 824.263 828.967 828.977 831.408 831.406 831.999 831.999
          830.986 830.988 828.502 828.5 824.615 824.611 819.209 819.213 812.133 812.13 802.968 802.969
          791.19 791.186 775.874 775.876 755.931 755.932 729.285 729.286 693.56 693.559 645.27 645.279
          578.502 578.488 487.082 487.091 359.993 359.987 185.193 185.193
        </DataArray>
        <DataArray type="Float32" Name="Molarity_Ca" NumberOfComponents="1" format="ascii">
          78.7236 79.6186 87.8282 87.6886 99.6667 99.8565 111.704 111.78 124.17 124.321 136.609 136.726
          149.013 149.135 161.658 161.768 174.009 174.089 185.914 185.982 197.883 197.882 218.629 218.641
          237.311 237.322 253.754 253.756 268.138 268.139 280.364 280.367 292.481 292.48 301.95 301.951
          309.086 309.086 314.322 314.323 317.942 317.938 320.279 320.285 321.495 321.494 321.79 321.789
          321.286 321.287 320.05 320.049 318.116 318.114 315.426 315.428 311.905 311.903 307.345 307.345
          301.484 301.482 293.863 293.865 283.941 283.941 270.684 270.684 252.91 252.909 228.884 228.889
          195.667 195.66 150.186 150.19 86.9599 86.9568 0 0
        </DataArray>
        <DataArray type="Float32" Name="Molarity_Urea" NumberOfComponents="1" format="ascii">
          76.9621 77.8371 85.863 85.7265 97.4367 97.6222 109.205 109.279 121.392 121.54 133.553 133.667
          145.68 145.799 158.043 158.15 170.118 170.197 181.758 181.824 193.46 193.459 213.744 213.756
          232.012 232.022 248.092 248.093 262.159 262.16 274.118 274.121 285.974 285.973 295.242 295.243
          302.232 302.232 307.367 307.368 310.924 310.92 313.23 313.235 314.442 314.44 314.756 314.756
          314.292 314.292 313.114 313.114 311.256 311.255 308.661 308.663 305.254 305.253 300.831 300.832
          295.135 295.133 287.715 287.716 278.038 278.038 265.09 265.091 247.713 247.713 224.205 224.21
          191.684 191.677 147.138 147.142 85.1987 85.1957 0 0
        </DataArray>
        <DataArray type="Float32" Name="Molarity_TotalNH" NumberOfComponents="1" format="ascii">
          186.279 186.287 186.36 186.359 186.465 186.467 186.572 186.572 186.682 186.683 186.792 186.793
          186.902 186.903 187.014 187.015 187.123 187.124 187.228 187.229 187.334 187.334 187.517 187.517
          187.681 187.681 187.826 187.826 187.952 187.952 188.059 188.059 188.166 188.166 188.249 188.249
          188.311 188.311 188.357 188.357 188.388 188.388 188.408 188.408 188.418 188.418 188.42 188.42
          188.414 188.414 188.402 188.402 188.383 188.383 188.357 188.357 188.323 188.323 188.279 188.279
          188.222 188.222 188.147 188.147 188.049 188.049 187.918 187.918 187.741 187.741 187.501 187.501
          187.168 187.168 186.711 186.711 186.073 186.073 185.193 185.193
        </DataArray>
        <DataArray type="Float32" Name="Molarity_O2" NumberOfComponents="1" format="ascii">
          0.249107 0.249117 0.249214 0.249212 0.249354 0.249356 0.249495 0.249496 0.249642 0.249644 0.249788 0.249789
          0.249933 0.249935 0.250081 0.250082 0.250225 0.250226 0.250363 0.250364 0.250502 0.250502 0.25074 0.25074
          0.250952 0.250952 0.251135 0.251135 0.25129 0.25129 0.251414 0.251414 0.251525 0.251525 0.251593 0.251593
          0.251616 0.251616 0.251591 0.251591 0.251515 0.251516 0.251375 0.251374 0.251155 0.251155 0.250828 0.250828
          0.250366 0.250366 0.249706 0.249706 0.248787 0.248786 0.247493 0.247494 0.245693 0.245692 0.243169 0.243169
          0.239649 0.239647 0.234714 0.234715 0.22786 0.22786 0.218208 0.218209 0.204727 0.204727 0.185952 0.185955
          0.159442 0.159436 0.122651 0.122654 0.0711136 0.0711111 0 0
        </DataArray>
        <DataArray type="Float32" Name="Molarity_Substrate" NumberOfComponents="1" format="ascii">
          16.5924 16.5931 16.5995 16.5994 16.6088 16.609 16.6183 16.6183 16.628 16.6281 16.6377 16.6378
          16.6474 16.6475 16.6573 16.6574 16.6669 16.6669 16.6761 16.6761 16.6853 16.6853 16.7012 16.7012
          16.7153 16.7153 16.7275 16.7275 16.7378 16.7378 16.7461 16.7461 16.7535 16.7535 16.758 16.758
          16.7595 16.7595 16.7579 16.7579 16.7528 16.7528 16.7434 16.7434 16.7288 16.7288 16.707 16.707
          16.6762 16.6762 16.6323 16.6323 16.5711 16.571 16.4849 16.4849 16.365 16.3649 16.1968 16.1969
          15.9624 15.9623 15.6337 15.6337 15.1772 15.1772 14.5343 14.5343 13.6364 13.6364 12.3858 12.386
          10.62 10.6196 8.16945 8.16968 4.7367 4.73653 0 0
        </DataArray>
        <DataArray type="Float32" Name="Molarity_Suspended_Biomass" NumberOfComponents="1" format="ascii">
          2.86642e-13 3.17325e-13 6.15515e-13 6.14356e-13 6.55454e-13 6.56618e-13 7.358e-13 7.36027e-13 7.63918e-13 7.64309e-13 8.1458e-13 8.15389e-13
          8.04907e-13 8.04685e-13 7.96922e-13 7.97542e-13 8.55494e-13 8.56105e-13 8.63978e-13 8.63499e-13 7.69274e-13 7.67926e-13 1.08493e-12 1.08511e-12
          1.09138e-12 1.09147e-12 1.05111e-12 1.0513e-12 1.15553e-12 1.15652e-12 1.01413e-12 1.01446e-12 1.10964e-12 1.10987e-12 1.15476e-12 1.15544e-12
          1.05799e-12 1.05788e-12 1.04728e-12 1.0473e-12 1.05705e-12 1.05758e-12 6.00471e-13 6.00223e-13 8.60988e-13 8.60025e-13 7.90712e-13 7.96266e-13
          1.10778e-12 1.1071e-12 1.31824e-12 1.31783e-12 1.31292e-12 1.31289e-12 1.50151e-12 1.50141e-12 1.48148e-12 1.48166e-12 1.57101e-12 1.57093e-12
          1.58902e-12 1.589e-12 1.56028e-12 1.56024e-12 1.61671e-12 1.61674e-12 1.64259e-12 1.64283e-12 1.64373e-12 1.64412e-12 1.55505e-12 1.55515e-12
          1.36813e-12 1.36699e-12 1.11078e-12 1.11089e-12 6.77071e-13 6.77035e-13 0 0
        </DataArray>
        <DataArray type="Float32" Name="Molarity_NH4" NumberOfComponents="1" format="ascii">
          186.16 186.169 186.245 186.244 186.356 186.358 186.468 186.469 186.584 186.586 186.7 186.701
          186.815 186.817 186.933 186.934 187.048 187.048 187.158 187.159 187.269 187.269 187.461 187.461
          187.634 187.634 187.785 187.785 187.918 187.918 188.03 188.03 188.141 188.141 188.228 188.228
          188.293 188.293 188.34 188.34 188.373 188.373 188.394 188.394 188.404 188.404 188.406 188.406
          188.4 188.4 188.388 188.388 188.368 188.368 188.342 188.342 188.306 188.306 188.26 188.26
          188.201 188.201 188.123 188.123 188.021 188.021 187.885 187.885 187.7 187.7 187.45 187.45
          187.102 187.102 186.625 186.625 185.958 185.958 185.037 185.037
        </DataArray>
        <DataArray type="Float32" Name="Molarity_HCO3" NumberOfComponents="1" format="ascii">
          0.00653293 0.00653349 0.0065341 0.00653416 0.00652112 0.00652079 0.00649191 0.00649168 0.00644508 0.0064444 0.00638152 0.00638084
          0.00630104 0.00630016 0.00620068 0.00619972 0.0060838 0.00608297 0.00595229 0.00595149 0.00580001 0.00580001 0.00548315 0.00548293
          0.00513256 0.00513235 0.00476498 0.00476494 0.00439218 0.00439215 0.00403411 0.00403402 0.00363986 0.00363989 0.00330468 0.00330465
          0.00303756 0.00303757 0.00283481 0.00283475 0.00269193 0.00269212 0.00259876 0.00259856 0.00254999 0.00255005 0.00253892 0.00253892
          0.00255884 0.00255881 0.00260797 0.002608 0.00268466 0.00268472 0.00279067 0.00279059 0.0029279 0.00292795 0.00310231 0.00310229
          0.00331987 0.00331995 0.00359045 0.0035904 0.00392113 0.00392111 0.00432128 0.00432126 0.00478831 0.00478831 0.00530681 0.00530671
          0.00584648 0.00584658 0.00632405 0.00632402 0.0065894 0.0065894 0.00553194 0.00553194
        </DataArray>
        <DataArray type="Float32" Name="Molarity_CO3" NumberOfComponents="1" format="ascii">
          1.07375e-06 1.07579e-06 1.09155e-06 1.09133e-06 1.10527e-06 1.10541e-06 1.10888e-06 1.10887e-06 1.1022e-06 1.10206e-06 1.08549e-06 1.08529e-06
          1.05932e-06 1.05902e-06 1.02336e-06 1.02301e-06 9.7969e-07 9.79379e-07 9.30116e-07 9.29816e-07 8.73431e-07 8.73433e-07 7.6084e-07 7.60767e-07
          6.46878e-07 6.46812e-07 5.39971e-07 5.39961e-07 4.44241e-07 4.44233e-07 3.63546e-07 3.63526e-07 2.86457e-07 2.86462e-07 2.29837e-07 2.29832e-07
          1.90147e-07 1.90148e-07 1.63043e-07 1.63035e-07 1.45437e-07 1.45459e-07 1.34602e-07 1.34579e-07 1.2913e-07 1.29136e-07 1.27881e-07 1.27882e-07
          1.3009e-07 1.30087e-07 1.35631e-07 1.35635e-07 1.44556e-07 1.44564e-07 1.57454e-07 1.57445e-07 1.75143e-07 1.7515e-07 1.99294e-07 1.99291e-07
          2.32147e-07 2.32159e-07 2.7744e-07 2.77432e-07 3.39823e-07 3.3982e-07 4.26615e-07 4.26611e-07 5.44809e-07 5.44811e-07 6.98979e-07 6.9895e-07
          8.84797e-07 8.84835e-07 1.05901e-06 1.059e-06 1.09673e-06 1.09672e-06 4.26535e-07 4.26535e-07
        </DataArray>
        <DataArray type="Float32" Name="Molarity_CO2" NumberOfComponents="1" format="ascii">
          0.00684186 0.00684516 0.00687993 0.00687926 0.00694388 0.00694503 0.00702485 0.00702541 0.0071252 0.00712653 0.0072421 0.00724327
          0.00737569 0.00737709 0.00753014 0.00753156 0.00769978 0.00770095 0.00788208 0.00788317 0.0080854 0.00808539 0.00849055 0.00849081
          0.00892048 0.00892074 0.00935776 0.0093578 0.00979138 0.00979142 0.010201 0.0102011 0.0106462 0.0106462 0.0110211 0.0110211
          0.0113179 0.0113179 0.0115423 0.0115424 0.0117 0.0116998 0.0118025 0.0118028 0.011856 0.0118559 0.0118706 0.0118706
          0.0118484 0.0118484 0.011794 0.011794 0.0117093 0.0117092 0.0115923 0.0115924 0.0114409 0.0114409 0.0112484 0.0112484
          0.0110076 0.0110075 0.0107074 0.0107075 0.010341 0.010341 0.00989079 0.00989082 0.00935723 0.00935722 0.00874934 0.00874945
          0.00808698 0.00808685 0.00744259 0.00744264 0.00694732 0.0069473 0.00769319 0.00769319
        </DataArray>
        <DataArray type="Float32" Name="Molarity_H" NumberOfComponents="1" format="ascii">
          0.000753936 0.000755796 0.00077346 0.000773149 0.000801025 0.000801488 0.000831937 0.000832141 0.000867496 0.000867954 0.000907199 0.000907592
          0.00095174 0.000952205 0.00100322 0.0010037 0.00106064 0.00106103 0.00112408 0.00112446 0.00119767 0.00119767 0.00135593 0.00135604
          0.00154552 0.00154565 0.0017681 0.00176812 0.00202724 0.00202727 0.00231791 0.00231799 0.00270111 0.00270108 0.00309687 0.00309691
          0.00347381 0.0034738 0.0038069 0.003807 0.00407157 0.00407121 0.00425972 0.00426015 0.00436362 0.0043635 0.00438873 0.00438873
          0.0043453 0.00434537 0.00424117 0.00424111 0.00408628 0.00408615 0.00388626 0.00388639 0.00364886 0.00364877 0.00337737 0.0033774
          0.0030784 0.00307831 0.00275666 0.00275671 0.00242333 0.00242334 0.00208554 0.00208556 0.001759 0.001759 0.00145704 0.00145709
          0.00118675 0.0011867 0.000959401 0.000959417 0.000774266 0.000774259 0.000628379 0.000628379
        </DataArray>
        <DataArray type="Float32" Name="Molarity_OH" NumberOfComponents="1" format="ascii">
          1.29e-05 1.28664e-05 1.25561e-05 1.25614e-05 1.2101e-05 1.20937e-05 1.16289e-05 1.16259e-05 1.113e-05 1.11238e-05 1.06216e-05 1.06168e-05
          1.01043e-05 1.00992e-05 9.56632e-06 9.56159e-06 9.03046e-06 9.02694e-06 8.50442e-06 8.50141e-06 7.96637e-06 7.96639e-06 7.01295e-06 7.01236e-06
          6.13401e-06 6.13351e-06 5.34752e-06 5.34745e-06 4.65301e-06 4.65295e-06 4.06139e-06 4.06125e-06 3.47831e-06 3.47835e-06 3.0291e-06 3.02907e-06
          2.69726e-06 2.69727e-06 2.45915e-06 2.45909e-06 2.29793e-06 2.29814e-06 2.1956e-06 2.19537e-06 2.14289e-06 2.14295e-06 2.13054e-06 2.13054e-06
          2.15203e-06 2.152e-06 2.20534e-06 2.20538e-06 2.2897e-06 2.28977e-06 2.40867e-06 2.40859e-06 2.56696e-06 2.56702e-06 2.77552e-06 2.7755e-06
          3.04822e-06 3.04832e-06 3.4086e-06 3.40854e-06 3.88434e-06 3.88432e-06 4.5242e-06 4.52417e-06 5.38122e-06 5.38123e-06 6.52458e-06 6.52436e-06
          8.05852e-06 8.05886e-06 1.00496e-05 1.00495e-05 1.25936e-05 1.25937e-05 1.57575e-05 1.57575e-05
        </DataArray>
        <DataArray type="Float32" Name="Da_ureolysis" NumberOfComponents="1" format="ascii">
          0 0 0 0 0 0 0 0 0 0 0 0
          0 0 0 0 0 0 0 0 0 0 0 0
          0 0 0 0 0 0 0 0 0 0 0 0
          0 0 0 0 0 0 0 0 0 0 0 0
          0 0 0 0 0 0 0 0 0 0 0 0
          0 0 0 0 0 0 0 0 0 0 0 0
          0 0 0 0 0 0 0 0
        </DataArray>
        <DataArray type="Float32" Name="Da_precipitation" NumberOfComponents="1" format="ascii">
          0 0 0 0 0 0 0 0 0 0 0 0
          0 0 0 0 0 0 0 0 0 0 0 0
          0 0 0 0 0 0 0 0 0 0 0 0
          0 0 0 0 0 0 0 0 0 0 0 0
          0 0 0 0 0 0 0 0 0 0 0 0
          0 0 0 0 0 0 0 0 0 0 0 0
          0 0 0 0 0 0 0 0
        </DataArray>
        <DataArray type="Float32" Name="Vx" NumberOfComponents="1" format="ascii">
          -1.36982e-08 -1.36761e-08 -3.39559e-09 -3.38638e-09 -4.37266e-10 -4.37209e-10 -8.86351e-10 -8.83833e-10 -3.00224e-10 -2.99625e-10 4.13978e-10 4.13083e-10
          1.00373e-09 1.00126e-09 1.65986e-09 1.65604e-09 2.25214e-09 2.24716e-09 2.52066e-09 2.51541e-09 1.67794e-09 1.67426e-09 3.82716e-10 3.81313e-10
          1.7309e-10 1.72756e-10 1.69383e-10 1.69067e-10 3.77914e-11 3.76988e-11 2.90053e-11 2.897e-11 3.04914e-11 3.04582e-11 -2.19099e-12 -2.19365e-12
          5.67533e-12 5.67024e-12 3.67418e-11 3.67337e-11 -3.75141e-11 -3.75048e-11 -3.29291e-11 -3.29224e-11 4.0422e-11 4.04214e-11 -3.95314e-12 -3.95305e-12
          8.97017e-12 8.96801e-12 2.10365e-11 2.10349e-11 -2.28975e-11 -2.28935e-11 -8.13957e-12 -8.13404e-12 1.70111e-11 1.70082e-11 1.0401e-11 1.03966e-11
          -1.51132e-11 -1.5101e-11 -2.81393e-11 -2.81358e-11 1.25596e-12 1.25551e-12 -5.88792e-12 -5.91296e-12 -2.09691e-11 -2.09629e-11 7.12722e-11 7.11683e-11
          1.56243e-11 1.5587e-11 -3.38192e-11 -3.37133e-11 3.78066e-11 3.74794e-11 3.30257e-11 3.23713e-11
        </DataArray>
        <DataArray type="Float32" Name="Vy" NumberOfComponents="1" format="ascii">
          1.95149e-07 1.83958e-07 4.30464e-08 3.2108e-08 5.4779e-09 -6.02739e-09 1.2016e-08 -6.51205e-10 5.72482e-09 -7.54795e-09 6.42772e-09 -6.8156e-09
          8.69159e-09 -3.72986e-09 2.17899e-09 -8.75467e-09 -3.64712e-10 -9.07768e-09 3.32894e-09 -2.62269e-09 2.77037e-07 2.7439e-07 -3.38722e-08 -3.49186e-08
          -3.66746e-08 -3.73548e-08 -3.35625e-08 -3.39083e-08 -3.51609e-08 -3.53295e-08 4.48938e-08 4.47803e-08 -4.8311e-08 -4.83562e-08 -4.25074e-08 -4.25243e-08
          -3.45049e-08 -3.45277e-08 -2.9408e-08 -2.93793e-08 -2.31448e-08 -2.31113e-08 -2.04342e-08 -2.04897e-08 -1.66036e-08 -1.6643e-08 -1.44549e-08 -1.44516e-08
          -1.32952e-08 -1.32971e-08 -1.26675e-08 -1.26308e-08 -1.36819e-08 -1.36474e-08 -1.51506e-08 -1.51547e-08 -1.88383e-08 -1.88306e-08 -2.37244e-08 -2.36858e-08
          -3.20451e-08 -3.20097e-08 -4.20686e-08 -4.20815e-08 -6.10549e-08 -6.10962e-08 -8.30261e-08 -8.3063e-08 -1.15414e-07 -1.15491e-07 -1.71178e-07 -1.71203e-07
          -2.30366e-07 -2.30286e-07 -3.38574e-07 -3.3853e-07 -4.62645e-07 -4.62598e-07 3.47128e-06 3.47138e-06
        </DataArray>
      </PointData>
      <CellData Scalars="process rank">
        <DataArray type="Float32" Name="process rank" NumberOfComponents="1" format="ascii">
          0 0 0 0 0 0 0 0 0 0 0 0
          0 0 0 0 0 0 0 0 0 0 0 0
          0 0 0 0 0 0 0 0 0 0 0 0
          0 0 0
        </DataArray>
      </CellData>
      <Points>
        <DataArray type="Float32" Name="Coordinates" NumberOfComponents="3" format="ascii">
          0 0 0 0.0254 0 0 0 0.01 0 0.0254 0.01 0
          0 0.02 0 0.0254 0.02 0 0 0.03 0 0.0254 0.03 0
          0 0.04 0 0.0254 0.04 0 0 0.05 0 0.0254 0.05 0
          0 0.06 0 0.0254 0.06 0 0 0.07 0 0.0254 0.07 0
          0 0.08 0 0.0254 0.08 0 0 0.09 0 0.0254 0.09 0
          0 0.1 0 0.0254 0.1 0 0 0.12 0 0.0254 0.12 0
          0 0.14 0 0.0254 0.14 0 0 0.16 0 0.0254 0.16 0
          0 0.18 0 0.0254 0.18 0 0 0.2 0 0.0254 0.2 0
          0 0.225 0 0.0254 0.225 0 0 0.25 0 0.0254 0.25 0
          0 0.275 0 0.0254 0.275 0 0 0.3 0 0.0254 0.3 0
          0 0.325 0 0.0254 0.325 0 0 0.35 0 0.0254 0.35 0
          0 0.375 0 0.0254 0.375 0 0 0.4 0 0.0254 0.4 0
          0 0.425 0 0.0254 0.425 0 0 0.45 0 0.0254 0.45 0
          0 0.475 0 0.0254 0.475 0 0 0.5 0 0.0254 0.5 0
          0 0.525 0 0.0254 0.525 0 0 0.55 0 0.0254 0.55 0
          0 0.575 0 0.0254 0.575 0 0 0.6 0 0.0254 0.6 0
          0 0.625 0 0.0254 0.625 0 0 0.65 0 0.0254 0.65 0
          0 0.675 0 0.0254 0.675 0 0 0.7 0 0.0254 0.7 0
          0 0.725 0 0.0254 0.725 0 0 0.75 0 0.0254 0.75 0
          0 0.775 0 0.0254 0.775 0 0 0.8 0 0.0254 0.8 0
        </DataArray>
      </Points>
      <Cells>
        <DataArray type="Int32" Name="connectivity" NumberOfComponents="1" format="ascii">
          0 1 3 2 2 3 5 4 4 5 7 6
          6 7 9 8 8 9 11 10 10 11 13 12
          12 13 15 14 14 15 17 16 16 17 19 18
          18 19 21 20 20 21 23 22 22 23 25 24
          24 25 27 26 26 27 29 28 28 29 31 30
          30 31 33 32 32 33 35 34 34 35 37 36
          36 37 39 38 38 39 41 40 40 41 43 42
          42 43 45 44 44 45 47 46 46 47 49 48
          48 49 51 50 50 51 53 52 52 53 55 54
          54 55 57 56 56 57 59 58 58 59 61 60
          60 61 63 62 62 63 65 64 64 65 67 66
          66 67 69 68 68 69 71 70 70 71 73 72
          72 73 75 74 74 75 77 76 76 77 79 78
        </DataArray>
        <DataArray type="Int32" Name="offsets" NumberOfComponents="1" format="ascii">
          4 8 12 16 20 24 28 32 36 40 44 48
          52 56 60 64 68 72 76 80 84 88 92 96
          100 104 108 112 116 120 124 128 132 136 140 144
          148 152 156
        </DataArray>
        <DataArray type="UInt8" Name="types" NumberOfComponents="1" format="ascii">
          9 9 9 9 9 9 9 9 9 9 9 9
          9 9 9 9 9 9 9 9 9 9 9 9
          9 9 9 9 9 9 9 9 9 9 9 9
          9 9 9
        </DataArray>
      </Cells>
    </Piece>
  </UnstructuredGrid>
</VTKFile>
