<?xml version="1.0"?>
<VTKFile type="UnstructuredGrid" version="0.1" byte_order="LittleEndian">
  <UnstructuredGrid>
    <Piece NumberOfCells="39" NumberOfPoints="80">
      <PointData Scalars="Sg">
        <DataArray type="Float32" Name="Sg" NumberOfComponents="1" format="ascii">
          0 0 0 0 0 0 0 0 0 0 0 0
          0 0 0 0 0 0 0 0 0 0 0 0
          0 0 0 0 0 0 0 0 0 0 0 0
          0 0 0 0 0 0 0 0 0 0 0 0
          0 0 0 0 0 0 0 0 0 0 0 0
          0 0 0 0 0 0 0 0 0 0 0 0
          0 0 0 0 0 0 0 0
        </DataArray>
        <DataArray type="Float32" Name="Sl" NumberOfComponents="1" format="ascii">
          1 1 1 1 1 1 1 1 1 1 1 1
          1 1 1 1 1 1 1 1 1 1 1 1
          1 1 1 1 1 1 1 1 1 1 1 1
          1 1 1 1 1 1 1 1 1 1 1 1
          1 1 1 1 1 1 1 1 1 1 1 1
          1 1 1 1 1 1 1 1 1 1 1 1
          1 1 1 1 1 1 1 1
        </DataArray>
        <DataArray type="Float32" Name="pg" NumberOfComponents="1" format="ascii">
          120086 120086 119955 119955 119823 119823 119691 119691 119558 119558 119425 119425
          119291 119291 119158 119158 119024 119024 118890 118890 118756 118756 118487 118487
          118218 118218 117949 117948 117678 117678 117408 117408 117071 117071 116733 116733
          116396 116396 116060 116060 115724 115724 115390 115390 115056 115056 114724 114724
          114392 114392 114061 114061 113732 113732 113404 113404 113078 113078 112753 112753
          112430 112430 112109 112109 111790 111790 111474 111474 111160 111160 110850 110850
          110546 110546 110247 110247 109954 109954 109667 109667
        </DataArray>
        <DataArray type="Float32" Name="pl" NumberOfComponents="1" format="ascii">
          110419 110419 110289 110289 110156 110157 110024 110024 109892 109891 109758 109758
          109625 109625 109491 109491 109357 109357 109223 109223 109089 109089 108821 108821
          108551 108551 108282 108282 108012 108012 107741 107741 107404 107404 107067 107067
          106730 106730 106393 106393 106058 106058 105723 105723 105390 105390 105057 105057
          104725 104725 104395 104395 104066 104066 103738 103738 103411 103411 103086 103086
          102763 102763 102443 102443 102124 102124 101807 101807 101493 101493 101184 101184
          100879 100879 100580 100580 100287 100287 100000 100000
        </DataArray>
        <DataArray type="Float32" Name="pc" NumberOfComponents="1" format="ascii">
          9666.67 9666.67 9666.67 9666.67 9666.67 9666.67 9666.67 9666.67 9666.67 9666.67 9666.67 9666.67
          9666.67 9666.67 9666.67 9666.67 9666.67 9666.67 9666.67 9666.67 9666.67 9666.67 9666.67 9666.67
          9666.67 9666.67 9666.67 9666.67 9666.67 9666.67 9666.67 9666.67 9666.67 9666.67 9666.67 9666.67
          9666.67 9666.67 9666.67 9666.67 9666.67 9666.67 9666.67 9666.67 9666.67 9666.67 9666.67 9666.67
          9666.67 9666.67 9666.67 9666.67 9666.67 9666.67 9666.67 9666.67 9666.67 9666.67 9666.67 9666.67
          9666.67 9666.67 9666.67 9666.67 9666.67 9666.67 9666.67 9666.67 9666.67 9666.67 9666.67 9666.67
          9666.67 9666.67 9666.67 9666.67 9666.67 9666.67 9666.67 9666.67
        </DataArray>
        <DataArray type="Float32" Name="rhoL" NumberOfComponents="1" format="ascii">
          1025.87 1025.87 1025.77 1025.77 1025.67 1025.67 1025.57 1025.57 1025.48 1025.48 1025.38 1025.38
          1025.29 1025.29 1025.19 1025.19 1025.1 1025.1 1025.01 1025.01 1024.91 1024.91 1024.74 1024.74
          1024.57 1024.57 1024.41 1024.41 1024.24 1024.24 1024.08 1024.08 1023.89 1023.89 1023.7 1023.7
          1023.51 1023.51 1023.32 1023.32 1023.13 1023.13 1022.94 1022.94 1022.75 1022.75 1022.55 1022.55
          1022.34 1022.34 1022.12 1022.12 1021.88 1021.88 1021.61 1021.61 1021.31 1021.31 1020.95 1020.95
          1020.52 1020.52 1020 1020 1019.33 1019.33 1018.48 1018.48 1017.36 1017.36 1015.88 1015.88
          1013.85 1013.85 1011.04 1011.04 1007.07 1007.07 1001.45 1001.45
        </DataArray>
        <DataArray type="Float32" Name="rhoG" NumberOfComponents="1" format="ascii">
          2.11379 2.11403 2.11166 2.11166 2.10926 2.10927 2.10687 2.10687 2.10447 2.10446 2.10205 2.10205
          2.09963 2.09963 2.09721 2.09721 2.09479 2.09479 2.09236 2.09236 2.08993 2.08993 2.08505 2.08506
          2.08017 2.08018 2.07529 2.07529 2.07039 2.07039 2.06549 2.0655 2.05938 2.05938 2.05326 2.05326
          2.04716 2.04716 2.04106 2.04106 2.03498 2.03498 2.02892 2.02892 2.02287 2.02287 2.01684 2.01684
          2.01083 2.01083 2.00484 2.00484 1.99887 1.99887 1.99293 1.99293 1.98701 1.98701 1.98112 1.98112
          1.97526 1.97526 1.96944 1.96944 1.96365 1.96365 1.9579 1.9579 1.95221 1.95221 1.94657 1.94657
          1.94102 1.94102 1.93556 1.93556 1.93019 1.93019 1.9249 1.9249
        </DataArray>
        <DataArray type="Float32" Name="mobL" NumberOfComponents="1" format="ascii">
          1009.05 1009.05 1009.32 1009.33 1009.6 1009.6 1009.87 1009.88 1010.14 1010.15 1010.41 1010.41
          1010.68 1010.68 1010.94 1010.95 1011.21 1011.21 1011.47 1011.47 1011.73 1011.73 1012.22 1012.22
          1012.71 1012.71 1013.18 1013.18 1013.65 1013.65 1014.12 1014.12 1014.68 1014.68 1015.23 1015.23
          1015.78 1015.78 1016.33 1016.33 1016.88 1016.88 1017.43 1017.43 1018 1018 1018.59 1018.59
          1019.21 1019.21 1019.87 1019.87 1020.59 1020.59 1021.39 1021.39 1022.31 1022.31 1023.4 1023.4
          1024.71 1024.71 1026.35 1026.35 1028.43 1028.43 1031.16 1031.16 1034.81 1034.81 1039.83 1039.83
          1046.97 1046.97 1057.58 1057.58 1074.26 1074.26 1103.12 1103.12
        </DataArray>
        <DataArray type="Float32" Name="mobG" NumberOfComponents="1" format="ascii">
          0 0 0 0 0 0 0 0 0 0 0 0
          0 0 0 0 0 0 0 0 0 0 0 0
          0 0 0 0 0 0 0 0 0 0 0 0
          0 0 0 0 0 0 0 0 0 0 0 0
          0 0 0 0 0 0 0 0 0 0 0 0
          0 0 0 0 0 0 0 0 0 0 0 0
          0 0 0 0 0 0 0 0
        </DataArray>
        <DataArray type="Float32" Name="porosity" NumberOfComponents="1" format="ascii">
          0.332418 0.332489 0.324353 0.324529 0.321583 0.322187 0.324528 0.320977 0.319317 0.320049 0.318923 0.319147
          0.319675 0.318412 0.317628 0.317684 0.316986 0.317068 0.316364 0.316563 0.315685 0.315743 0.314978 0.315051
          0.314084 0.314032 0.314122 0.313743 0.311149 0.312739 0.313456 0.312783 0.313032 0.312953 0.313145 0.313072
          0.313657 0.313682 0.314506 0.314534 0.31536 0.315396 0.316662 0.31672 0.317983 0.317959 0.318398 0.318437
          0.320048 0.319974 0.321596 0.32158 0.323036 0.32316 0.325086 0.325067 0.327026 0.326993 0.32922 0.329198
          0.331952 0.331886 0.334865 0.334897 0.337364 0.33739 0.341634 0.341618 0.346952 0.346943 0.353877 0.353875
          0.363455 0.363459 0.376436 0.376446 0.388689 0.388691 0.4 0.4
        </DataArray>
        <DataArray type="Float32" Name="temperature" NumberOfComponents="1" format="ascii">
          298.15 298.15 298.15 298.15 298.15 298.15 298.15 298.15 298.15 298.15 298.15 298.15
          298.15 298.15 298.15 298.15 298.15 298.15 298.15 298.15 298.15 298.15 298.15 298.15
          298.15 298.15 298.15 298.15 298.15 298.15 298.15 298.15 298.15 298.15 298.15 298.15
          298.15 298.15 298.15 298.15 298.15 298.15 298.15 298.15 298.15 298.15 298.15 298.15
          298.15 298.15 298.15 298.15 298.15 298.15 298.15 298.15 298.15 298.15 298.15 298.15
          298.15 298.15 298.15 298.15 298.15 298.15 298.15 298.15 298.15 298.15 298.15 298.15
          298.15 298.15 298.15 298.15 298.15 298.15 298.15 298.15
        </DataArray>
        <DataArray type="Float32" Name="phase presence" NumberOfComponents="1" format="ascii">
          1 1 1 1 1 1 1 1 1 1 1 1
          1 1 1 1 1 1 1 1 1 1 1 1
          1 1 1 1 1 1 1 1 1 1 1 1
          1 1 1 1 1 1 1 1 1 1 1 1
          1 1 1 1 1 1 1 1 1 1 1 1
          1 1 1 1 1 1 1 1 1 1 1 1
          1 1 1 1 1 1 1 1
        </DataArray>
        <DataArray type="Float32" Name="potential" NumberOfComponents="1" format="ascii">
          0.235323 0.235322 0.232432 0.232438 0.229379 0.229419 0.226336 0.226337 0.223257 0.223223 0.22008 0.220092
          0.216921 0.216922 0.213742 0.213726 0.210517 0.210511 0.207275 0.207274 0.204013 0.204014 0.19743 0.197431
          0.190787 0.190791 0.184118 0.184099 0.177352 0.177355 0.170559 0.170577 0.162123 0.162117 0.153667 0.153666
          0.145237 0.145236 0.13686 0.136859 0.128549 0.128548 0.120321 0.120322 0.112195 0.112195 0.104135 0.104136
          0.0961538 0.0961543 0.0882952 0.0882932 0.0805521 0.080552 0.072941 0.0729421 0.0654776 0.0654776 0.0581665 0.0581668
          0.0510341 0.0510337 0.0441027 0.044102 0.0373628 0.0373632 0.0308505 0.0308507 0.0246399 0.0246398 0.0187869 0.0187868
          0.0133679 0.0133678 0.00846544 0.00846544 0.00405417 0.00405422 0 0
        </DataArray>
        <DataArray type="Float32" Name="boxVolume" NumberOfComponents="1" format="ascii">
          6.35e-05 6.35e-05 0.000127 0.000127 0.000127 0.000127 0.000127 0.000127 0.000127 0.000127 0.000127 0.000127
          0.000127 0.000127 0.000127 0.000127 0.000127 0.000127 0.000127 0.000127 0.0001905 0.0001905 0.000254 0.000254
          0.000254 0.000254 0.000254 0.000254 0.000254 0.000254 0.00028575 0.00028575 0.0003175 0.0003175 0.0003175 0.0003175
          0.0003175 0.0003175 0.0003175 0.0003175 0.0003175 0.0003175 0.0003175 0.0003175 0.0003175 0.0003175 0.0003175 0.0003175
          0.0003175 0.0003175 0.0003175 0.0003175 0.0003175 0.0003175 0.0003175 0.0003175 0.0003175 0.0003175 0.0003175 0.0003175
          0.0003175 0.0003175 0.0003175 0.0003175 0.0003175 0.0003175 0.0003175 0.0003175 0.0003175 0.0003175 0.0003175 0.0003175
          0.0003175 0.0003175 0.0003175 0.0003175 0.0003175 0.0003175 0.00015875 0.00015875
        </DataArray>
        <DataArray type="Float32" Name="pH" NumberOfComponents="1" format="ascii">
          6.70408 6.70406 6.70779 6.70779 6.70605 6.7057 6.70123 6.70344 6.70179 6.70137 6.69944 6.69921
          6.69649 6.69732 6.69551 6.69538 6.69367 6.69353 6.69204 6.69194 6.69082 6.69075 6.68816 6.68812
          6.68636 6.6863 6.68482 6.68483 6.68404 6.6838 6.68332 6.68333 6.68269 6.68323 6.68298 6.68296
          6.68356 6.68355 6.68455 6.68455 6.6859 6.68588 6.68767 6.6876 6.68974 6.68975 6.69299 6.69296
          6.69602 6.696 6.69936 6.69928 6.70349 6.70364 6.70753 6.71728 6.71301 6.71363 6.71899 6.71903
          6.7262 6.72622 6.73518 6.73517 6.74759 6.74758 6.76265 6.76263 6.78299 6.78298 6.811 6.81099
          6.84811 6.84809 6.87917 6.87914 6.81962 6.81958 6.19963 6.19963
        </DataArray>
        <DataArray type="Float32" Name="Omega" NumberOfComponents="1" format="ascii">
          41.4988 41.4974 42.8465 42.8511 42.9492 42.8785 42.3255 42.8202 42.8458 42.7561 42.6777 42.6315
          42.3392 42.5264 42.3973 42.3719 42.2293 42.1998 42.0749 42.0519 41.9768 41.96 41.6283 41.6191
          41.3633 41.3502 41.0618 41.0653 40.8386 40.7882 40.5489 40.5503 40.1493 40.2639 39.8426 39.8385
          39.5038 39.5027 39.1618 39.1617 38.8108 38.8069 38.4617 38.4477 38.087 38.0894 37.8636 37.859
          37.5049 37.5012 37.1054 37.0914 36.7446 36.7741 36.2268 38.1522 35.8134 35.9326 35.27 35.2776
          34.6616 34.6649 33.9723 33.9715 33.338 33.3361 32.3712 32.3674 31.135 31.1331 29.3854 29.3837
          26.2956 26.2931 18.7339 18.731 5.04201 5.04085 0 0
        </DataArray>
        <DataArray type="Float32" Name="rurea" NumberOfComponents="1" format="ascii">
          0 0 0 0 0 0 0 0 0 0 0 0
          0 0 0 0 0 0 0 0 0 0 0 0
          0 0 0 0 0 0 0 0 0 0 0 0
          0 0 0 0 0 0 0 0 0 0 0 0
          0 0 0 0 0 0 0 0 0 0 0 0
          0 0 0 0 0 0 0 0 0 0 0 0
          0 0 0 0 0 0 0 0
        </DataArray>
        <DataArray type="Float32" Name="Volume_Fraction_Biofilm" NumberOfComponents="1" format="ascii">
          0.0173289 0.017329 0.0168025 0.0168229 0.0168371 0.0167057 0.0159502 0.016615 0.0168764 0.01671 0.0166717 0.0166004
          0.01628 0.0165426 0.0165191 0.016461 0.016359 0.0163167 0.0162451 0.0162213 0.0162475 0.0162273 0.0159831 0.0159736
          0.0158532 0.0158342 0.0156953 0.0156898 0.0155594 0.0155388 0.0154994 0.015479 0.0152597 0.0152759 0.0151718 0.015159
          0.015052 0.0150523 0.0149415 0.0149427 0.0148211 0.014817 0.0147217 0.0147029 0.014577 0.0145807 0.0146493 0.0146437
          0.0145468 0.0145354 0.0143914 0.0143684 0.0142704 0.0142311 0.0140764 0.0140678 0.0138634 0.0138817 0.0136214 0.0136209
          0.013302 0.0133042 0.012897 0.0128963 0.012693 0.0126911 0.0121108 0.0121047 0.0113982 0.0113956 0.0104145 0.0104124
          0.00905555 0.00905261 0.00710554 0.00710313 0.00411774 0.00411625 0 0
        </DataArray>
        <DataArray type="Float32" Name="Volume_Fraction_Calcite" NumberOfComponents="1" format="ascii">
          0.0502526 0.0501817 0.0588442 0.0586482 0.06158 0.0611076 0.0595216 0.0624076 0.0638069 0.0632406 0.0644048 0.0642522
          0.0640451 0.065045 0.065853 0.0658547 0.0666554 0.0666155 0.0673908 0.0672154 0.0680676 0.0680301 0.0690393 0.068975
          0.0700625 0.0701334 0.0701826 0.0705676 0.0732914 0.0717219 0.0710441 0.0717376 0.0717084 0.0717715 0.0716827 0.0717692
          0.0712913 0.0712656 0.0705528 0.0705237 0.0698192 0.069787 0.0686161 0.0685768 0.0674404 0.0674598 0.0669526 0.0669188
          0.0654047 0.0654903 0.0640126 0.0640518 0.0626939 0.0626087 0.0608381 0.0608656 0.0591105 0.0591258 0.0571584 0.0571816
          0.0547457 0.0548098 0.0522379 0.0522063 0.0499427 0.0499188 0.0462551 0.0462776 0.04165 0.0416617 0.0357089 0.035713
          0.0274899 0.0274886 0.016458 0.0164506 0.00719311 0.00719243 0 0
        </DataArray>
        <DataArray type="Float32" Name="Kxx" NumberOfComponents="1" format="ascii">
          1.1479e-10 1.14864e-10 1.06636e-10 1.0681e-10 1.03927e-10 1.04514e-10 1.06809e-10 1.03341e-10 1.01745e-10 1.02447e-10 1.0137e-10 1.01584e-10
          1.02088e-10 1.00883e-10 1.0014e-10 1.00193e-10 9.95334e-11 9.96108e-11 9.89491e-11 9.91361e-11 9.83131e-11 9.83671e-11 9.76537e-11 9.77224e-11
          9.68253e-11 9.67772e-11 9.68602e-11 9.65096e-11 9.4136e-11 9.55867e-11 9.62457e-11 9.56271e-11 9.58552e-11 9.57824e-11 9.59596e-11 9.58919e-11
          9.64303e-11 9.64538e-11 9.72155e-11 9.72414e-11 9.80096e-11 9.80435e-11 9.92289e-11 9.92837e-11 1.00475e-10 1.00454e-10 1.0087e-10 1.00907e-10
          1.02447e-10 1.02375e-10 1.0394e-10 1.03924e-10 1.05342e-10 1.05464e-10 1.0736e-10 1.07341e-10 1.09294e-10 1.09261e-10 1.11509e-10 1.11486e-10
          1.14308e-10 1.1424e-10 1.17344e-10 1.17378e-10 1.19991e-10 1.20018e-10 1.24605e-10 1.24587e-10 1.30514e-10 1.30504e-10 1.38486e-10 1.38484e-10
          1.50038e-10 1.50043e-10 1.66696e-10 1.66709e-10 1.83509e-10 1.83512e-10 2e-10 2e-10
        </DataArray>
        <DataArray type="Float32" Name="X_lBrine" NumberOfComponents="1" format="ascii">
          0.932852 0.932854 0.93309 0.933093 0.933324 0.933327 0.933556 0.93356 0.933787 0.933789 0.934015 0.934018
          0.934241 0.934244 0.934467 0.934468 0.93469 0.934691 0.934912 0.934913 0.935133 0.935134 0.935545 0.935545
          0.935949 0.935949 0.936347 0.936346 0.936738 0.936737 0.937124 0.937123 0.937587 0.937586 0.938042 0.938042
          0.938493 0.938493 0.93894 0.93894 0.939387 0.939387 0.939837 0.939837 0.940295 0.940295 0.940767 0.940766
          0.941257 0.941257 0.941778 0.941778 0.942342 0.942342 0.942968 0.942965 0.943679 0.943678 0.944509 0.944509
          0.945505 0.945505 0.94673 0.94673 0.948271 0.948271 0.95025 0.95025 0.952844 0.952844 0.95631 0.95631
          0.961033 0.961033 0.967614 0.967614 0.976948 0.976948 0.99029 0.99029
        </DataArray>
        <DataArray type="Float32" Name="X_lTotalC" NumberOfComponents="1" format="ascii">
          1.8905e-05 1.89079e-05 1.96947e-05 1.97005e-05 2.02108e-05 2.0203e-05 2.05624e-05 2.06863e-05 2.11846e-05 2.11683e-05 2.16427e-05 2.16378e-05
          2.20603e-05 2.21129e-05 2.25798e-05 2.25766e-05 2.3043e-05 2.30375e-05 2.35119e-05 2.35072e-05 2.39991e-05 2.39954e-05 2.48752e-05 2.48727e-05
          2.57762e-05 2.57719e-05 2.66704e-05 2.66692e-05 2.7592e-05 2.75734e-05 2.84985e-05 2.84983e-05 2.95917e-05 2.9632e-05 3.07224e-05 3.07206e-05
          3.18471e-05 3.18465e-05 3.29768e-05 3.29766e-05 3.41094e-05 3.41072e-05 3.52497e-05 3.52427e-05 3.63858e-05 3.63864e-05 3.76004e-05 3.75976e-05
          3.87546e-05 3.87519e-05 3.98899e-05 3.9881e-05 4.10462e-05 4.10599e-05 4.2117e-05 4.31794e-05 4.32486e-05 4.33177e-05 4.43141e-05 4.43188e-05
          4.53604e-05 4.53626e-05 4.63998e-05 4.63992e-05 4.7566e-05 4.75646e-05 4.86564e-05 4.86533e-05 4.98264e-05 4.98246e-05 5.11006e-05 5.10989e-05
          5.21343e-05 5.21315e-05 4.97364e-05 4.97323e-05 3.31613e-05 3.31572e-05 5.81077e-07 5.81077e-07
        </DataArray>
        <DataArray type="Float32" Name="X_lNa" NumberOfComponents="1" format="ascii">
          1.20516e-07 1.20517e-07 1.2069e-07 1.20691e-07 1.20875e-07 1.20877e-07 1.21075e-07 1.21076e-07 1.21292e-07 1.21292e-07 1.21524e-07 1.21525e-07
          1.21776e-07 1.21777e-07 1.2205e-07 1.2205e-07 1.22345e-07 1.22345e-07 1.22665e-07 1.22665e-07 1.23013e-07 1.23013e-07 1.23753e-07 1.23753e-07
          1.24616e-07 1.24616e-07 1.25627e-07 1.25626e-07 1.2681e-07 1.26809e-07 1.282e-07 1.28201e-07 1.30241e-07 1.3024e-07 1.32742e-07 1.32742e-07
          1.35827e-07 1.35827e-07 1.39654e-07 1.39653e-07 1.44426e-07 1.44425e-07 1.50412e-07 1.50412e-07 1.5797e-07 1.5797e-07 1.6755e-07 1.6755e-07
          1.79765e-07 1.79765e-07 1.95449e-07 1.95447e-07 2.15687e-07 2.15686e-07 2.41955e-07 2.41956e-07 2.76242e-07 2.76243e-07 3.21223e-07 3.21225e-07
          3.80574e-07 3.80574e-07 4.5933e-07 4.59327e-07 5.6427e-07 5.64272e-07 7.04963e-07 7.04965e-07 8.95203e-07 8.95203e-07 1.15477e-06 1.15477e-06
          1.51318e-06 1.51318e-06 2.01578e-06 2.01577e-06 2.72931e-06 2.72931e-06 3.74885e-06 3.74885e-06
        </DataArray>
        <DataArray type="Float32" Name="X_lCl" NumberOfComponents="1" format="ascii">
          0.0300883 0.0300884 0.030095 0.0300951 0.0301015 0.0301016 0.0301078 0.0301079 0.0301139 0.030114 0.0301198 0.0301199
          0.0301256 0.0301257 0.0301312 0.0301312 0.0301365 0.0301365 0.0301416 0.0301417 0.0301465 0.0301465 0.030155 0.030155
          0.0301624 0.0301624 0.0301685 0.0301685 0.0301732 0.0301732 0.0301763 0.0301763 0.0301774 0.0301774 0.030175 0.030175
          0.0301684 0.0301683 0.0301564 0.0301564 0.0301378 0.0301378 0.0301109 0.0301109 0.0300732 0.0300732 0.0300217 0.0300217
          0.0299524 0.0299524 0.0298598 0.0298598 0.0297368 0.0297368 0.0295734 0.0295734 0.0293567 0.0293567 0.029069 0.029069
          0.0286861 0.0286861 0.0281747 0.0281747 0.0274901 0.0274901 0.0265694 0.0265694 0.0253217 0.0253217 0.0236169 0.0236169
          0.0212607 0.0212607 0.0179551 0.0179551 0.0132619 0.0132619 0.00655617 0.00655617
        </DataArray>
        <DataArray type="Float32" Name="X_lCa" NumberOfComponents="1" format="ascii">
          0.0120863 0.0120853 0.0119366 0.0119352 0.0117901 0.0117877 0.0116445 0.0116419 0.0114993 0.0114979 0.0113567 0.0113549
          0.0112149 0.0112133 0.0110739 0.0110731 0.0109344 0.0109338 0.0107958 0.0107955 0.0106581 0.0106579 0.0104023 0.0104023
          0.0101521 0.0101522 0.00990677 0.00990735 0.00966692 0.00966743 0.00943162 0.00943177 0.00915168 0.00915176 0.00887931 0.00887935
          0.00861421 0.00861425 0.00835593 0.00835599 0.00810414 0.00810425 0.00785832 0.00785847 0.00761794 0.00761804 0.00738262 0.00738271
          0.00715241 0.00715255 0.00692637 0.00692661 0.00670341 0.00670373 0.006482 0.00648313 0.0062599 0.00625998 0.00603378 0.00603377
          0.00579904 0.00579903 0.00554894 0.00554895 0.00527424 0.00527425 0.00496208 0.0049621 0.00459213 0.00459216 0.00413446 0.00413449
          0.00354263 0.00354266 0.00274142 0.00274144 0.00161293 0.00161293 0 0
        </DataArray>
        <DataArray type="Float32" Name="X_lUrea" NumberOfComponents="1" format="ascii">
          0.017798 0.0177965 0.0175704 0.0175683 0.0173481 0.0173445 0.0171274 0.0171234 0.016907 0.0169048 0.0166906 0.0166879
          0.0164756 0.0164731 0.0162616 0.0162603 0.0160499 0.0160491 0.0158397 0.0158391 0.0156308 0.0156304 0.0152427 0.0152426
          0.014863 0.0148632 0.0144908 0.0144917 0.0141269 0.0141277 0.0137698 0.0137701 0.0133451 0.0133452 0.0129319 0.012932
          0.0125297 0.0125298 0.012138 0.0121381 0.0117562 0.0117564 0.0113836 0.0113838 0.0110194 0.0110196 0.010663 0.0106632
          0.0103148 0.010315 0.0099734 0.00997378 0.0096372 0.00963767 0.00930422 0.00930447 0.00897113 0.00897115 0.00863341 0.00863339
          0.0082845 0.00828448 0.00791481 0.00791482 0.00751104 0.00751106 0.00705521 0.00705525 0.00651812 0.00651816 0.00585691 0.00585695
          0.00500556 0.00500561 0.00386039 0.00386042 0.00226626 0.00226628 0 0
        </DataArray>
        <DataArray type="Float32" Name="X_lTotalNH" NumberOfComponents="1" format="ascii">
          0.004196 0.00419685 0.00432706 0.0043283 0.00445506 0.00445715 0.00458213 0.00458442 0.00470892 0.00471017 0.00483333 0.0048349
          0.00495692 0.00495837 0.00507981 0.00508059 0.00520133 0.00520185 0.00532192 0.00532226 0.00544169 0.00544189 0.00566385 0.00566389
          0.00588077 0.00588069 0.0060929 0.00609239 0.00629971 0.00629925 0.00650187 0.00650173 0.00674116 0.00674112 0.00697238 0.00697234
          0.00719537 0.00719533 0.00741001 0.00740996 0.00761596 0.00761587 0.00781281 0.00781268 0.00799987 0.00799979 0.00817609 0.00817601
          0.00833936 0.00833924 0.00848788 0.00848767 0.00861913 0.00861886 0.00872968 0.0087295 0.00881522 0.0088152 0.00887001 0.00887002
          0.00888635 0.00888637 0.00885404 0.00885405 0.00875958 0.00875956 0.00858344 0.0085834 0.00829939 0.00829936 0.00787036 0.00787034
          0.00724227 0.00724226 0.00633345 0.00633344 0.0050252 0.00502519 0.00314947 0.00314947
        </DataArray>
        <DataArray type="Float32" Name="X_lO2" NumberOfComponents="1" format="ascii">
          7.47564e-06 7.47534e-06 7.42818e-06 7.42774e-06 7.38144e-06 7.38069e-06 7.33465e-06 7.33384e-06 7.28757e-06 7.28714e-06 7.24098e-06 7.24043e-06
          7.19429e-06 7.19378e-06 7.14747e-06 7.1472e-06 7.10075e-06 7.10057e-06 7.05398e-06 7.05386e-06 7.00711e-06 7.00704e-06 6.91891e-06 6.9189e-06
          6.83118e-06 6.83122e-06 6.74372e-06 6.74393e-06 6.65673e-06 6.65691e-06 6.56989e-06 6.56993e-06 6.46443e-06 6.46445e-06 6.35944e-06 6.35946e-06
          6.25478e-06 6.25479e-06 6.15021e-06 6.15023e-06 6.04551e-06 6.04555e-06 5.94033e-06 5.9404e-06 5.83427e-06 5.83431e-06 5.72688e-06 5.72692e-06
          5.61786e-06 5.61792e-06 5.50628e-06 5.50639e-06 5.391e-06 5.39113e-06 5.27047e-06 5.27053e-06 5.14241e-06 5.14241e-06 5.00374e-06 5.00373e-06
          4.85009e-06 4.85008e-06 4.67534e-06 4.67534e-06 4.47112e-06 4.47113e-06 4.22599e-06 4.22601e-06 3.92238e-06 3.9224e-06 3.53488e-06 3.5349e-06
          3.02491e-06 3.02493e-06 2.33236e-06 2.33238e-06 1.36758e-06 1.36759e-06 0 0
        </DataArray>
        <DataArray type="Float32" Name="X_lSubstrate" NumberOfComponents="1" format="ascii">
          0.00295271 0.00295272 0.00295332 0.00295333 0.00295392 0.00295393 0.0029545 0.00295451 0.00295508 0.00295508 0.00295563 0.00295564
          0.00295618 0.00295618 0.00295671 0.00295671 0.00295722 0.00295723 0.00295772 0.00295773 0.00295821 0.00295821 0.00295906 0.00295906
          0.00295982 0.00295982 0.00296049 0.00296048 0.00296103 0.00296103 0.00296143 0.00296143 0.00296168 0.00296168 0.0029616 0.0029616
          0.0029611 0.0029611 0.00296006 0.00296006 0.00295831 0.00295831 0.00295564 0.00295564 0.00295175 0.00295175 0.00294627 0.00294627
          0.00293869 0.00293869 0.0029283 0.0029283 0.0029142 0.0029142 0.00289514 0.00289513 0.00286944 0.00286944 0.00283485 0.00283485
          0.00278827 0.00278827 0.00272546 0.00272546 0.00264072 0.00264072 0.00252602 0.00252602 0.00236982 0.00236982 0.00215557 0.00215558
          0.00185866 0.00185866 0.00144133 0.00144133 0.000848092 0.000848093 0 0
        </DataArray>
        <DataArray type="Float32" Name="X_lSuspended_Biomass" NumberOfComponents="1" format="ascii">
          5.08718e-08 5.09176e-08 5.71456e-08 5.72118e-08 6.33278e-08 6.34391e-08 6.95135e-08 6.96428e-08 7.57494e-08 7.58201e-08 8.19105e-08 8.19964e-08
          8.8075e-08 8.81573e-08 9.42558e-08 9.43002e-08 1.00411e-07 1.00439e-07 1.06562e-07 1.0658e-07 1.12714e-07 1.12725e-07 1.24248e-07 1.2425e-07
          1.35666e-07 1.35661e-07 1.46986e-07 1.46957e-07 1.5817e-07 1.58144e-07 1.69245e-07 1.69236e-07 1.82546e-07 1.82545e-07 1.95614e-07 1.95612e-07
          2.08425e-07 2.08423e-07 2.20963e-07 2.20961e-07 2.33201e-07 2.33196e-07 2.4511e-07 2.45101e-07 2.56644e-07 2.56639e-07 2.67738e-07 2.67732e-07
          2.78239e-07 2.7823e-07 2.88029e-07 2.88013e-07 2.9695e-07 2.96929e-07 3.0478e-07 3.04768e-07 3.11258e-07 3.11258e-07 3.16031e-07 3.16033e-07
          3.18634e-07 3.18637e-07 3.18462e-07 3.18465e-07 3.14713e-07 3.14715e-07 3.06205e-07 3.06206e-07 2.91395e-07 2.91398e-07 2.68109e-07 2.68115e-07
          2.33196e-07 2.33203e-07 1.81912e-07 1.81919e-07 1.07385e-07 1.07392e-07 0 0
        </DataArray>
        <DataArray type="Float32" Name="X_lNH4" NumberOfComponents="1" format="ascii">
          0.00443575 0.00443665 0.0045742 0.00457551 0.00470953 0.00471174 0.00484393 0.00484631 0.00497793 0.00497926 0.00510947 0.00511113
          0.00524016 0.00524168 0.00537008 0.0053709 0.00549856 0.00549911 0.00562605 0.00562641 0.00575267 0.00575288 0.00598754 0.00598759
          0.00621685 0.00621676 0.00644109 0.00644055 0.00665969 0.0066592 0.00687336 0.00687322 0.00712627 0.00712621 0.00737061 0.00737058
          0.00760625 0.00760621 0.00783304 0.00783299 0.00805062 0.00805052 0.00825856 0.00825842 0.00845612 0.00845604 0.00864218 0.0086421
          0.00881454 0.00881442 0.00897129 0.00897107 0.00910975 0.00910946 0.0092263 0.00922566 0.00931634 0.00931629 0.00937384 0.00937384
          0.00939061 0.00939063 0.00935586 0.00935586 0.00925521 0.00925519 0.00906806 0.00906803 0.00876657 0.00876655 0.00831145 0.00831143
          0.00764557 0.00764555 0.00668374 0.00668373 0.00530488 0.00530488 0.00333307 0.00333307
        </DataArray>
        <DataArray type="Float32" Name="X_lHCO3" NumberOfComponents="1" format="ascii">
          2.17335e-05 2.17365e-05 2.26647e-05 2.26713e-05 2.32334e-05 2.32211e-05 2.35833e-05 2.37457e-05 2.42919e-05 2.42691e-05 2.47837e-05 2.47757e-05
          2.52213e-05 2.52898e-05 2.57939e-05 2.57888e-05 2.62919e-05 2.6284e-05 2.67972e-05 2.67906e-05 2.73265e-05 2.73214e-05 2.82686e-05 2.82653e-05
          2.92449e-05 2.92392e-05 3.02129e-05 3.02118e-05 3.12183e-05 3.11942e-05 3.22046e-05 3.22045e-05 3.3393e-05 3.34462e-05 3.46334e-05 3.46311e-05
          3.58684e-05 3.58677e-05 3.7113e-05 3.71127e-05 3.83645e-05 3.83617e-05 3.96298e-05 3.96208e-05 4.08939e-05 4.08948e-05 4.22665e-05 4.2263e-05
          4.35671e-05 4.35637e-05 4.48517e-05 4.48403e-05 4.6175e-05 4.61934e-05 4.73998e-05 4.87984e-05 4.87218e-05 4.88128e-05 4.99785e-05 4.99846e-05
          5.12371e-05 5.124e-05 5.25213e-05 5.25205e-05 5.40171e-05 5.40152e-05 5.54723e-05 5.54683e-05 5.71125e-05 5.71101e-05 5.90009e-05 5.89987e-05
          6.07306e-05 6.07269e-05 5.81431e-05 5.81376e-05 3.72753e-05 3.72701e-05 3.37056e-07 3.37056e-07
        </DataArray>
        <DataArray type="Float32" Name="X_lCO3" NumberOfComponents="1" format="ascii">
          2.43097e-08 2.43109e-08 2.54306e-08 2.54366e-08 2.58249e-08 2.5788e-08 2.57846e-08 2.60919e-08 2.64478e-08 2.63959e-08 2.66915e-08 2.66671e-08
          2.68313e-08 2.6954e-08 2.7227e-08 2.7213e-08 2.7482e-08 2.74644e-08 2.77498e-08 2.77357e-08 2.80597e-08 2.80492e-08 2.85431e-08 2.8537e-08
          2.90925e-08 2.9083e-08 2.96276e-08 2.96283e-08 3.02296e-08 3.01906e-08 3.0796e-08 3.07966e-08 3.14644e-08 3.15539e-08 3.2221e-08 3.22175e-08
          3.29695e-08 3.29684e-08 3.37338e-08 3.37336e-08 3.45102e-08 3.45063e-08 3.53102e-08 3.52967e-08 3.6111e-08 3.61128e-08 3.70864e-08 3.70814e-08
          3.79619e-08 3.79574e-08 3.88301e-08 3.88141e-08 3.97815e-08 3.98116e-08 4.06151e-08 4.27662e-08 4.16373e-08 4.17752e-08 4.2612e-08 4.26212e-08
          4.36545e-08 4.36588e-08 4.48153e-08 4.48142e-08 4.63958e-08 4.63931e-08 4.80488e-08 4.80428e-08 5.0157e-08 5.01536e-08 5.2884e-08 5.28807e-08
          5.56615e-08 5.56559e-08 5.17995e-08 5.17912e-08 2.4057e-08 2.40513e-08 2.55591e-11 2.55591e-11
        </DataArray>
        <DataArray type="Float32" Name="X_lCO2" NumberOfComponents="1" format="ascii">
          3.21524e-06 3.21591e-06 3.33261e-06 3.33366e-06 3.43831e-06 3.43941e-06 3.53767e-06 3.54414e-06 3.64838e-06 3.64858e-06 3.75173e-06 3.7526e-06
          3.85359e-06 3.85677e-06 3.95999e-06 3.96039e-06 4.06389e-06 4.06401e-06 4.16818e-06 4.16821e-06 4.27349e-06 4.27347e-06 4.46985e-06 4.46977e-06
          4.66649e-06 4.66622e-06 4.86225e-06 4.86183e-06 5.05836e-06 5.05716e-06 5.25329e-06 5.25317e-06 5.48897e-06 5.49086e-06 5.72471e-06 5.7246e-06
          5.95826e-06 5.9582e-06 6.18998e-06 6.18995e-06 6.41954e-06 6.41935e-06 6.64683e-06 6.64636e-06 6.8708e-06 6.87078e-06 7.09491e-06 7.0947e-06
          7.31064e-06 7.3104e-06 7.51901e-06 7.51833e-06 7.72036e-06 7.72079e-06 7.90736e-06 7.95966e-06 8.08492e-06 8.08836e-06 8.24353e-06 8.24376e-06
          8.38141e-06 8.38154e-06 8.49393e-06 8.4939e-06 8.58047e-06 8.58038e-06 8.6202e-06 8.62002e-06 8.606e-06 8.60589e-06 8.51642e-06 8.51632e-06
          8.30085e-06 8.30071e-06 7.7716e-06 7.7714e-06 6.26453e-06 6.26426e-06 3.38012e-07 3.38012e-07
        </DataArray>
        <DataArray type="Float32" Name="X_lH" NumberOfComponents="1" format="ascii">
          1.8785e-10 1.8786e-10 1.86312e-10 1.86314e-10 1.87122e-10 1.87275e-10 1.89268e-10 1.88311e-10 1.89088e-10 1.89272e-10 1.90173e-10 1.90274e-10
          1.91527e-10 1.91161e-10 1.9202e-10 1.92075e-10 1.92894e-10 1.92956e-10 1.93676e-10 1.93724e-10 1.9428e-10 1.94315e-10 1.95583e-10 1.95602e-10
          1.96506e-10 1.96533e-10 1.97311e-10 1.97303e-10 1.9777e-10 1.97877e-10 1.982e-10 1.98197e-10 1.9861e-10 1.98363e-10 1.986e-10 1.98609e-10
          1.98454e-10 1.98456e-10 1.98118e-10 1.98119e-10 1.97616e-10 1.97625e-10 1.96924e-10 1.96956e-10 1.96104e-10 1.96099e-10 1.94755e-10 1.94766e-10
          1.93512e-10 1.93522e-10 1.92146e-10 1.92179e-10 1.90447e-10 1.90383e-10 1.88812e-10 1.84619e-10 1.8658e-10 1.86312e-10 1.84181e-10 1.84163e-10
          1.81317e-10 1.8131e-10 1.77808e-10 1.7781e-10 1.73035e-10 1.7304e-10 1.67422e-10 1.67431e-10 1.60113e-10 1.60118e-10 1.5055e-10 1.50554e-10
          1.38759e-10 1.38765e-10 1.29879e-10 1.29888e-10 1.50099e-10 1.50114e-10 6.32454e-10 6.32454e-10
        </DataArray>
        <DataArray type="Float32" Name="X_lOH" NumberOfComponents="1" format="ascii">
          8.10929e-07 8.10886e-07 8.18158e-07 8.18157e-07 8.15141e-07 8.14484e-07 8.0641e-07 8.10521e-07 8.07693e-07 8.06913e-07 8.03585e-07 8.03168e-07
          7.984e-07 7.99934e-07 7.96843e-07 7.96619e-07 7.93716e-07 7.93464e-07 7.90994e-07 7.90799e-07 7.89013e-07 7.88872e-07 7.84637e-07 7.84561e-07
          7.81811e-07 7.81703e-07 7.79463e-07 7.7949e-07 7.78476e-07 7.78053e-07 7.77597e-07 7.77608e-07 7.76957e-07 7.77925e-07 7.77942e-07 7.77906e-07
          7.79445e-07 7.79435e-07 7.8168e-07 7.81678e-07 7.84578e-07 7.84541e-07 7.8824e-07 7.88112e-07 7.92447e-07 7.92464e-07 7.9886e-07 7.98815e-07
          8.04933e-07 8.04894e-07 8.11635e-07 8.11494e-07 8.19909e-07 8.20182e-07 8.28121e-07 8.46922e-07 8.39254e-07 8.40462e-07 8.51584e-07 8.51664e-07
          8.66668e-07 8.66705e-07 8.8576e-07 8.85749e-07 9.12683e-07 9.12661e-07 9.46519e-07 9.46469e-07 9.94091e-07 9.94063e-07 1.06338e-06 1.06335e-06
          1.16277e-06 1.16272e-06 1.25571e-06 1.25562e-06 1.10314e-06 1.10303e-06 2.67481e-07 2.67481e-07
        </DataArray>
        <DataArray type="Float32" Name="X_gBrine" NumberOfComponents="1" format="ascii">
          0.0109612 0.0108824 0.0108949 0.0108949 0.0109076 0.0109075 0.0109203 0.0109203 0.010933 0.0109331 0.0109459 0.0109459
          0.0109588 0.0109588 0.0109717 0.0109717 0.0109847 0.0109847 0.0109977 0.0109977 0.0110108 0.0110108 0.011037 0.011037
          0.0110633 0.0110633 0.0110898 0.0110898 0.0111165 0.0111165 0.0111433 0.0111432 0.0111768 0.0111768 0.0112106 0.0112106
          0.0112445 0.0112445 0.0112785 0.0112785 0.0113127 0.0113127 0.011347 0.011347 0.0113814 0.0113814 0.0114159 0.0114159
          0.0114507 0.0114507 0.0114855 0.0114855 0.0115206 0.0115206 0.0115558 0.0115558 0.0115914 0.0115914 0.0116272 0.0116272
          0.0116635 0.0116635 0.0117003 0.0117003 0.0117379 0.0117379 0.0117765 0.0117765 0.0118165 0.0118165 0.0118584 0.0118584
          0.011903 0.011903 0.0119516 0.0119516 0.0120062 0.0120062 0.0120698 0.0120698
        </DataArray>
        <DataArray type="Float32" Name="X_gTotalC" NumberOfComponents="1" format="ascii">
          0.989039 0.989118 0.989105 0.989105 0.989092 0.989092 0.98908 0.98908 0.989067 0.989067 0.989054 0.989054
          0.989041 0.989041 0.989028 0.989028 0.989015 0.989015 0.989002 0.989002 0.988989 0.988989 0.988963 0.988963
          0.988937 0.988937 0.98891 0.98891 0.988884 0.988884 0.988857 0.988857 0.988823 0.988823 0.988789 0.988789
          0.988756 0.988756 0.988721 0.988721 0.988687 0.988687 0.988653 0.988653 0.988619 0.988619 0.988584 0.988584
          0.988549 0.988549 0.988514 0.988514 0.988479 0.988479 0.988444 0.988444 0.988409 0.988409 0.988373 0.988373
          0.988337 0.988337 0.9883 0.9883 0.988262 0.988262 0.988223 0.988223 0.988183 0.988183 0.988142 0.988142
          0.988097 0.988097 0.988048 0.988048 0.987994 0.987994 0.98793 0.98793
        </DataArray>
        <DataArray type="Float32" Name="X_gNa" NumberOfComponents="1" format="ascii">
          0 0 0 0 0 0 0 0 0 0 0 0
          0 0 0 0 0 0 0 0 0 0 0 0
          0 0 0 0 0 0 0 0 0 0 0 0
          0 0 0 0 0 0 0 0 0 0 0 0
          0 0 0 0 0 0 0 0 0 0 0 0
          0 0 0 0 0 0 0 0 0 0 0 0
          0 0 0 0 0 0 0 0
        </DataArray>
        <DataArray type="Float32" Name="X_gCl" NumberOfComponents="1" format="ascii">
          0 0 0 0 0 0 0 0 0 0 0 0
          0 0 0 0 0 0 0 0 0 0 0 0
          0 0 0 0 0 0 0 0 0 0 0 0
          0 0 0 0 0 0 0 0 0 0 0 0
          0 0 0 0 0 0 0 0 0 0 0 0
          0 0 0 0 0 0 0 0 0 0 0 0
          0 0 0 0 0 0 0 0
        </DataArray>
        <DataArray type="Float32" Name="X_gCa" NumberOfComponents="1" format="ascii">
          0 0 0 0 0 0 0 0 0 0 0 0
          0 0 0 0 0 0 0 0 0 0 0 0
          0 0 0 0 0 0 0 0 0 0 0 0
          0 0 0 0 0 0 0 0 0 0 0 0
          0 0 0 0 0 0 0 0 0 0 0 0
          0 0 0 0 0 0 0 0 0 0 0 0
          0 0 0 0 0 0 0 0
        </DataArray>
        <DataArray type="Float32" Name="X_gUrea" NumberOfComponents="1" format="ascii">
          0 0 0 0 0 0 0 0 0 0 0 0
          0 0 0 0 0 0 0 0 0 0 0 0
          0 0 0 0 0 0 0 0 0 0 0 0
          0 0 0 0 0 0 0 0 0 0 0 0
          0 0 0 0 0 0 0 0 0 0 0 0
          0 0 0 0 0 0 0 0 0 0 0 0
          0 0 0 0 0 0 0 0
        </DataArray>
        <DataArray type="Float32" Name="X_gTotalNH" NumberOfComponents="1" format="ascii">
          0 0 0 0 0 0 0 0 0 0 0 0
          0 0 0 0 0 0 0 0 0 0 0 0
          0 0 0 0 0 0 0 0 0 0 0 0
          0 0 0 0 0 0 0 0 0 0 0 0
          0 0 0 0 0 0 0 0 0 0 0 0
          0 0 0 0 0 0 0 0 0 0 0 0
          0 0 0 0 0 0 0 0
        </DataArray>
        <DataArray type="Float32" Name="X_gO2" NumberOfComponents="1" format="ascii">
          0 0 0 0 0 0 0 0 0 0 0 0
          0 0 0 0 0 0 0 0 0 0 0 0
          0 0 0 0 0 0 0 0 0 0 0 0
          0 0 0 0 0 0 0 0 0 0 0 0
          0 0 0 0 0 0 0 0 0 0 0 0
          0 0 0 0 0 0 0 0 0 0 0 0
          0 0 0 0 0 0 0 0
        </DataArray>
        <DataArray type="Float32" Name="X_gSubstrate" NumberOfComponents="1" format="ascii">
          0 0 0 0 0 0 0 0 0 0 0 0
          0 0 0 0 0 0 0 0 0 0 0 0
          0 0 0 0 0 0 0 0 0 0 0 0
          0 0 0 0 0 0 0 0 0 0 0 0
          0 0 0 0 0 0 0 0 0 0 0 0
          0 0 0 0 0 0 0 0 0 0 0 0
          0 0 0 0 0 0 0 0
        </DataArray>
        <DataArray type="Float32" Name="X_gSuspended_Biomass" NumberOfComponents="1" format="ascii">
          0 0 0 0 0 0 0 0 0 0 0 0
          0 0 0 0 0 0 0 0 0 0 0 0
          0 0 0 0 0 0 0 0 0 0 0 0
          0 0 0 0 0 0 0 0 0 0 0 0
          0 0 0 0 0 0 0 0 0 0 0 0
          0 0 0 0 0 0 0 0 0 0 0 0
          0 0 0 0 0 0 0 0
        </DataArray>
        <DataArray type="Float32" Name="X_gNH4" NumberOfComponents="1" format="ascii">
          0 0 0 0 0 0 0 0 0 0 0 0
          0 0 0 0 0 0 0 0 0 0 0 0
          0 0 0 0 0 0 0 0 0 0 0 0
          0 0 0 0 0 0 0 0 0 0 0 0
          0 0 0 0 0 0 0 0 0 0 0 0
          0 0 0 0 0 0 0 0 0 0 0 0
          0 0 0 0 0 0 0 0
        </DataArray>
        <DataArray type="Float32" Name="X_gHCO3" NumberOfComponents="1" format="ascii">
          0 0 0 0 0 0 0 0 0 0 0 0
          0 0 0 0 0 0 0 0 0 0 0 0
          0 0 0 0 0 0 0 0 0 0 0 0
          0 0 0 0 0 0 0 0 0 0 0 0
          0 0 0 0 0 0 0 0 0 0 0 0
          0 0 0 0 0 0 0 0 0 0 0 0
          0 0 0 0 0 0 0 0
        </DataArray>
        <DataArray type="Float32" Name="X_gCO3" NumberOfComponents="1" format="ascii">
          0 0 0 0 0 0 0 0 0 0 0 0
          0 0 0 0 0 0 0 0 0 0 0 0
          0 0 0 0 0 0 0 0 0 0 0 0
          0 0 0 0 0 0 0 0 0 0 0 0
          0 0 0 0 0 0 0 0 0 0 0 0
          0 0 0 0 0 0 0 0 0 0 0 0
          0 0 0 0 0 0 0 0
        </DataArray>
        <DataArray type="Float32" Name="X_gCO2" NumberOfComponents="1" format="ascii">
          0.989039 0.989118 0.989105 0.989105 0.989092 0.989092 0.98908 0.98908 0.989067 0.989067 0.989054 0.989054
          0.989041 0.989041 0.989028 0.989028 0.989015 0.989015 0.989002 0.989002 0.988989 0.988989 0.988963 0.988963
          0.988937 0.988937 0.98891 0.98891 0.988884 0.988884 0.988857 0.988857 0.988823 0.988823 0.988789 0.988789
          0.988756 0.988756 0.988721 0.988721 0.988687 0.988687 0.988653 0.988653 0.988619 0.988619 0.988584 0.988584
          0.988549 0.988549 0.988514 0.988514 0.988479 0.988479 0.988444 0.988444 0.988409 0.988409 0.988373 0.988373
          0.988337 0.988337 0.9883 0.9883 0.988262 0.988262 0.988223 0.988223 0.988183 0.988183 0.988142 0.988142
          0.988097 0.988097 0.988048 0.988048 0.987994 0.987994 0.98793 0.98793
        </DataArray>
        <DataArray type="Float32" Name="X_gH" NumberOfComponents="1" format="ascii">
          0 0 0 0 0 0 0 0 0 0 0 0
          0 0 0 0 0 0 0 0 0 0 0 0
          0 0 0 0 0 0 0 0 0 0 0 0
          0 0 0 0 0 0 0 0 0 0 0 0
          0 0 0 0 0 0 0 0 0 0 0 0
          0 0 0 0 0 0 0 0 0 0 0 0
          0 0 0 0 0 0 0 0
        </DataArray>
        <DataArray type="Float32" Name="X_gOH" NumberOfComponents="1" format="ascii">
          0 0 0 0 0 0 0 0 0 0 0 0
          0 0 0 0 0 0 0 0 0 0 0 0
          0 0 0 0 0 0 0 0 0 0 0 0
          0 0 0 0 0 0 0 0 0 0 0 0
          0 0 0 0 0 0 0 0 0 0 0 0
          0 0 0 0 0 0 0 0 0 0 0 0
          0 0 0 0 0 0 0 0
        </DataArray>
        <DataArray type="Float32" Name="Molarity_Brine" NumberOfComponents="1" format="ascii">
          53121 53121.1 53129.4 53129.5 53137.6 53137.8 53145.8 53145.9 53154 53154 53162 53162.1
          53169.9 53170 53177.9 53177.9 53185.7 53185.8 53193.6 53193.6 53201.3 53201.3 53215.8 53215.8
          53230 53230 53243.9 53243.9 53257.7 53257.6 53271.2 53271.2 53287.4 53287.4 53303.4 53303.3
          53319.1 53319.1 53334.7 53334.7 53350.3 53350.3 53366 53366 53381.9 53381.9 53398.2 53398.2
          53415.2 53415.2 53433.2 53433.2 53452.7 53452.7 53474.2 53474.1 53498.6 53498.5 53527 53527
          53560.9 53560.9 53602.6 53602.6 53655 53655 53722 53722 53809.6 53809.6 53926.3 53926.3
          54084.6 54084.6 54304 54304 54612.8 54612.8 55049.2 55049.2
        </DataArray>
        <DataArray type="Float32" Name="Molarity_TotalC" NumberOfComponents="1" format="ascii">
          0.440775 0.440842 0.459143 0.459277 0.471129 0.470945 0.47928 0.482166 0.493735 0.493355 0.504366 0.504251
          0.514049 0.515275 0.526107 0.52603 0.53685 0.536721 0.547725 0.547614 0.559024 0.558937 0.579333 0.579275
          0.600218 0.600117 0.620939 0.620911 0.642292 0.641859 0.66329 0.663285 0.688602 0.689541 0.71478 0.71474
          0.740811 0.740797 0.766949 0.766944 0.793144 0.793092 0.819507 0.819345 0.84576 0.845774 0.873822 0.873759
          0.900463 0.9004 0.926642 0.926434 0.953277 0.953597 0.977891 1.00256 1.00387 1.00547 1.02824 1.02835
          1.05208 1.05213 1.07563 1.07561 1.10195 1.10191 1.12626 1.12619 1.15208 1.15204 1.17981 1.17977
          1.20128 1.20122 1.14285 1.14276 0.758996 0.758904 0.0132254 0.0132254
        </DataArray>
        <DataArray type="Float32" Name="Molarity_Na" NumberOfComponents="1" format="ascii">
          0.00537774 0.00537776 0.00538496 0.00538499 0.00539269 0.00539276 0.00540112 0.00540116 0.00541027 0.00541026 0.00542013 0.00542016
          0.00543088 0.0054309 0.00544256 0.00544255 0.00545524 0.00545523 0.00546902 0.00546902 0.00548401 0.00548401 0.00551607 0.00551607
          0.00555364 0.00555364 0.0055978 0.00559773 0.00564958 0.00564957 0.00571063 0.00571068 0.00580042 0.00580041 0.00591073 0.00591073
          0.00604698 0.00604698 0.00621619 0.00621618 0.00642741 0.00642739 0.0066926 0.00669259 0.00702753 0.00702753 0.00745227 0.00745229
          0.00799396 0.00799397 0.0086895 0.00868942 0.00958703 0.00958701 0.0107518 0.0107519 0.0122718 0.0122718 0.014265 0.0142651
          0.0168936 0.0168936 0.0203791 0.0203789 0.0250186 0.0250187 0.0312306 0.0312307 0.039615 0.0396149 0.0510267 0.0510266
          0.0667308 0.0667307 0.0886485 0.0886484 0.119557 0.119557 0.1633 0.1633
        </DataArray>
        <DataArray type="Float32" Name="Molarity_Cl" NumberOfComponents="1" format="ascii">
          870.637 870.638 870.746 870.747 870.849 870.851 870.949 870.951 871.045 871.046 871.135 871.137
          871.221 871.222 871.302 871.303 871.377 871.377 871.446 871.446 871.509 871.509 871.608 871.608
          871.677 871.676 871.712 871.711 871.708 871.708 871.659 871.659 871.526 871.526 871.294 871.294
          870.942 870.942 870.437 870.437 869.741 869.741 868.802 868.802 867.55 867.55 865.897 865.897
          863.723 863.723 860.867 860.867 857.117 857.117 852.187 852.185 845.691 845.69 837.11 837.11
          825.735 825.735 810.595 810.596 790.387 790.386 763.276 763.276 726.636 726.636 676.721 676.721
          607.992 607.992 512.04 512.04 376.717 376.717 185.193 185.193
        </DataArray>
        <DataArray type="Float32" Name="Molarity_Ca" NumberOfComponents="1" format="ascii">
          309.371 309.346 305.509 305.473 301.731 301.669 297.976 297.911 294.234 294.197 290.558 290.511
          286.904 286.862 283.271 283.248 279.676 279.661 276.107 276.097 272.56 272.554 265.974 265.973
          259.532 259.535 253.22 253.235 247.05 247.063 240.998 241.002 233.801 233.803 226.8 226.801
          219.988 219.989 213.353 213.355 206.886 206.889 200.574 200.577 194.402 194.404 188.36 188.362
          182.449 182.453 176.645 176.651 170.918 170.927 165.23 165.259 159.521 159.523 153.705 153.705
          147.664 147.663 141.222 141.222 134.143 134.144 126.099 126.099 116.57 116.57 104.798 104.799
          89.6178 89.6185 69.1573 69.1578 40.5293 40.5295 0 0
        </DataArray>
        <DataArray type="Float32" Name="Molarity_Urea" NumberOfComponents="1" format="ascii">
          301.294 301.269 297.413 297.376 293.622 293.56 289.858 289.79 286.101 286.064 282.414 282.368
          278.75 278.707 275.104 275.081 271.498 271.483 267.918 267.908 264.36 264.354 257.753 257.752
          251.291 251.293 244.958 244.973 238.768 238.781 232.697 232.701 225.477 225.478 218.454 218.455
          211.622 211.623 204.968 204.969 198.484 198.487 192.157 192.161 185.975 185.977 179.925 179.928
          174.014 174.018 168.218 168.224 162.509 162.517 156.853 156.857 151.193 151.193 145.45 145.45
          139.514 139.513 133.219 133.219 126.341 126.341 118.574 118.575 109.427 109.428 98.1831 98.1838
          83.7441 83.7449 64.406 64.4066 37.6616 37.6619 0 0
        </DataArray>
        <DataArray type="Float32" Name="Molarity_TotalNH" NumberOfComponents="1" format="ascii">
          252.748 252.799 260.617 260.691 268.301 268.426 275.927 276.065 283.536 283.611 291 291.093
          298.413 298.5 305.783 305.83 313.069 313.1 320.299 320.319 327.477 327.489 340.79 340.792
          353.783 353.778 366.485 366.454 378.864 378.836 390.96 390.952 405.272 405.269 419.094 419.092
          432.417 432.415 445.235 445.232 457.526 457.52 469.264 469.256 480.409 480.404 490.896 490.891
          500.596 500.589 509.402 509.389 517.158 517.141 523.653 523.643 528.627 528.626 531.728 531.728
          532.484 532.484 530.274 530.274 524.275 524.274 513.303 513.301 495.772 495.771 469.456 469.455
          431.131 431.13 375.983 375.982 297.149 297.149 185.193 185.193
        </DataArray>
        <DataArray type="Float32" Name="Molarity_O2" NumberOfComponents="1" format="ascii">
          0.239657 0.239647 0.238113 0.238098 0.236592 0.236567 0.23507 0.235043 0.233539 0.233525 0.232024 0.232006
          0.230507 0.23049 0.228985 0.228977 0.227468 0.227462 0.225949 0.225945 0.224428 0.224425 0.221566 0.221565
          0.21872 0.218721 0.215885 0.215891 0.213066 0.213072 0.210253 0.210254 0.206839 0.206839 0.203442 0.203442
          0.200056 0.200057 0.196676 0.196676 0.193292 0.193293 0.189894 0.189896 0.186468 0.18647 0.183 0.183001
          0.17948 0.179482 0.175877 0.175881 0.172155 0.172159 0.168262 0.168264 0.164124 0.164125 0.159643 0.159643
          0.154676 0.154676 0.149026 0.149026 0.142424 0.142424 0.134503 0.134503 0.124703 0.124703 0.112219 0.112219
          0.0958378 0.0958385 0.073691 0.0736916 0.0430392 0.0430395 0 0
        </DataArray>
        <DataArray type="Float32" Name="Molarity_Substrate" NumberOfComponents="1" format="ascii">
          16.8134 16.8134 16.8152 16.8152 16.817 16.817 16.8187 16.8188 16.8204 16.8204 16.822 16.822
          16.8236 16.8236 16.825 16.825 16.8264 16.8264 16.8277 16.8277 16.829 16.829 16.831 16.831
          16.8326 16.8326 16.8336 16.8336 16.834 16.834 16.8336 16.8336 16.8318 16.8318 16.8282 16.8282
          16.8223 16.8223 16.8133 16.8133 16.8003 16.8003 16.782 16.782 16.7567 16.7567 16.7224 16.7224
          16.6759 16.6759 16.6134 16.6134 16.5295 16.5295 16.4171 16.4171 16.2666 16.2665 16.0649 16.0648
          15.7943 15.7943 15.4305 15.4305 14.941 14.941 14.2801 14.2801 13.3824 13.3824 12.1547 12.1547
          10.4596 10.4596 8.08859 8.0886 4.74074 4.74074 0 0
        </DataArray>
        <DataArray type="Float32" Name="Molarity_Suspended_Biomass" NumberOfComponents="1" format="ascii">
          5.21878e-05 5.22348e-05 5.86182e-05 5.86861e-05 6.49536e-05 6.50676e-05 7.12913e-05 7.14238e-05 7.76794e-05 7.77517e-05 8.39896e-05 8.40775e-05
          9.03023e-05 9.03865e-05 9.66304e-05 9.66759e-05 0.000102931 0.00010296 0.000109227 0.000109245 0.000115523 0.000115533 0.000127322 0.000127324
          0.000139 0.000138994 0.000150573 0.000150544 0.000162005 0.000161977 0.00017332 0.000173312 0.000186907 0.000186905 0.000200249 0.000200247
          0.000213324 0.000213322 0.000226116 0.000226113 0.000238595 0.00023859 0.000250733 0.000250724 0.000262482 0.000262477 0.000273775 0.000273769
          0.000284455 0.000284446 0.0002944 0.000294384 0.000303446 0.000303426 0.000311367 0.000311355 0.00031789 0.00031789 0.000322652 0.000322654
          0.000325174 0.000325177 0.00032483 0.000324833 0.000320797 0.000320799 0.000311864 0.000311865 0.000296455 0.000296458 0.000272366 0.000272371
          0.000236426 0.000236433 0.00018392 0.000183928 0.000108145 0.000108151 0 0
        </DataArray>
        <DataArray type="Float32" Name="Molarity_NH4" NumberOfComponents="1" format="ascii">
          252.259 252.31 260.107 260.182 267.777 267.903 275.393 275.528 282.984 283.06 290.435 290.529
          297.837 297.922 305.192 305.239 312.466 312.497 319.682 319.702 326.847 326.859 340.134 340.137
          353.103 353.097 365.779 365.749 378.133 378.105 390.203 390.195 404.484 404.481 418.275 418.273
          431.567 431.565 444.353 444.35 456.612 456.607 468.319 468.311 479.432 479.427 489.886 489.881
          499.554 499.547 508.328 508.316 516.052 516.035 522.518 522.482 527.46 527.457 530.53 530.53
          531.257 531.258 529.017 529.017 522.985 522.984 511.982 511.98 494.418 494.416 468.064 468.063
          429.706 429.705 374.607 374.606 296.159 296.158 185.037 185.037
        </DataArray>
        <DataArray type="Float32" Name="Molarity_HCO3" NumberOfComponents="1" format="ascii">
          0.365401 0.365452 0.381021 0.381131 0.390544 0.390336 0.396388 0.399117 0.408259 0.407875 0.416486 0.416351
          0.423801 0.424951 0.433382 0.433296 0.441709 0.441576 0.450158 0.450047 0.459007 0.458921 0.474752 0.474697
          0.491067 0.490972 0.507239 0.50722 0.524035 0.523631 0.540505 0.540503 0.560346 0.561238 0.58105 0.581013
          0.60166 0.601647 0.622422 0.622417 0.643292 0.643246 0.664386 0.664235 0.685449 0.685464 0.708318 0.70826
          0.729965 0.729908 0.751327 0.751135 0.773311 0.77362 0.793616 0.817034 0.815508 0.81703 0.83625 0.836353
          0.85695 0.856999 0.877975 0.877962 0.902392 0.90236 0.925928 0.925861 0.95226 0.952221 0.982307 0.98227
          1.00909 1.00903 0.963417 0.963327 0.61522 0.615133 0.00553194 0.00553194
        </DataArray>
        <DataArray type="Float32" Name="Molarity_CO3" NumberOfComponents="1" format="ascii">
          0.00041558 0.0004156 0.0004347 0.000434801 0.000441397 0.000440765 0.000440667 0.000445918 0.000451958 0.000451071 0.000456081 0.000455663
          0.000458426 0.000460522 0.000465144 0.000464904 0.000469458 0.000469156 0.000473989 0.000473748 0.00047924 0.000479059 0.000487414 0.000487309
          0.000496714 0.000496551 0.000505767 0.000505779 0.000515962 0.000515296 0.000525546 0.000525556 0.00053685 0.000538377 0.000549657 0.000549597
          0.000562321 0.000562303 0.000575252 0.000575248 0.000588384 0.000588317 0.000601912 0.000601681 0.000615447 0.000615477 0.000631946 0.000631862
          0.000646733 0.000646657 0.000661382 0.000661109 0.000677428 0.00067794 0.000691442 0.000728063 0.000708632 0.000710981 0.000724969 0.000725125
          0.000742394 0.000742466 0.000761741 0.000761721 0.000788092 0.000788046 0.000815488 0.000815386 0.000850336 0.000850278 0.000895255 0.000895199
          0.000940397 0.000940301 0.000872723 0.000872583 0.000403724 0.000403628 4.26535e-07 4.26535e-07
        </DataArray>
        <DataArray type="Float32" Name="Molarity_CO2" NumberOfComponents="1" format="ascii">
          0.074964 0.0749797 0.0776929 0.0777175 0.0801496 0.0801751 0.0824578 0.0826086 0.0850304 0.0850349 0.0874308 0.087451
          0.0897964 0.0898703 0.0922671 0.0922764 0.0946793 0.0946822 0.0971002 0.097101 0.0995446 0.0995441 0.104101 0.104099
          0.108663 0.108656 0.113203 0.113193 0.11775 0.117722 0.122268 0.122265 0.127729 0.127773 0.13319 0.133187
          0.138598 0.138597 0.143962 0.143961 0.149273 0.149269 0.15453 0.154519 0.159707 0.159706 0.164884 0.164879
          0.169863 0.169857 0.174666 0.174651 0.179302 0.179312 0.183597 0.184811 0.187663 0.187743 0.191278 0.191284
          0.194396 0.194399 0.196904 0.196903 0.198781 0.198779 0.199534 0.19953 0.198987 0.198985 0.196628 0.196625
          0.191269 0.191266 0.178577 0.178573 0.143383 0.143377 0.00769319 0.00769319
        </DataArray>
        <DataArray type="Float32" Name="Molarity_H" NumberOfComponents="1" format="ascii">
          0.000191191 0.000191202 0.000189608 0.000189609 0.000190414 0.000190569 0.00019258 0.000191605 0.000192378 0.000192565 0.000193464 0.000193566
          0.000194824 0.000194451 0.000195307 0.000195362 0.000196178 0.000196241 0.000196955 0.000197004 0.000197551 0.000197587 0.000198843 0.000198862
          0.000199748 0.000199776 0.000200534 0.000200527 0.000200969 0.000201078 0.000201374 0.000201371 0.000201752 0.000201501 0.000201704 0.000201714
          0.000201518 0.000201521 0.000201141 0.000201142 0.000200594 0.000200603 0.000199855 0.000199887 0.000198985 0.00019898 0.000197577 0.000197588
          0.000196277 0.000196286 0.000194849 0.000194883 0.000193081 0.000193016 0.000191373 0.000187124 0.000189055 0.000188783 0.000186558 0.000186541
          0.000183581 0.000183573 0.000179935 0.000179937 0.000174991 0.000174996 0.000169173 0.000169182 0.00016161 0.000161615 0.000151735 0.000151739
          0.000139572 0.000139579 0.000130279 0.000130288 0.00014997 0.000149985 0.000628379 0.000628379
        </DataArray>
        <DataArray type="Float32" Name="Molarity_OH" NumberOfComponents="1" format="ascii">
          4.89374e-05 4.89349e-05 4.93689e-05 4.93688e-05 4.91822e-05 4.91424e-05 4.86508e-05 4.88987e-05 4.87235e-05 4.86765e-05 4.84712e-05 4.8446e-05
          4.81541e-05 4.82465e-05 4.80557e-05 4.80422e-05 4.78628e-05 4.78476e-05 4.76943e-05 4.76825e-05 4.75705e-05 4.7562e-05 4.72988e-05 4.72942e-05
          4.71206e-05 4.71141e-05 4.69714e-05 4.69731e-05 4.69045e-05 4.6879e-05 4.68441e-05 4.68448e-05 4.67967e-05 4.6855e-05 4.68472e-05 4.68451e-05
          4.69291e-05 4.69285e-05 4.70551e-05 4.70549e-05 4.72208e-05 4.72186e-05 4.74324e-05 4.74247e-05 4.76766e-05 4.76776e-05 4.8053e-05 4.80504e-05
          4.84085e-05 4.84061e-05 4.8801e-05 4.87925e-05 4.92869e-05 4.93033e-05 4.97676e-05 5.08975e-05 5.04216e-05 5.04941e-05 5.11445e-05 5.11493e-05
          5.20286e-05 5.20308e-05 5.31473e-05 5.31466e-05 5.47271e-05 5.47257e-05 5.67086e-05 5.67055e-05 5.94935e-05 5.94918e-05 6.35468e-05 6.3545e-05
          6.93481e-05 6.9345e-05 7.46835e-05 7.46783e-05 6.53517e-05 6.53453e-05 1.57575e-05 1.57575e-05
        </DataArray>
        <DataArray type="Float32" Name="Da_ureolysis" NumberOfComponents="1" format="ascii">
          0 0 0 0 0 0 0 0 0 0 0 0
          0 0 0 0 0 0 0 0 0 0 0 0
          0 0 0 0 0 0 0 0 0 0 0 0
          0 0 0 0 0 0 0 0 0 0 0 0
          0 0 0 0 0 0 0 0 0 0 0 0
          0 0 0 0 0 0 0 0 0 0 0 0
          0 0 0 0 0 0 0 0
        </DataArray>
        <DataArray type="Float32" Name="Da_precipitation" NumberOfComponents="1" format="ascii">
          1.17927 1.17938 1.32511 1.32705 1.34203 1.34054 1.2917 1.34273 1.35808 1.3551 1.35515 1.3537
          1.33529 1.35579 1.35631 1.3556 1.35372 1.35084 1.35268 1.35004 1.35739 1.35509 1.34979 1.34878
          1.35257 1.35111 1.34936 1.34714 1.3574 1.35311 1.35729 1.35508 1.35289 1.36678 1.35995 1.35966
          1.36348 1.36344 1.36712 1.36702 1.37067 1.37003 1.37405 1.37226 1.37374 1.37386 1.39455 1.3941
          1.39673 1.39615 1.39549 1.39352 1.40022 1.4039 1.38503 1.64782 1.38529 1.40095 1.37109 1.37223
          1.35183 1.35227 1.32639 1.32635 1.31931 1.31904 1.27851 1.27794 1.22349 1.22325 1.1322 1.13198
          0.921834 0.921523 0.379537 0.37933 0.00522469 0.00521968 0 0
        </DataArray>
        <DataArray type="Float32" Name="Vx" NumberOfComponents="1" format="ascii">
          -5.04776e-08 -5.0537e-08 -4.54647e-07 -4.55876e-07 -9.58447e-07 -9.55797e-07 -1.55751e-08 -1.5125e-08 7.35445e-07 7.32845e-07 5.68908e-08 5.80778e-08
          4.07631e-08 4.05086e-08 4.19375e-07 4.1884e-07 2.95884e-07 2.96064e-07 7.57566e-08 7.58329e-08 -2.93557e-08 -2.93644e-08 -7.66317e-08 -7.66439e-08
          3.31009e-08 3.29351e-08 3.81496e-07 3.81813e-07 -8.21545e-08 -8.22083e-08 -4.22233e-07 -4.22508e-07 2.21011e-08 2.22936e-08 8.00048e-08 7.99761e-08
          3.48556e-08 3.48546e-08 1.28568e-08 1.28589e-08 3.89648e-09 3.89647e-09 -1.39296e-08 -1.39309e-08 -1.31882e-08 -1.31891e-08 -1.80823e-08 -1.80817e-08
          -3.20273e-09 -3.20483e-09 4.43356e-08 4.43376e-08 3.05109e-09 3.05211e-09 -3.93051e-08 -3.9307e-08 -1.49518e-08 -1.49494e-08 -3.89388e-09 -3.89386e-09
          1.70429e-08 1.70413e-08 2.27334e-08 2.27329e-08 -6.9401e-09 -6.93969e-09 -1.08743e-08 -1.08744e-08 1.62136e-09 1.62142e-09 4.75375e-09 4.75369e-09
          3.33888e-09 3.33891e-09 -1.33576e-10 -1.33574e-10 -2.21501e-09 -2.21503e-09 -1.35791e-09 -1.35791e-09
        </DataArray>
        <DataArray type="Float32" Name="Vy" NumberOfComponents="1" format="ascii">
          0.000339182 0.000339184 0.000334609 0.000334409 0.000335414 0.000334321 0.00033737 0.00033559 0.000335684 0.000334486 0.000335813 0.00033511
          0.000336304 0.000335531 0.000335674 0.000335201 0.000335601 0.000335576 0.000335559 0.000335729 0.000335649 0.000335801 0.000335715 0.000335763
          0.000335377 0.000335332 0.00033613 0.000336497 0.000334168 0.000334891 0.000336038 0.000336148 0.000335707 0.000335438 0.000335549 0.000335442
          0.000335564 0.000335561 0.000335657 0.000335701 0.000335478 0.000335538 0.000335683 0.000335732 0.000336012 0.000336033 0.000335257 0.000335248
          0.000335739 0.000335703 0.000335742 0.000335751 0.000335518 0.000335584 0.000335751 0.000335772 0.000335673 0.000335637 0.000335609 0.000335557
          0.000335725 0.000335683 0.000335983 0.000335987 0.00033519 0.000335209 0.000335526 0.000335523 0.000335429 0.000335418 0.00033522 0.000335216
          0.00033524 0.000335244 0.000336818 0.000336826 0.000336939 0.000336944 0.000350246 0.000350248
        </DataArray>
      </PointData>
      <CellData Scalars="process rank">
        <DataArray type="Float32" Name="process rank" NumberOfComponents="1" format="ascii">
          0 0 0 0 0 0 0 0 0 0 0 0
          0 0 0 0 0 0 0 0 0 0 0 0
          0 0 0 0 0 0 0 0 0 0 0 0
          0 0 0
        </DataArray>
      </CellData>
      <Points>
        <DataArray type="Float32" Name="Coordinates" NumberOfComponents="3" format="ascii">
          0 0 0 0.0254 0 0 0 0.01 0 0.0254 0.01 0
          0 0.02 0 0.0254 0.02 0 0 0.03 0 0.0254 0.03 0
          0 0.04 0 0.0254 0.04 0 0 0.05 0 0.0254 0.05 0
          0 0.06 0 0.0254 0.06 0 0 0.07 0 0.0254 0.07 0
          0 0.08 0 0.0254 0.08 0 0 0.09 0 0.0254 0.09 0
          0 0.1 0 0.0254 0.1 0 0 0.12 0 0.0254 0.12 0
          0 0.14 0 0.0254 0.14 0 0 0.16 0 0.0254 0.16 0
          0 0.18 0 0.0254 0.18 0 0 0.2 0 0.0254 0.2 0
          0 0.225 0 0.0254 0.225 0 0 0.25 0 0.0254 0.25 0
          0 0.275 0 0.0254 0.275 0 0 0.3 0 0.0254 0.3 0
          0 0.325 0 0.0254 0.325 0 0 0.35 0 0.0254 0.35 0
          0 0.375 0 0.0254 0.375 0 0 0.4 0 0.0254 0.4 0
          0 0.425 0 0.0254 0.425 0 0 0.45 0 0.0254 0.45 0
          0 0.475 0 0.0254 0.475 0 0 0.5 0 0.0254 0.5 0
          0 0.525 0 0.0254 0.525 0 0 0.55 0 0.0254 0.55 0
          0 0.575 0 0.0254 0.575 0 0 0.6 0 0.0254 0.6 0
          0 0.625 0 0.0254 0.625 0 0 0.65 0 0.0254 0.65 0
          0 0.675 0 0.0254 0.675 0 0 0.7 0 0.0254 0.7 0
          0 0.725 0 0.0254 0.725 0 0 0.75 0 0.0254 0.75 0
          0 0.775 0 0.0254 0.775 0 0 0.8 0 0.0254 0.8 0
        </DataArray>
      </Points>
      <Cells>
        <DataArray type="Int32" Name="connectivity" NumberOfComponents="1" format="ascii">
          0 1 3 2 2 3 5 4 4 5 7 6
          6 7 9 8 8 9 11 10 10 11 13 12
          12 13 15 14 14 15 17 16 16 17 19 18
          18 19 21 20 20 21 23 22 22 23 25 24
          24 25 27 26 26 27 29 28 28 29 31 30
          30 31 33 32 32 33 35 34 34 35 37 36
          36 37 39 38 38 39 41 40 40 41 43 42
          42 43 45 44 44 45 47 46 46 47 49 48
          48 49 51 50 50 51 53 52 52 53 55 54
          54 55 57 56 56 57 59 58 58 59 61 60
          60 61 63 62 62 63 65 64 64 65 67 66
          66 67 69 68 68 69 71 70 70 71 73 72
          72 73 75 74 74 75 77 76 76 77 79 78
        </DataArray>
        <DataArray type="Int32" Name="offsets" NumberOfComponents="1" format="ascii">
          4 8 12 16 20 24 28 32 36 40 44 48
          52 56 60 64 68 72 76 80 84 88 92 96
          100 104 108 112 116 120 124 128 132 136 140 144
          148 152 156
        </DataArray>
        <DataArray type="UInt8" Name="types" NumberOfComponents="1" format="ascii">
          9 9 9 9 9 9 9 9 9 9 9 9
          9 9 9 9 9 9 9 9 9 9 9 9
          9 9 9 9 9 9 9 9 9 9 9 9
          9 9 9
        </DataArray>
      </Cells>
    </Piece>
  </UnstructuredGrid>
</VTKFile>
