<?xml version="1.0"?>
<VTKFile type="UnstructuredGrid" version="0.1" byte_order="LittleEndian">
  <UnstructuredGrid>
    <Piece NumberOfCells="39" NumberOfPoints="80">
      <PointData Scalars="Sg">
        <DataArray type="Float32" Name="Sg" NumberOfComponents="1" format="ascii">
          0 0 0 0 0 0 0 0 0 0 0 0
          0 0 0 0 0 0 0 0 0 0 0 0
          0 0 0 0 0 0 0 0 0 0 0 0
          0 0 0 0 0 0 0 0 0 0 0 0
          0 0 0 0 0 0 0 0 0 0 0 0
          0 0 0 0 0 0 0 0 0 0 0 0
          0 0 0 0 0 0 0 0
        </DataArray>
        <DataArray type="Float32" Name="Sl" NumberOfComponents="1" format="ascii">
          1 1 1 1 1 1 1 1 1 1 1 1
          1 1 1 1 1 1 1 1 1 1 1 1
          1 1 1 1 1 1 1 1 1 1 1 1
          1 1 1 1 1 1 1 1 1 1 1 1
          1 1 1 1 1 1 1 1 1 1 1 1
          1 1 1 1 1 1 1 1 1 1 1 1
          1 1 1 1 1 1 1 1
        </DataArray>
        <DataArray type="Float32" Name="pg" NumberOfComponents="1" format="ascii">
          117565 117565 117466 117466 117368 117368 117269 117269 117170 117170 117072 117072
          116973 116973 116875 116875 116776 116776 116677 116677 116579 116579 116381 116381
          116184 116184 115987 115987 115789 115789 115592 115592 115345 115345 115098 115098
          114851 114851 114604 114604 114357 114357 114110 114110 113863 113863 113616 113616
          113369 113369 113122 113122 112874 112874 112627 112627 112380 112380 112133 112133
          111886 111886 111639 111639 111392 111392 111145 111145 110898 110898 110652 110652
          110405 110405 110159 110159 109912 109912 109667 109667
        </DataArray>
        <DataArray type="Float32" Name="pl" NumberOfComponents="1" format="ascii">
          107898 107898 107799 107799 107701 107701 107602 107602 107504 107504 107405 107405
          107307 107307 107208 107208 107109 107109 107011 107011 106912 106912 106715 106715
          106517 106517 106320 106320 106123 106123 105925 105925 105678 105678 105431 105431
          105185 105185 104938 104938 104691 104691 104443 104443 104196 104196 103949 103949
          103702 103702 103455 103455 103208 103208 102961 102961 102713 102713 102466 102466
          102219 102219 101972 101972 101725 101725 101478 101478 101232 101232 100985 100985
          100738 100738 100492 100492 100246 100246 100000 100000
        </DataArray>
        <DataArray type="Float32" Name="pc" NumberOfComponents="1" format="ascii">
          9666.67 9666.67 9666.67 9666.67 9666.67 9666.67 9666.67 9666.67 9666.67 9666.67 9666.67 9666.67
          9666.67 9666.67 9666.67 9666.67 9666.67 9666.67 9666.67 9666.67 9666.67 9666.67 9666.67 9666.67
          9666.67 9666.67 9666.67 9666.67 9666.67 9666.67 9666.67 9666.67 9666.67 9666.67 9666.67 9666.67
          9666.67 9666.67 9666.67 9666.67 9666.67 9666.67 9666.67 9666.67 9666.67 9666.67 9666.67 9666.67
          9666.67 9666.67 9666.67 9666.67 9666.67 9666.67 9666.67 9666.67 9666.67 9666.67 9666.67 9666.67
          9666.67 9666.67 9666.67 9666.67 9666.67 9666.67 9666.67 9666.67 9666.67 9666.67 9666.67 9666.67
          9666.67 9666.67 9666.67 9666.67 9666.67 9666.67 9666.67 9666.67
        </DataArray>
        <DataArray type="Float32" Name="rhoL" NumberOfComponents="1" format="ascii">
          1004.55 1004.55 1004.65 1004.65 1004.77 1004.77 1004.88 1004.88 1005 1005 1005.12 1005.12
          1005.23 1005.23 1005.35 1005.35 1005.47 1005.47 1005.59 1005.59 1005.71 1005.71 1005.94 1005.94
          1006.17 1006.17 1006.4 1006.4 1006.62 1006.62 1006.84 1006.84 1007.1 1007.1 1007.36 1007.36
          1007.59 1007.59 1007.82 1007.82 1008.02 1008.02 1008.2 1008.2 1008.36 1008.36 1008.49 1008.49
          1008.59 1008.59 1008.66 1008.66 1008.69 1008.69 1008.68 1008.68 1008.62 1008.62 1008.51 1008.51
          1008.34 1008.34 1008.11 1008.11 1007.81 1007.81 1007.42 1007.42 1006.95 1006.95 1006.36 1006.36
          1005.65 1005.65 1004.75 1004.75 1003.58 1003.58 1001.45 1001.45
        </DataArray>
        <DataArray type="Float32" Name="rhoG" NumberOfComponents="1" format="ascii">
          2.06798 2.06802 2.06624 2.06624 2.06446 2.06446 2.06267 2.06267 2.06089 2.06089 2.0591 2.0591
          2.05732 2.05732 2.05554 2.05554 2.05375 2.05375 2.05197 2.05197 2.05018 2.05018 2.04661 2.04661
          2.04304 2.04304 2.03947 2.03947 2.0359 2.0359 2.03232 2.03232 2.02785 2.02785 2.02339 2.02339
          2.01892 2.01892 2.01445 2.01445 2.00997 2.00997 2.0055 2.0055 2.00103 2.00103 1.99655 1.99655
          1.99208 1.99208 1.9876 1.9876 1.98312 1.98312 1.97865 1.97865 1.97417 1.97417 1.96969 1.96969
          1.96521 1.96521 1.96073 1.96073 1.95625 1.95625 1.95177 1.95177 1.9473 1.9473 1.94282 1.94282
          1.93834 1.93834 1.93386 1.93386 1.92939 1.92939 1.9249 1.9249
        </DataArray>
        <DataArray type="Float32" Name="mobL" NumberOfComponents="1" format="ascii">
          1086.35 1086.35 1085.83 1085.83 1085.25 1085.25 1084.68 1084.68 1084.1 1084.1 1083.53 1083.53
          1082.95 1082.95 1082.38 1082.38 1081.81 1081.81 1081.24 1081.24 1080.67 1080.67 1079.57 1079.57
          1078.48 1078.48 1077.42 1077.42 1076.39 1076.39 1075.38 1075.38 1074.19 1074.19 1073.06 1073.06
          1072 1072 1071.02 1071.02 1070.12 1070.12 1069.33 1069.33 1068.65 1068.65 1068.08 1068.08
          1067.65 1067.65 1067.36 1067.36 1067.24 1067.24 1067.29 1067.29 1067.54 1067.54 1068.02 1068.02
          1068.74 1068.74 1069.74 1069.74 1071.06 1071.06 1072.75 1072.75 1074.89 1074.89 1077.57 1077.57
          1080.96 1080.95 1085.33 1085.32 1091.29 1091.27 1103.12 1103.12
        </DataArray>
        <DataArray type="Float32" Name="mobG" NumberOfComponents="1" format="ascii">
          0 0 0 0 0 0 0 0 0 0 0 0
          0 0 0 0 0 0 0 0 0 0 0 0
          0 0 0 0 0 0 0 0 0 0 0 0
          0 0 0 0 0 0 0 0 0 0 0 0
          0 0 0 0 0 0 0 0 0 0 0 0
          0 0 0 0 0 0 0 0 0 0 0 0
          0 0 0 0 0 0 0 0
        </DataArray>
        <DataArray type="Float32" Name="porosity" NumberOfComponents="1" format="ascii">
          0.101678 0.101709 0.0996753 0.0996771 0.0993001 0.0993254 0.0990953 0.0991867 0.0990726 0.0991403 0.0990234 0.0991291
          0.0991291 0.0991653 0.0991261 0.0991999 0.0991592 0.0992397 0.0991754 0.0992524 0.0992428 0.0993057 0.0993818 0.099474
          0.0993918 0.0994793 0.0995124 0.0996331 0.0997053 0.0997659 0.0997954 0.0998861 0.100066 0.100179 0.100327 0.100409
          0.100645 0.100688 0.10099 0.101073 0.101386 0.101456 0.101861 0.101904 0.102376 0.102406 0.102976 0.103005
          0.103632 0.103644 0.104413 0.104375 0.105285 0.105208 0.106179 0.106161 0.107421 0.107251 0.108639 0.108501
          0.110091 0.109916 0.111896 0.111676 0.114005 0.113718 0.116583 0.116242 0.119796 0.119355 0.124157 0.123661
          0.130993 0.130338 0.142903 0.142048 0.167128 0.166189 0.4 0.4
        </DataArray>
        <DataArray type="Float32" Name="temperature" NumberOfComponents="1" format="ascii">
          298.15 298.15 298.15 298.15 298.15 298.15 298.15 298.15 298.15 298.15 298.15 298.15
          298.15 298.15 298.15 298.15 298.15 298.15 298.15 298.15 298.15 298.15 298.15 298.15
          298.15 298.15 298.15 298.15 298.15 298.15 298.15 298.15 298.15 298.15 298.15 298.15
          298.15 298.15 298.15 298.15 298.15 298.15 298.15 298.15 298.15 298.15 298.15 298.15
          298.15 298.15 298.15 298.15 298.15 298.15 298.15 298.15 298.15 298.15 298.15 298.15
          298.15 298.15 298.15 298.15 298.15 298.15 298.15 298.15 298.15 298.15 298.15 298.15
          298.15 298.15 298.15 298.15 298.15 298.15 298.15 298.15
        </DataArray>
        <DataArray type="Float32" Name="phase presence" NumberOfComponents="1" format="ascii">
          1 1 1 1 1 1 1 1 1 1 1 1
          1 1 1 1 1 1 1 1 1 1 1 1
          1 1 1 1 1 1 1 1 1 1 1 1
          1 1 1 1 1 1 1 1 1 1 1 1
          1 1 1 1 1 1 1 1 1 1 1 1
          1 1 1 1 1 1 1 1 1 1 1 1
          1 1 1 1 1 1 1 1
        </DataArray>
        <DataArray type="Float32" Name="potential" NumberOfComponents="1" format="ascii">
          0.0014504 0.0014509 0.00136859 0.00136869 0.00127896 0.00127912 0.00118986 0.0011899 0.00110164 0.00110164 0.00101442 0.00101442
          0.000928288 0.000928291 0.000843302 0.000843329 0.000759577 0.000759601 0.000677172 0.000677194 0.000596138 0.000596176 0.000441766 0.000441752
          0.000293909 0.000293896 0.00015333 0.000153302 2.04375e-05 2.04155e-05 -0.000104244 -0.000104232 -0.000246445 -0.000246467 -0.000374532 -0.000374572
          -0.000487801 -0.000487814 -0.00058575 -0.000585751 -0.000667999 -0.000668014 -0.000734322 -0.000734337 -0.000784607 -0.000784617 -0.000818886 -0.000818898
          -0.000837332 -0.000837354 -0.000840296 -0.000840322 -0.000828304 -0.000828319 -0.000802017 -0.000802047 -0.000762378 -0.000762408 -0.000710486 -0.000710518
          -0.00064769 -0.000647725 -0.000575647 -0.000575684 -0.00049629 -0.000496331 -0.000411904 -0.000411952 -0.000325181 -0.000325237 -0.000239319 -0.000239387
          -0.000158167 -0.000158247 -8.65828e-05 -8.66704e-05 -3.14725e-05 -3.15402e-05 0 0
        </DataArray>
        <DataArray type="Float32" Name="boxVolume" NumberOfComponents="1" format="ascii">
          6.35e-05 6.35e-05 0.000127 0.000127 0.000127 0.000127 0.000127 0.000127 0.000127 0.000127 0.000127 0.000127
          0.000127 0.000127 0.000127 0.000127 0.000127 0.000127 0.000127 0.000127 0.0001905 0.0001905 0.000254 0.000254
          0.000254 0.000254 0.000254 0.000254 0.000254 0.000254 0.00028575 0.00028575 0.0003175 0.0003175 0.0003175 0.0003175
          0.0003175 0.0003175 0.0003175 0.0003175 0.0003175 0.0003175 0.0003175 0.0003175 0.0003175 0.0003175 0.0003175 0.0003175
          0.0003175 0.0003175 0.0003175 0.0003175 0.0003175 0.0003175 0.0003175 0.0003175 0.0003175 0.0003175 0.0003175 0.0003175
          0.0003175 0.0003175 0.0003175 0.0003175 0.0003175 0.0003175 0.0003175 0.0003175 0.0003175 0.0003175 0.0003175 0.0003175
          0.0003175 0.0003175 0.0003175 0.0003175 0.0003175 0.0003175 0.00015875 0.00015875
        </DataArray>
        <DataArray type="Float32" Name="pH" NumberOfComponents="1" format="ascii">
          7.22795 7.22801 7.22253 7.22255 7.21678 7.21682 7.21103 7.21107 7.20534 7.20537 7.1997 7.19974
          7.19413 7.19416 7.18862 7.18865 7.18317 7.1832 7.1778 7.17783 7.1725 7.17253 7.16233 7.16237
          7.15249 7.15252 7.14302 7.14305 7.13393 7.13396 7.12525 7.12528 7.11509 7.11513 7.10563 7.10566
          7.09693 7.09695 7.08901 7.08903 7.08193 7.08195 7.07574 7.07576 7.0705 7.07051 7.06629 7.06629
          7.06317 7.06317 7.06124 7.06123 7.06061 7.06059 7.06141 7.06139 7.06382 7.06378 7.06802 7.06797
          7.07428 7.07421 7.08292 7.08285 7.09439 7.09429 7.10926 7.10914 7.12829 7.12815 7.15238 7.15221
          7.18157 7.1814 7.20965 7.20969 7.19486 7.1964 6.19963 6.19963
        </DataArray>
        <DataArray type="Float32" Name="Omega" NumberOfComponents="1" format="ascii">
          2.48473 2.48511 2.48553 2.48583 2.48989 2.49034 2.49362 2.4942 2.49732 2.49789 2.50092 2.50147
          2.50455 2.50499 2.50801 2.50846 2.51141 2.51186 2.51475 2.51518 2.51809 2.51847 2.52432 2.52496
          2.53024 2.53084 2.53618 2.53681 2.542 2.54252 2.54754 2.54805 2.55425 2.55484 2.56076 2.56128
          2.56714 2.56754 2.57332 2.57373 2.57936 2.57973 2.58536 2.58563 2.59128 2.59146 2.59716 2.59728
          2.60305 2.60305 2.60903 2.60885 2.61506 2.61474 2.62111 2.62077 2.62758 2.6269 2.63405 2.63323
          2.64084 2.63983 2.64813 2.64688 2.6558 2.65423 2.66374 2.66185 2.67067 2.66842 2.66924 2.66674
          2.62122 2.61906 2.35148 2.35376 1.32914 1.34558 0 0
        </DataArray>
        <DataArray type="Float32" Name="rurea" NumberOfComponents="1" format="ascii">
          0 0 0 0 0 0 0 0 0 0 0 0
          0 0 0 0 0 0 0 0 0 0 0 0
          0 0 0 0 0 0 0 0 0 0 0 0
          0 0 0 0 0 0 0 0 0 0 0 0
          0 0 0 0 0 0 0 0 0 0 0 0
          0 0 0 0 0 0 0 0 0 0 0 0
          0 0 0 0 0 0 0 0
        </DataArray>
        <DataArray type="Float32" Name="Volume_Fraction_Biofilm" NumberOfComponents="1" format="ascii">
          0.244206 0.244288 0.238777 0.238699 0.236003 0.235987 0.23489 0.234849 0.234215 0.234087 0.233531 0.233511
          0.233235 0.23309 0.232722 0.232682 0.232308 0.232272 0.231871 0.231843 0.231495 0.231529 0.231003 0.230849
          0.230238 0.230131 0.229566 0.22953 0.229107 0.22897 0.228435 0.228412 0.227998 0.227945 0.227506 0.227408
          0.227052 0.226932 0.226656 0.226626 0.22635 0.226308 0.226107 0.22605 0.225883 0.225854 0.225771 0.225758
          0.22564 0.225659 0.225603 0.225613 0.225611 0.225624 0.225576 0.225677 0.225791 0.225788 0.225866 0.226025
          0.226059 0.226234 0.226351 0.226565 0.226809 0.227078 0.227392 0.227743 0.228271 0.228636 0.229841 0.230329
          0.233288 0.233887 0.237933 0.238723 0.227191 0.228126 0 0
        </DataArray>
        <DataArray type="Float32" Name="Volume_Fraction_Calcite" NumberOfComponents="1" format="ascii">
          0.0541159 0.0540029 0.0615476 0.0616239 0.0646965 0.0646874 0.0660144 0.0659647 0.0667126 0.0667725 0.0674454 0.0673597
          0.0676363 0.0677443 0.0681514 0.0681186 0.0685324 0.0684881 0.0689536 0.0689042 0.0692624 0.0691653 0.0696148 0.069677
          0.0703702 0.0703894 0.070922 0.0708369 0.0711873 0.0712642 0.0717692 0.0717017 0.071936 0.0718767 0.0721666 0.0721834
          0.0723028 0.0723801 0.0723538 0.0723016 0.072264 0.0722356 0.0720319 0.0720455 0.0717415 0.07174 0.0712528 0.071237
          0.0707276 0.0706971 0.0699843 0.0700123 0.0691037 0.0691677 0.0682449 0.0681619 0.0667875 0.066961 0.0654946 0.065474
          0.0638509 0.0638499 0.0617525 0.0617589 0.0591856 0.059204 0.0560253 0.0560152 0.0519331 0.0520098 0.0460027 0.0460099
          0.0357188 0.0357753 0.0191643 0.0192284 0.00568089 0.00568477 0 0
        </DataArray>
        <DataArray type="Float32" Name="Kxx" NumberOfComponents="1" format="ascii">
          3.28496e-12 3.28798e-12 3.09466e-12 3.09482e-12 3.05984e-12 3.06218e-12 3.04095e-12 3.04937e-12 3.03886e-12 3.0451e-12 3.03434e-12 3.04406e-12
          3.04407e-12 3.0474e-12 3.04378e-12 3.05059e-12 3.04683e-12 3.05426e-12 3.04833e-12 3.05544e-12 3.05455e-12 3.06036e-12 3.0674e-12 3.07595e-12
          3.06833e-12 3.07644e-12 3.07951e-12 3.09073e-12 3.09746e-12 3.1031e-12 3.10585e-12 3.11433e-12 3.13124e-12 3.14177e-12 3.15579e-12 3.16349e-12
          3.18586e-12 3.18997e-12 3.21877e-12 3.22663e-12 3.25674e-12 3.26353e-12 3.3027e-12 3.30696e-12 3.35305e-12 3.35604e-12 3.4124e-12 3.41527e-12
          3.47803e-12 3.47925e-12 3.5572e-12 3.55335e-12 3.64711e-12 3.63914e-12 3.7408e-12 3.73887e-12 3.87367e-12 3.85532e-12 4.00693e-12 3.99165e-12
          4.16965e-12 4.14986e-12 4.37824e-12 4.3524e-12 4.63047e-12 4.59551e-12 4.95169e-12 4.90834e-12 5.37245e-12 5.31333e-12 5.98082e-12 5.90947e-12
          7.02412e-12 6.91931e-12 9.11947e-12 8.95691e-12 1.45882e-11 1.43436e-11 2e-10 2e-10
        </DataArray>
        <DataArray type="Float32" Name="X_lBrine" NumberOfComponents="1" format="ascii">
          0.980669 0.98067 0.980448 0.980448 0.980203 0.980203 0.979956 0.979956 0.979707 0.979707 0.979457 0.979457
          0.979207 0.979207 0.978956 0.978956 0.978705 0.978705 0.978454 0.978454 0.978203 0.978203 0.977713 0.977713
          0.977227 0.977227 0.976748 0.976748 0.976278 0.976278 0.97582 0.97582 0.975273 0.975273 0.974752 0.974752
          0.974263 0.974263 0.973812 0.973812 0.973404 0.973404 0.973046 0.973046 0.972744 0.972744 0.972504 0.972504
          0.972335 0.972335 0.972245 0.972245 0.972242 0.972242 0.972336 0.972336 0.972538 0.972538 0.97286 0.97286
          0.973315 0.973315 0.973919 0.973919 0.974692 0.974691 0.975654 0.975653 0.976835 0.976834 0.978275 0.978273
          0.980035 0.980033 0.98223 0.982225 0.985079 0.985071 0.99029 0.99029
        </DataArray>
        <DataArray type="Float32" Name="X_lTotalC" NumberOfComponents="1" format="ascii">
          0.000103771 0.000103777 0.000103743 0.000103747 0.000103764 0.000103771 0.000103774 0.000103783 0.000103783 0.000103792 0.000103789 0.000103798
          0.000103796 0.000103803 0.000103799 0.000103806 0.0001038 0.000103807 0.0001038 0.000103807 0.000103799 0.000103805 0.000103792 0.000103802
          0.000103778 0.000103788 0.000103765 0.000103775 0.000103751 0.000103759 0.000103733 0.000103741 0.000103711 0.00010372 0.00010369 0.000103698
          0.000103673 0.00010368 0.000103661 0.000103667 0.000103655 0.000103661 0.000103659 0.000103664 0.000103674 0.000103677 0.000103703 0.000103705
          0.000103748 0.000103748 0.000103813 0.00010381 0.000103898 0.000103893 0.000104006 0.000104001 0.000104146 0.000104135 0.000104312 0.000104299
          0.000104512 0.000104496 0.000104753 0.000104733 0.000105034 0.000105009 0.000105355 0.000105326 0.0001057 0.000105665 0.000105956 0.000105918
          0.000105544 0.00010551 0.000101706 0.000101742 8.30434e-05 8.34169e-05 5.81077e-07 5.81077e-07
        </DataArray>
        <DataArray type="Float32" Name="X_lNa" NumberOfComponents="1" format="ascii">
          3.09228e-06 3.09242e-06 3.06952e-06 3.06954e-06 3.04421e-06 3.04425e-06 3.01865e-06 3.01866e-06 2.99296e-06 2.99296e-06 2.96715e-06 2.96715e-06
          2.94125e-06 2.94125e-06 2.91528e-06 2.91529e-06 2.88926e-06 2.88927e-06 2.86322e-06 2.86323e-06 2.83717e-06 2.83719e-06 2.7862e-06 2.78619e-06
          2.73556e-06 2.73555e-06 2.68553e-06 2.68553e-06 2.63632e-06 2.63631e-06 2.58815e-06 2.58815e-06 2.53032e-06 2.53031e-06 2.47496e-06 2.47495e-06
          2.4226e-06 2.4226e-06 2.37377e-06 2.37377e-06 2.32902e-06 2.32901e-06 2.28892e-06 2.28892e-06 2.2541e-06 2.2541e-06 2.22522e-06 2.22521e-06
          2.20298e-06 2.20297e-06 2.18815e-06 2.18814e-06 2.18154e-06 2.18153e-06 2.18408e-06 2.18406e-06 2.19673e-06 2.19671e-06 2.22062e-06 2.22059e-06
          2.25698e-06 2.25695e-06 2.30725e-06 2.30722e-06 2.37313e-06 2.37309e-06 2.45666e-06 2.4566e-06 2.56042e-06 2.56032e-06 2.68794e-06 2.68779e-06
          2.84477e-06 2.84455e-06 3.04061e-06 3.04019e-06 3.29345e-06 3.29281e-06 3.74885e-06 3.74885e-06
        </DataArray>
        <DataArray type="Float32" Name="X_lCl" NumberOfComponents="1" format="ascii">
          0.0109731 0.0109721 0.0111241 0.0111239 0.011292 0.0112917 0.0114615 0.0114614 0.011632 0.011632 0.0118032 0.0118032
          0.011975 0.011975 0.0121473 0.0121472 0.0123198 0.0123198 0.0124925 0.0124925 0.0126653 0.0126652 0.0130034 0.0130034
          0.0133392 0.0133393 0.013671 0.013671 0.0139973 0.0139974 0.0143167 0.0143166 0.0147 0.0147001 0.0150669 0.015067
          0.0154139 0.0154139 0.0157374 0.0157374 0.0160337 0.0160337 0.016299 0.016299 0.0165292 0.0165293 0.01672 0.01672
          0.0168664 0.0168665 0.0169637 0.0169637 0.0170061 0.0170062 0.0169878 0.0169879 0.0169021 0.0169022 0.0167416 0.0167418
          0.0164981 0.0164983 0.016162 0.0161623 0.015722 0.0157223 0.0151645 0.0151649 0.0144723 0.0144729 0.0136218 0.0136228
          0.0125761 0.0125776 0.0112708 0.0112736 0.00958657 0.00959077 0.00655617 0.00655617
        </DataArray>
        <DataArray type="Float32" Name="X_lCa" NumberOfComponents="1" format="ascii">
          0.000149669 0.000149663 0.000151552 0.000151554 0.000153694 0.000153696 0.000155845 0.000155853 0.000158008 0.000158016 0.000160178 0.000160186
          0.000162355 0.000162361 0.000164536 0.000164541 0.000166718 0.000166724 0.000168901 0.000168906 0.000171084 0.000171088 0.000175351 0.00017536
          0.000179584 0.000179593 0.000183765 0.000183774 0.000187877 0.000187885 0.000191897 0.000191904 0.000196724 0.000196733 0.000201343 0.000201351
          0.000205714 0.00020572 0.000209792 0.000209798 0.000213533 0.000213539 0.000216892 0.000216897 0.000219818 0.000219821 0.000222257 0.000222259
          0.000224152 0.000224153 0.000225443 0.000225441 0.000226061 0.000226057 0.000225931 0.000225928 0.000224979 0.000224971 0.000223107 0.000223097
          0.000220217 0.000220205 0.000216195 0.00021618 0.000210897 0.000210878 0.000204152 0.00020413 0.000195726 0.000195702 0.000185221 0.000185198
          0.000171641 0.000171629 0.000151662 0.000151731 0.000113393 0.000113786 0 0
        </DataArray>
        <DataArray type="Float32" Name="X_lUrea" NumberOfComponents="1" format="ascii">
          1.90571e-12 1.90529e-12 2.08289e-12 2.09342e-12 2.40231e-12 2.4166e-12 2.61925e-12 2.65835e-12 2.83555e-12 2.88356e-12 3.05516e-12 3.10423e-12
          3.2819e-12 3.32826e-12 3.51467e-12 3.56084e-12 3.75599e-12 3.80509e-12 4.00839e-12 4.05612e-12 4.27733e-12 4.31743e-12 4.80305e-12 4.89816e-12
          5.3748e-12 5.47002e-12 6.02729e-12 6.13198e-12 6.73e-12 6.83316e-12 7.48338e-12 7.58387e-12 8.48707e-12 8.62342e-12 9.60045e-12 9.74113e-12
          1.0852e-11 1.0978e-11 1.22232e-11 1.23564e-11 1.37352e-11 1.38696e-11 1.54435e-11 1.55589e-11 1.73591e-11 1.74415e-11 1.95126e-11 1.95744e-11
          2.19889e-11 2.19853e-11 2.48686e-11 2.47556e-11 2.82029e-11 2.79765e-11 3.20643e-11 3.17934e-11 3.69022e-11 3.63068e-11 4.26023e-11 4.17257e-11
          4.9716e-11 4.84904e-11 5.90217e-11 5.72455e-11 7.11069e-11 6.84661e-11 8.76337e-11 8.37712e-11 1.11285e-10 1.05588e-10 1.4899e-10 1.40233e-10
          2.23034e-10 2.07692e-10 4.2109e-10 3.88592e-10 1.01966e-09 9.3457e-10 0 0
        </DataArray>
        <DataArray type="Float32" Name="X_lTotalNH" NumberOfComponents="1" format="ascii">
          0.00522394 0.0052235 0.00529488 0.00529479 0.00537373 0.00537359 0.00545334 0.0054533 0.0055334 0.00553339 0.0056138 0.0056138
          0.00569448 0.00569447 0.00577539 0.00577536 0.00585643 0.0058564 0.00593755 0.00593752 0.00601869 0.00601865 0.00617747 0.00617748
          0.0063352 0.0063352 0.00649099 0.00649101 0.00664425 0.00664427 0.00679423 0.00679422 0.00697427 0.00697429 0.00714658 0.00714662
          0.00730952 0.00730953 0.00746144 0.00746143 0.0076006 0.00760061 0.00772521 0.00772522 0.00783333 0.00783334 0.00792289 0.00792291
          0.00799169 0.00799172 0.00803735 0.00803738 0.00805729 0.00805732 0.00804868 0.00804873 0.00800844 0.00800849 0.00793304 0.00793314
          0.00781868 0.00781878 0.00766084 0.00766095 0.00745419 0.00745433 0.00719235 0.00719255 0.00686725 0.00686753 0.00646783 0.00646827
          0.00597672 0.00597741 0.00536366 0.00536498 0.00457268 0.00457465 0.00314947 0.00314947
        </DataArray>
        <DataArray type="Float32" Name="X_lO2" NumberOfComponents="1" format="ascii">
          0 0 0 0 0 0 0 0 0 0 0 0
          0 0 0 0 0 0 0 0 0 0 0 0
          0 0 0 0 0 0 0 0 0 0 0 0
          0 0 0 0 0 0 0 0 0 0 0 0
          0 0 0 0 0 0 0 0 0 0 0 0
          0 0 0 0 0 0 0 0 0 0 0 0
          0 0 0 0 0 0 0 0
        </DataArray>
        <DataArray type="Float32" Name="X_lSubstrate" NumberOfComponents="1" format="ascii">
          0.00287214 0.00287216 0.00286899 0.00286899 0.00286534 0.00286534 0.00286152 0.00286152 0.00285752 0.00285752 0.00285336 0.00285335
          0.00284901 0.002849 0.00284446 0.00284446 0.00283972 0.00283972 0.00283477 0.00283477 0.0028296 0.0028296 0.00281882 0.00281881
          0.00280707 0.00280707 0.00279429 0.00279429 0.00278038 0.00278037 0.00276524 0.00276524 0.00274467 0.00274466 0.00272181 0.00272179
          0.0026964 0.00269639 0.00266817 0.00266816 0.00263679 0.00263678 0.0026019 0.00260188 0.00256307 0.00256305 0.00251983 0.00251981
          0.00247166 0.00247163 0.00241793 0.0024179 0.00235794 0.00235792 0.0022909 0.00229088 0.00221587 0.00221583 0.00213171 0.0021317
          0.00203722 0.0020372 0.00193082 0.0019308 0.00181061 0.00181059 0.00167423 0.00167423 0.00151864 0.00151866 0.00133952 0.00133959
          0.00112996 0.00113013 0.000877904 0.000878332 0.000561071 0.000561774 0 0
        </DataArray>
        <DataArray type="Float32" Name="X_lSuspended_Biomass" NumberOfComponents="1" format="ascii">
          5.46228e-06 5.46211e-06 5.45722e-06 5.45738e-06 5.44838e-06 5.44953e-06 5.44008e-06 5.44257e-06 5.43359e-06 5.43562e-06 5.42722e-06 5.42876e-06
          5.42039e-06 5.42166e-06 5.41298e-06 5.41422e-06 5.4052e-06 5.40635e-06 5.39702e-06 5.39802e-06 5.38848e-06 5.38918e-06 5.3687e-06 5.37101e-06
          5.34804e-06 5.3502e-06 5.32521e-06 5.32718e-06 5.29998e-06 5.3018e-06 5.27226e-06 5.27383e-06 5.23355e-06 5.23558e-06 5.19043e-06 5.19234e-06
          5.14207e-06 5.14383e-06 5.08786e-06 5.08947e-06 5.02715e-06 5.02858e-06 4.95917e-06 4.96044e-06 4.88309e-06 4.88421e-06 4.79798e-06 4.79893e-06
          4.70276e-06 4.70354e-06 4.59626e-06 4.59686e-06 4.47711e-06 4.47752e-06 4.34381e-06 4.34396e-06 4.19452e-06 4.19442e-06 4.0272e-06 4.02687e-06
          3.83967e-06 3.83901e-06 3.62912e-06 3.62809e-06 3.3923e-06 3.39087e-06 3.12537e-06 3.12346e-06 2.82337e-06 2.82089e-06 2.47942e-06 2.4762e-06
          2.0822e-06 2.07795e-06 1.61118e-06 1.60581e-06 1.02651e-06 1.0218e-06 0 0
        </DataArray>
        <DataArray type="Float32" Name="X_lNH4" NumberOfComponents="1" format="ascii">
          0.00548429 0.00548383 0.00555941 0.00555931 0.00564289 0.00564274 0.00572718 0.00572714 0.00581194 0.00581193 0.00589707 0.00589706
          0.0059825 0.00598248 0.00606817 0.00606813 0.00615397 0.00615394 0.00623986 0.00623983 0.00632577 0.00632573 0.0064939 0.00649391
          0.00666092 0.00666092 0.00682588 0.0068259 0.00698818 0.00698819 0.007147 0.00714698 0.00733765 0.00733766 0.00752012 0.00752015
          0.00769266 0.00769267 0.00785353 0.00785352 0.00800089 0.0080009 0.00813284 0.00813285 0.00824732 0.00824733 0.00834216 0.00834217
          0.00841499 0.00841502 0.00846331 0.00846334 0.00848438 0.00848443 0.00847522 0.00847528 0.00843255 0.00843262 0.00835265 0.00835275
          0.00823147 0.00823157 0.00806422 0.00806435 0.00784528 0.00784544 0.00756788 0.0075681 0.00722349 0.00722381 0.00680045 0.00680093
          0.00628061 0.00628136 0.00563309 0.00563448 0.00480339 0.00480532 0.00333307 0.00333307
        </DataArray>
        <DataArray type="Float32" Name="X_lHCO3" NumberOfComponents="1" format="ascii">
          0.000128704 0.000128713 0.00012851 0.000128517 0.000128369 0.000128379 0.000128212 0.000128224 0.000128054 0.000128066 0.000127892 0.000127904
          0.000127731 0.00012774 0.000127566 0.000127576 0.0001274 0.000127409 0.000127232 0.000127241 0.000127065 0.000127073 0.000126733 0.000126746
          0.000126399 0.000126412 0.000126072 0.000126086 0.000125753 0.000125764 0.000125439 0.00012545 0.000125066 0.000125078 0.000124713 0.000124724
          0.000124387 0.000124396 0.000124091 0.0001241 0.00012383 0.000123838 0.000123611 0.000123617 0.000123438 0.000123442 0.000123318 0.000123321
          0.000123257 0.000123257 0.000123264 0.00012326 0.000123343 0.000123336 0.000123503 0.000123495 0.00012376 0.000123745 0.000124116 0.000124098
          0.000124588 0.000124567 0.000125195 0.000125168 0.00012595 0.000125916 0.000126869 0.000126829 0.000127952 0.000127904 0.000129078 0.000129025
          0.000129512 0.000129465 0.00012559 0.000125636 0.000101972 0.000102474 3.37056e-07 3.37056e-07
        </DataArray>
        <DataArray type="Float32" Name="X_lCO3" NumberOfComponents="1" format="ascii">
          1.28662e-07 1.28687e-07 1.27067e-07 1.2708e-07 1.25474e-07 1.25495e-07 1.23886e-07 1.23909e-07 1.22331e-07 1.22353e-07 1.20807e-07 1.20828e-07
          1.1932e-07 1.19337e-07 1.17862e-07 1.17879e-07 1.16438e-07 1.16455e-07 1.15047e-07 1.15063e-07 1.13691e-07 1.13706e-07 1.11127e-07 1.11149e-07
          1.08691e-07 1.08711e-07 1.06399e-07 1.0642e-07 1.04244e-07 1.04261e-07 1.02219e-07 1.02236e-07 9.99015e-08 9.992e-08 9.77903e-08 9.78058e-08
          9.58888e-08 9.59008e-08 9.41947e-08 9.42072e-08 9.27118e-08 9.27226e-08 9.14454e-08 9.14532e-08 9.03994e-08 9.04045e-08 8.9583e-08 8.95863e-08
          8.90089e-08 8.90085e-08 8.86942e-08 8.86886e-08 8.86583e-08 8.86487e-08 8.89285e-08 8.89183e-08 8.9553e-08 8.9533e-08 9.05702e-08 9.05455e-08
          9.20557e-08 9.20255e-08 9.41092e-08 9.40712e-08 9.68595e-08 9.68108e-08 1.00496e-07 1.00435e-07 1.05271e-07 1.05195e-07 1.11408e-07 1.11317e-07
          1.18352e-07 1.18262e-07 1.2053e-07 1.20592e-07 9.14859e-08 9.22964e-08 2.55591e-11 2.55591e-11
        </DataArray>
        <DataArray type="Float32" Name="X_lCO2" NumberOfComponents="1" format="ascii">
          1.08692e-05 1.08686e-05 1.09809e-05 1.09809e-05 1.11052e-05 1.11052e-05 1.12297e-05 1.12298e-05 1.13541e-05 1.13542e-05 1.1478e-05 1.14782e-05
          1.16016e-05 1.16017e-05 1.17246e-05 1.17247e-05 1.1847e-05 1.18471e-05 1.19686e-05 1.19687e-05 1.20895e-05 1.20896e-05 1.23236e-05 1.23238e-05
          1.2553e-05 1.25532e-05 1.27768e-05 1.2777e-05 1.29942e-05 1.29944e-05 1.32043e-05 1.32044e-05 1.34532e-05 1.34535e-05 1.36883e-05 1.36886e-05
          1.39078e-05 1.3908e-05 1.41101e-05 1.41103e-05 1.42935e-05 1.42937e-05 1.44565e-05 1.44566e-05 1.45971e-05 1.45972e-05 1.47132e-05 1.47133e-05
          1.48027e-05 1.48027e-05 1.48629e-05 1.48629e-05 1.4891e-05 1.48909e-05 1.48836e-05 1.48835e-05 1.48368e-05 1.48365e-05 1.47455e-05 1.47452e-05
          1.46042e-05 1.46039e-05 1.44057e-05 1.44053e-05 1.41405e-05 1.414e-05 1.37967e-05 1.37962e-05 1.33574e-05 1.33569e-05 1.27967e-05 1.27965e-05
          1.20663e-05 1.20666e-05 1.10553e-05 1.10581e-05 9.44466e-06 9.45581e-06 3.38012e-07 3.38012e-07
        </DataArray>
        <DataArray type="Float32" Name="X_lH" NumberOfComponents="1" format="ascii">
          5.8826e-11 5.88185e-11 5.95569e-11 5.95536e-11 6.034e-11 6.03349e-11 6.11338e-11 6.11287e-11 6.19303e-11 6.19255e-11 6.27289e-11 6.27243e-11
          6.35281e-11 6.35243e-11 6.4329e-11 6.43248e-11 6.51296e-11 6.51253e-11 6.59293e-11 6.59253e-11 6.67274e-11 6.67235e-11 6.82859e-11 6.82801e-11
          6.98291e-11 6.98234e-11 7.13454e-11 7.13395e-11 7.28304e-11 7.28255e-11 7.42789e-11 7.42736e-11 7.60086e-11 7.60027e-11 7.7655e-11 7.765e-11
          7.9202e-11 7.91978e-11 8.06354e-11 8.06308e-11 8.19388e-11 8.19348e-11 8.30948e-11 8.30919e-11 8.40864e-11 8.40845e-11 8.48943e-11 8.4893e-11
          8.54975e-11 8.54978e-11 8.58734e-11 8.58759e-11 8.59988e-11 8.60029e-11 8.58473e-11 8.58517e-11 8.53851e-11 8.53935e-11 8.45835e-11 8.45939e-11
          8.34018e-11 8.3414e-11 8.17933e-11 8.1808e-11 7.97062e-11 7.97241e-11 7.70764e-11 7.70974e-11 7.38322e-11 7.38566e-11 6.99201e-11 6.99469e-11
          6.54555e-11 6.54808e-11 6.14527e-11 6.14469e-11 6.37084e-11 6.34828e-11 6.32454e-10 6.32454e-10
        </DataArray>
        <DataArray type="Float32" Name="X_lOH" NumberOfComponents="1" format="ascii">
          2.83458e-06 2.83495e-06 2.79897e-06 2.79912e-06 2.76173e-06 2.76196e-06 2.72497e-06 2.7252e-06 2.68902e-06 2.68923e-06 2.6539e-06 2.6541e-06
          2.61964e-06 2.61979e-06 2.58615e-06 2.58632e-06 2.5535e-06 2.55367e-06 2.52168e-06 2.52184e-06 2.49068e-06 2.49083e-06 2.43224e-06 2.43245e-06
          2.37694e-06 2.37713e-06 2.32493e-06 2.32512e-06 2.2761e-06 2.27625e-06 2.23035e-06 2.23051e-06 2.178e-06 2.17817e-06 2.13034e-06 2.13048e-06
          2.08738e-06 2.08749e-06 2.04905e-06 2.04916e-06 2.01537e-06 2.01547e-06 1.9864e-06 1.98647e-06 1.96221e-06 1.96225e-06 1.94295e-06 1.94297e-06
          1.92884e-06 1.92883e-06 1.92021e-06 1.92016e-06 1.91746e-06 1.91737e-06 1.92115e-06 1.92105e-06 1.93215e-06 1.93196e-06 1.95139e-06 1.95115e-06
          1.98035e-06 1.98006e-06 2.02105e-06 2.02068e-06 2.07625e-06 2.07579e-06 2.15003e-06 2.14944e-06 2.24826e-06 2.24751e-06 2.37887e-06 2.37795e-06
          2.54743e-06 2.54644e-06 2.72173e-06 2.72197e-06 2.6359e-06 2.64524e-06 2.67481e-07 2.67481e-07
        </DataArray>
        <DataArray type="Float32" Name="X_gBrine" NumberOfComponents="1" format="ascii">
          0.0112467 0.0112311 0.0112401 0.0112401 0.011249 0.011249 0.011258 0.011258 0.011267 0.011267 0.011276 0.011276
          0.011285 0.011285 0.011294 0.011294 0.0113031 0.0113031 0.0113122 0.0113122 0.0113212 0.0113212 0.0113395 0.0113395
          0.0113578 0.0113578 0.0113762 0.0113762 0.0113946 0.0113946 0.0114132 0.0114132 0.0114366 0.0114366 0.0114601 0.0114601
          0.0114838 0.0114838 0.0115077 0.0115077 0.0115318 0.0115318 0.0115562 0.0115562 0.0115808 0.0115808 0.0116056 0.0116056
          0.0116308 0.0116308 0.0116562 0.0116562 0.0116819 0.0116819 0.011708 0.011708 0.0117345 0.0117345 0.0117614 0.0117614
          0.0117887 0.0117887 0.0118165 0.0118165 0.0118447 0.0118447 0.0118736 0.0118736 0.0119031 0.0119031 0.0119333 0.0119333
          0.0119644 0.0119644 0.0119966 0.0119966 0.0120305 0.0120305 0.0120698 0.0120698
        </DataArray>
        <DataArray type="Float32" Name="X_gTotalC" NumberOfComponents="1" format="ascii">
          0.988753 0.988769 0.98876 0.98876 0.988751 0.988751 0.988742 0.988742 0.988733 0.988733 0.988724 0.988724
          0.988715 0.988715 0.988706 0.988706 0.988697 0.988697 0.988688 0.988688 0.988679 0.988679 0.988661 0.988661
          0.988642 0.988642 0.988624 0.988624 0.988605 0.988605 0.988587 0.988587 0.988563 0.988563 0.98854 0.98854
          0.988516 0.988516 0.988492 0.988492 0.988468 0.988468 0.988444 0.988444 0.988419 0.988419 0.988394 0.988394
          0.988369 0.988369 0.988344 0.988344 0.988318 0.988318 0.988292 0.988292 0.988266 0.988266 0.988239 0.988239
          0.988211 0.988211 0.988184 0.988184 0.988155 0.988155 0.988126 0.988126 0.988097 0.988097 0.988067 0.988067
          0.988036 0.988036 0.988003 0.988003 0.98797 0.98797 0.98793 0.98793
        </DataArray>
        <DataArray type="Float32" Name="X_gNa" NumberOfComponents="1" format="ascii">
          0 0 0 0 0 0 0 0 0 0 0 0
          0 0 0 0 0 0 0 0 0 0 0 0
          0 0 0 0 0 0 0 0 0 0 0 0
          0 0 0 0 0 0 0 0 0 0 0 0
          0 0 0 0 0 0 0 0 0 0 0 0
          0 0 0 0 0 0 0 0 0 0 0 0
          0 0 0 0 0 0 0 0
        </DataArray>
        <DataArray type="Float32" Name="X_gCl" NumberOfComponents="1" format="ascii">
          0 0 0 0 0 0 0 0 0 0 0 0
          0 0 0 0 0 0 0 0 0 0 0 0
          0 0 0 0 0 0 0 0 0 0 0 0
          0 0 0 0 0 0 0 0 0 0 0 0
          0 0 0 0 0 0 0 0 0 0 0 0
          0 0 0 0 0 0 0 0 0 0 0 0
          0 0 0 0 0 0 0 0
        </DataArray>
        <DataArray type="Float32" Name="X_gCa" NumberOfComponents="1" format="ascii">
          0 0 0 0 0 0 0 0 0 0 0 0
          0 0 0 0 0 0 0 0 0 0 0 0
          0 0 0 0 0 0 0 0 0 0 0 0
          0 0 0 0 0 0 0 0 0 0 0 0
          0 0 0 0 0 0 0 0 0 0 0 0
          0 0 0 0 0 0 0 0 0 0 0 0
          0 0 0 0 0 0 0 0
        </DataArray>
        <DataArray type="Float32" Name="X_gUrea" NumberOfComponents="1" format="ascii">
          0 0 0 0 0 0 0 0 0 0 0 0
          0 0 0 0 0 0 0 0 0 0 0 0
          0 0 0 0 0 0 0 0 0 0 0 0
          0 0 0 0 0 0 0 0 0 0 0 0
          0 0 0 0 0 0 0 0 0 0 0 0
          0 0 0 0 0 0 0 0 0 0 0 0
          0 0 0 0 0 0 0 0
        </DataArray>
        <DataArray type="Float32" Name="X_gTotalNH" NumberOfComponents="1" format="ascii">
          0 0 0 0 0 0 0 0 0 0 0 0
          0 0 0 0 0 0 0 0 0 0 0 0
          0 0 0 0 0 0 0 0 0 0 0 0
          0 0 0 0 0 0 0 0 0 0 0 0
          0 0 0 0 0 0 0 0 0 0 0 0
          0 0 0 0 0 0 0 0 0 0 0 0
          0 0 0 0 0 0 0 0
        </DataArray>
        <DataArray type="Float32" Name="X_gO2" NumberOfComponents="1" format="ascii">
          0 0 0 0 0 0 0 0 0 0 0 0
          0 0 0 0 0 0 0 0 0 0 0 0
          0 0 0 0 0 0 0 0 0 0 0 0
          0 0 0 0 0 0 0 0 0 0 0 0
          0 0 0 0 0 0 0 0 0 0 0 0
          0 0 0 0 0 0 0 0 0 0 0 0
          0 0 0 0 0 0 0 0
        </DataArray>
        <DataArray type="Float32" Name="X_gSubstrate" NumberOfComponents="1" format="ascii">
          0 0 0 0 0 0 0 0 0 0 0 0
          0 0 0 0 0 0 0 0 0 0 0 0
          0 0 0 0 0 0 0 0 0 0 0 0
          0 0 0 0 0 0 0 0 0 0 0 0
          0 0 0 0 0 0 0 0 0 0 0 0
          0 0 0 0 0 0 0 0 0 0 0 0
          0 0 0 0 0 0 0 0
        </DataArray>
        <DataArray type="Float32" Name="X_gSuspended_Biomass" NumberOfComponents="1" format="ascii">
          0 0 0 0 0 0 0 0 0 0 0 0
          0 0 0 0 0 0 0 0 0 0 0 0
          0 0 0 0 0 0 0 0 0 0 0 0
          0 0 0 0 0 0 0 0 0 0 0 0
          0 0 0 0 0 0 0 0 0 0 0 0
          0 0 0 0 0 0 0 0 0 0 0 0
          0 0 0 0 0 0 0 0
        </DataArray>
        <DataArray type="Float32" Name="X_gNH4" NumberOfComponents="1" format="ascii">
          0 0 0 0 0 0 0 0 0 0 0 0
          0 0 0 0 0 0 0 0 0 0 0 0
          0 0 0 0 0 0 0 0 0 0 0 0
          0 0 0 0 0 0 0 0 0 0 0 0
          0 0 0 0 0 0 0 0 0 0 0 0
          0 0 0 0 0 0 0 0 0 0 0 0
          0 0 0 0 0 0 0 0
        </DataArray>
        <DataArray type="Float32" Name="X_gHCO3" NumberOfComponents="1" format="ascii">
          0 0 0 0 0 0 0 0 0 0 0 0
          0 0 0 0 0 0 0 0 0 0 0 0
          0 0 0 0 0 0 0 0 0 0 0 0
          0 0 0 0 0 0 0 0 0 0 0 0
          0 0 0 0 0 0 0 0 0 0 0 0
          0 0 0 0 0 0 0 0 0 0 0 0
          0 0 0 0 0 0 0 0
        </DataArray>
        <DataArray type="Float32" Name="X_gCO3" NumberOfComponents="1" format="ascii">
          0 0 0 0 0 0 0 0 0 0 0 0
          0 0 0 0 0 0 0 0 0 0 0 0
          0 0 0 0 0 0 0 0 0 0 0 0
          0 0 0 0 0 0 0 0 0 0 0 0
          0 0 0 0 0 0 0 0 0 0 0 0
          0 0 0 0 0 0 0 0 0 0 0 0
          0 0 0 0 0 0 0 0
        </DataArray>
        <DataArray type="Float32" Name="X_gCO2" NumberOfComponents="1" format="ascii">
          0.988753 0.988769 0.98876 0.98876 0.988751 0.988751 0.988742 0.988742 0.988733 0.988733 0.988724 0.988724
          0.988715 0.988715 0.988706 0.988706 0.988697 0.988697 0.988688 0.988688 0.988679 0.988679 0.988661 0.988661
          0.988642 0.988642 0.988624 0.988624 0.988605 0.988605 0.988587 0.988587 0.988563 0.988563 0.98854 0.98854
          0.988516 0.988516 0.988492 0.988492 0.988468 0.988468 0.988444 0.988444 0.988419 0.988419 0.988394 0.988394
          0.988369 0.988369 0.988344 0.988344 0.988318 0.988318 0.988292 0.988292 0.988266 0.988266 0.988239 0.988239
          0.988211 0.988211 0.988184 0.988184 0.988155 0.988155 0.988126 0.988126 0.988097 0.988097 0.988067 0.988067
          0.988036 0.988036 0.988003 0.988003 0.98797 0.98797 0.98793 0.98793
        </DataArray>
        <DataArray type="Float32" Name="X_gH" NumberOfComponents="1" format="ascii">
          0 0 0 0 0 0 0 0 0 0 0 0
          0 0 0 0 0 0 0 0 0 0 0 0
          0 0 0 0 0 0 0 0 0 0 0 0
          0 0 0 0 0 0 0 0 0 0 0 0
          0 0 0 0 0 0 0 0 0 0 0 0
          0 0 0 0 0 0 0 0 0 0 0 0
          0 0 0 0 0 0 0 0
        </DataArray>
        <DataArray type="Float32" Name="X_gOH" NumberOfComponents="1" format="ascii">
          0 0 0 0 0 0 0 0 0 0 0 0
          0 0 0 0 0 0 0 0 0 0 0 0
          0 0 0 0 0 0 0 0 0 0 0 0
          0 0 0 0 0 0 0 0 0 0 0 0
          0 0 0 0 0 0 0 0 0 0 0 0
          0 0 0 0 0 0 0 0 0 0 0 0
          0 0 0 0 0 0 0 0
        </DataArray>
        <DataArray type="Float32" Name="Molarity_Brine" NumberOfComponents="1" format="ascii">
          54683.3 54683.4 54676.6 54676.6 54669.2 54669.2 54661.7 54661.7 54654.2 54654.2 54646.7 54646.7
          54639.1 54639.1 54631.5 54631.5 54623.9 54623.9 54616.3 54616.3 54608.8 54608.8 54594 54594
          54579.3 54579.3 54564.9 54564.9 54550.8 54550.8 54537.1 54537.1 54520.8 54520.8 54505.3 54505.3
          54490.9 54490.8 54477.6 54477.6 54465.8 54465.8 54455.7 54455.7 54447.3 54447.3 54441 54441
          54437 54437 54435.5 54435.5 54436.9 54436.9 54441.5 54441.5 54449.6 54449.6 54461.7 54461.7
          54478.1 54478.1 54499.4 54499.4 54526.2 54526.2 54559.3 54559.3 54599.6 54599.6 54648.3 54648.3
          54707.6 54707.6 54781.2 54781 54876.3 54876 55049.2 55049.2
        </DataArray>
        <DataArray type="Float32" Name="Molarity_TotalC" NumberOfComponents="1" format="ascii">
          2.36917 2.36931 2.36876 2.36886 2.36951 2.36967 2.37001 2.37022 2.3705 2.3707 2.37092 2.37112
          2.37134 2.3715 2.37169 2.37185 2.372 2.37216 2.37227 2.37243 2.37254 2.37267 2.37291 2.37314
          2.37315 2.37337 2.37339 2.37362 2.37359 2.37377 2.37369 2.37388 2.37381 2.37403 2.37393 2.37412
          2.37411 2.37425 2.37434 2.37449 2.37469 2.37483 2.37522 2.37532 2.37594 2.37601 2.37691 2.37695
          2.37818 2.37818 2.37982 2.37975 2.38185 2.38173 2.38429 2.38417 2.38734 2.38709 2.39089 2.39059
          2.39509 2.39472 2.40005 2.3996 2.40576 2.4052 2.41222 2.41154 2.41897 2.41817 2.42342 2.42254
          2.41226 2.4115 2.32248 2.32331 1.89411 1.90263 0.0132254 0.0132254
        </DataArray>
        <DataArray type="Float32" Name="Molarity_Na" NumberOfComponents="1" format="ascii">
          0.135117 0.135123 0.134136 0.134138 0.133046 0.133048 0.131944 0.131945 0.130836 0.130836 0.129723 0.129723
          0.128606 0.128606 0.127485 0.127485 0.126362 0.126363 0.125238 0.125239 0.124113 0.124114 0.121912 0.121911
          0.119723 0.119723 0.11756 0.11756 0.115432 0.115431 0.113347 0.113348 0.110844 0.110843 0.108446 0.108445
          0.106177 0.106176 0.104059 0.104059 0.102118 0.102118 0.100378 0.100378 0.0988669 0.0988667 0.0976127 0.0976125
          0.096647 0.0966466 0.0960026 0.0960021 0.0957156 0.0957151 0.0958255 0.0958247 0.0963748 0.0963741 0.0974125 0.0974112
          0.0989911 0.0989898 0.101173 0.101171 0.10403 0.104028 0.107651 0.107648 0.112145 0.112141 0.117662 0.117655
          0.124438 0.124429 0.132886 0.132868 0.143769 0.143741 0.1633 0.1633
        </DataArray>
        <DataArray type="Float32" Name="Molarity_Cl" NumberOfComponents="1" format="ascii">
          310.918 310.891 315.23 315.225 320.025 320.016 324.866 324.864 329.736 329.736 334.628 334.628
          339.539 339.538 344.464 344.462 349.398 349.397 354.338 354.337 359.281 359.279 368.957 368.958
          378.573 378.573 388.075 388.077 397.428 397.429 406.584 406.583 417.58 417.581 428.11 428.112
          438.072 438.072 447.364 447.363 455.879 455.88 463.507 463.508 470.128 470.129 475.614 475.615
          479.829 479.831 482.627 482.629 483.849 483.852 483.322 483.325 480.856 480.86 476.237 476.243
          469.233 469.239 459.569 459.575 446.922 446.931 430.91 430.922 411.046 411.064 386.667 386.694
          356.729 356.771 319.417 319.497 271.37 271.49 185.193 185.193
        </DataArray>
        <DataArray type="Float32" Name="Molarity_Ca" NumberOfComponents="1" format="ascii">
          3.75144 3.75128 3.79902 3.79907 3.85314 3.85321 3.90754 3.90772 3.96223 3.96242 4.01711 4.0173
          4.07219 4.07234 4.12736 4.1275 4.18259 4.18274 4.23786 4.23799 4.29314 4.29325 4.40122 4.40146
          4.5085 4.50873 4.61451 4.61476 4.71882 4.71902 4.82085 4.82103 4.94339 4.94362 5.06073 5.06095
          5.17182 5.17197 5.27551 5.27566 5.37068 5.37082 5.45615 5.45626 5.53062 5.53069 5.59271 5.59277
          5.64097 5.64099 5.67382 5.67378 5.68953 5.68944 5.6862 5.68612 5.66192 5.66171 5.61417 5.61394
          5.54055 5.54025 5.4381 5.43772 5.30323 5.30276 5.13167 5.13113 4.91755 4.91695 4.65092 4.65034
          4.30686 4.30656 3.80214 3.80386 2.83944 2.84929 0 0
        </DataArray>
        <DataArray type="Float32" Name="Molarity_Urea" NumberOfComponents="1" format="ascii">
          3.15904e-08 3.15834e-08 3.45311e-08 3.47056e-08 3.9831e-08 4.0068e-08 4.3433e-08 4.40814e-08 4.70252e-08 4.78214e-08 5.06732e-08 5.14871e-08
          5.44402e-08 5.52093e-08 5.83083e-08 5.90743e-08 6.23192e-08 6.31338e-08 6.65147e-08 6.73068e-08 7.09859e-08 7.16514e-08 7.97291e-08 8.13078e-08
          8.92403e-08 9.08213e-08 1.00097e-07 1.01835e-07 1.11792e-07 1.13505e-07 1.24333e-07 1.26002e-07 1.41046e-07 1.43312e-07 1.59589e-07 1.61927e-07
          1.80435e-07 1.82532e-07 2.03279e-07 2.05496e-07 2.28471e-07 2.30706e-07 2.56933e-07 2.58854e-07 2.88849e-07 2.9022e-07 3.24725e-07 3.25753e-07
          3.65972e-07 3.65911e-07 4.13927e-07 4.12046e-07 4.69438e-07 4.65671e-07 5.33704e-07 5.29195e-07 6.14195e-07 6.04285e-07 7.08989e-07 6.94402e-07
          8.27239e-07 8.06846e-07 9.81853e-07 9.52305e-07 1.18254e-06 1.13862e-06 1.45683e-06 1.39262e-06 1.84914e-06 1.75448e-06 2.47423e-06 2.32881e-06
          3.7012e-06 3.44661e-06 6.98166e-06 6.44287e-06 1.68864e-05 1.54772e-05 0 0
        </DataArray>
        <DataArray type="Float32" Name="Molarity_TotalNH" NumberOfComponents="1" format="ascii">
          308.127 308.101 312.343 312.337 317.031 317.022 321.764 321.762 326.526 326.525 331.309 331.309
          336.11 336.11 340.926 340.924 345.75 345.749 350.58 350.579 355.413 355.411 364.874 364.874
          374.275 374.276 383.566 383.567 392.71 392.711 401.662 401.661 412.414 412.415 422.709 422.711
          432.449 432.449 441.534 441.534 449.86 449.861 457.318 457.319 463.791 463.792 469.155 469.156
          473.276 473.278 476.012 476.014 477.207 477.209 476.691 476.694 474.28 474.283 469.763 469.769
          462.914 462.92 453.465 453.472 441.1 441.109 425.444 425.456 406.022 406.039 382.184 382.211
          352.913 352.954 316.43 316.509 269.453 269.57 185.193 185.193
        </DataArray>
        <DataArray type="Float32" Name="Molarity_O2" NumberOfComponents="1" format="ascii">
          3.07677e-35 3.1155e-35 3.03144e-35 3.21935e-35 5.01462e-35 5.47188e-35 5.97255e-35 7.03803e-35 6.63116e-35 7.95612e-35 6.93646e-35 8.33515e-35
          7.15625e-35 8.38225e-35 7.03351e-35 8.19256e-35 6.7745e-35 7.84817e-35 6.38409e-35 7.32782e-35 5.96509e-35 6.76899e-35 4.7909e-35 5.76941e-35
          3.56924e-35 4.27161e-35 2.61072e-35 3.11903e-35 1.81663e-35 2.11311e-35 1.15932e-35 1.33475e-35 6.13211e-36 7.11824e-36 2.96695e-36 3.37696e-36
          1.34082e-36 1.48509e-36 4.94885e-37 6.0677e-37 1.92026e-37 1.97829e-37 6.04585e-38 6.38075e-38 1.69556e-38 1.76646e-38 0 0
          0 0 0 0 0 0 0 0 0 0 0 0
          0 0 0 0 0 0 0 0 0 0 0 0
          0 0 0 0 0 0 0 0
        </DataArray>
        <DataArray type="Float32" Name="Molarity_Substrate" NumberOfComponents="1" format="ascii">
          16.0147 16.0148 15.9988 15.9988 15.9802 15.9803 15.9608 15.9608 15.9403 15.9403 15.9189 15.9189
          15.8965 15.8965 15.8731 15.873 15.8485 15.8485 15.8227 15.8227 15.7957 15.7957 15.7391 15.7391
          15.6771 15.6771 15.6093 15.6092 15.535 15.535 15.4538 15.4538 15.3429 15.3428 15.2189 15.2188
          15.0804 15.0803 14.9258 14.9257 14.7532 14.7532 14.5606 14.5605 14.3456 14.3455 14.1054 14.1053
          13.8371 13.837 13.5372 13.5371 13.2018 13.2017 12.8263 12.8261 12.4054 12.4052 11.933 11.9329
          11.4022 11.402 10.8042 10.8041 10.1284 10.1283 9.36202 9.36199 8.48795 8.48809 7.48246 7.48289
          6.3074 6.30836 4.89605 4.89845 3.12545 3.12937 0 0
        </DataArray>
        <DataArray type="Float32" Name="Molarity_Suspended_Biomass" NumberOfComponents="1" format="ascii">
          0.00548713 0.00548695 0.00548261 0.00548276 0.00547436 0.00547551 0.00546664 0.00546915 0.00546075 0.0054628 0.00545499 0.00545654
          0.00544877 0.00545004 0.00544196 0.00544321 0.00543477 0.00543593 0.00542719 0.0054282 0.00541924 0.00541994 0.00540059 0.00540291
          0.00538104 0.00538321 0.00535928 0.00536126 0.00533507 0.0053369 0.00530832 0.0053099 0.00527073 0.00527278 0.00522861 0.00523054
          0.00518112 0.0051829 0.00512764 0.00512925 0.00506747 0.00506891 0.00499986 0.00500113 0.00492393 0.00492505 0.00483873 0.00483968
          0.00474318 0.00474396 0.00463607 0.00463667 0.00451602 0.00451643 0.0043815 0.00438166 0.00423067 0.00423057 0.00406146 0.00406113
          0.00387169 0.00387103 0.00365854 0.00365751 0.00341878 0.00341734 0.00314857 0.00314665 0.00284299 0.00284049 0.0024952 0.00249196
          0.00209396 0.00208968 0.00161883 0.00161344 0.00103018 0.00102547 0 0
        </DataArray>
        <DataArray type="Float32" Name="Molarity_NH4" NumberOfComponents="1" format="ascii">
          305.407 305.381 309.622 309.617 314.308 314.299 319.039 319.037 323.799 323.798 328.579 328.579
          333.378 333.378 338.192 338.19 343.015 343.013 347.843 347.841 352.674 352.671 362.131 362.131
          371.529 371.529 380.817 380.818 389.958 389.959 398.907 398.906 409.655 409.656 419.948 419.95
          429.685 429.685 438.767 438.767 447.09 447.091 454.546 454.547 461.017 461.018 466.379 466.38
          470.497 470.499 473.23 473.233 474.423 474.425 473.905 473.908 471.491 471.495 466.972 466.978
          460.121 460.127 450.669 450.676 438.301 438.31 422.643 422.655 403.219 403.237 379.385 379.412
          350.134 350.176 313.756 313.834 267.231 267.34 185.037 185.037
        </DataArray>
        <DataArray type="Float32" Name="Molarity_HCO3" NumberOfComponents="1" format="ascii">
          2.1189 2.11905 2.11593 2.11604 2.11384 2.11401 2.1115 2.11171 2.10914 2.10934 2.10673 2.10692
          2.10432 2.10448 2.10185 2.10201 2.09935 2.09952 2.09684 2.09699 2.09433 2.09447 2.08934 2.08956
          2.08431 2.08452 2.0794 2.07962 2.07459 2.07477 2.06986 2.07004 2.06424 2.06445 2.05894 2.05912
          2.05404 2.05418 2.0496 2.04975 2.04571 2.04584 2.04246 2.04256 2.03993 2.03999 2.0382 2.03825
          2.0374 2.0374 2.03764 2.03758 2.03901 2.0389 2.04163 2.04151 2.04576 2.04552 2.05142 2.05113
          2.05889 2.05853 2.06844 2.068 2.08028 2.07973 2.09467 2.09401 2.11155 2.11076 2.1289 2.12803
          2.13453 2.13376 2.06804 2.0688 1.67718 1.68544 0.00553194 0.00553194
        </DataArray>
        <DataArray type="Float32" Name="Molarity_CO3" NumberOfComponents="1" format="ascii">
          0.00215378 0.0021542 0.0021273 0.00212753 0.00210089 0.00210123 0.00207453 0.00207492 0.00204873 0.00204909 0.00202345 0.0020238
          0.00199878 0.00199905 0.00197458 0.00197487 0.00195095 0.00195123 0.00192787 0.00192814 0.00190538 0.00190562 0.00186282 0.0018632
          0.00182241 0.00182276 0.00178439 0.00178474 0.00174863 0.00174891 0.00171505 0.00171533 0.0016766 0.00167691 0.00164158 0.00164184
          0.00161004 0.00161024 0.00158194 0.00158215 0.00155735 0.00155753 0.00153636 0.00153649 0.00151902 0.00151911 0.0015055 0.00150556
          0.001496 0.00149599 0.00149081 0.00149072 0.00149025 0.00149009 0.00149477 0.0014946 0.00150518 0.00150485 0.00152211 0.0015217
          0.00154682 0.00154631 0.00158096 0.00158032 0.00162668 0.00162586 0.00168711 0.00168609 0.00176643 0.00176516 0.00186832 0.0018668
          0.00198336 0.00198186 0.00201805 0.0020191 0.00152999 0.00154355 4.26535e-07 4.26535e-07
        </DataArray>
        <DataArray type="Float32" Name="Molarity_CO2" NumberOfComponents="1" format="ascii">
          0.248151 0.248138 0.250728 0.250726 0.253595 0.253593 0.256467 0.25647 0.259337 0.25934 0.262199 0.262203
          0.265053 0.265056 0.267895 0.267897 0.270723 0.270725 0.273535 0.273537 0.27633 0.276331 0.281745 0.28175
          0.287056 0.287061 0.292239 0.292245 0.297277 0.297282 0.30215 0.302154 0.307928 0.307934 0.313386 0.313392
          0.318486 0.318491 0.32319 0.323194 0.327459 0.327463 0.331252 0.331256 0.334526 0.334528 0.337231 0.337233
          0.339316 0.339316 0.340719 0.340718 0.341374 0.341371 0.341199 0.341196 0.340106 0.3401 0.337976 0.33797
          0.334682 0.334674 0.330057 0.330047 0.323884 0.323873 0.315889 0.315877 0.305686 0.305675 0.292685 0.29268
          0.275782 0.27579 0.252451 0.252514 0.21542 0.215675 0.00769319 0.00769319
        </DataArray>
        <DataArray type="Float32" Name="Molarity_H" NumberOfComponents="1" format="ascii">
          5.8628e-05 5.86205e-05 5.93626e-05 5.93593e-05 6.01501e-05 6.0145e-05 6.09484e-05 6.09433e-05 6.17496e-05 6.17449e-05 6.25533e-05 6.25486e-05
          6.33576e-05 6.33538e-05 6.41639e-05 6.41597e-05 6.49701e-05 6.49658e-05 6.57756e-05 6.57715e-05 6.65796e-05 6.65758e-05 6.81504e-05 6.81446e-05
          6.97065e-05 6.97008e-05 7.12362e-05 7.12303e-05 7.27352e-05 7.27302e-05 7.41979e-05 7.41926e-05 7.59456e-05 7.59397e-05 7.761e-05 7.7605e-05
          7.91749e-05 7.91707e-05 8.06256e-05 8.0621e-05 8.19454e-05 8.19414e-05 8.31166e-05 8.31136e-05 8.41216e-05 8.41197e-05 8.49409e-05 8.49396e-05
          8.55529e-05 8.55532e-05 8.59348e-05 8.59373e-05 8.60628e-05 8.60669e-05 8.59101e-05 8.59146e-05 8.54426e-05 8.5451e-05 8.46312e-05 8.46415e-05
          8.3435e-05 8.34472e-05 8.1807e-05 8.18217e-05 7.96956e-05 7.97135e-05 7.70369e-05 7.70579e-05 7.37595e-05 7.37838e-05 6.98107e-05 6.98375e-05
          6.53065e-05 6.53318e-05 6.12581e-05 6.12524e-05 6.34328e-05 6.32084e-05 0.000628379 0.000628379
        </DataArray>
        <DataArray type="Float32" Name="Molarity_OH" NumberOfComponents="1" format="ascii">
          0.000167505 0.000167526 0.000165417 0.000165426 0.000163235 0.000163249 0.000161081 0.000161094 0.000158974 0.000158987 0.000156916 0.000156928
          0.000154908 0.000154918 0.000152946 0.000152956 0.000151033 0.000151043 0.000149168 0.000149178 0.000147352 0.000147361 0.000143928 0.00014394
          0.000140688 0.000140699 0.000137641 0.000137652 0.000134779 0.000134788 0.000132099 0.000132108 0.000129032 0.000129042 0.000126241 0.000126249
          0.000123724 0.00012373 0.000121479 0.000121486 0.000119506 0.000119512 0.00011781 0.000117814 0.000116393 0.000116396 0.000115266 0.000115267
          0.00011444 0.00011444 0.000113936 0.000113933 0.000113776 0.00011377 0.000113993 0.000113988 0.000114639 0.000114628 0.000115768 0.000115754
          0.000117467 0.000117449 0.000119853 0.000119832 0.00012309 0.000123063 0.000127416 0.000127381 0.000133174 0.00013313 0.000140829 0.000140775
          0.0001507 0.000150641 0.000160867 0.000160882 0.000155614 0.000156165 1.57575e-05 1.57575e-05
        </DataArray>
        <DataArray type="Float32" Name="Da_ureolysis" NumberOfComponents="1" format="ascii">
          0 0 0 0 0 0 0 0 0 0 0 0
          0 0 0 0 0 0 0 0 0 0 0 0
          0 0 0 0 0 0 0 0 0 0 0 0
          0 0 0 0 0 0 0 0 0 0 0 0
          0 0 0 0 0 0 0 0 0 0 0 0
          0 0 0 0 0 0 0 0 0 0 0 0
          0 0 0 0 0 0 0 0
        </DataArray>
        <DataArray type="Float32" Name="Da_precipitation" NumberOfComponents="1" format="ascii">
          4509.33 4421.81 931.145 936.073 447.519 448.671 296.912 297.201 221.599 221.544 176.253 176.214
          146.018 145.908 124.336 124.282 108.07 108.019 95.4303 95.3773 91.1452 91.1007 70.1221 70.108
          59.3517 59.3255 51.2836 51.2742 45.0624 45.0358 40.8974 40.8848 35.166 35.1612 31.3015 31.2944
          28.182 28.1717 25.6214 25.6189 23.5072 23.5031 21.7357 21.7312 20.2484 20.2453 18.9907 18.989
          17.9323 17.9325 17.0417 17.0419 16.2992 16.2983 15.6932 15.7014 15.2108 15.2102 14.8482 14.8555
          14.6095 14.6157 14.4907 14.4982 14.5183 14.5267 14.693 14.7041 15.0323 15.0421 15.383 15.3981
          14.7143 14.7434 8.92113 9.0208 0.0950347 0.111525 0 0
        </DataArray>
        <DataArray type="Float32" Name="Vx" NumberOfComponents="1" format="ascii">
          4.23099e-12 4.23224e-12 1.80747e-12 1.80816e-12 4.82052e-13 4.82488e-13 9.71499e-13 9.73097e-13 2.00523e-12 2.00889e-12 2.89466e-12 2.89951e-12
          2.81598e-12 2.81982e-12 1.99661e-12 1.99948e-12 1.81514e-12 1.81822e-12 1.6896e-12 1.69226e-12 1.26929e-12 1.27127e-12 1.90026e-12 1.90284e-12
          2.4858e-12 2.49016e-12 3.85139e-12 3.85746e-12 3.43858e-12 3.44314e-12 1.08684e-12 1.08906e-12 3.28888e-12 3.29376e-12 5.76726e-12 5.77355e-12
          3.19632e-12 3.19943e-12 1.58445e-12 1.58666e-12 4.29589e-12 4.29968e-12 5.05361e-12 5.05711e-12 3.65078e-12 3.6527e-12 4.22184e-12 4.22343e-12
          8.10892e-12 8.1089e-12 8.65488e-12 8.65181e-12 3.69157e-12 3.68757e-12 1.03727e-11 1.03615e-11 1.28205e-11 1.28016e-11 5.63168e-12 5.61593e-12
          9.95054e-12 9.92652e-12 1.45641e-11 1.45202e-11 1.61855e-11 1.6124e-11 1.7699e-11 1.76201e-11 1.67914e-11 1.67003e-11 1.66068e-11 1.65021e-11
          8.55988e-12 8.52907e-12 -2.9367e-11 -2.9121e-11 -5.84222e-11 -5.79447e-11 -1.52285e-10 -1.51769e-10
        </DataArray>
        <DataArray type="Float32" Name="Vy" NumberOfComponents="1" format="ascii">
          1.46478e-10 1.49542e-10 -6.91913e-10 -6.88612e-10 -1.42418e-09 -1.42193e-09 -2.12848e-09 -2.12924e-09 -2.83142e-09 -2.83514e-09 -3.53375e-09 -3.53921e-09
          -4.23953e-09 -4.24567e-09 -4.94417e-09 -4.95128e-09 -5.65032e-09 -5.65889e-09 -6.35569e-09 -6.36553e-09 -6.61211e-09 -6.62189e-09 -8.49042e-09 -8.50224e-09
          -9.90224e-09 -9.91859e-09 -1.13269e-08 -1.13456e-08 -1.27559e-08 -1.27749e-08 -1.39032e-08 -1.39239e-08 -1.59878e-08 -1.60111e-08 -1.77782e-08 -1.78001e-08
          -1.95761e-08 -1.95959e-08 -2.13804e-08 -2.14025e-08 -2.31833e-08 -2.32059e-08 -2.49997e-08 -2.50177e-08 -2.68149e-08 -2.68287e-08 -2.86446e-08 -2.86549e-08
          -3.04728e-08 -3.04742e-08 -3.23191e-08 -3.23049e-08 -3.41731e-08 -3.41486e-08 -3.60124e-08 -3.59755e-08 -3.79139e-08 -3.78515e-08 -3.97842e-08 -3.97021e-08
          -4.16663e-08 -4.15672e-08 -4.36053e-08 -4.34769e-08 -4.55406e-08 -4.53758e-08 -4.75286e-08 -4.73224e-08 -4.95309e-08 -4.928e-08 -5.16116e-08 -5.13145e-08
          -5.3984e-08 -5.36407e-08 -5.72985e-08 -5.69474e-08 -7.2717e-08 -7.24206e-08 9.06217e-07 9.06474e-07
        </DataArray>
      </PointData>
      <CellData Scalars="process rank">
        <DataArray type="Float32" Name="process rank" NumberOfComponents="1" format="ascii">
          0 0 0 0 0 0 0 0 0 0 0 0
          0 0 0 0 0 0 0 0 0 0 0 0
          0 0 0 0 0 0 0 0 0 0 0 0
          0 0 0
        </DataArray>
      </CellData>
      <Points>
        <DataArray type="Float32" Name="Coordinates" NumberOfComponents="3" format="ascii">
          0 0 0 0.0254 0 0 0 0.01 0 0.0254 0.01 0
          0 0.02 0 0.0254 0.02 0 0 0.03 0 0.0254 0.03 0
          0 0.04 0 0.0254 0.04 0 0 0.05 0 0.0254 0.05 0
          0 0.06 0 0.0254 0.06 0 0 0.07 0 0.0254 0.07 0
          0 0.08 0 0.0254 0.08 0 0 0.09 0 0.0254 0.09 0
          0 0.1 0 0.0254 0.1 0 0 0.12 0 0.0254 0.12 0
          0 0.14 0 0.0254 0.14 0 0 0.16 0 0.0254 0.16 0
          0 0.18 0 0.0254 0.18 0 0 0.2 0 0.0254 0.2 0
          0 0.225 0 0.0254 0.225 0 0 0.25 0 0.0254 0.25 0
          0 0.275 0 0.0254 0.275 0 0 0.3 0 0.0254 0.3 0
          0 0.325 0 0.0254 0.325 0 0 0.35 0 0.0254 0.35 0
          0 0.375 0 0.0254 0.375 0 0 0.4 0 0.0254 0.4 0
          0 0.425 0 0.0254 0.425 0 0 0.45 0 0.0254 0.45 0
          0 0.475 0 0.0254 0.475 0 0 0.5 0 0.0254 0.5 0
          0 0.525 0 0.0254 0.525 0 0 0.55 0 0.0254 0.55 0
          0 0.575 0 0.0254 0.575 0 0 0.6 0 0.0254 0.6 0
          0 0.625 0 0.0254 0.625 0 0 0.65 0 0.0254 0.65 0
          0 0.675 0 0.0254 0.675 0 0 0.7 0 0.0254 0.7 0
          0 0.725 0 0.0254 0.725 0 0 0.75 0 0.0254 0.75 0
          0 0.775 0 0.0254 0.775 0 0 0.8 0 0.0254 0.8 0
        </DataArray>
      </Points>
      <Cells>
        <DataArray type="Int32" Name="connectivity" NumberOfComponents="1" format="ascii">
          0 1 3 2 2 3 5 4 4 5 7 6
          6 7 9 8 8 9 11 10 10 11 13 12
          12 13 15 14 14 15 17 16 16 17 19 18
          18 19 21 20 20 21 23 22 22 23 25 24
          24 25 27 26 26 27 29 28 28 29 31 30
          30 31 33 32 32 33 35 34 34 35 37 36
          36 37 39 38 38 39 41 40 40 41 43 42
          42 43 45 44 44 45 47 46 46 47 49 48
          48 49 51 50 50 51 53 52 52 53 55 54
          54 55 57 56 56 57 59 58 58 59 61 60
          60 61 63 62 62 63 65 64 64 65 67 66
          66 67 69 68 68 69 71 70 70 71 73 72
          72 73 75 74 74 75 77 76 76 77 79 78
        </DataArray>
        <DataArray type="Int32" Name="offsets" NumberOfComponents="1" format="ascii">
          4 8 12 16 20 24 28 32 36 40 44 48
          52 56 60 64 68 72 76 80 84 88 92 96
          100 104 108 112 116 120 124 128 132 136 140 144
          148 152 156
        </DataArray>
        <DataArray type="UInt8" Name="types" NumberOfComponents="1" format="ascii">
          9 9 9 9 9 9 9 9 9 9 9 9
          9 9 9 9 9 9 9 9 9 9 9 9
          9 9 9 9 9 9 9 9 9 9 9 9
          9 9 9
        </DataArray>
      </Cells>
    </Piece>
  </UnstructuredGrid>
</VTKFile>
