<?xml version="1.0"?>
<VTKFile type="UnstructuredGrid" version="0.1" byte_order="LittleEndian">
  <UnstructuredGrid>
    <Piece NumberOfCells="39" NumberOfPoints="80">
      <PointData Scalars="Sg">
        <DataArray type="Float32" Name="Sg" NumberOfComponents="1" format="ascii">
          0 0 0 0 0 0 0 0 0 0 0 0
          0 0 0 0 0 0 0 0 0 0 0 0
          0 0 0 0 0 0 0 0 0 0 0 0
          0 0 0 0 0 0 0 0 0 0 0 0
          0 0 0 0 0 0 0 0 0 0 0 0
          0 0 0 0 0 0 0 0 0 0 0 0
          0 0 0 0 0 0 0 0
        </DataArray>
        <DataArray type="Float32" Name="Sl" NumberOfComponents="1" format="ascii">
          1 1 1 1 1 1 1 1 1 1 1 1
          1 1 1 1 1 1 1 1 1 1 1 1
          1 1 1 1 1 1 1 1 1 1 1 1
          1 1 1 1 1 1 1 1 1 1 1 1
          1 1 1 1 1 1 1 1 1 1 1 1
          1 1 1 1 1 1 1 1 1 1 1 1
          1 1 1 1 1 1 1 1
        </DataArray>
        <DataArray type="Float32" Name="pg" NumberOfComponents="1" format="ascii">
          117583 117583 117484 117484 117386 117386 117287 117287 117189 117189 117090 117090
          116991 116991 116893 116893 116794 116794 116695 116695 116596 116596 116399 116399
          116201 116201 116004 116004 115806 115806 115608 115608 115361 115361 115114 115114
          114866 114866 114619 114619 114371 114371 114123 114123 113875 113875 113628 113628
          113380 113380 113132 113132 112884 112884 112636 112636 112388 112388 112140 112140
          111892 111892 111644 111644 111396 111396 111148 111148 110901 110901 110653 110653
          110406 110406 110159 110159 109913 109913 109667 109667
        </DataArray>
        <DataArray type="Float32" Name="pl" NumberOfComponents="1" format="ascii">
          107916 107916 107818 107818 107719 107719 107621 107621 107522 107522 107423 107423
          107325 107325 107226 107226 107127 107127 107029 107029 106930 106930 106732 106732
          106535 106535 106337 106337 106139 106139 105942 105942 105694 105694 105447 105447
          105199 105199 104952 104952 104704 104704 104457 104457 104209 104209 103961 103961
          103713 103713 103465 103465 103217 103217 102969 102969 102721 102721 102473 102473
          102225 102225 101977 101977 101730 101730 101482 101482 101234 101234 100987 100987
          100740 100740 100493 100493 100246 100246 100000 100000
        </DataArray>
        <DataArray type="Float32" Name="pc" NumberOfComponents="1" format="ascii">
          9666.67 9666.67 9666.67 9666.67 9666.67 9666.67 9666.67 9666.67 9666.67 9666.67 9666.67 9666.67
          9666.67 9666.67 9666.67 9666.67 9666.67 9666.67 9666.67 9666.67 9666.67 9666.67 9666.67 9666.67
          9666.67 9666.67 9666.67 9666.67 9666.67 9666.67 9666.67 9666.67 9666.67 9666.67 9666.67 9666.67
          9666.67 9666.67 9666.67 9666.67 9666.67 9666.67 9666.67 9666.67 9666.67 9666.67 9666.67 9666.67
          9666.67 9666.67 9666.67 9666.67 9666.67 9666.67 9666.67 9666.67 9666.67 9666.67 9666.67 9666.67
          9666.67 9666.67 9666.67 9666.67 9666.67 9666.67 9666.67 9666.67 9666.67 9666.67 9666.67 9666.67
          9666.67 9666.67 9666.67 9666.67 9666.67 9666.67 9666.67 9666.67
        </DataArray>
        <DataArray type="Float32" Name="rhoL" NumberOfComponents="1" format="ascii">
          1004.86 1004.86 1005.01 1005.01 1005.18 1005.18 1005.35 1005.35 1005.52 1005.52 1005.69 1005.69
          1005.86 1005.86 1006.04 1006.04 1006.22 1006.22 1006.4 1006.4 1006.58 1006.58 1006.93 1006.93
          1007.28 1007.28 1007.63 1007.63 1007.98 1007.98 1008.32 1008.32 1008.73 1008.74 1009.14 1009.14
          1009.52 1009.52 1009.88 1009.88 1010.22 1010.22 1010.54 1010.54 1010.82 1010.82 1011.06 1011.06
          1011.27 1011.27 1011.43 1011.43 1011.54 1011.54 1011.6 1011.6 1011.59 1011.59 1011.52 1011.52
          1011.37 1011.37 1011.13 1011.13 1010.79 1010.79 1010.32 1010.32 1009.72 1009.72 1008.93 1008.93
          1007.91 1007.91 1006.54 1006.54 1004.58 1004.58 1001.45 1001.45
        </DataArray>
        <DataArray type="Float32" Name="rhoG" NumberOfComponents="1" format="ascii">
          2.06831 2.06836 2.06658 2.06658 2.06479 2.06479 2.06301 2.06301 2.06122 2.06122 2.05944 2.05944
          2.05766 2.05766 2.05587 2.05587 2.05409 2.05409 2.0523 2.0523 2.05052 2.05052 2.04694 2.04694
          2.04337 2.04337 2.03979 2.03979 2.03622 2.03622 2.03264 2.03264 2.02817 2.02817 2.02369 2.02369
          2.01922 2.01922 2.01474 2.01474 2.01026 2.01026 2.00578 2.00578 2.00129 2.00129 1.99681 1.99681
          1.99232 1.99232 1.98783 1.98783 1.98334 1.98334 1.97885 1.97885 1.97436 1.97436 1.96986 1.96986
          1.96537 1.96537 1.96087 1.96087 1.95638 1.95638 1.95188 1.95188 1.94739 1.94739 1.94289 1.94289
          1.9384 1.9384 1.9339 1.9339 1.9294 1.9294 1.9249 1.9249
        </DataArray>
        <DataArray type="Float32" Name="mobL" NumberOfComponents="1" format="ascii">
          1084.77 1084.77 1084.06 1084.06 1083.24 1083.24 1082.42 1082.42 1081.59 1081.59 1080.76 1080.76
          1079.93 1079.93 1079.09 1079.09 1078.26 1078.26 1077.43 1077.43 1076.6 1076.6 1074.99 1074.99
          1073.4 1073.4 1071.84 1071.84 1070.32 1070.32 1068.83 1068.83 1067.06 1067.05 1065.36 1065.36
          1063.76 1063.76 1062.27 1062.27 1060.89 1060.89 1059.63 1059.63 1058.51 1058.51 1057.54 1057.54
          1056.74 1056.74 1056.11 1056.11 1055.67 1055.67 1055.45 1055.45 1055.47 1055.47 1055.75 1055.75
          1056.34 1056.34 1057.28 1057.28 1058.63 1058.63 1060.48 1060.48 1062.94 1062.94 1066.21 1066.21
          1070.61 1070.61 1076.77 1076.77 1086.18 1086.18 1103.12 1103.12
        </DataArray>
        <DataArray type="Float32" Name="mobG" NumberOfComponents="1" format="ascii">
          0 0 0 0 0 0 0 0 0 0 0 0
          0 0 0 0 0 0 0 0 0 0 0 0
          0 0 0 0 0 0 0 0 0 0 0 0
          0 0 0 0 0 0 0 0 0 0 0 0
          0 0 0 0 0 0 0 0 0 0 0 0
          0 0 0 0 0 0 0 0 0 0 0 0
          0 0 0 0 0 0 0 0
        </DataArray>
        <DataArray type="Float32" Name="porosity" NumberOfComponents="1" format="ascii">
          0.129884 0.12989 0.129206 0.129234 0.129255 0.129225 0.129164 0.129143 0.12911 0.129118 0.129049 0.129076
          0.129098 0.129088 0.129051 0.129068 0.128997 0.129071 0.128943 0.128992 0.128898 0.12894 0.129226 0.129277
          0.128958 0.128962 0.128978 0.129031 0.129065 0.12911 0.129087 0.129149 0.129301 0.129372 0.129435 0.129527
          0.129688 0.12973 0.129985 0.130106 0.130311 0.130448 0.130769 0.130871 0.131316 0.131398 0.131867 0.132
          0.132631 0.132692 0.133543 0.133524 0.134487 0.134468 0.135548 0.135534 0.137212 0.137078 0.138681 0.138557
          0.140588 0.140452 0.143372 0.143187 0.146814 0.146545 0.151221 0.15092 0.157138 0.156799 0.165669 0.165401
          0.179327 0.179049 0.203647 0.203411 0.255009 0.254976 0.4 0.4
        </DataArray>
        <DataArray type="Float32" Name="temperature" NumberOfComponents="1" format="ascii">
          298.15 298.15 298.15 298.15 298.15 298.15 298.15 298.15 298.15 298.15 298.15 298.15
          298.15 298.15 298.15 298.15 298.15 298.15 298.15 298.15 298.15 298.15 298.15 298.15
          298.15 298.15 298.15 298.15 298.15 298.15 298.15 298.15 298.15 298.15 298.15 298.15
          298.15 298.15 298.15 298.15 298.15 298.15 298.15 298.15 298.15 298.15 298.15 298.15
          298.15 298.15 298.15 298.15 298.15 298.15 298.15 298.15 298.15 298.15 298.15 298.15
          298.15 298.15 298.15 298.15 298.15 298.15 298.15 298.15 298.15 298.15 298.15 298.15
          298.15 298.15 298.15 298.15 298.15 298.15 298.15 298.15
        </DataArray>
        <DataArray type="Float32" Name="phase presence" NumberOfComponents="1" format="ascii">
          1 1 1 1 1 1 1 1 1 1 1 1
          1 1 1 1 1 1 1 1 1 1 1 1
          1 1 1 1 1 1 1 1 1 1 1 1
          1 1 1 1 1 1 1 1 1 1 1 1
          1 1 1 1 1 1 1 1 1 1 1 1
          1 1 1 1 1 1 1 1 1 1 1 1
          1 1 1 1 1 1 1 1
        </DataArray>
        <DataArray type="Float32" Name="potential" NumberOfComponents="1" format="ascii">
          0.00305755 0.00305791 0.0029424 0.00294221 0.0028119 0.00281192 0.00268108 0.00268112 0.0025506 0.00255066 0.00242064 0.00242069
          0.00229135 0.00229141 0.0021629 0.00216297 0.00203553 0.00203554 0.00190937 0.00190926 0.00178432 0.0017844 0.00154487 0.00154488
          0.00131265 0.00131264 0.00108923 0.00108906 0.000875077 0.000874961 0.000671214 0.000671133 0.000434922 0.000434817 0.000217146 0.000217062
          1.9147e-05 1.91216e-05 -0.000158259 -0.000158242 -0.000314402 -0.000314399 -0.000448868 -0.000448866 -0.000561464 -0.000561445 -0.00065212 -0.000652116
          -0.000721022 -0.000721042 -0.000768577 -0.000768593 -0.000795309 -0.000795322 -0.000801953 -0.000801977 -0.000789551 -0.000789574 -0.00075923 -0.000759256
          -0.000712447 -0.000712474 -0.00065095 -0.000650979 -0.0005767 -0.000576736 -0.000492075 -0.000492126 -0.000399945 -0.000400008 -0.000303775 -0.000303807
          -0.000207689 -0.000207696 -0.000117051 -0.00011706 -4.05385e-05 -4.05353e-05 0 0
        </DataArray>
        <DataArray type="Float32" Name="boxVolume" NumberOfComponents="1" format="ascii">
          6.35e-05 6.35e-05 0.000127 0.000127 0.000127 0.000127 0.000127 0.000127 0.000127 0.000127 0.000127 0.000127
          0.000127 0.000127 0.000127 0.000127 0.000127 0.000127 0.000127 0.000127 0.0001905 0.0001905 0.000254 0.000254
          0.000254 0.000254 0.000254 0.000254 0.000254 0.000254 0.00028575 0.00028575 0.0003175 0.0003175 0.0003175 0.0003175
          0.0003175 0.0003175 0.0003175 0.0003175 0.0003175 0.0003175 0.0003175 0.0003175 0.0003175 0.0003175 0.0003175 0.0003175
          0.0003175 0.0003175 0.0003175 0.0003175 0.0003175 0.0003175 0.0003175 0.0003175 0.0003175 0.0003175 0.0003175 0.0003175
          0.0003175 0.0003175 0.0003175 0.0003175 0.0003175 0.0003175 0.0003175 0.0003175 0.0003175 0.0003175 0.0003175 0.0003175
          0.0003175 0.0003175 0.0003175 0.0003175 0.0003175 0.0003175 0.00015875 0.00015875
        </DataArray>
        <DataArray type="Float32" Name="pH" NumberOfComponents="1" format="ascii">
          7.22136 7.22136 7.21436 7.21436 7.20654 7.20653 7.19866 7.19865 7.19083 7.19084 7.18308 7.18309
          7.17542 7.17543 7.16785 7.16786 7.16037 7.16038 7.15299 7.153 7.14572 7.14573 7.13191 7.13193
          7.11847 7.11847 7.1056 7.1056 7.09327 7.09328 7.08149 7.0815 7.06775 7.06777 7.05493 7.05496
          7.04308 7.04311 7.03223 7.03227 7.02241 7.02245 7.01367 7.01371 7.00605 7.00608 6.99959 6.99963
          6.99438 6.9944 6.9905 6.9905 6.98803 6.98802 6.98711 6.98709 6.98798 6.98794 6.99075 6.9907
          6.99582 6.99576 7.00366 7.00359 7.01482 7.01472 7.03016 7.03004 7.05103 7.05089 7.07964 7.07952
          7.11996 7.11985 7.17834 7.17825 7.24876 7.24878 6.19963 6.19963
        </DataArray>
        <DataArray type="Float32" Name="Omega" NumberOfComponents="1" format="ascii">
          2.65872 2.6584 2.66458 2.66485 2.67233 2.67214 2.67827 2.67809 2.68373 2.68379 2.68912 2.6892
          2.69445 2.69455 2.69959 2.6997 2.70449 2.70476 2.70934 2.70957 2.71421 2.7144 2.72457 2.72483
          2.73247 2.73259 2.74089 2.74119 2.74919 2.74949 2.75708 2.75743 2.76673 2.76716 2.77577 2.77633
          2.78469 2.78521 2.79341 2.79409 2.80186 2.80265 2.81054 2.81124 2.81925 2.81983 2.82794 2.82863
          2.83728 2.83762 2.84712 2.84714 2.85729 2.85716 2.86837 2.8681 2.88153 2.88095 2.89551 2.89462
          2.91234 2.9113 2.93426 2.93292 2.96176 2.95992 2.99713 2.99496 3.04483 3.04252 3.11306 3.11089
          3.21466 3.21252 3.33393 3.33213 2.91715 2.91747 0 0
        </DataArray>
        <DataArray type="Float32" Name="rurea" NumberOfComponents="1" format="ascii">
          0 0 0 0 0 0 0 0 0 0 0 0
          0 0 0 0 0 0 0 0 0 0 0 0
          0 0 0 0 0 0 0 0 0 0 0 0
          0 0 0 0 0 0 0 0 0 0 0 0
          0 0 0 0 0 0 0 0 0 0 0 0
          0 0 0 0 0 0 0 0 0 0 0 0
          0 0 0 0 0 0 0 0
        </DataArray>
        <DataArray type="Float32" Name="Volume_Fraction_Biofilm" NumberOfComponents="1" format="ascii">
          0.250817 0.250875 0.247985 0.247888 0.246246 0.246298 0.245527 0.245592 0.245068 0.245018 0.244501 0.244528
          0.244191 0.244085 0.243679 0.243679 0.243281 0.243275 0.242872 0.242857 0.242526 0.242533 0.241541 0.241503
          0.241044 0.240999 0.240284 0.240231 0.239662 0.239599 0.238989 0.238946 0.238343 0.238285 0.237672 0.237578
          0.237072 0.2369 0.236435 0.236381 0.235928 0.235824 0.235323 0.235198 0.234783 0.234705 0.234211 0.234124
          0.233602 0.233573 0.232942 0.232897 0.232249 0.232263 0.231484 0.231563 0.230567 0.230516 0.229526 0.229696
          0.228332 0.228492 0.226555 0.226735 0.2244 0.224664 0.22161 0.221936 0.217793 0.218073 0.212144 0.212435
          0.203118 0.203392 0.185989 0.186224 0.141525 0.141561 0 0
        </DataArray>
        <DataArray type="Float32" Name="Volume_Fraction_Calcite" NumberOfComponents="1" format="ascii">
          0.0192994 0.0192356 0.0228096 0.0228786 0.0244986 0.024477 0.0253096 0.0252649 0.0258221 0.0258633 0.0264506 0.0263963
          0.0267108 0.0268269 0.0272703 0.0272527 0.027722 0.0276533 0.028185 0.0281513 0.0285761 0.0285264 0.0292339 0.0292199
          0.0299975 0.030039 0.0307374 0.0307373 0.0312729 0.031291 0.0319231 0.0319052 0.0323563 0.032343 0.0328922 0.0328948
          0.0332397 0.0333701 0.0335798 0.0335127 0.0337609 0.0337279 0.033908 0.0339316 0.033901 0.0338974 0.0339225 0.0338753
          0.033767 0.0337359 0.033515 0.0335793 0.0332641 0.0332688 0.0329671 0.0329027 0.0322209 0.0324056 0.0317934 0.031747
          0.0310801 0.0310556 0.0300738 0.0300779 0.0287858 0.0287913 0.0271683 0.0271446 0.0250682 0.0251283 0.0221875 0.0221642
          0.0175549 0.017559 0.0103642 0.0103654 0.00346574 0.00346297 0 0
        </DataArray>
        <DataArray type="Float32" Name="Kxx" NumberOfComponents="1" format="ascii">
          6.84726e-12 6.84815e-12 6.74054e-12 6.74493e-12 6.74827e-12 6.74359e-12 6.73394e-12 6.73073e-12 6.72556e-12 6.72689e-12 6.71597e-12 6.72022e-12
          6.72378e-12 6.72213e-12 6.71639e-12 6.71903e-12 6.70787e-12 6.71954e-12 6.69954e-12 6.70708e-12 6.69251e-12 6.69911e-12 6.74366e-12 6.75166e-12
          6.70186e-12 6.70255e-12 6.70499e-12 6.71328e-12 6.7186e-12 6.72552e-12 6.72206e-12 6.73163e-12 6.75542e-12 6.76656e-12 6.77656e-12 6.79092e-12
          6.8163e-12 6.82289e-12 6.86324e-12 6.88244e-12 6.91508e-12 6.93679e-12 6.98825e-12 7.00449e-12 7.07622e-12 7.08948e-12 7.16566e-12 7.18744e-12
          7.29097e-12 7.30096e-12 7.44235e-12 7.43925e-12 7.60129e-12 7.59809e-12 7.78275e-12 7.78033e-12 8.07283e-12 8.04921e-12 8.3349e-12 8.3126e-12
          8.6835e-12 8.65832e-12 9.20957e-12 9.17411e-12 9.88907e-12 9.83476e-12 1.08066e-11 1.0742e-11 1.21254e-11 1.2047e-11 1.42093e-11 1.41404e-11
          1.80213e-11 1.79377e-11 2.63928e-11 2.6301e-11 5.18224e-11 5.1802e-11 2e-10 2e-10
        </DataArray>
        <DataArray type="Float32" Name="X_lBrine" NumberOfComponents="1" format="ascii">
          0.979926 0.979927 0.979613 0.979613 0.979254 0.979254 0.978889 0.978889 0.97852 0.978521 0.978148 0.978148
          0.977772 0.977772 0.977394 0.977394 0.977013 0.977013 0.97663 0.97663 0.976245 0.976246 0.975492 0.975492
          0.974738 0.974738 0.973989 0.973989 0.973248 0.973248 0.972518 0.972518 0.971638 0.971638 0.970789 0.970789
          0.969979 0.969979 0.969216 0.969216 0.968507 0.968507 0.967861 0.967861 0.967286 0.967286 0.966791 0.966791
          0.966385 0.966385 0.966081 0.966081 0.965888 0.965888 0.96582 0.96582 0.965893 0.965892 0.966123 0.966123
          0.966531 0.96653 0.967142 0.967141 0.967989 0.967988 0.969114 0.969113 0.970574 0.970573 0.972453 0.972453
          0.974892 0.974892 0.978155 0.978154 0.982816 0.982816 0.99029 0.99029
        </DataArray>
        <DataArray type="Float32" Name="X_lTotalC" NumberOfComponents="1" format="ascii">
          0.000106291 0.000106286 0.000106326 0.00010633 0.00010638 0.000106377 0.000106404 0.000106402 0.000106419 0.00010642 0.000106431 0.000106432
          0.00010644 0.000106442 0.000106444 0.000106446 0.000106443 0.000106447 0.000106439 0.000106442 0.000106434 0.000106437 0.000106433 0.000106437
          0.00010639 0.000106392 0.000106353 0.000106357 0.000106312 0.000106316 0.000106264 0.00010627 0.000106206 0.000106212 0.000106141 0.00010615
          0.000106082 0.00010609 0.000106028 0.000106038 0.000105981 0.000105993 0.000105951 0.000105962 0.000105938 0.000105947 0.000105943 0.000105953
          0.000105979 0.000105984 0.000106046 0.000106046 0.000106145 0.000106143 0.000106288 0.000106284 0.000106496 0.000106487 0.000106753 0.00010674
          0.000107095 0.00010708 0.00010756 0.00010754 0.000108161 0.000108133 0.000108935 0.000108902 0.000109951 0.000109918 0.000111326 0.000111295
          0.000113214 0.000113185 0.000115302 0.000115278 0.000109908 0.000109914 5.81077e-07 5.81077e-07
        </DataArray>
        <DataArray type="Float32" Name="X_lNa" NumberOfComponents="1" format="ascii">
          3.02343e-06 3.02352e-06 2.99151e-06 2.99146e-06 2.95486e-06 2.95486e-06 2.9176e-06 2.91762e-06 2.87993e-06 2.87995e-06 2.84187e-06 2.84189e-06
          2.80348e-06 2.80349e-06 2.76478e-06 2.7648e-06 2.72583e-06 2.72584e-06 2.68669e-06 2.68666e-06 2.6473e-06 2.64733e-06 2.57011e-06 2.57012e-06
          2.49285e-06 2.49285e-06 2.41605e-06 2.41599e-06 2.3399e-06 2.33986e-06 2.26481e-06 2.26478e-06 2.17409e-06 2.17405e-06 2.08633e-06 2.0863e-06
          2.00234e-06 2.00234e-06 1.92285e-06 1.92286e-06 1.84862e-06 1.84862e-06 1.78043e-06 1.78044e-06 1.7191e-06 1.71911e-06 1.66551e-06 1.66551e-06
          1.62056e-06 1.62056e-06 1.58526e-06 1.58525e-06 1.56071e-06 1.5607e-06 1.54814e-06 1.54813e-06 1.54894e-06 1.54892e-06 1.56475e-06 1.56473e-06
          1.59746e-06 1.59743e-06 1.6494e-06 1.64937e-06 1.72364e-06 1.72359e-06 1.82405e-06 1.82396e-06 1.95591e-06 1.95578e-06 2.12698e-06 2.1269e-06
          2.35028e-06 2.35025e-06 2.65012e-06 2.65007e-06 3.07834e-06 3.07836e-06 3.74885e-06 3.74885e-06
        </DataArray>
        <DataArray type="Float32" Name="X_lCl" NumberOfComponents="1" format="ascii">
          0.0114313 0.0114306 0.0116431 0.0116434 0.0118863 0.0118863 0.0121336 0.0121335 0.0123836 0.0123834 0.0126361 0.012636
          0.0128909 0.0128908 0.0131477 0.0131476 0.0134061 0.0134061 0.0136659 0.0136661 0.0139273 0.0139271 0.0144394 0.0144394
          0.0149521 0.0149521 0.0154617 0.0154621 0.015967 0.0159673 0.0164652 0.0164654 0.0170671 0.0170673 0.0176492 0.0176494
          0.0182063 0.0182064 0.0187335 0.0187335 0.0192258 0.0192257 0.0196778 0.0196778 0.0200842 0.0200842 0.0204393 0.0204392
          0.0207367 0.0207368 0.0209701 0.0209702 0.021132 0.021132 0.0212141 0.0212142 0.0212074 0.0212075 0.0211008 0.021101
          0.0208818 0.020882 0.0205348 0.020535 0.0200394 0.0200398 0.0193699 0.0193705 0.018491 0.0184919 0.0173511 0.0173517
          0.0158635 0.0158638 0.0138663 0.0138667 0.0110147 0.0110146 0.00655617 0.00655617
        </DataArray>
        <DataArray type="Float32" Name="X_lCa" NumberOfComponents="1" format="ascii">
          0.000157752 0.00015774 0.000160461 0.000160469 0.000163584 0.000163581 0.000166731 0.000166727 0.000169904 0.000169904 0.000173107 0.000173106
          0.000176335 0.000176335 0.000179584 0.000179584 0.000182849 0.000182852 0.000186129 0.000186135 0.000189427 0.000189428 0.0001959 0.000195903
          0.00020234 0.000202342 0.000208747 0.000208756 0.000215096 0.000215104 0.000221349 0.000221357 0.000228903 0.000228912 0.000236202 0.000236213
          0.00024319 0.000243198 0.000249805 0.000249813 0.000255984 0.000255995 0.000261671 0.00026168 0.000266797 0.000266804 0.00027129 0.000271299
          0.000275084 0.000275089 0.000278097 0.000278098 0.000280236 0.000280235 0.000281407 0.000281405 0.000281516 0.000281509 0.000280407 0.000280397
          0.000277956 0.000277944 0.000274 0.000273984 0.000268294 0.000268273 0.000260547 0.000260525 0.000250379 0.000250359 0.000237246 0.000237225
          0.000220218 0.000220193 0.000197077 0.000197058 0.000157056 0.000157056 0 0
        </DataArray>
        <DataArray type="Float32" Name="X_lUrea" NumberOfComponents="1" format="ascii">
          8.56886e-11 8.55298e-11 9.6686e-11 9.73201e-11 1.10679e-10 1.10168e-10 1.2027e-10 1.19742e-10 1.29089e-10 1.29325e-10 1.38583e-10 1.38751e-10
          1.48286e-10 1.48747e-10 1.5844e-10 1.58752e-10 1.68425e-10 1.69302e-10 1.78948e-10 1.7967e-10 1.9009e-10 1.90727e-10 2.18915e-10 2.20035e-10
          2.3938e-10 2.39974e-10 2.66372e-10 2.67901e-10 2.95769e-10 2.97454e-10 3.26707e-10 3.28793e-10 3.6936e-10 3.72163e-10 4.14153e-10 4.18446e-10
          4.64467e-10 4.69244e-10 5.20578e-10 5.26528e-10 5.80811e-10 5.88859e-10 6.52382e-10 6.60401e-10 7.33391e-10 7.40473e-10 8.24598e-10 8.34224e-10
          9.37648e-10 9.42623e-10 1.07483e-09 1.07547e-09 1.23682e-09 1.2343e-09 1.44137e-09 1.43502e-09 1.73371e-09 1.72059e-09 2.09922e-09 2.07046e-09
          2.63826e-09 2.59906e-09 3.54937e-09 3.48466e-09 5.08245e-09 4.95996e-09 7.92562e-09 7.71674e-09 1.40363e-08 1.36899e-08 3.03143e-08 2.97061e-08
          8.80457e-08 8.66398e-08 3.60794e-07 3.57109e-07 1.73226e-06 1.72844e-06 0 0
        </DataArray>
        <DataArray type="Float32" Name="X_lTotalNH" NumberOfComponents="1" format="ascii">
          0.00543915 0.00543884 0.00553861 0.00553878 0.00565285 0.00565284 0.00576896 0.00576892 0.00588638 0.00588632 0.00600497 0.00600492
          0.00612464 0.00612459 0.00624525 0.00624518 0.00636661 0.0063666 0.00648861 0.00648871 0.00661136 0.00661127 0.0068519 0.00685189
          0.00709266 0.00709268 0.007332 0.00733218 0.0075693 0.00756942 0.00780326 0.00780335 0.00808593 0.00808605 0.00835933 0.00835942
          0.00862097 0.00862099 0.00886857 0.00886854 0.00909974 0.00909972 0.00931202 0.00931201 0.00950291 0.00950287 0.00966964 0.00966962
          0.00980934 0.00980936 0.00991894 0.00991897 0.00999496 0.00999499 0.0100335 0.0100336 0.0100304 0.0100304 0.00998031 0.00998038
          0.00987745 0.00987754 0.00971448 0.00971458 0.00948183 0.00948199 0.00916739 0.00916765 0.00875463 0.00875502 0.00821925 0.00821951
          0.00752058 0.00752069 0.00658243 0.00658262 0.00524243 0.00524236 0.00314947 0.00314947
        </DataArray>
        <DataArray type="Float32" Name="X_lO2" NumberOfComponents="1" format="ascii">
          2.09524e-33 2.07507e-33 3.78197e-33 4.06378e-33 7.25111e-33 6.96289e-33 8.98569e-33 8.63044e-33 9.72707e-33 9.79173e-33 1.02089e-32 1.03966e-32
          1.05359e-32 1.08362e-32 1.06007e-32 1.09452e-32 1.04059e-32 1.09775e-32 1.02124e-32 1.07106e-32 1.00425e-32 1.0517e-32 1.09647e-32 1.15807e-32
          8.76107e-33 9.07998e-33 7.42408e-33 7.87115e-33 6.22648e-33 6.62845e-33 4.9793e-33 5.3458e-33 3.70567e-33 4.02711e-33 2.50778e-33 2.78521e-33
          1.62609e-33 1.80333e-33 9.91513e-34 1.11678e-33 5.64838e-34 6.44031e-34 3.11314e-34 3.50538e-34 1.58723e-34 1.75371e-34 7.19569e-35 7.99832e-35
          3.08067e-35 3.27218e-35 1.25323e-35 1.27326e-35 4.83842e-36 4.79691e-36 1.65236e-36 1.61025e-36 6.20922e-37 5.84259e-37 2.00125e-37 1.82955e-37
          6.32121e-38 5.69657e-38 2.50196e-38 2.20563e-38 1.24781e-38 0 5.73243e-38 5.56935e-38 3.07708e-36 3.04653e-36 1.78879e-34 1.77e-34
          9.80258e-33 9.67282e-33 4.84038e-31 4.7403e-31 1.84116e-29 1.75361e-29 0 0
        </DataArray>
        <DataArray type="Float32" Name="X_lSubstrate" NumberOfComponents="1" format="ascii">
          0.00293135 0.00293135 0.0029301 0.0029301 0.00292859 0.00292859 0.00292698 0.00292698 0.00292526 0.00292526 0.00292343 0.00292343
          0.00292149 0.00292149 0.00291942 0.00291942 0.00291722 0.00291722 0.00291488 0.00291488 0.00291239 0.00291239 0.0029071 0.0029071
          0.00290113 0.00290113 0.00289444 0.00289443 0.00288692 0.00288691 0.00287848 0.00287848 0.00286666 0.00286665 0.00285305 0.00285304
          0.00283741 0.0028374 0.00281944 0.00281943 0.00279881 0.00279881 0.00277515 0.00277514 0.00274799 0.00274798 0.00271682 0.00271681
          0.00268105 0.00268103 0.00263995 0.00263993 0.0025927 0.00259268 0.00253835 0.00253832 0.00247568 0.00247565 0.00240325 0.00240323
          0.00231946 0.00231945 0.00222207 0.00222205 0.00210817 0.00210817 0.00197411 0.00197414 0.00181484 0.00181492 0.00162289 0.00162293
          0.00138563 0.00138563 0.00107948 0.00107952 0.000654245 0.000654215 0 0
        </DataArray>
        <DataArray type="Float32" Name="X_lSuspended_Biomass" NumberOfComponents="1" format="ascii">
          5.16016e-06 5.15882e-06 5.18147e-06 5.179e-06 5.1765e-06 5.17611e-06 5.17274e-06 5.17336e-06 5.16953e-06 5.17115e-06 5.16652e-06 5.16803e-06
          5.16321e-06 5.16512e-06 5.15959e-06 5.16208e-06 5.15539e-06 5.15883e-06 5.1509e-06 5.15542e-06 5.14898e-06 5.15094e-06 5.14033e-06 5.14322e-06
          5.12994e-06 5.13372e-06 5.11792e-06 5.12244e-06 5.10461e-06 5.10923e-06 5.08969e-06 5.09406e-06 5.06728e-06 5.07288e-06 5.04264e-06 5.04748e-06
          5.0137e-06 5.01788e-06 4.97982e-06 4.98342e-06 4.94035e-06 4.94342e-06 4.89442e-06 4.89708e-06 4.84115e-06 4.84345e-06 4.77951e-06 4.78144e-06
          4.70819e-06 4.70983e-06 4.62576e-06 4.62713e-06 4.53055e-06 4.53159e-06 4.42054e-06 4.4212e-06 4.2932e-06 4.29345e-06 4.14567e-06 4.1455e-06
          3.97474e-06 3.97403e-06 3.77615e-06 3.77483e-06 3.54502e-06 3.54298e-06 3.27586e-06 3.27291e-06 2.96195e-06 2.95776e-06 2.59449e-06 2.58911e-06
          2.15919e-06 2.15597e-06 1.63128e-06 1.63001e-06 9.55073e-07 9.54826e-07 0 0
        </DataArray>
        <DataArray type="Float32" Name="X_lNH4" NumberOfComponents="1" format="ascii">
          0.0057111 0.00571078 0.0058164 0.00581657 0.00593734 0.00593733 0.00606027 0.00606022 0.00618459 0.00618452 0.00631015 0.0063101
          0.00643686 0.0064368 0.00656456 0.00656449 0.00669307 0.00669305 0.00682225 0.00682235 0.00695222 0.00695213 0.00720693 0.00720691
          0.00746189 0.0074619 0.00771534 0.00771552 0.00796663 0.00796675 0.0082144 0.00821448 0.00851374 0.00851386 0.00880328 0.00880337
          0.00908036 0.00908039 0.00934259 0.00934255 0.00958741 0.00958739 0.00981222 0.0098122 0.0100144 0.0100143 0.0101909 0.0101909
          0.0103389 0.0103389 0.0104549 0.0104549 0.0105354 0.0105354 0.0105762 0.0105762 0.0105727 0.0105728 0.0105196 0.0105197
          0.0104105 0.0104106 0.0102377 0.0102378 0.00999111 0.00999129 0.0096578 0.00965809 0.00922028 0.0092207 0.00865277 0.00865305
          0.00791215 0.00791227 0.0069179 0.0069181 0.00550133 0.00550125 0.00333307 0.00333307
        </DataArray>
        <DataArray type="Float32" Name="X_lHCO3" NumberOfComponents="1" format="ascii">
          0.000131664 0.000131659 0.000131498 0.000131503 0.000131328 0.000131325 0.000131117 0.000131113 0.000130892 0.000130893 0.000130662 0.000130664
          0.000130429 0.000130431 0.000130189 0.000130192 0.000129943 0.000129949 0.000129695 0.000129699 0.000129445 0.000129449 0.000128975 0.000128981
          0.000128457 0.00012846 0.000127957 0.000127963 0.000127464 0.00012747 0.000126976 0.000126983 0.000126394 0.000126402 0.00012583 0.000125841
          0.000125302 0.000125313 0.000124813 0.000124827 0.000124368 0.000124384 0.000123982 0.000123996 0.000123657 0.000123669 0.000123399 0.000123413
          0.000123227 0.000123233 0.000123145 0.000123146 0.000123159 0.000123156 0.00012329 0.000123284 0.000123571 0.000123559 0.000123992 0.000123973
          0.000124608 0.000124587 0.000125484 0.000125457 0.000126658 0.00012662 0.000128206 0.000128162 0.000130261 0.000130215 0.000133039 0.000132997
          0.000136861 0.000136821 0.000141516 0.000141484 0.000137019 0.000137026 3.37056e-07 3.37056e-07
        </DataArray>
        <DataArray type="Float32" Name="X_lCO3" NumberOfComponents="1" format="ascii">
          1.30482e-07 1.30477e-07 1.28508e-07 1.28515e-07 1.2636e-07 1.26353e-07 1.2419e-07 1.24184e-07 1.22058e-07 1.22061e-07 1.1998e-07 1.19984e-07
          1.17957e-07 1.17962e-07 1.15985e-07 1.1599e-07 1.14062e-07 1.14071e-07 1.12195e-07 1.12201e-07 1.10382e-07 1.1039e-07 1.07034e-07 1.07042e-07
          1.03822e-07 1.03825e-07 1.00844e-07 1.0085e-07 9.80652e-08 9.80724e-08 9.54741e-08 9.54832e-08 9.25369e-08 9.25474e-08 8.98671e-08 8.98813e-08
          8.74701e-08 8.74835e-08 8.53328e-08 8.53505e-08 8.34452e-08 8.34654e-08 8.18137e-08 8.18311e-08 8.04286e-08 8.0443e-08 7.92882e-08 7.93049e-08
          7.84109e-08 7.84187e-08 7.77997e-08 7.77999e-08 7.7463e-08 7.74597e-08 7.74345e-08 7.74279e-08 7.77699e-08 7.7756e-08 7.84836e-08 7.84621e-08
          7.96831e-08 7.96581e-08 8.15136e-08 8.1481e-08 8.41288e-08 8.40829e-08 8.78044e-08 8.77482e-08 9.30155e-08 9.29525e-08 1.00629e-07 1.00568e-07
          1.12331e-07 1.12269e-07 1.30773e-07 1.30714e-07 1.44516e-07 1.44532e-07 2.55591e-11 2.55591e-11
        </DataArray>
        <DataArray type="Float32" Name="X_lCO2" NumberOfComponents="1" format="ascii">
          1.12525e-05 1.1252e-05 1.14087e-05 1.1409e-05 1.15866e-05 1.15866e-05 1.17653e-05 1.17652e-05 1.19441e-05 1.19441e-05 1.2123e-05 1.21229e-05
          1.23016e-05 1.23016e-05 1.24799e-05 1.24798e-05 1.26574e-05 1.26575e-05 1.28341e-05 1.28343e-05 1.30101e-05 1.301e-05 1.33504e-05 1.33505e-05
          1.36838e-05 1.36838e-05 1.40092e-05 1.40095e-05 1.43259e-05 1.43262e-05 1.46325e-05 1.46327e-05 1.49958e-05 1.49961e-05 1.53398e-05 1.53402e-05
          1.56627e-05 1.5663e-05 1.59629e-05 1.59632e-05 1.62385e-05 1.62389e-05 1.64881e-05 1.64885e-05 1.671e-05 1.67103e-05 1.69021e-05 1.69025e-05
          1.70627e-05 1.70629e-05 1.71892e-05 1.71893e-05 1.72785e-05 1.72785e-05 1.73274e-05 1.73273e-05 1.7332e-05 1.73317e-05 1.72858e-05 1.72854e-05
          1.71827e-05 1.71823e-05 1.70142e-05 1.70136e-05 1.67664e-05 1.67656e-05 1.64213e-05 1.64205e-05 1.59524e-05 1.59518e-05 1.53178e-05 1.53173e-05
          1.44417e-05 1.44411e-05 1.31592e-05 1.3159e-05 1.09986e-05 1.09985e-05 3.38012e-07 3.38012e-07
        </DataArray>
        <DataArray type="Float32" Name="X_lH" NumberOfComponents="1" format="ascii">
          5.96957e-11 5.9695e-11 6.06527e-11 6.06523e-11 6.17395e-11 6.17409e-11 6.28545e-11 6.28554e-11 6.39818e-11 6.39807e-11 6.5117e-11 6.51159e-11
          6.6259e-11 6.62577e-11 6.74077e-11 6.74061e-11 6.85614e-11 6.85589e-11 6.97176e-11 6.97166e-11 7.08769e-11 7.08743e-11 7.31288e-11 7.31263e-11
          7.53902e-11 7.53892e-11 7.76182e-11 7.76169e-11 7.98135e-11 7.98116e-11 8.19674e-11 8.19645e-11 8.45508e-11 8.45473e-11 8.7035e-11 8.70296e-11
          8.93932e-11 8.93875e-11 9.16074e-11 9.15992e-11 9.36585e-11 9.36488e-11 9.55202e-11 9.55115e-11 9.71742e-11 9.71667e-11 9.85984e-11 9.85895e-11
          9.97604e-11 9.97563e-11 1.00636e-10 1.00636e-10 1.012e-10 1.01202e-10 1.0141e-10 1.01413e-10 1.01215e-10 1.01223e-10 1.00586e-10 1.00599e-10
          9.94493e-11 9.94629e-11 9.77126e-11 9.77297e-11 9.52909e-11 9.53137e-11 9.20572e-11 9.20836e-11 8.78296e-11 8.78569e-11 8.23379e-11 8.23605e-11
          7.51667e-11 7.51851e-11 6.5861e-11 6.58745e-11 5.61851e-11 5.6182e-11 6.32454e-10 6.32454e-10
        </DataArray>
        <DataArray type="Float32" Name="X_lOH" NumberOfComponents="1" format="ascii">
          2.7904e-06 2.79044e-06 2.74522e-06 2.74523e-06 2.69559e-06 2.69553e-06 2.64647e-06 2.64643e-06 2.59855e-06 2.59859e-06 2.55197e-06 2.55201e-06
          2.50671e-06 2.50676e-06 2.46274e-06 2.4628e-06 2.42005e-06 2.42014e-06 2.37869e-06 2.37872e-06 2.33857e-06 2.33866e-06 2.26425e-06 2.26433e-06
          2.1941e-06 2.19413e-06 2.12897e-06 2.129e-06 2.06834e-06 2.06839e-06 2.01201e-06 2.01208e-06 1.94822e-06 1.9483e-06 1.89045e-06 1.89056e-06
          1.83857e-06 1.83868e-06 1.79229e-06 1.79245e-06 1.75136e-06 1.75155e-06 1.71574e-06 1.7159e-06 1.68524e-06 1.68537e-06 1.65981e-06 1.65996e-06
          1.6396e-06 1.63966e-06 1.62468e-06 1.62468e-06 1.61525e-06 1.61522e-06 1.6118e-06 1.61174e-06 1.61512e-06 1.61499e-06 1.62577e-06 1.62557e-06
          1.64534e-06 1.64511e-06 1.67605e-06 1.67576e-06 1.72072e-06 1.72031e-06 1.784e-06 1.78349e-06 1.87372e-06 1.87314e-06 2.00397e-06 2.00342e-06
          2.20267e-06 2.20213e-06 2.52536e-06 2.52484e-06 2.97953e-06 2.9797e-06 2.67481e-07 2.67481e-07
        </DataArray>
        <DataArray type="Float32" Name="X_gBrine" NumberOfComponents="1" format="ascii">
          0.0112439 0.0112277 0.0112364 0.0112364 0.0112451 0.0112451 0.0112538 0.0112538 0.0112625 0.0112625 0.0112712 0.0112712
          0.0112799 0.0112799 0.0112887 0.0112887 0.0112974 0.0112974 0.0113061 0.0113061 0.0113149 0.0113149 0.0113325 0.0113325
          0.0113502 0.0113502 0.0113679 0.0113679 0.0113857 0.0113857 0.0114037 0.0114037 0.0114262 0.0114262 0.011449 0.011449
          0.0114719 0.0114719 0.0114951 0.0114951 0.0115185 0.0115185 0.0115422 0.0115422 0.0115662 0.0115662 0.0115904 0.0115904
          0.011615 0.011615 0.01164 0.01164 0.0116653 0.0116653 0.0116911 0.0116911 0.0117173 0.0117173 0.011744 0.011744
          0.0117713 0.0117713 0.0117992 0.0117992 0.0118277 0.0118277 0.0118571 0.0118571 0.0118874 0.0118874 0.0119188 0.0119188
          0.0119516 0.0119516 0.0119866 0.0119865 0.0120249 0.0120249 0.0120698 0.0120698
        </DataArray>
        <DataArray type="Float32" Name="X_gTotalC" NumberOfComponents="1" format="ascii">
          0.988756 0.988772 0.988764 0.988764 0.988755 0.988755 0.988746 0.988746 0.988737 0.988737 0.988729 0.988729
          0.98872 0.98872 0.988711 0.988711 0.988703 0.988703 0.988694 0.988694 0.988685 0.988685 0.988667 0.988667
          0.98865 0.98865 0.988632 0.988632 0.988614 0.988614 0.988596 0.988596 0.988574 0.988574 0.988551 0.988551
          0.988528 0.988528 0.988505 0.988505 0.988481 0.988481 0.988458 0.988458 0.988434 0.988434 0.98841 0.98841
          0.988385 0.988385 0.98836 0.98836 0.988335 0.988335 0.988309 0.988309 0.988283 0.988283 0.988256 0.988256
          0.988229 0.988229 0.988201 0.988201 0.988172 0.988172 0.988143 0.988143 0.988113 0.988113 0.988081 0.988081
          0.988048 0.988048 0.988013 0.988013 0.987975 0.987975 0.98793 0.98793
        </DataArray>
        <DataArray type="Float32" Name="X_gNa" NumberOfComponents="1" format="ascii">
          0 0 0 0 0 0 0 0 0 0 0 0
          0 0 0 0 0 0 0 0 0 0 0 0
          0 0 0 0 0 0 0 0 0 0 0 0
          0 0 0 0 0 0 0 0 0 0 0 0
          0 0 0 0 0 0 0 0 0 0 0 0
          0 0 0 0 0 0 0 0 0 0 0 0
          0 0 0 0 0 0 0 0
        </DataArray>
        <DataArray type="Float32" Name="X_gCl" NumberOfComponents="1" format="ascii">
          0 0 0 0 0 0 0 0 0 0 0 0
          0 0 0 0 0 0 0 0 0 0 0 0
          0 0 0 0 0 0 0 0 0 0 0 0
          0 0 0 0 0 0 0 0 0 0 0 0
          0 0 0 0 0 0 0 0 0 0 0 0
          0 0 0 0 0 0 0 0 0 0 0 0
          0 0 0 0 0 0 0 0
        </DataArray>
        <DataArray type="Float32" Name="X_gCa" NumberOfComponents="1" format="ascii">
          0 0 0 0 0 0 0 0 0 0 0 0
          0 0 0 0 0 0 0 0 0 0 0 0
          0 0 0 0 0 0 0 0 0 0 0 0
          0 0 0 0 0 0 0 0 0 0 0 0
          0 0 0 0 0 0 0 0 0 0 0 0
          0 0 0 0 0 0 0 0 0 0 0 0
          0 0 0 0 0 0 0 0
        </DataArray>
        <DataArray type="Float32" Name="X_gUrea" NumberOfComponents="1" format="ascii">
          0 0 0 0 0 0 0 0 0 0 0 0
          0 0 0 0 0 0 0 0 0 0 0 0
          0 0 0 0 0 0 0 0 0 0 0 0
          0 0 0 0 0 0 0 0 0 0 0 0
          0 0 0 0 0 0 0 0 0 0 0 0
          0 0 0 0 0 0 0 0 0 0 0 0
          0 0 0 0 0 0 0 0
        </DataArray>
        <DataArray type="Float32" Name="X_gTotalNH" NumberOfComponents="1" format="ascii">
          0 0 0 0 0 0 0 0 0 0 0 0
          0 0 0 0 0 0 0 0 0 0 0 0
          0 0 0 0 0 0 0 0 0 0 0 0
          0 0 0 0 0 0 0 0 0 0 0 0
          0 0 0 0 0 0 0 0 0 0 0 0
          0 0 0 0 0 0 0 0 0 0 0 0
          0 0 0 0 0 0 0 0
        </DataArray>
        <DataArray type="Float32" Name="X_gO2" NumberOfComponents="1" format="ascii">
          0 0 0 0 0 0 0 0 0 0 0 0
          0 0 0 0 0 0 0 0 0 0 0 0
          0 0 0 0 0 0 0 0 0 0 0 0
          0 0 0 0 0 0 0 0 0 0 0 0
          0 0 0 0 0 0 0 0 0 0 0 0
          0 0 0 0 0 0 0 0 0 0 0 0
          0 0 0 0 0 0 0 0
        </DataArray>
        <DataArray type="Float32" Name="X_gSubstrate" NumberOfComponents="1" format="ascii">
          0 0 0 0 0 0 0 0 0 0 0 0
          0 0 0 0 0 0 0 0 0 0 0 0
          0 0 0 0 0 0 0 0 0 0 0 0
          0 0 0 0 0 0 0 0 0 0 0 0
          0 0 0 0 0 0 0 0 0 0 0 0
          0 0 0 0 0 0 0 0 0 0 0 0
          0 0 0 0 0 0 0 0
        </DataArray>
        <DataArray type="Float32" Name="X_gSuspended_Biomass" NumberOfComponents="1" format="ascii">
          0 0 0 0 0 0 0 0 0 0 0 0
          0 0 0 0 0 0 0 0 0 0 0 0
          0 0 0 0 0 0 0 0 0 0 0 0
          0 0 0 0 0 0 0 0 0 0 0 0
          0 0 0 0 0 0 0 0 0 0 0 0
          0 0 0 0 0 0 0 0 0 0 0 0
          0 0 0 0 0 0 0 0
        </DataArray>
        <DataArray type="Float32" Name="X_gNH4" NumberOfComponents="1" format="ascii">
          0 0 0 0 0 0 0 0 0 0 0 0
          0 0 0 0 0 0 0 0 0 0 0 0
          0 0 0 0 0 0 0 0 0 0 0 0
          0 0 0 0 0 0 0 0 0 0 0 0
          0 0 0 0 0 0 0 0 0 0 0 0
          0 0 0 0 0 0 0 0 0 0 0 0
          0 0 0 0 0 0 0 0
        </DataArray>
        <DataArray type="Float32" Name="X_gHCO3" NumberOfComponents="1" format="ascii">
          0 0 0 0 0 0 0 0 0 0 0 0
          0 0 0 0 0 0 0 0 0 0 0 0
          0 0 0 0 0 0 0 0 0 0 0 0
          0 0 0 0 0 0 0 0 0 0 0 0
          0 0 0 0 0 0 0 0 0 0 0 0
          0 0 0 0 0 0 0 0 0 0 0 0
          0 0 0 0 0 0 0 0
        </DataArray>
        <DataArray type="Float32" Name="X_gCO3" NumberOfComponents="1" format="ascii">
          0 0 0 0 0 0 0 0 0 0 0 0
          0 0 0 0 0 0 0 0 0 0 0 0
          0 0 0 0 0 0 0 0 0 0 0 0
          0 0 0 0 0 0 0 0 0 0 0 0
          0 0 0 0 0 0 0 0 0 0 0 0
          0 0 0 0 0 0 0 0 0 0 0 0
          0 0 0 0 0 0 0 0
        </DataArray>
        <DataArray type="Float32" Name="X_gCO2" NumberOfComponents="1" format="ascii">
          0.988756 0.988772 0.988764 0.988764 0.988755 0.988755 0.988746 0.988746 0.988737 0.988737 0.988729 0.988729
          0.98872 0.98872 0.988711 0.988711 0.988703 0.988703 0.988694 0.988694 0.988685 0.988685 0.988667 0.988667
          0.98865 0.98865 0.988632 0.988632 0.988614 0.988614 0.988596 0.988596 0.988574 0.988574 0.988551 0.988551
          0.988528 0.988528 0.988505 0.988505 0.988481 0.988481 0.988458 0.988458 0.988434 0.988434 0.98841 0.98841
          0.988385 0.988385 0.98836 0.98836 0.988335 0.988335 0.988309 0.988309 0.988283 0.988283 0.988256 0.988256
          0.988229 0.988229 0.988201 0.988201 0.988172 0.988172 0.988143 0.988143 0.988113 0.988113 0.988081 0.988081
          0.988048 0.988048 0.988013 0.988013 0.987975 0.987975 0.98793 0.98793
        </DataArray>
        <DataArray type="Float32" Name="X_gH" NumberOfComponents="1" format="ascii">
          0 0 0 0 0 0 0 0 0 0 0 0
          0 0 0 0 0 0 0 0 0 0 0 0
          0 0 0 0 0 0 0 0 0 0 0 0
          0 0 0 0 0 0 0 0 0 0 0 0
          0 0 0 0 0 0 0 0 0 0 0 0
          0 0 0 0 0 0 0 0 0 0 0 0
          0 0 0 0 0 0 0 0
        </DataArray>
        <DataArray type="Float32" Name="X_gOH" NumberOfComponents="1" format="ascii">
          0 0 0 0 0 0 0 0 0 0 0 0
          0 0 0 0 0 0 0 0 0 0 0 0
          0 0 0 0 0 0 0 0 0 0 0 0
          0 0 0 0 0 0 0 0 0 0 0 0
          0 0 0 0 0 0 0 0 0 0 0 0
          0 0 0 0 0 0 0 0 0 0 0 0
          0 0 0 0 0 0 0 0
        </DataArray>
        <DataArray type="Float32" Name="Molarity_Brine" NumberOfComponents="1" format="ascii">
          54659.1 54659.1 54649.5 54649.5 54638.5 54638.5 54627.4 54627.4 54616.1 54616.1 54604.7 54604.7
          54593.2 54593.2 54581.6 54581.7 54570 54570 54558.3 54558.3 54546.5 54546.5 54523.4 54523.4
          54500.4 54500.4 54477.4 54477.4 54454.8 54454.7 54432.4 54432.4 54405.5 54405.5 54379.6 54379.6
          54354.9 54354.9 54331.7 54331.7 54310.2 54310.2 54290.8 54290.8 54273.6 54273.6 54259 54259
          54247.2 54247.2 54238.8 54238.8 54234 54234 54233.2 54233.2 54237 54237 54246 54246
          54260.8 54260.8 54282.2 54282.2 54311.4 54311.4 54349.7 54349.6 54398.9 54398.9 54461.9 54461.8
          54543.1 54543.1 54651.2 54651.1 54804.7 54804.7 55049.2 55049.2
        </DataArray>
        <DataArray type="Float32" Name="Molarity_TotalC" NumberOfComponents="1" format="ascii">
          2.42746 2.42735 2.42861 2.4287 2.43024 2.43018 2.43121 2.43115 2.43196 2.43199 2.43265 2.43268
          2.43328 2.43331 2.4338 2.43384 2.43419 2.43429 2.43454 2.43462 2.43485 2.43492 2.43568 2.43577
          2.43556 2.4356 2.43555 2.43565 2.43546 2.43556 2.4352 2.43532 2.43485 2.435 2.43434 2.43454
          2.4339 2.43408 2.43354 2.43378 2.43328 2.43356 2.43335 2.4336 2.43372 2.43393 2.43442 2.43467
          2.43574 2.43586 2.43768 2.43769 2.44023 2.44018 2.44365 2.44355 2.44842 2.44821 2.45416 2.45385
          2.46165 2.46129 2.47176 2.4713 2.48471 2.48408 2.50135 2.50061 2.52318 2.52241 2.55274 2.55203
          2.59341 2.59273 2.63763 2.6371 2.50936 2.50948 0.0132254 0.0132254
        </DataArray>
        <DataArray type="Float32" Name="Molarity_Na" NumberOfComponents="1" format="ascii">
          0.13215 0.132154 0.130774 0.130772 0.129193 0.129193 0.127586 0.127586 0.12596 0.125961 0.124317 0.124318
          0.122659 0.122659 0.120986 0.120987 0.119303 0.119304 0.117611 0.11761 0.115907 0.115909 0.112567 0.112567
          0.109222 0.109221 0.105893 0.105891 0.102591 0.102589 0.0993325 0.0993313 0.0953927 0.0953911 0.0915787 0.0915774
          0.0879254 0.0879251 0.0844651 0.0844655 0.0812316 0.0812318 0.0782597 0.0782599 0.0755848 0.0755853 0.0732461 0.0732463
          0.0712842 0.0712838 0.0697424 0.069742 0.0686698 0.0686694 0.0681208 0.0681201 0.0681554 0.0681547 0.0688463 0.0688452
          0.0702747 0.0702735 0.0725427 0.0725413 0.0757821 0.0757799 0.0801599 0.0801563 0.0859031 0.0858977 0.0933443 0.0933406
          0.103039 0.103038 0.116027 0.116024 0.134512 0.134513 0.1633 0.1633
        </DataArray>
        <DataArray type="Float32" Name="Molarity_Cl" NumberOfComponents="1" format="ascii">
          324.003 323.985 330.054 330.064 337.005 337.005 344.073 344.07 351.223 351.219 358.446 358.443
          365.738 365.735 373.089 373.085 380.489 380.489 387.931 387.937 395.421 395.415 410.106 410.105
          424.815 424.816 439.447 439.458 453.964 453.971 468.287 468.293 485.605 485.612 502.368 502.374
          518.423 518.424 533.628 533.626 547.833 547.832 560.886 560.885 572.631 572.628 582.894 582.893
          591.498 591.499 598.25 598.252 602.935 602.937 605.313 605.316 605.119 605.122 602.033 602.037
          595.695 595.701 585.657 585.663 571.336 571.346 551.995 552.011 526.634 526.657 493.783 493.799
          450.992 450.998 393.675 393.686 312.108 312.104 185.193 185.193
        </DataArray>
        <DataArray type="Float32" Name="Molarity_Ca" NumberOfComponents="1" format="ascii">
          3.95528 3.95496 4.02377 4.02397 4.10277 4.1027 4.1824 4.18231 4.26273 4.26271 4.34382 4.34381
          4.4256 4.4256 4.50794 4.50794 4.5907 4.59079 4.67387 4.67402 4.75755 4.75756 4.92182 4.92191
          5.08542 5.08547 5.24827 5.24849 5.40976 5.40994 5.56892 5.5691 5.76133 5.76156 5.94741 5.94767
          6.12568 6.12588 6.29457 6.29479 6.45244 6.45271 6.59782 6.59806 6.72894 6.72912 6.84392 6.84415
          6.94105 6.94118 7.0182 7.01822 7.07296 7.07293 7.10292 7.10286 7.10562 7.10546 7.07712 7.07686
          7.01421 7.01391 6.91275 6.91235 6.7665 6.76597 6.56811 6.56755 6.30801 6.30749 5.9725 5.97196
          5.53821 5.53758 4.94948 4.94901 3.93671 3.93671 0 0
        </DataArray>
        <DataArray type="Float32" Name="Molarity_Urea" NumberOfComponents="1" format="ascii">
          1.42088e-06 1.41825e-06 1.60347e-06 1.61399e-06 1.83584e-06 1.82736e-06 1.99526e-06 1.9865e-06 2.14193e-06 2.14584e-06 2.29987e-06 2.30265e-06
          2.46132e-06 2.46897e-06 2.63031e-06 2.6355e-06 2.79658e-06 2.81114e-06 2.97183e-06 2.98382e-06 3.15742e-06 3.16801e-06 3.63748e-06 3.65609e-06
          3.97893e-06 3.9888e-06 4.42912e-06 4.45455e-06 4.91961e-06 4.94764e-06 5.43607e-06 5.47077e-06 6.14828e-06 6.19495e-06 6.89665e-06 6.96814e-06
          7.73743e-06 7.81702e-06 8.6753e-06 8.77446e-06 9.68232e-06 9.81649e-06 1.08788e-05 1.10125e-05 1.22331e-05 1.23512e-05 1.37577e-05 1.39183e-05
          1.56471e-05 1.57301e-05 1.79391e-05 1.79498e-05 2.06452e-05 2.06031e-05 2.40609e-05 2.39549e-05 2.89407e-05 2.87217e-05 3.50396e-05 3.45595e-05
          4.40306e-05 4.33763e-05 5.92222e-05 5.81426e-05 8.47734e-05 8.27304e-05 0.000132136 0.000128654 0.000233873 0.000228101 0.000504705 0.000494579
          0.00146439 0.00144101 0.00599263 0.00593142 0.028716 0.0286527 0 0
        </DataArray>
        <DataArray type="Float32" Name="Molarity_TotalNH" NumberOfComponents="1" format="ascii">
          320.921 320.903 326.837 326.847 333.633 333.633 340.544 340.541 347.534 347.531 354.597 354.594
          361.726 361.723 368.914 368.91 376.149 376.149 383.425 383.431 390.748 390.743 405.106 405.106
          419.488 419.489 433.794 433.805 447.988 447.995 461.992 461.998 478.924 478.931 495.314 495.32
          511.012 511.013 525.878 525.876 539.767 539.766 552.529 552.529 564.012 564.01 574.047 574.046
          582.459 582.461 589.061 589.063 593.642 593.643 595.967 595.97 595.777 595.78 592.758 592.763
          586.562 586.567 576.747 576.753 562.745 562.754 543.834 543.849 519.036 519.059 486.916 486.932
          445.075 445.081 389.024 389.035 309.227 309.222 185.193 185.193
        </DataArray>
        <DataArray type="Float32" Name="Molarity_O2" NumberOfComponents="1" format="ascii">
          6.57948e-29 6.51615e-29 1.18779e-28 1.27629e-28 2.2777e-28 2.18717e-28 2.82304e-28 2.71143e-28 3.05648e-28 3.0768e-28 3.20845e-28 3.26741e-28
          3.31179e-28 3.40616e-28 3.33274e-28 3.44103e-28 3.27206e-28 3.45181e-28 3.21178e-28 3.36849e-28 3.15893e-28 3.30816e-28 3.45021e-28 3.64405e-28
          2.75777e-28 2.85815e-28 2.33773e-28 2.4785e-28 1.9613e-28 2.08792e-28 1.56898e-28 1.68446e-28 1.16814e-28 1.26947e-28 7.90841e-29 8.78329e-29
          5.1299e-29 5.68906e-29 3.1291e-29 3.52442e-29 1.78317e-29 2.03317e-29 9.83105e-30 1.10697e-29 5.01375e-30 5.53963e-30 2.27353e-30 2.52712e-30
          9.73558e-31 1.03408e-30 3.9611e-31 4.02443e-31 1.52946e-31 1.51634e-31 5.22352e-32 5.0904e-32 1.96288e-32 1.84698e-32 6.32596e-33 5.78319e-33
          1.99783e-33 1.80041e-33 7.90564e-34 6.96929e-34 3.94148e-34 3.38327e-34 1.80988e-33 1.75839e-33 9.70933e-32 9.61293e-32 5.63989e-30 5.58065e-30
          3.08753e-28 3.04667e-28 1.52251e-26 1.49103e-26 5.77998e-25 5.50512e-25 0 0
        </DataArray>
        <DataArray type="Float32" Name="Molarity_Substrate" NumberOfComponents="1" format="ascii">
          16.35 16.35 16.3454 16.3454 16.3397 16.3397 16.3334 16.3334 16.3266 16.3266 16.3192 16.3192
          16.3112 16.3112 16.3025 16.3025 16.2931 16.2931 16.2829 16.2829 16.2719 16.2719 16.248 16.248
          16.2203 16.2203 16.1885 16.1885 16.152 16.152 16.1103 16.1103 16.0508 16.0507 15.9809 15.9808
          15.8993 15.8993 15.8043 15.8043 15.694 15.6939 15.5661 15.566 15.418 15.418 15.2469 15.2468
          15.0492 15.049 14.8208 14.8207 14.5572 14.5571 14.2528 14.2527 13.9008 13.9007 13.4932 13.4931
          13.0208 13.0207 12.4711 12.471 11.8279 11.8279 11.0707 11.0709 10.1714 10.1719 9.08852 9.08872
          7.75197 7.75195 6.03096 6.03117 3.6481 3.64793 0 0
        </DataArray>
        <DataArray type="Float32" Name="Molarity_Suspended_Biomass" NumberOfComponents="1" format="ascii">
          0.00518526 0.00518391 0.00520743 0.00520495 0.0052033 0.00520291 0.0052004 0.00520102 0.00519805 0.00519967 0.00519592 0.00519744
          0.00519349 0.00519541 0.00519076 0.00519326 0.00518745 0.00519091 0.00518385 0.00518839 0.00518284 0.00518481 0.00517594 0.00517885
          0.00516728 0.00517109 0.00515697 0.00516153 0.00514533 0.00514999 0.00513204 0.00513645 0.00511154 0.00511719 0.00508871 0.00509359
          0.00506143 0.00506565 0.00502904 0.00503267 0.00499085 0.00499396 0.00494599 0.00494867 0.00489352 0.00489584 0.00483238 0.00483433
          0.00476124 0.0047629 0.00467862 0.00468001 0.00458283 0.00458389 0.00447181 0.00447247 0.00434297 0.00434323 0.00419342 0.00419325
          0.00401992 0.00401921 0.00381817 0.00381683 0.00358325 0.0035812 0.00330968 0.0033067 0.00299073 0.0029865 0.00261767 0.00261223
          0.00217627 0.00217303 0.00164195 0.00164067 0.000959447 0.000959199 0 0
        </DataArray>
        <DataArray type="Float32" Name="Molarity_NH4" NumberOfComponents="1" format="ascii">
          318.138 318.12 324.05 324.06 330.843 330.842 337.75 337.747 344.737 344.733 351.797 351.794
          358.923 358.92 366.108 366.104 373.34 373.34 380.613 380.619 387.934 387.929 402.287 402.286
          416.664 416.665 430.967 430.977 445.157 445.164 459.158 459.163 476.086 476.093 492.472 492.478
          508.166 508.168 523.03 523.028 536.916 536.915 549.676 549.675 561.156 561.153 571.188 571.187
          579.597 579.598 586.196 586.197 590.773 590.774 593.094 593.097 592.899 592.902 589.875 589.88
          583.672 583.678 573.849 573.855 559.836 559.846 540.912 540.928 516.097 516.121 483.955 483.971
          442.083 442.09 386.004 386.016 306.365 306.361 185.037 185.037
        </DataArray>
        <DataArray type="Float32" Name="Molarity_HCO3" NumberOfComponents="1" format="ascii">
          2.16832 2.16823 2.1659 2.16598 2.16346 2.1634 2.16034 2.16028 2.157 2.15702 2.15359 2.15361
          2.15011 2.15015 2.14654 2.14658 2.14286 2.14295 2.13914 2.13921 2.13541 2.13548 2.1284 2.12849
          2.12059 2.12063 2.11307 2.11317 2.10566 2.10575 2.0983 2.09842 2.08954 2.08968 2.08105 2.08124
          2.0731 2.07328 2.06576 2.06599 2.05908 2.05935 2.05333 2.05356 2.04852 2.04872 2.04473 2.04497
          2.0423 2.04241 2.04127 2.04128 2.04173 2.04168 2.04401 2.04391 2.04866 2.04847 2.05549 2.05518
          2.06539 2.06504 2.07943 2.07898 2.09816 2.09755 2.12284 2.12212 2.15557 2.15481 2.19984 2.19914
          2.26074 2.26008 2.33444 2.33391 2.25586 2.25598 0.00553194 0.00553194
        </DataArray>
        <DataArray type="Float32" Name="Molarity_CO3" NumberOfComponents="1" format="ascii">
          0.00218495 0.00218486 0.0021522 0.00215231 0.00211658 0.00211647 0.00208057 0.00208048 0.0020452 0.00204526 0.00201074 0.0020108
          0.00197718 0.00197726 0.00194446 0.00194454 0.00191256 0.00191272 0.0018816 0.00188169 0.00185152 0.00185165 0.00179599 0.00179613
          0.0017427 0.00174275 0.00169329 0.0016934 0.00164721 0.00164733 0.00160423 0.00160438 0.00155552 0.00155569 0.00151124 0.00151148
          0.00147149 0.00147171 0.00143605 0.00143635 0.00140476 0.0014051 0.00137772 0.00137801 0.00135477 0.00135501 0.00133588 0.00133616
          0.00132137 0.0013215 0.00131128 0.00131128 0.00130575 0.00130569 0.00130534 0.00130523 0.00131099 0.00131076 0.00132292 0.00132256
          0.00134294 0.00134252 0.00137347 0.00137292 0.00141705 0.00141628 0.00147829 0.00147734 0.00156508 0.00156402 0.00169187 0.00169085
          0.00188671 0.00188566 0.00219346 0.00219248 0.00241927 0.00241953 4.26535e-07 4.26535e-07
        </DataArray>
        <DataArray type="Float32" Name="Molarity_CO2" NumberOfComponents="1" format="ascii">
          0.256984 0.256971 0.260587 0.260594 0.264696 0.264694 0.268823 0.268821 0.272955 0.272954 0.27709 0.277089
          0.281222 0.281221 0.285347 0.285345 0.289457 0.289458 0.293549 0.293554 0.297628 0.297627 0.30552 0.305522
          0.313258 0.31326 0.320819 0.320828 0.328186 0.328192 0.335323 0.335329 0.34379 0.343798 0.351817 0.351826
          0.35936 0.359367 0.366378 0.366385 0.372829 0.372839 0.378678 0.378687 0.383881 0.383888 0.388389 0.388397
          0.392158 0.392163 0.395129 0.39513 0.397226 0.397225 0.398371 0.398368 0.398475 0.398469 0.397384 0.397374
          0.394956 0.394945 0.390989 0.390975 0.385165 0.385147 0.377064 0.377047 0.366077 0.366064 0.351241 0.351229
          0.330816 0.330803 0.301028 0.301024 0.251112 0.251112 0.00769319 0.00769319
        </DataArray>
        <DataArray type="Float32" Name="Molarity_H" NumberOfComponents="1" format="ascii">
          5.95136e-05 5.95129e-05 6.04764e-05 6.0476e-05 6.15703e-05 6.15716e-05 6.26927e-05 6.26937e-05 6.3828e-05 6.38269e-05 6.49717e-05 6.49706e-05
          6.61226e-05 6.61212e-05 6.72807e-05 6.72791e-05 6.84443e-05 6.84418e-05 6.96109e-05 6.96099e-05 7.0781e-05 7.07784e-05 7.30553e-05 7.30528e-05
          7.53408e-05 7.53398e-05 7.75943e-05 7.75931e-05 7.98165e-05 7.98146e-05 8.19983e-05 8.19955e-05 8.46175e-05 8.4614e-05 8.71383e-05 8.71329e-05
          8.95333e-05 8.95276e-05 9.17841e-05 9.17758e-05 9.38707e-05 9.38609e-05 9.57662e-05 9.57575e-05 9.74515e-05 9.74439e-05 9.89038e-05 9.88948e-05
          0.00010009 0.000100086 0.000100985 0.000100985 0.000101561 0.000101563 0.000101777 0.000101781 0.000101581 0.000101589 0.000100944 0.000100956
          9.97875e-05 9.98012e-05 9.80217e-05 9.80388e-05 9.55599e-05 9.55829e-05 9.2275e-05 9.23014e-05 8.79845e-05 8.80119e-05 8.2419e-05 8.24417e-05
          7.51644e-05 7.51828e-05 6.57694e-05 6.5783e-05 5.59978e-05 5.59947e-05 0.000628379 0.000628379
        </DataArray>
        <DataArray type="Float32" Name="Molarity_OH" NumberOfComponents="1" format="ascii">
          0.000164945 0.000164948 0.000162298 0.000162299 0.00015939 0.000159387 0.000156512 0.00015651 0.000153704 0.000153707 0.000150975 0.000150978
          0.000148324 0.000148327 0.000145747 0.000145751 0.000143246 0.000143252 0.000140823 0.000140825 0.000138473 0.000138478 0.000134119 0.000134123
          0.000130009 0.000130011 0.000126194 0.000126196 0.000122642 0.000122645 0.000119343 0.000119347 0.000115606 0.000115611 0.000112223 0.000112229
          0.000109184 0.000109191 0.000106474 0.000106484 0.000104078 0.000104089 0.000101993 0.000102002 0.000100208 0.000100215 9.87192e-05 9.87281e-05
          9.75371e-05 9.7541e-05 9.66652e-05 9.66652e-05 9.61149e-05 9.61131e-05 9.5915e-05 9.59113e-05 9.61116e-05 9.61041e-05 9.67384e-05 9.67268e-05
          9.78882e-05 9.78747e-05 9.96918e-05 9.96744e-05 0.000102314 0.00010229 0.000106028 0.000105998 0.000111294 0.000111259 0.000118938 0.000118905
          0.000130598 0.000130566 0.000149527 0.000149496 0.000176076 0.000176085 1.57575e-05 1.57575e-05
        </DataArray>
        <DataArray type="Float32" Name="Da_ureolysis" NumberOfComponents="1" format="ascii">
          0 0 0 0 0 0 0 0 0 0 0 0
          0 0 0 0 0 0 0 0 0 0 0 0
          0 0 0 0 0 0 0 0 0 0 0 0
          0 0 0 0 0 0 0 0 0 0 0 0
          0 0 0 0 0 0 0 0 0 0 0 0
          0 0 0 0 0 0 0 0 0 0 0 0
          0 0 0 0 0 0 0 0
        </DataArray>
        <DataArray type="Float32" Name="Da_precipitation" NumberOfComponents="1" format="ascii">
          766.797 765.486 1898.74 1902.94 714.612 715.004 455.978 456.48 333.617 334.07 262.096 262.435
          215.231 215.392 182.075 182.174 157.447 157.463 138.427 138.354 173.263 173.195 100.628 100.641
          84.5031 84.4604 72.5138 72.4797 63.3564 63.3107 61.2846 61.2449 48.8028 48.7833 43.1735 43.1676
          38.6655 38.6524 34.9748 34.9786 31.9466 31.9502 29.4273 29.4269 27.3204 27.3178 25.5558 25.561
          24.0875 24.0867 22.8659 22.8612 21.8639 21.8621 21.0892 21.0916 20.4894 20.4819 20.1192 20.1157
          19.9765 19.9713 20.1025 20.0944 20.5948 20.579 21.5342 21.5123 23.1403 23.1068 25.755 25.7236
          29.7344 29.692 32.4669 32.4211 11.6664 11.6771 0 0
        </DataArray>
        <DataArray type="Float32" Name="Vx" NumberOfComponents="1" format="ascii">
          5.8326e-14 5.8258e-14 -3.03519e-14 -3.0393e-14 2.64324e-12 2.64243e-12 3.47205e-12 3.47109e-12 3.14006e-12 3.14039e-12 3.58765e-12 3.5884e-12
          3.73126e-12 3.73162e-12 3.34801e-12 3.34943e-12 4.72713e-12 4.73163e-12 7.14119e-12 7.1473e-12 7.22086e-12 7.22573e-12 6.19406e-12 6.19712e-12
          5.69413e-12 5.69627e-12 8.12462e-12 8.12921e-12 1.22014e-11 1.2209e-11 1.02413e-11 1.02491e-11 1.10312e-11 1.10408e-11 1.21754e-11 1.21856e-11
          8.75709e-12 8.76429e-12 4.85696e-12 4.86369e-12 7.33734e-12 7.3475e-12 8.42118e-12 8.43089e-12 4.64684e-12 4.65275e-12 6.80133e-12 6.80977e-12
          1.32811e-11 1.32888e-11 1.01542e-11 1.01552e-11 5.51086e-12 5.50954e-12 1.04084e-11 1.04028e-11 9.75386e-12 9.74483e-12 2.75213e-12 2.74674e-12
          4.41476e-12 4.40744e-12 7.93917e-12 7.92446e-12 3.62386e-12 3.61652e-12 -6.80878e-12 -6.78743e-12 -1.72315e-11 -1.71816e-11 -2.10619e-11 -2.10072e-11
          -2.00781e-11 -2.00313e-11 -2.17172e-11 -2.16826e-11 -1.51217e-11 -1.51083e-11 -1.06859e-11 -1.06843e-11
        </DataArray>
        <DataArray type="Float32" Name="Vy" NumberOfComponents="1" format="ascii">
          1.25183e-09 1.25342e-09 -4.99611e-10 -4.98685e-10 -1.31788e-09 -1.31675e-09 -2.04674e-09 -2.044e-09 -2.77148e-09 -2.76785e-09 -3.49439e-09 -3.49073e-09
          -4.21794e-09 -4.21472e-09 -4.93869e-09 -4.93723e-09 -5.65671e-09 -5.65968e-09 -6.3732e-09 -6.37949e-09 -5.04546e-09 -5.04975e-09 -8.55449e-09 -8.55764e-09
          -9.99376e-09 -1.00002e-08 -1.14499e-08 -1.14611e-08 -1.29003e-08 -1.29159e-08 -1.31318e-08 -1.31489e-08 -1.62151e-08 -1.62341e-08 -1.8037e-08 -1.80572e-08
          -1.98644e-08 -1.98846e-08 -2.17014e-08 -2.17277e-08 -2.35283e-08 -2.356e-08 -2.53686e-08 -2.53989e-08 -2.72167e-08 -2.72472e-08 -2.90553e-08 -2.90868e-08
          -3.09146e-08 -3.09352e-08 -3.27909e-08 -3.27946e-08 -3.466e-08 -3.46549e-08 -3.65041e-08 -3.64873e-08 -3.84828e-08 -3.84457e-08 -4.03441e-08 -4.02936e-08
          -4.22531e-08 -4.21928e-08 -4.43033e-08 -4.4223e-08 -4.63735e-08 -4.62696e-08 -4.85795e-08 -4.84625e-08 -5.104e-08 -5.09244e-08 -5.41976e-08 -5.40897e-08
          -5.95107e-08 -5.94136e-08 -7.33009e-08 -7.32259e-08 -1.36382e-07 -1.36333e-07 1.58766e-06 1.5877e-06
        </DataArray>
      </PointData>
      <CellData Scalars="process rank">
        <DataArray type="Float32" Name="process rank" NumberOfComponents="1" format="ascii">
          0 0 0 0 0 0 0 0 0 0 0 0
          0 0 0 0 0 0 0 0 0 0 0 0
          0 0 0 0 0 0 0 0 0 0 0 0
          0 0 0
        </DataArray>
      </CellData>
      <Points>
        <DataArray type="Float32" Name="Coordinates" NumberOfComponents="3" format="ascii">
          0 0 0 0.0254 0 0 0 0.01 0 0.0254 0.01 0
          0 0.02 0 0.0254 0.02 0 0 0.03 0 0.0254 0.03 0
          0 0.04 0 0.0254 0.04 0 0 0.05 0 0.0254 0.05 0
          0 0.06 0 0.0254 0.06 0 0 0.07 0 0.0254 0.07 0
          0 0.08 0 0.0254 0.08 0 0 0.09 0 0.0254 0.09 0
          0 0.1 0 0.0254 0.1 0 0 0.12 0 0.0254 0.12 0
          0 0.14 0 0.0254 0.14 0 0 0.16 0 0.0254 0.16 0
          0 0.18 0 0.0254 0.18 0 0 0.2 0 0.0254 0.2 0
          0 0.225 0 0.0254 0.225 0 0 0.25 0 0.0254 0.25 0
          0 0.275 0 0.0254 0.275 0 0 0.3 0 0.0254 0.3 0
          0 0.325 0 0.0254 0.325 0 0 0.35 0 0.0254 0.35 0
          0 0.375 0 0.0254 0.375 0 0 0.4 0 0.0254 0.4 0
          0 0.425 0 0.0254 0.425 0 0 0.45 0 0.0254 0.45 0
          0 0.475 0 0.0254 0.475 0 0 0.5 0 0.0254 0.5 0
          0 0.525 0 0.0254 0.525 0 0 0.55 0 0.0254 0.55 0
          0 0.575 0 0.0254 0.575 0 0 0.6 0 0.0254 0.6 0
          0 0.625 0 0.0254 0.625 0 0 0.65 0 0.0254 0.65 0
          0 0.675 0 0.0254 0.675 0 0 0.7 0 0.0254 0.7 0
          0 0.725 0 0.0254 0.725 0 0 0.75 0 0.0254 0.75 0
          0 0.775 0 0.0254 0.775 0 0 0.8 0 0.0254 0.8 0
        </DataArray>
      </Points>
      <Cells>
        <DataArray type="Int32" Name="connectivity" NumberOfComponents="1" format="ascii">
          0 1 3 2 2 3 5 4 4 5 7 6
          6 7 9 8 8 9 11 10 10 11 13 12
          12 13 15 14 14 15 17 16 16 17 19 18
          18 19 21 20 20 21 23 22 22 23 25 24
          24 25 27 26 26 27 29 28 28 29 31 30
          30 31 33 32 32 33 35 34 34 35 37 36
          36 37 39 38 38 39 41 40 40 41 43 42
          42 43 45 44 44 45 47 46 46 47 49 48
          48 49 51 50 50 51 53 52 52 53 55 54
          54 55 57 56 56 57 59 58 58 59 61 60
          60 61 63 62 62 63 65 64 64 65 67 66
          66 67 69 68 68 69 71 70 70 71 73 72
          72 73 75 74 74 75 77 76 76 77 79 78
        </DataArray>
        <DataArray type="Int32" Name="offsets" NumberOfComponents="1" format="ascii">
          4 8 12 16 20 24 28 32 36 40 44 48
          52 56 60 64 68 72 76 80 84 88 92 96
          100 104 108 112 116 120 124 128 132 136 140 144
          148 152 156
        </DataArray>
        <DataArray type="UInt8" Name="types" NumberOfComponents="1" format="ascii">
          9 9 9 9 9 9 9 9 9 9 9 9
          9 9 9 9 9 9 9 9 9 9 9 9
          9 9 9 9 9 9 9 9 9 9 9 9
          9 9 9
        </DataArray>
      </Cells>
    </Piece>
  </UnstructuredGrid>
</VTKFile>
