<?xml version="1.0"?>
<VTKFile type="UnstructuredGrid" version="0.1" byte_order="LittleEndian">
  <UnstructuredGrid>
    <Piece NumberOfCells="39" NumberOfPoints="80">
      <PointData Scalars="Sg">
        <DataArray type="Float32" Name="Sg" NumberOfComponents="1" format="ascii">
          0 0 0 0 0 0 0 0 0 0 0 0
          0 0 0 0 0 0 0 0 0 0 0 0
          0 0 0 0 0 0 0 0 0 0 0 0
          0 0 0 0 0 0 0 0 0 0 0 0
          0 0 0 0 0 0 0 0 0 0 0 0
          0 0 0 0 0 0 0 0 0 0 0 0
          0 0 0 0 0 0 0 0
        </DataArray>
        <DataArray type="Float32" Name="Sl" NumberOfComponents="1" format="ascii">
          1 1 1 1 1 1 1 1 1 1 1 1
          1 1 1 1 1 1 1 1 1 1 1 1
          1 1 1 1 1 1 1 1 1 1 1 1
          1 1 1 1 1 1 1 1 1 1 1 1
          1 1 1 1 1 1 1 1 1 1 1 1
          1 1 1 1 1 1 1 1 1 1 1 1
          1 1 1 1 1 1 1 1
        </DataArray>
        <DataArray type="Float32" Name="pg" NumberOfComponents="1" format="ascii">
          170540 170539 169638 169638 168719 168719 167796 167796 166872 166871 165946 165946
          165021 165022 164098 164098 163175 163175 162252 162252 161330 161330 159491 159491
          157656 157656 155823 155823 153996 153996 152175 152174 149908 149908 147656 147656
          145419 145419 143199 143199 140999 140999 138821 138822 136669 136670 134545 134546
          132453 132453 130396 130396 128378 128378 126401 126402 124474 124475 122601 122601
          120785 120785 119036 119037 117368 117368 115789 115790 114315 114315 112966 112966
          111777 111777 110799 110799 110089 110089 109667 109667
        </DataArray>
        <DataArray type="Float32" Name="pl" NumberOfComponents="1" format="ascii">
          160873 160873 159971 159971 159053 159052 158130 158129 157205 157204 156280 156279
          155355 155355 154431 154431 153508 153508 152586 152586 151663 151663 149825 149824
          147989 147989 146156 146156 144329 144329 142508 142508 140242 140242 137989 137990
          135752 135752 133532 133532 131332 131332 129155 129155 127003 127003 124879 124879
          122786 122787 120729 120730 118711 118711 116735 116735 114808 114808 112935 112935
          111118 111119 109370 109370 107701 107702 106122 106123 104648 104649 103299 103300
          102110 102110 101132 101132 100423 100422 100000 100000
        </DataArray>
        <DataArray type="Float32" Name="pc" NumberOfComponents="1" format="ascii">
          9666.67 9666.67 9666.67 9666.67 9666.67 9666.67 9666.67 9666.67 9666.67 9666.67 9666.67 9666.67
          9666.67 9666.67 9666.67 9666.67 9666.67 9666.67 9666.67 9666.67 9666.67 9666.67 9666.67 9666.67
          9666.67 9666.67 9666.67 9666.67 9666.67 9666.67 9666.67 9666.67 9666.67 9666.67 9666.67 9666.67
          9666.67 9666.67 9666.67 9666.67 9666.67 9666.67 9666.67 9666.67 9666.67 9666.67 9666.67 9666.67
          9666.67 9666.67 9666.67 9666.67 9666.67 9666.67 9666.67 9666.67 9666.67 9666.67 9666.67 9666.67
          9666.67 9666.67 9666.67 9666.67 9666.67 9666.67 9666.67 9666.67 9666.67 9666.67 9666.67 9666.67
          9666.67 9666.67 9666.67 9666.67 9666.67 9666.67 9666.67 9666.67
        </DataArray>
        <DataArray type="Float32" Name="rhoL" NumberOfComponents="1" format="ascii">
          1025.39 1025.39 1025.33 1025.34 1025.28 1025.28 1025.22 1025.22 1025.16 1025.16 1025.1 1025.1
          1025.04 1025.04 1024.98 1024.98 1024.91 1024.91 1024.85 1024.85 1024.78 1024.78 1024.65 1024.65
          1024.51 1024.51 1024.36 1024.36 1024.21 1024.21 1024.06 1024.06 1023.85 1023.85 1023.63 1023.63
          1023.39 1023.39 1023.14 1023.14 1022.86 1022.86 1022.57 1022.57 1022.25 1022.25 1021.9 1021.9
          1021.52 1021.52 1021.1 1021.1 1020.64 1020.64 1020.13 1020.13 1019.57 1019.57 1018.94 1018.94
          1018.24 1018.24 1017.45 1017.45 1016.56 1016.56 1015.55 1015.55 1014.39 1014.39 1013.04 1013.04
          1011.44 1011.43 1009.45 1009.45 1006.74 1006.74 1001.45 1001.45
        </DataArray>
        <DataArray type="Float32" Name="rhoG" NumberOfComponents="1" format="ascii">
          3.02769 3.02792 3.0116 3.0116 2.99496 2.99494 2.97824 2.97822 2.96149 2.96148 2.94472 2.94472
          2.92797 2.92798 2.91125 2.91124 2.89453 2.89452 2.87781 2.87781 2.86111 2.86111 2.8278 2.82779
          2.79456 2.79455 2.76134 2.76134 2.72825 2.72825 2.69526 2.69526 2.65421 2.65421 2.6134 2.61341
          2.57287 2.57287 2.53266 2.53266 2.49281 2.49281 2.45336 2.45336 2.41437 2.41438 2.3759 2.3759
          2.33798 2.33799 2.30071 2.30072 2.26416 2.26415 2.22834 2.22836 2.19343 2.19344 2.15949 2.15949
          2.12657 2.12658 2.09489 2.0949 2.06465 2.06466 2.03603 2.03604 2.00931 2.00931 1.98485 1.98486
          1.96328 1.96329 1.94554 1.94553 1.93264 1.93263 1.9249 1.9249
        </DataArray>
        <DataArray type="Float32" Name="mobL" NumberOfComponents="1" format="ascii">
          1010.44 1010.44 1010.6 1010.6 1010.77 1010.77 1010.93 1010.93 1011.1 1011.1 1011.27 1011.27
          1011.44 1011.44 1011.61 1011.61 1011.79 1011.79 1011.98 1011.98 1012.16 1012.16 1012.54 1012.54
          1012.93 1012.93 1013.34 1013.34 1013.77 1013.77 1014.23 1014.23 1014.82 1014.82 1015.46 1015.46
          1016.14 1016.14 1016.88 1016.88 1017.68 1017.68 1018.55 1018.55 1019.5 1019.5 1020.54 1020.54
          1021.69 1021.69 1022.96 1022.96 1024.37 1024.37 1025.94 1025.94 1027.7 1027.7 1029.69 1029.69
          1031.94 1031.95 1034.52 1034.52 1037.49 1037.49 1040.95 1040.95 1045.03 1045.03 1049.94 1049.94
          1056.02 1056.03 1064 1064 1075.77 1075.74 1103.12 1103.12
        </DataArray>
        <DataArray type="Float32" Name="mobG" NumberOfComponents="1" format="ascii">
          0 0 0 0 0 0 0 0 0 0 0 0
          0 0 0 0 0 0 0 0 0 0 0 0
          0 0 0 0 0 0 0 0 0 0 0 0
          0 0 0 0 0 0 0 0 0 0 0 0
          0 0 0 0 0 0 0 0 0 0 0 0
          0 0 0 0 0 0 0 0 0 0 0 0
          0 0 0 0 0 0 0 0
        </DataArray>
        <DataArray type="Float32" Name="porosity" NumberOfComponents="1" format="ascii">
          0.110586 0.110596 0.1092 0.109203 0.108961 0.108962 0.108816 0.108868 0.108773 0.108835 0.108724 0.108829
          0.108811 0.108857 0.108816 0.108886 0.108825 0.108922 0.108835 0.108917 0.108847 0.108916 0.109052 0.109161
          0.108977 0.109064 0.109081 0.109198 0.109241 0.109317 0.109312 0.109413 0.109544 0.109662 0.109772 0.10987
          0.110056 0.110115 0.110376 0.110478 0.110716 0.110823 0.111164 0.11124 0.111657 0.111719 0.112194 0.112258
          0.112847 0.112887 0.113608 0.113579 0.114434 0.114382 0.115301 0.115308 0.116576 0.116413 0.117757 0.117616
          0.119202 0.119034 0.121145 0.12092 0.12346 0.123155 0.126357 0.125993 0.130136 0.129683 0.135495 0.135014
          0.144265 0.14365 0.160776 0.160095 0.199503 0.198931 0.4 0.4
        </DataArray>
        <DataArray type="Float32" Name="temperature" NumberOfComponents="1" format="ascii">
          298.15 298.15 298.15 298.15 298.15 298.15 298.15 298.15 298.15 298.15 298.15 298.15
          298.15 298.15 298.15 298.15 298.15 298.15 298.15 298.15 298.15 298.15 298.15 298.15
          298.15 298.15 298.15 298.15 298.15 298.15 298.15 298.15 298.15 298.15 298.15 298.15
          298.15 298.15 298.15 298.15 298.15 298.15 298.15 298.15 298.15 298.15 298.15 298.15
          298.15 298.15 298.15 298.15 298.15 298.15 298.15 298.15 298.15 298.15 298.15 298.15
          298.15 298.15 298.15 298.15 298.15 298.15 298.15 298.15 298.15 298.15 298.15 298.15
          298.15 298.15 298.15 298.15 298.15 298.15 298.15 298.15
        </DataArray>
        <DataArray type="Float32" Name="phase presence" NumberOfComponents="1" format="ascii">
          1 1 1 1 1 1 1 1 1 1 1 1
          1 1 1 1 1 1 1 1 1 1 1 1
          1 1 1 1 1 1 1 1 1 1 1 1
          1 1 1 1 1 1 1 1 1 1 1 1
          1 1 1 1 1 1 1 1 1 1 1 1
          1 1 1 1 1 1 1 1 1 1 1 1
          1 1 1 1 1 1 1 1
        </DataArray>
        <DataArray type="Float32" Name="potential" NumberOfComponents="1" format="ascii">
          5.25153 5.2515 5.17225 5.17222 5.09123 5.09116 5.0098 5.00971 4.92818 4.92812 4.84649 4.84648
          4.76486 4.76487 4.68336 4.68332 4.60189 4.60187 4.52045 4.52046 4.43906 4.43904 4.27678 4.27676
          4.11486 4.11486 3.95307 3.95308 3.79192 3.79194 3.63135 3.63132 3.43156 3.43156 3.23312 3.23316
          3.03613 3.03613 2.84088 2.84085 2.64752 2.64754 2.45634 2.45637 2.26767 2.26768 2.08171 2.08173
          1.89881 1.89886 1.71939 1.71944 1.5438 1.54378 1.37223 1.37229 1.20547 1.20555 1.04402 1.04403
          0.888052 0.888092 0.738741 0.738802 0.597238 0.597294 0.464551 0.464602 0.342107 0.342139 0.231987 0.232016
          0.137664 0.137688 0.0643439 0.0643198 0.0177896 0.0177623 0 0
        </DataArray>
        <DataArray type="Float32" Name="boxVolume" NumberOfComponents="1" format="ascii">
          6.35e-05 6.35e-05 0.000127 0.000127 0.000127 0.000127 0.000127 0.000127 0.000127 0.000127 0.000127 0.000127
          0.000127 0.000127 0.000127 0.000127 0.000127 0.000127 0.000127 0.000127 0.0001905 0.0001905 0.000254 0.000254
          0.000254 0.000254 0.000254 0.000254 0.000254 0.000254 0.00028575 0.00028575 0.0003175 0.0003175 0.0003175 0.0003175
          0.0003175 0.0003175 0.0003175 0.0003175 0.0003175 0.0003175 0.0003175 0.0003175 0.0003175 0.0003175 0.0003175 0.0003175
          0.0003175 0.0003175 0.0003175 0.0003175 0.0003175 0.0003175 0.0003175 0.0003175 0.0003175 0.0003175 0.0003175 0.0003175
          0.0003175 0.0003175 0.0003175 0.0003175 0.0003175 0.0003175 0.0003175 0.0003175 0.0003175 0.0003175 0.0003175 0.0003175
          0.0003175 0.0003175 0.0003175 0.0003175 0.0003175 0.0003175 0.00015875 0.00015875
        </DataArray>
        <DataArray type="Float32" Name="pH" NumberOfComponents="1" format="ascii">
          6.65126 6.65114 6.6574 6.65739 6.65916 6.65914 6.65948 6.65937 6.65917 6.65915 6.65876 6.65872
          6.65833 6.65832 6.65793 6.65796 6.65757 6.65757 6.65725 6.65725 6.65704 6.65699 6.6566 6.6567
          6.65644 6.6564 6.65641 6.65636 6.65662 6.65658 6.65709 6.65698 6.65789 6.6578 6.65906 6.65903
          6.66062 6.6608 6.66263 6.66263 6.66509 6.66508 6.66807 6.6681 6.6717 6.67157 6.67577 6.67572
          6.68058 6.6806 6.68625 6.68626 6.69284 6.69289 6.70051 6.70052 6.7092 6.70947 6.71986 6.71992
          6.73207 6.73212 6.74648 6.74655 6.76366 6.7638 6.78437 6.78448 6.80949 6.80962 6.83954 6.83971
          6.8719 6.8722 6.89059 6.89128 6.83775 6.83915 6.19963 6.19963
        </DataArray>
        <DataArray type="Float32" Name="Omega" NumberOfComponents="1" format="ascii">
          29.9135 29.8949 30.9668 30.965 31.3209 31.3174 31.4357 31.4171 31.4374 31.4348 31.4152 31.4097
          31.3833 31.382 31.3472 31.3527 31.3112 31.3111 31.2736 31.2734 31.2446 31.2362 31.1614 31.1784
          31.0922 31.0862 31.0123 31.003 30.9356 30.9285 30.8665 30.8473 30.7627 30.7487 30.6581 30.6522
          30.5484 30.5782 30.4404 30.4403 30.3251 30.3236 30.2061 30.2113 30.0937 30.073 29.9428 29.9349
          29.7858 29.7889 29.6256 29.6266 29.4489 29.4566 29.2552 29.255 29.0019 29.0423 28.7954 28.8039
          28.518 28.5243 28.1975 28.2051 27.8228 27.8388 27.371 27.3821 26.7725 26.7839 25.7889 25.8047
          23.5707 23.6027 17.7801 17.8501 6.71182 6.77571 0 0
        </DataArray>
        <DataArray type="Float32" Name="rurea" NumberOfComponents="1" format="ascii">
          0 0 0 0 0 0 0 0 0 0 0 0
          0 0 0 0 0 0 0 0 0 0 0 0
          0 0 0 0 0 0 0 0 0 0 0 0
          0 0 0 0 0 0 0 0 0 0 0 0
          0 0 0 0 0 0 0 0 0 0 0 0
          0 0 0 0 0 0 0 0 0 0 0 0
          0 0 0 0 0 0 0 0
        </DataArray>
        <DataArray type="Float32" Name="Volume_Fraction_Biofilm" NumberOfComponents="1" format="ascii">
          0.252558 0.252607 0.248337 0.248268 0.246146 0.246157 0.245225 0.245244 0.244692 0.24456 0.244059 0.244032
          0.243733 0.243581 0.243239 0.243177 0.242807 0.242763 0.242377 0.242334 0.241957 0.241975 0.241349 0.241206
          0.240633 0.24051 0.239897 0.239819 0.239363 0.239229 0.238665 0.238619 0.238125 0.238042 0.23757 0.237442
          0.237045 0.236887 0.236556 0.236487 0.236136 0.236068 0.235758 0.235679 0.235411 0.235378 0.235116 0.235066
          0.234829 0.234848 0.234569 0.234552 0.234326 0.234349 0.234029 0.234078 0.233864 0.233843 0.233544 0.233721
          0.233269 0.23346 0.2329 0.233123 0.232518 0.232812 0.232016 0.232392 0.231338 0.231722 0.230367 0.230858
          0.229002 0.229592 0.224393 0.225051 0.195937 0.19651 0 0
        </DataArray>
        <DataArray type="Float32" Name="Volume_Fraction_Calcite" NumberOfComponents="1" format="ascii">
          0.0368562 0.0367963 0.042463 0.0425291 0.0448926 0.0448813 0.0459593 0.0458886 0.0465357 0.0466053 0.0472172 0.0471388
          0.0474557 0.0475622 0.0479451 0.0479373 0.048368 0.0483148 0.0487888 0.0487494 0.0491961 0.0491088 0.0495987 0.0496332
          0.0503897 0.0504259 0.0510217 0.0509828 0.0513961 0.0514538 0.0520225 0.051968 0.0523302 0.0522965 0.0526577 0.0526883
          0.0528992 0.0529979 0.0530676 0.0530354 0.053148 0.0531097 0.0530779 0.053081 0.0529321 0.0529035 0.05269 0.0526763
          0.052324 0.0522646 0.0518233 0.051869 0.0512399 0.0512687 0.0506696 0.0506141 0.0495599 0.0497443 0.0486989 0.0486632
          0.0475288 0.0475062 0.0459549 0.0459574 0.0440219 0.0440331 0.0416268 0.0416154 0.0385253 0.0385954 0.0341384 0.0341283
          0.0267329 0.0267583 0.0148303 0.0148534 0.00456021 0.0045592 0 0
        </DataArray>
        <DataArray type="Float32" Name="Kxx" NumberOfComponents="1" format="ascii">
          4.22616e-12 4.2274e-12 4.06932e-12 4.06965e-12 4.04267e-12 4.04272e-12 4.0265e-12 4.03227e-12 4.02168e-12 4.02863e-12 4.01629e-12 4.02792e-12
          4.02598e-12 4.03108e-12 4.02646e-12 4.03424e-12 4.02754e-12 4.03831e-12 4.02857e-12 4.03772e-12 4.02993e-12 4.03761e-12 4.05274e-12 4.06494e-12
          4.04441e-12 4.05406e-12 4.05599e-12 4.06911e-12 4.07383e-12 4.08243e-12 4.08185e-12 4.09312e-12 4.1079e-12 4.12111e-12 4.13362e-12 4.1446e-12
          4.16569e-12 4.17247e-12 4.20219e-12 4.21378e-12 4.24118e-12 4.2534e-12 4.29282e-12 4.30161e-12 4.35023e-12 4.35741e-12 4.41328e-12 4.42077e-12
          4.49072e-12 4.49556e-12 4.58217e-12 4.57867e-12 4.6829e-12 4.67651e-12 4.79017e-12 4.79097e-12 4.95084e-12 4.93009e-12 5.10285e-12 5.08451e-12
          5.29304e-12 5.27065e-12 5.55605e-12 5.52512e-12 5.88077e-12 5.83719e-12 6.30453e-12 6.25014e-12 6.88725e-12 6.8155e-12 7.77357e-12 7.69099e-12
          9.38287e-12 9.26329e-12 1.29872e-11 1.28229e-11 2.4814e-11 2.46012e-11 2e-10 2e-10
        </DataArray>
        <DataArray type="Float32" Name="X_lBrine" NumberOfComponents="1" format="ascii">
          0.934002 0.934001 0.934135 0.934135 0.93427 0.93427 0.934407 0.934407 0.934546 0.934545 0.934687 0.934686
          0.93483 0.93483 0.934976 0.934976 0.935124 0.935124 0.935275 0.935275 0.935429 0.935429 0.93574 0.93574
          0.936063 0.936063 0.936399 0.936399 0.936751 0.936751 0.93712 0.93712 0.937602 0.937601 0.938115 0.938115
          0.938664 0.938664 0.939254 0.939254 0.939889 0.939889 0.940576 0.940576 0.941321 0.941321 0.942133 0.942133
          0.94302 0.943021 0.943993 0.943994 0.945064 0.945065 0.946247 0.946248 0.947559 0.94756 0.94902 0.949021
          0.950653 0.950655 0.952489 0.952491 0.954566 0.954569 0.956931 0.956935 0.95965 0.959655 0.962817 0.962821
          0.966588 0.966592 0.971279 0.971276 0.977685 0.977672 0.99029 0.99029
        </DataArray>
        <DataArray type="Float32" Name="X_lTotalC" NumberOfComponents="1" format="ascii">
          1.60984e-05 1.60934e-05 1.6515e-05 1.65144e-05 1.67535e-05 1.67523e-05 1.69317e-05 1.69266e-05 1.70811e-05 1.70801e-05 1.72245e-05 1.72227e-05
          1.73655e-05 1.73649e-05 1.75057e-05 1.75068e-05 1.76461e-05 1.76458e-05 1.77864e-05 1.7786e-05 1.79293e-05 1.79266e-05 1.82027e-05 1.82072e-05
          1.84812e-05 1.84791e-05 1.87577e-05 1.87547e-05 1.90371e-05 1.90346e-05 1.93208e-05 1.93147e-05 1.96698e-05 1.96651e-05 2.00231e-05 2.00209e-05
          2.03805e-05 2.03897e-05 2.07456e-05 2.07452e-05 2.11171e-05 2.11163e-05 2.14982e-05 2.14997e-05 2.18951e-05 2.18876e-05 2.22949e-05 2.22919e-05
          2.27126e-05 2.27138e-05 2.31543e-05 2.31549e-05 2.36213e-05 2.36245e-05 2.41209e-05 2.41213e-05 2.46462e-05 2.46638e-05 2.52556e-05 2.52602e-05
          2.59183e-05 2.59225e-05 2.66732e-05 2.66786e-05 2.75553e-05 2.75657e-05 2.86139e-05 2.8623e-05 2.99097e-05 2.99202e-05 3.14672e-05 3.1482e-05
          3.29975e-05 3.30252e-05 3.28158e-05 3.2881e-05 2.5723e-05 2.58345e-05 5.81077e-07 5.81077e-07
        </DataArray>
        <DataArray type="Float32" Name="X_lNa" NumberOfComponents="1" format="ascii">
          2.03524e-07 2.0352e-07 2.07242e-07 2.07238e-07 2.11095e-07 2.1109e-07 2.1511e-07 2.15104e-07 2.19296e-07 2.1929e-07 2.23662e-07 2.23658e-07
          2.2822e-07 2.28216e-07 2.32979e-07 2.32974e-07 2.37946e-07 2.37941e-07 2.4313e-07 2.43126e-07 2.4854e-07 2.48536e-07 2.59845e-07 2.5984e-07
          2.72144e-07 2.7214e-07 2.85522e-07 2.85518e-07 3.00087e-07 3.00083e-07 3.15946e-07 3.1594e-07 3.37538e-07 3.37534e-07 3.61553e-07 3.61551e-07
          3.88275e-07 3.8827e-07 4.1803e-07 4.18021e-07 4.5118e-07 4.51176e-07 4.88147e-07 4.88147e-07 5.29413e-07 5.29413e-07 5.75516e-07 5.75522e-07
          6.27086e-07 6.27105e-07 6.8486e-07 6.84885e-07 7.49676e-07 7.49697e-07 8.22479e-07 8.2253e-07 9.04478e-07 9.04549e-07 9.97048e-07 9.97116e-07
          1.10174e-06 1.10184e-06 1.22066e-06 1.22081e-06 1.35642e-06 1.35662e-06 1.51228e-06 1.51252e-06 1.69263e-06 1.6929e-06 1.90382e-06 1.9041e-06
          2.15644e-06 2.15665e-06 2.47148e-06 2.47129e-06 2.90199e-06 2.90113e-06 3.74885e-06 3.74885e-06
        </DataArray>
        <DataArray type="Float32" Name="X_lCl" NumberOfComponents="1" format="ascii">
          0.0295445 0.0295445 0.0295228 0.0295229 0.0295003 0.0295003 0.0294767 0.0294767 0.0294519 0.029452 0.029426 0.029426
          0.0293988 0.0293988 0.0293703 0.0293703 0.0293404 0.0293404 0.0293091 0.0293091 0.0292762 0.0292763 0.0292073 0.0292073
          0.0291318 0.0291318 0.0290491 0.0290492 0.0289587 0.0289587 0.0288597 0.0288598 0.0287243 0.0287244 0.028573 0.028573
          0.0284039 0.0284039 0.0282148 0.0282149 0.0280035 0.0280035 0.0277671 0.0277671 0.0275025 0.0275025 0.0272062 0.0272062
          0.0268741 0.026874 0.0265014 0.0265012 0.0260825 0.0260823 0.0256113 0.025611 0.0250799 0.0250795 0.0244794 0.024479
          0.0237996 0.023799 0.0230268 0.0230258 0.0221439 0.0221426 0.0211296 0.0211281 0.0199555 0.0199538 0.0185799 0.0185781
          0.0169339 0.0169326 0.0148809 0.0148821 0.0120751 0.0120808 0.00655617 0.00655617
        </DataArray>
        <DataArray type="Float32" Name="X_lCa" NumberOfComponents="1" format="ascii">
          0.0119145 0.0119145 0.0118547 0.0118548 0.011795 0.0117951 0.0117353 0.0117354 0.0116754 0.0116755 0.0116153 0.0116155
          0.0115551 0.0115552 0.0114946 0.0114947 0.0114338 0.011434 0.0113728 0.0113729 0.0113115 0.0113116 0.0111905 0.0111907
          0.0110683 0.0110684 0.0109447 0.0109448 0.0108194 0.0108195 0.0106921 0.0106922 0.0105315 0.0105316 0.0103671 0.0103672
          0.0101981 0.0101982 0.0100238 0.0100239 0.00984335 0.00984344 0.00965573 0.0096558 0.0094598 0.00945984 0.00925426 0.00925427
          0.00903762 0.00903756 0.00880805 0.00880795 0.0085635 0.00856341 0.00830168 0.00830147 0.00801949 0.00801921 0.00771353 0.00771322
          0.00737987 0.00737943 0.00701305 0.00701246 0.00660627 0.00660554 0.00615104 0.00615016 0.00563577 0.0056348 0.0050435 0.00504247
          0.00434542 0.00434462 0.00348338 0.00348371 0.00230926 0.00231152 0 0
        </DataArray>
        <DataArray type="Float32" Name="X_lUrea" NumberOfComponents="1" format="ascii">
          0.0175524 0.0175526 0.0174619 0.017462 0.0173718 0.0173719 0.0172817 0.0172818 0.0171914 0.0171916 0.0171009 0.0171011
          0.0170101 0.0170103 0.016919 0.0169192 0.0168276 0.0168277 0.0167357 0.0167359 0.0166435 0.0166437 0.0164615 0.0164617
          0.0162778 0.016278 0.0160921 0.0160923 0.0159039 0.0159041 0.015713 0.0157132 0.0154724 0.0154726 0.0152262 0.0152263
          0.0149735 0.0149736 0.014713 0.0147132 0.0144437 0.0144439 0.0141641 0.0141642 0.0138724 0.0138724 0.0135667 0.0135668
          0.013245 0.0132449 0.0129044 0.0129043 0.012542 0.0125419 0.0121545 0.0121542 0.0117373 0.0117369 0.0112854 0.0112849
          0.010793 0.0107924 0.0102522 0.0102513 0.00965282 0.00965172 0.00898249 0.00898118 0.00822411 0.00822267 0.00735283 0.00735128
          0.00632676 0.00632554 0.00506295 0.00506333 0.00335122 0.00335437 0 0
        </DataArray>
        <DataArray type="Float32" Name="X_lTotalNH" NumberOfComponents="1" format="ascii">
          0.00407861 0.00407855 0.00411936 0.0041193 0.00415942 0.00415934 0.00419899 0.0041989 0.00423812 0.00423802 0.00427679 0.00427671
          0.00431505 0.00431497 0.00435287 0.00435278 0.00439025 0.00439016 0.00442716 0.00442707 0.0044636 0.00446351 0.00453351 0.00453342
          0.00460133 0.00460124 0.00466692 0.00466683 0.00473022 0.00473013 0.00479109 0.004791 0.00486275 0.00486266 0.00493007 0.00492999
          0.00499272 0.00499264 0.00505033 0.00505025 0.00510247 0.0051024 0.00514866 0.00514861 0.00518839 0.00518835 0.00522105 0.00522102
          0.00524596 0.00524594 0.00526234 0.00526234 0.00526932 0.00526933 0.00526588 0.0052659 0.00525086 0.00525089 0.00522289 0.00522294
          0.00518042 0.00518047 0.00512151 0.00512155 0.00504377 0.0050438 0.00494427 0.00494429 0.00481914 0.00481915 0.00466293 0.00466293
          0.0044667 0.00446677 0.00421296 0.00421333 0.00385751 0.00385839 0.00314947 0.00314947
        </DataArray>
        <DataArray type="Float32" Name="X_lO2" NumberOfComponents="1" format="ascii">
          7.50447e-06 7.50449e-06 7.48897e-06 7.48899e-06 7.47327e-06 7.4733e-06 7.45728e-06 7.45731e-06 7.44098e-06 7.44101e-06 7.42435e-06 7.42437e-06
          7.40734e-06 7.40737e-06 7.38996e-06 7.38998e-06 7.37218e-06 7.3722e-06 7.35398e-06 7.35401e-06 7.33535e-06 7.33538e-06 7.29753e-06 7.29756e-06
          7.25783e-06 7.25785e-06 7.21609e-06 7.21612e-06 7.17211e-06 7.17213e-06 7.12566e-06 7.12569e-06 7.06447e-06 7.06449e-06 6.99867e-06 6.99869e-06
          6.92773e-06 6.92776e-06 6.85101e-06 6.85105e-06 6.76782e-06 6.76784e-06 6.67734e-06 6.67735e-06 6.57864e-06 6.57865e-06 6.47067e-06 6.47066e-06
          6.35222e-06 6.35218e-06 6.22187e-06 6.22181e-06 6.07797e-06 6.07792e-06 5.91872e-06 5.9186e-06 5.74176e-06 5.74159e-06 5.54441e-06 5.54424e-06
          5.32367e-06 5.32343e-06 5.07543e-06 5.07509e-06 4.79458e-06 4.79414e-06 4.47475e-06 4.47421e-06 4.10734e-06 4.10675e-06 3.6799e-06 3.67925e-06
          3.1715e-06 3.17101e-06 2.54073e-06 2.54102e-06 1.68254e-06 1.68419e-06 0 0
        </DataArray>
        <DataArray type="Float32" Name="X_lSubstrate" NumberOfComponents="1" format="ascii">
          0.00288449 0.0028845 0.0028817 0.0028817 0.00287879 0.0028788 0.00287575 0.00287576 0.00287257 0.00287258 0.00286924 0.00286925
          0.00286575 0.00286576 0.0028621 0.0028621 0.00285828 0.00285828 0.00285427 0.00285427 0.00285008 0.00285008 0.00284129 0.00284129
          0.00283168 0.00283168 0.00282118 0.00282119 0.00280971 0.00280971 0.00279717 0.00279717 0.00278003 0.00278003 0.0027609 0.00276091
          0.00273955 0.00273956 0.00271571 0.00271571 0.00268908 0.00268908 0.00265931 0.00265931 0.00262602 0.00262602 0.00258875 0.00258875
          0.00254701 0.00254699 0.00250018 0.00250016 0.00244757 0.00244755 0.00238842 0.00238838 0.00232174 0.00232168 0.00224639 0.00224634
          0.00216112 0.00216104 0.0020642 0.00206408 0.0019535 0.00195334 0.00182635 0.00182615 0.00167916 0.00167895 0.00150676 0.00150653
          0.00130047 0.00130031 0.0010432 0.00104335 0.000691596 0.000692303 0 0
        </DataArray>
        <DataArray type="Float32" Name="X_lSuspended_Biomass" NumberOfComponents="1" format="ascii">
          1.7971e-07 1.797e-07 1.8743e-07 1.87418e-07 1.95038e-07 1.95023e-07 2.02576e-07 2.02559e-07 2.1005e-07 2.10033e-07 2.17461e-07 2.17445e-07
          2.24811e-07 2.24796e-07 2.32102e-07 2.32084e-07 2.39327e-07 2.3931e-07 2.46485e-07 2.46469e-07 2.53574e-07 2.53557e-07 2.67242e-07 2.67223e-07
          2.8059e-07 2.80571e-07 2.93589e-07 2.93571e-07 3.06229e-07 3.06211e-07 3.18479e-07 3.18461e-07 3.33038e-07 3.33021e-07 3.46877e-07 3.46861e-07
          3.59924e-07 3.59907e-07 3.72103e-07 3.72086e-07 3.83323e-07 3.83309e-07 3.93487e-07 3.93476e-07 4.02484e-07 4.02474e-07 4.10183e-07 4.10176e-07
          4.16439e-07 4.16437e-07 4.21087e-07 4.21089e-07 4.23937e-07 4.23941e-07 4.24766e-07 4.24772e-07 4.23318e-07 4.23328e-07 4.19292e-07 4.19307e-07
          4.12338e-07 4.12354e-07 4.02023e-07 4.0204e-07 3.87813e-07 3.87831e-07 3.69045e-07 3.69064e-07 3.44846e-07 3.44867e-07 3.13991e-07 3.14015e-07
          2.74504e-07 2.74547e-07 2.22578e-07 2.22687e-07 1.48731e-07 1.48941e-07 0 0
        </DataArray>
        <DataArray type="Float32" Name="X_lNH4" NumberOfComponents="1" format="ascii">
          0.00431257 0.00431251 0.00435554 0.00435548 0.00439785 0.00439777 0.00443968 0.00443959 0.00448104 0.00448095 0.00452194 0.00452185
          0.00456238 0.00456229 0.00460237 0.00460227 0.00464188 0.00464179 0.00468091 0.00468082 0.00471943 0.00471934 0.00479333 0.00479323
          0.00486502 0.00486492 0.00493434 0.00493425 0.00500124 0.00500115 0.00506557 0.00506547 0.00514127 0.00514118 0.00521239 0.00521231
          0.00527855 0.00527846 0.00533937 0.00533929 0.00539439 0.00539432 0.00544311 0.00544305 0.00548498 0.00548493 0.00551934 0.00551931
          0.00554549 0.00554547 0.00556259 0.00556259 0.00556972 0.00556973 0.00556579 0.00556581 0.00554958 0.00554961 0.00551961 0.00551967
          0.00547425 0.00547431 0.00541143 0.00541147 0.0053286 0.00532863 0.00522264 0.00522265 0.00508941 0.00508941 0.00492312 0.00492311
          0.00471442 0.00471448 0.0044455 0.00444586 0.00407171 0.00407259 0.00333307 0.00333307
        </DataArray>
        <DataArray type="Float32" Name="X_lHCO3" NumberOfComponents="1" format="ascii">
          1.81006e-05 1.80941e-05 1.86148e-05 1.86139e-05 1.88943e-05 1.88928e-05 1.90943e-05 1.90876e-05 1.92566e-05 1.92554e-05 1.94111e-05 1.94089e-05
          1.95628e-05 1.9562e-05 1.97135e-05 1.9715e-05 1.98646e-05 1.98643e-05 2.00158e-05 2.00154e-05 2.01707e-05 2.01673e-05 2.04662e-05 2.04721e-05
          2.07692e-05 2.07666e-05 2.10709e-05 2.10669e-05 2.13772e-05 2.13741e-05 2.16905e-05 2.16825e-05 2.20771e-05 2.20711e-05 2.24715e-05 2.24688e-05
          2.28736e-05 2.28858e-05 2.32882e-05 2.32877e-05 2.37138e-05 2.37128e-05 2.4155e-05 2.4157e-05 2.462e-05 2.46101e-05 2.50921e-05 2.50882e-05
          2.55915e-05 2.55931e-05 2.61264e-05 2.61272e-05 2.66989e-05 2.67031e-05 2.7319e-05 2.73195e-05 2.79782e-05 2.80013e-05 2.87538e-05 2.87598e-05
          2.96061e-05 2.96114e-05 3.05868e-05 3.05938e-05 3.1743e-05 3.17566e-05 3.31411e-05 3.31529e-05 3.48623e-05 3.4876e-05 3.69406e-05 3.696e-05
          3.89925e-05 3.90289e-05 3.87736e-05 3.88598e-05 2.94495e-05 2.95944e-05 3.37056e-07 3.37056e-07
        </DataArray>
        <DataArray type="Float32" Name="X_lCO3" NumberOfComponents="1" format="ascii">
          1.78115e-08 1.78003e-08 1.85375e-08 1.85363e-08 1.88504e-08 1.88481e-08 1.90219e-08 1.90104e-08 1.91267e-08 1.91249e-08 1.92182e-08 1.92147e-08
          1.93052e-08 1.93042e-08 1.9391e-08 1.93942e-08 1.94783e-08 1.9478e-08 1.9566e-08 1.95657e-08 1.96606e-08 1.96551e-08 1.98341e-08 1.98447e-08
          2.00229e-08 2.00188e-08 2.0212e-08 2.02057e-08 2.04112e-08 2.04063e-08 2.06244e-08 2.06113e-08 2.08896e-08 2.08799e-08 2.11716e-08 2.11673e-08
          2.14698e-08 2.14905e-08 2.17921e-08 2.17917e-08 2.21359e-08 2.21345e-08 2.25081e-08 2.25119e-08 2.29225e-08 2.29066e-08 2.33509e-08 2.33447e-08
          2.3826e-08 2.38286e-08 2.43606e-08 2.43618e-08 2.49573e-08 2.49641e-08 2.56318e-08 2.56324e-08 2.63682e-08 2.64059e-08 2.72923e-08 2.73015e-08
          2.83361e-08 2.83441e-08 2.95816e-08 2.95922e-08 3.11023e-08 3.11238e-08 3.30016e-08 3.30199e-08 3.54029e-08 3.54244e-08 3.83218e-08 3.83535e-08
          4.09244e-08 4.09877e-08 3.88287e-08 3.89779e-08 2.23589e-08 2.25491e-08 2.55591e-11 2.55591e-11
        </DataArray>
        <DataArray type="Float32" Name="X_lCO2" NumberOfComponents="1" format="ascii">
          3.033e-06 3.03274e-06 3.07838e-06 3.07832e-06 3.11512e-06 3.115e-06 3.14889e-06 3.1486e-06 3.18119e-06 3.18109e-06 3.21307e-06 3.21293e-06
          3.2447e-06 3.24462e-06 3.27617e-06 3.27616e-06 3.30748e-06 3.30742e-06 3.33868e-06 3.33861e-06 3.36984e-06 3.36966e-06 3.43008e-06 3.43023e-06
          3.48986e-06 3.48969e-06 3.54877e-06 3.54856e-06 3.60705e-06 3.60688e-06 3.66473e-06 3.66436e-06 3.73471e-06 3.73441e-06 3.8034e-06 3.80323e-06
          3.87066e-06 3.87107e-06 3.93655e-06 3.93647e-06 4.00086e-06 4.00077e-06 4.06361e-06 4.06364e-06 4.12491e-06 4.12449e-06 4.18391e-06 4.18375e-06
          4.24119e-06 4.24125e-06 4.2968e-06 4.29685e-06 4.35054e-06 4.35072e-06 4.40244e-06 4.40251e-06 4.45184e-06 4.45278e-06 4.50127e-06 4.50158e-06
          4.54868e-06 4.54898e-06 4.59546e-06 4.59584e-06 4.64265e-06 4.64328e-06 4.69176e-06 4.69234e-06 4.74459e-06 4.74524e-06 4.80127e-06 4.80211e-06
          4.8501e-06 4.85148e-06 4.82771e-06 4.83073e-06 4.4707e-06 4.47751e-06 3.38012e-07 3.38012e-07
        </DataArray>
        <DataArray type="Float32" Name="X_lH" NumberOfComponents="1" format="ascii">
          2.12359e-10 2.12417e-10 2.09408e-10 2.09413e-10 2.08597e-10 2.08606e-10 2.08473e-10 2.08527e-10 2.08658e-10 2.08665e-10 2.08891e-10 2.08906e-10
          2.0913e-10 2.09134e-10 2.0936e-10 2.09343e-10 2.09567e-10 2.09567e-10 2.09757e-10 2.09757e-10 2.09898e-10 2.09922e-10 2.10184e-10 2.10134e-10
          2.10337e-10 2.10354e-10 2.10426e-10 2.10453e-10 2.10406e-10 2.10427e-10 2.1026e-10 2.10317e-10 2.09982e-10 2.10023e-10 2.09528e-10 2.09545e-10
          2.08898e-10 2.0881e-10 2.08058e-10 2.08059e-10 2.07016e-10 2.0702e-10 2.05741e-10 2.05725e-10 2.04178e-10 2.04239e-10 2.02432e-10 2.02455e-10
          2.00375e-10 2.00365e-10 1.97958e-10 1.97954e-10 1.95174e-10 1.95151e-10 1.9197e-10 1.91968e-10 1.88397e-10 1.88281e-10 1.84077e-10 1.8405e-10
          1.79241e-10 1.79219e-10 1.73682e-10 1.73653e-10 1.67258e-10 1.67206e-10 1.59809e-10 1.59768e-10 1.51193e-10 1.5115e-10 1.41483e-10 1.41429e-10
          1.31763e-10 1.31673e-10 1.26733e-10 1.26534e-10 1.43934e-10 1.4347e-10 6.32454e-10 6.32454e-10
        </DataArray>
        <DataArray type="Float32" Name="X_lOH" NumberOfComponents="1" format="ascii">
          7.18777e-07 7.1858e-07 7.29135e-07 7.29118e-07 7.32204e-07 7.32171e-07 7.32873e-07 7.32685e-07 7.32461e-07 7.32436e-07 7.31884e-07 7.3183e-07
          7.31289e-07 7.31277e-07 7.30732e-07 7.3079e-07 7.30259e-07 7.30258e-07 7.29848e-07 7.29848e-07 7.29611e-07 7.29526e-07 7.29125e-07 7.293e-07
          7.29118e-07 7.29057e-07 7.29349e-07 7.29255e-07 7.29976e-07 7.29903e-07 7.31062e-07 7.30864e-07 7.32779e-07 7.32634e-07 7.35156e-07 7.35095e-07
          7.38209e-07 7.38521e-07 7.42083e-07 7.4208e-07 7.46774e-07 7.46757e-07 7.52428e-07 7.52487e-07 7.59302e-07 7.59076e-07 7.67062e-07 7.66974e-07
          7.76262e-07 7.76301e-07 7.87199e-07 7.87216e-07 8.00046e-07 8.0014e-07 8.15199e-07 8.1521e-07 8.32686e-07 8.33204e-07 8.5453e-07 8.54657e-07
          8.8021e-07 8.80324e-07 9.11424e-07 9.11576e-07 9.49986e-07 9.50287e-07 9.98501e-07 9.98766e-07 1.06054e-06 1.06085e-06 1.13971e-06 1.14017e-06
          1.23198e-06 1.23283e-06 1.29147e-06 1.29351e-06 1.14994e-06 1.15363e-06 2.67481e-07 2.67481e-07
        </DataArray>
        <DataArray type="Float32" Name="X_gBrine" NumberOfComponents="1" format="ascii">
          0.00770677 0.00765269 0.00769343 0.00769344 0.00773542 0.00773545 0.00777807 0.00777811 0.00782129 0.00782132 0.00786504 0.00786504
          0.00790926 0.00790925 0.00795392 0.00795394 0.0079991 0.00799911 0.00804478 0.00804478 0.00809097 0.00809098 0.00818473 0.00818474
          0.00828054 0.00828054 0.00837859 0.00837859 0.00847869 0.00847869 0.00858094 0.00858096 0.0087118 0.0087118 0.00884598 0.00884596
          0.00898355 0.00898356 0.00912446 0.00912448 0.00926871 0.00926869 0.00941622 0.00941619 0.00956684 0.00956683 0.00972051 0.0097205
          0.00987703 0.00987699 0.0100361 0.0100361 0.0101975 0.0101975 0.010361 0.0103609 0.0105259 0.0105258 0.0106916 0.0106916
          0.0108579 0.0108578 0.0110234 0.0110234 0.0111869 0.0111869 0.0113469 0.0113469 0.0115016 0.0115016 0.0116484 0.0116484
          0.0117832 0.0117832 0.0118999 0.0118999 0.0119931 0.0119931 0.0120698 0.0120698
        </DataArray>
        <DataArray type="Float32" Name="X_gTotalC" NumberOfComponents="1" format="ascii">
          0.992293 0.992347 0.992307 0.992307 0.992265 0.992265 0.992222 0.992222 0.992179 0.992179 0.992135 0.992135
          0.992091 0.992091 0.992046 0.992046 0.992001 0.992001 0.991955 0.991955 0.991909 0.991909 0.991815 0.991815
          0.991719 0.991719 0.991621 0.991621 0.991521 0.991521 0.991419 0.991419 0.991288 0.991288 0.991154 0.991154
          0.991016 0.991016 0.990876 0.990876 0.990731 0.990731 0.990584 0.990584 0.990433 0.990433 0.990279 0.990279
          0.990123 0.990123 0.989964 0.989964 0.989803 0.989802 0.989639 0.989639 0.989474 0.989474 0.989308 0.989308
          0.989142 0.989142 0.988977 0.988977 0.988813 0.988813 0.988653 0.988653 0.988498 0.988498 0.988352 0.988352
          0.988217 0.988217 0.9881 0.9881 0.988007 0.988007 0.98793 0.98793
        </DataArray>
        <DataArray type="Float32" Name="X_gNa" NumberOfComponents="1" format="ascii">
          0 0 0 0 0 0 0 0 0 0 0 0
          0 0 0 0 0 0 0 0 0 0 0 0
          0 0 0 0 0 0 0 0 0 0 0 0
          0 0 0 0 0 0 0 0 0 0 0 0
          0 0 0 0 0 0 0 0 0 0 0 0
          0 0 0 0 0 0 0 0 0 0 0 0
          0 0 0 0 0 0 0 0
        </DataArray>
        <DataArray type="Float32" Name="X_gCl" NumberOfComponents="1" format="ascii">
          0 0 0 0 0 0 0 0 0 0 0 0
          0 0 0 0 0 0 0 0 0 0 0 0
          0 0 0 0 0 0 0 0 0 0 0 0
          0 0 0 0 0 0 0 0 0 0 0 0
          0 0 0 0 0 0 0 0 0 0 0 0
          0 0 0 0 0 0 0 0 0 0 0 0
          0 0 0 0 0 0 0 0
        </DataArray>
        <DataArray type="Float32" Name="X_gCa" NumberOfComponents="1" format="ascii">
          0 0 0 0 0 0 0 0 0 0 0 0
          0 0 0 0 0 0 0 0 0 0 0 0
          0 0 0 0 0 0 0 0 0 0 0 0
          0 0 0 0 0 0 0 0 0 0 0 0
          0 0 0 0 0 0 0 0 0 0 0 0
          0 0 0 0 0 0 0 0 0 0 0 0
          0 0 0 0 0 0 0 0
        </DataArray>
        <DataArray type="Float32" Name="X_gUrea" NumberOfComponents="1" format="ascii">
          0 0 0 0 0 0 0 0 0 0 0 0
          0 0 0 0 0 0 0 0 0 0 0 0
          0 0 0 0 0 0 0 0 0 0 0 0
          0 0 0 0 0 0 0 0 0 0 0 0
          0 0 0 0 0 0 0 0 0 0 0 0
          0 0 0 0 0 0 0 0 0 0 0 0
          0 0 0 0 0 0 0 0
        </DataArray>
        <DataArray type="Float32" Name="X_gTotalNH" NumberOfComponents="1" format="ascii">
          0 0 0 0 0 0 0 0 0 0 0 0
          0 0 0 0 0 0 0 0 0 0 0 0
          0 0 0 0 0 0 0 0 0 0 0 0
          0 0 0 0 0 0 0 0 0 0 0 0
          0 0 0 0 0 0 0 0 0 0 0 0
          0 0 0 0 0 0 0 0 0 0 0 0
          0 0 0 0 0 0 0 0
        </DataArray>
        <DataArray type="Float32" Name="X_gO2" NumberOfComponents="1" format="ascii">
          0 0 0 0 0 0 0 0 0 0 0 0
          0 0 0 0 0 0 0 0 0 0 0 0
          0 0 0 0 0 0 0 0 0 0 0 0
          0 0 0 0 0 0 0 0 0 0 0 0
          0 0 0 0 0 0 0 0 0 0 0 0
          0 0 0 0 0 0 0 0 0 0 0 0
          0 0 0 0 0 0 0 0
        </DataArray>
        <DataArray type="Float32" Name="X_gSubstrate" NumberOfComponents="1" format="ascii">
          0 0 0 0 0 0 0 0 0 0 0 0
          0 0 0 0 0 0 0 0 0 0 0 0
          0 0 0 0 0 0 0 0 0 0 0 0
          0 0 0 0 0 0 0 0 0 0 0 0
          0 0 0 0 0 0 0 0 0 0 0 0
          0 0 0 0 0 0 0 0 0 0 0 0
          0 0 0 0 0 0 0 0
        </DataArray>
        <DataArray type="Float32" Name="X_gSuspended_Biomass" NumberOfComponents="1" format="ascii">
          0 0 0 0 0 0 0 0 0 0 0 0
          0 0 0 0 0 0 0 0 0 0 0 0
          0 0 0 0 0 0 0 0 0 0 0 0
          0 0 0 0 0 0 0 0 0 0 0 0
          0 0 0 0 0 0 0 0 0 0 0 0
          0 0 0 0 0 0 0 0 0 0 0 0
          0 0 0 0 0 0 0 0
        </DataArray>
        <DataArray type="Float32" Name="X_gNH4" NumberOfComponents="1" format="ascii">
          0 0 0 0 0 0 0 0 0 0 0 0
          0 0 0 0 0 0 0 0 0 0 0 0
          0 0 0 0 0 0 0 0 0 0 0 0
          0 0 0 0 0 0 0 0 0 0 0 0
          0 0 0 0 0 0 0 0 0 0 0 0
          0 0 0 0 0 0 0 0 0 0 0 0
          0 0 0 0 0 0 0 0
        </DataArray>
        <DataArray type="Float32" Name="X_gHCO3" NumberOfComponents="1" format="ascii">
          0 0 0 0 0 0 0 0 0 0 0 0
          0 0 0 0 0 0 0 0 0 0 0 0
          0 0 0 0 0 0 0 0 0 0 0 0
          0 0 0 0 0 0 0 0 0 0 0 0
          0 0 0 0 0 0 0 0 0 0 0 0
          0 0 0 0 0 0 0 0 0 0 0 0
          0 0 0 0 0 0 0 0
        </DataArray>
        <DataArray type="Float32" Name="X_gCO3" NumberOfComponents="1" format="ascii">
          0 0 0 0 0 0 0 0 0 0 0 0
          0 0 0 0 0 0 0 0 0 0 0 0
          0 0 0 0 0 0 0 0 0 0 0 0
          0 0 0 0 0 0 0 0 0 0 0 0
          0 0 0 0 0 0 0 0 0 0 0 0
          0 0 0 0 0 0 0 0 0 0 0 0
          0 0 0 0 0 0 0 0
        </DataArray>
        <DataArray type="Float32" Name="X_gCO2" NumberOfComponents="1" format="ascii">
          0.992293 0.992347 0.992307 0.992307 0.992265 0.992265 0.992222 0.992222 0.992179 0.992179 0.992135 0.992135
          0.992091 0.992091 0.992046 0.992046 0.992001 0.992001 0.991955 0.991955 0.991909 0.991909 0.991815 0.991815
          0.991719 0.991719 0.991621 0.991621 0.991521 0.991521 0.991419 0.991419 0.991288 0.991288 0.991154 0.991154
          0.991016 0.991016 0.990876 0.990876 0.990731 0.990731 0.990584 0.990584 0.990433 0.990433 0.990279 0.990279
          0.990123 0.990123 0.989964 0.989964 0.989803 0.989802 0.989639 0.989639 0.989474 0.989474 0.989308 0.989308
          0.989142 0.989142 0.988977 0.988977 0.988813 0.988813 0.988653 0.988653 0.988498 0.988498 0.988352 0.988352
          0.988217 0.988217 0.9881 0.9881 0.988007 0.988007 0.98793 0.98793
        </DataArray>
        <DataArray type="Float32" Name="X_gH" NumberOfComponents="1" format="ascii">
          0 0 0 0 0 0 0 0 0 0 0 0
          0 0 0 0 0 0 0 0 0 0 0 0
          0 0 0 0 0 0 0 0 0 0 0 0
          0 0 0 0 0 0 0 0 0 0 0 0
          0 0 0 0 0 0 0 0 0 0 0 0
          0 0 0 0 0 0 0 0 0 0 0 0
          0 0 0 0 0 0 0 0
        </DataArray>
        <DataArray type="Float32" Name="X_gOH" NumberOfComponents="1" format="ascii">
          0 0 0 0 0 0 0 0 0 0 0 0
          0 0 0 0 0 0 0 0 0 0 0 0
          0 0 0 0 0 0 0 0 0 0 0 0
          0 0 0 0 0 0 0 0 0 0 0 0
          0 0 0 0 0 0 0 0 0 0 0 0
          0 0 0 0 0 0 0 0 0 0 0 0
          0 0 0 0 0 0 0 0
        </DataArray>
        <DataArray type="Float32" Name="Molarity_Brine" NumberOfComponents="1" format="ascii">
          53161.7 53161.7 53166.4 53166.4 53171 53171 53175.8 53175.8 53180.6 53180.6 53185.5 53185.5
          53190.5 53190.5 53195.5 53195.5 53200.7 53200.7 53205.9 53205.9 53211.2 53211.2 53222 53222
          53233.2 53233.1 53244.8 53244.8 53256.9 53256.9 53269.7 53269.7 53286.3 53286.3 53304 53303.9
          53322.9 53322.8 53343.1 53343.1 53364.9 53364.9 53388.5 53388.5 53414.1 53414.1 53441.9 53441.9
          53472.2 53472.2 53505.4 53505.5 53542 53542 53582.3 53582.3 53626.9 53627 53676.6 53676.6
          53732 53732 53794.1 53794.2 53864.3 53864.4 53944 53944.2 54035.5 54035.6 54141.6 54141.8
          54267.7 54267.8 54423.7 54423.7 54635.8 54635.4 55049.2 55049.2
        </DataArray>
        <DataArray type="Float32" Name="Molarity_TotalC" NumberOfComponents="1" format="ascii">
          0.375162 0.375047 0.384851 0.384835 0.390387 0.390359 0.394515 0.394397 0.397974 0.397951 0.40129 0.40125
          0.404552 0.404537 0.407793 0.40782 0.411038 0.411031 0.41428 0.414272 0.417582 0.41752 0.423896 0.423998
          0.430321 0.430273 0.436699 0.436628 0.443137 0.44308 0.449673 0.449529 0.457701 0.457593 0.465822 0.465772
          0.474028 0.474243 0.4824 0.48239 0.490907 0.490888 0.499622 0.499658 0.508687 0.508512 0.517798 0.517729
          0.527303 0.527331 0.537338 0.537352 0.547927 0.548002 0.559237 0.559247 0.571101 0.571508 0.584861 0.584968
          0.599796 0.599891 0.616788 0.616913 0.636628 0.636867 0.660429 0.660637 0.689547 0.689787 0.724488 0.724828
          0.758519 0.759154 0.752858 0.754356 0.588554 0.591108 0.0132254 0.0132254
        </DataArray>
        <DataArray type="Float32" Name="Molarity_Na" NumberOfComponents="1" format="ascii">
          0.00907752 0.00907735 0.00924283 0.00924265 0.00941415 0.00941391 0.00959264 0.00959236 0.00977874 0.00977848 0.00997286 0.00997266
          0.0101755 0.0101753 0.010387 0.0103868 0.0106078 0.0106076 0.0108382 0.010838 0.0110787 0.0110785 0.0115811 0.0115809
          0.0121276 0.0121274 0.012722 0.0127218 0.013369 0.0133688 0.0140733 0.0140731 0.0150321 0.0150319 0.0160981 0.016098
          0.0172839 0.0172837 0.0186038 0.0186035 0.0200738 0.0200736 0.0217122 0.0217122 0.0235403 0.0235403 0.0255815 0.0255818
          0.0278634 0.0278642 0.030418 0.0304191 0.0332818 0.0332827 0.0364957 0.0364979 0.040112 0.0401151 0.0441901 0.0441931
          0.0487965 0.0488011 0.0540218 0.0540284 0.0599777 0.0599862 0.0668029 0.0668133 0.0746841 0.0746956 0.0838904 0.0839029
          0.0948719 0.0948807 0.108518 0.108509 0.127079 0.127042 0.1633 0.1633
        </DataArray>
        <DataArray type="Float32" Name="Molarity_Cl" NumberOfComponents="1" format="ascii">
          854.502 854.503 853.829 853.83 853.129 853.13 852.398 852.399 851.633 851.634 850.833 850.834
          849.995 849.996 849.119 849.12 848.202 848.203 847.243 847.243 846.239 846.24 844.136 844.137
          841.84 841.841 839.334 839.335 836.597 836.598 833.61 833.611 829.531 829.532 824.983 824.983
          819.91 819.911 814.252 814.253 807.937 807.937 800.885 800.885 793.005 793.005 784.194 784.193
          774.331 774.328 763.278 763.273 750.875 750.871 736.943 736.933 721.255 721.241 703.552 703.539
          683.544 683.524 660.836 660.808 634.943 634.906 605.258 605.213 570.97 570.92 530.906 530.852
          483.106 483.068 423.701 423.737 342.891 343.053 185.193 185.193
        </DataArray>
        <DataArray type="Float32" Name="Molarity_Ca" NumberOfComponents="1" format="ascii">
          304.831 304.833 303.284 303.286 301.741 301.743 300.195 300.198 298.646 298.649 297.093 297.096
          295.534 295.537 293.969 293.972 292.397 292.4 290.818 290.821 289.232 289.235 286.101 286.105
          282.938 282.941 279.739 279.742 276.494 276.497 273.199 273.202 269.043 269.045 264.785 264.787
          260.409 260.412 255.895 255.898 251.221 251.223 246.361 246.363 241.286 241.287 235.963 235.963
          230.353 230.351 224.41 224.407 218.08 218.078 211.308 211.302 204.012 204.005 196.108 196.1
          187.496 187.485 178.039 178.023 167.565 167.546 155.863 155.841 142.643 142.619 127.483 127.457
          109.664 109.644 87.736 87.7444 58.0075 58.0646 0 0
        </DataArray>
        <DataArray type="Float32" Name="Molarity_Urea" NumberOfComponents="1" format="ascii">
          296.999 297.001 295.45 295.452 293.909 293.912 292.368 292.371 290.824 290.827 289.276 289.279
          287.723 287.726 286.165 286.168 284.6 284.603 283.029 283.032 281.451 281.454 278.337 278.341
          275.194 275.197 272.016 272.019 268.796 268.799 265.527 265.53 261.409 261.412 257.194 257.196
          252.866 252.869 248.407 248.41 243.795 243.798 239.006 239.007 234.01 234.011 228.776 228.776
          223.267 223.265 217.437 217.434 211.236 211.233 204.607 204.602 197.475 197.467 189.754 189.746
          181.351 181.34 172.13 172.115 161.925 161.907 150.531 150.509 137.664 137.64 122.916 122.89
          105.596 105.575 84.3362 84.3427 55.6733 55.726 0 0
        </DataArray>
        <DataArray type="Float32" Name="Molarity_TotalNH" NumberOfComponents="1" format="ascii">
          245.562 245.559 248.002 247.999 250.4 250.395 252.768 252.762 255.108 255.103 257.421 257.416
          259.708 259.703 261.969 261.963 264.201 264.196 266.406 266.401 268.582 268.576 272.753 272.747
          276.796 276.79 280.701 280.696 284.467 284.461 288.083 288.078 292.333 292.327 296.316 296.311
          300.012 300.007 303.399 303.394 306.449 306.445 309.134 309.131 311.422 311.419 313.275 313.273
          314.652 314.651 315.505 315.505 315.781 315.782 315.418 315.419 314.344 314.346 312.477 312.48
          309.723 309.726 305.964 305.966 301.057 301.058 294.824 294.825 287.035 287.035 277.361 277.36
          265.268 265.272 249.707 249.729 228.026 228.079 185.193 185.193
        </DataArray>
        <DataArray type="Float32" Name="Molarity_O2" NumberOfComponents="1" format="ascii">
          0.24047 0.24047 0.239959 0.23996 0.239443 0.239444 0.238917 0.238918 0.238381 0.238382 0.237834 0.237835
          0.237275 0.237276 0.236704 0.236705 0.23612 0.236121 0.235522 0.235523 0.23491 0.234911 0.233669 0.23367
          0.232366 0.232367 0.230997 0.230998 0.229555 0.229556 0.228034 0.228035 0.226029 0.22603 0.223876 0.223877
          0.221556 0.221557 0.219048 0.219049 0.21633 0.216331 0.213376 0.213377 0.210156 0.210156 0.206637 0.206636
          0.202778 0.202777 0.198536 0.198534 0.193856 0.193855 0.188683 0.188679 0.182941 0.182935 0.176544 0.176539
          0.169399 0.169391 0.161375 0.161364 0.152312 0.152298 0.14201 0.141993 0.130201 0.130182 0.116496 0.116476
          0.100243 0.100227 0.0801478 0.0801572 0.0529337 0.0529859 0 0
        </DataArray>
        <DataArray type="Float32" Name="Molarity_Substrate" NumberOfComponents="1" format="ascii">
          16.4173 16.4173 16.4005 16.4005 16.383 16.383 16.3648 16.3648 16.3457 16.3457 16.3258 16.3258
          16.305 16.305 16.2832 16.2832 16.2604 16.2605 16.2366 16.2366 16.2117 16.2118 16.1596 16.1597
          16.1028 16.1028 16.0409 16.0409 15.9732 15.9733 15.8995 15.8995 15.7989 15.7989 15.6868 15.6868
          15.5619 15.5619 15.4226 15.4227 15.2673 15.2673 15.094 15.094 14.9003 14.9003 14.6839 14.6838
          14.4417 14.4416 14.1703 14.1702 13.8659 13.8658 13.5241 13.5238 13.1392 13.1389 12.705 12.7047
          12.2143 12.2139 11.6575 11.6568 11.0227 11.0218 10.295 10.2939 9.45451 9.45328 8.47251 8.47118
          7.30099 7.30005 5.84508 5.84597 3.86466 3.86863 0 0
        </DataArray>
        <DataArray type="Float32" Name="Molarity_Suspended_Biomass" NumberOfComponents="1" format="ascii">
          0.000184273 0.000184263 0.000192178 0.000192166 0.000199968 0.000199953 0.000207685 0.000207668 0.000215335 0.000215317 0.000222919 0.000222903
          0.00023044 0.000230424 0.000237898 0.00023788 0.000245289 0.000245271 0.000252609 0.000252593 0.000259858 0.000259841 0.000273829 0.000273809
          0.000287467 0.000287447 0.000300742 0.000300724 0.000313644 0.000313625 0.00032614 0.000326121 0.000340981 0.000340963 0.000355072 0.000355056
          0.000368343 0.000368326 0.000380712 0.000380695 0.000392088 0.000392073 0.000402368 0.000402356 0.000411438 0.000411428 0.000419165 0.000419158
          0.0004254 0.000425397 0.000429972 0.000429973 0.000432686 0.00043269 0.000433316 0.000433322 0.0004316 0.00043161 0.000427232 0.000427248
          0.000419858 0.000419874 0.000409038 0.000409055 0.000394236 0.000394253 0.000374783 0.000374802 0.000349808 0.000349828 0.000318085 0.000318109
          0.000277643 0.000277686 0.00022468 0.000224791 0.000149733 0.000149945 0 0
        </DataArray>
        <DataArray type="Float32" Name="Molarity_NH4" NumberOfComponents="1" format="ascii">
          245.14 245.136 247.569 247.565 249.96 249.955 252.323 252.317 254.658 254.653 256.967 256.962
          259.25 259.245 261.507 261.501 263.735 263.73 265.936 265.931 268.107 268.102 272.27 272.264
          276.305 276.299 280.202 280.197 283.959 283.954 287.567 287.561 291.806 291.801 295.778 295.774
          299.464 299.459 302.839 302.834 305.878 305.874 308.551 308.548 310.827 310.824 312.668 312.666
          314.031 314.03 314.871 314.871 315.132 315.133 314.753 314.754 313.663 313.664 311.777 311.78
          309.002 309.005 305.22 305.222 300.286 300.287 294.021 294.022 286.193 286.193 276.474 276.473
          264.335 264.338 248.766 248.787 227.238 227.289 185.037 185.037
        </DataArray>
        <DataArray type="Float32" Name="Molarity_HCO3" NumberOfComponents="1" format="ascii">
          0.304181 0.304072 0.312803 0.312789 0.317482 0.317457 0.320825 0.320713 0.323534 0.323513 0.32611 0.326073
          0.328638 0.328625 0.33115 0.331176 0.333668 0.333662 0.336186 0.33618 0.338766 0.338709 0.343685 0.343783
          0.348726 0.348681 0.353741 0.353675 0.358831 0.358778 0.364034 0.363899 0.370447 0.370346 0.376984 0.376938
          0.383641 0.383845 0.390497 0.39049 0.397528 0.397511 0.404806 0.404841 0.412469 0.412305 0.420236 0.420171
          0.428439 0.428466 0.437215 0.437228 0.446594 0.446664 0.456739 0.456748 0.467502 0.467888 0.480166 0.480266
          0.494058 0.494147 0.510029 0.510146 0.528847 0.529072 0.55159 0.551785 0.579574 0.5798 0.613308 0.613628
          0.646349 0.646952 0.641458 0.642884 0.485895 0.488289 0.00553194 0.00553194
        </DataArray>
        <DataArray type="Float32" Name="Molarity_CO3" NumberOfComponents="1" format="ascii">
          0.00030435 0.000304158 0.000316738 0.000316717 0.000322065 0.000322026 0.000324976 0.000324781 0.000326748 0.000326718 0.000328293 0.000328233
          0.000329759 0.000329742 0.000331205 0.000331259 0.000332674 0.00033267 0.000334151 0.000334146 0.000335746 0.000335652 0.000338664 0.000338845
          0.000341842 0.000341772 0.000345021 0.000344914 0.00034837 0.000348286 0.000351955 0.000351731 0.000356409 0.000356243 0.000361141 0.000361069
          0.000366144 0.000366496 0.000371548 0.000371541 0.000377309 0.000377286 0.000383543 0.000383607 0.000390481 0.00039021 0.000397644 0.000397538
          0.000405582 0.000405626 0.000414514 0.000414533 0.000424475 0.00042459 0.000435729 0.000435739 0.000447999 0.00044864 0.000463415 0.000463571
          0.000480807 0.000480942 0.000501554 0.000501733 0.000526876 0.000527239 0.000558494 0.000558803 0.000598447 0.000598809 0.000646925 0.00064746
          0.000689767 0.000690833 0.000653158 0.000655668 0.000375101 0.000378295 4.26535e-07 4.26535e-07
        </DataArray>
        <DataArray type="Float32" Name="Molarity_CO2" NumberOfComponents="1" format="ascii">
          0.0706821 0.070676 0.0717358 0.0717342 0.0725877 0.0725851 0.0733706 0.0733638 0.0741189 0.0741164 0.0748571 0.0748539
          0.0755895 0.0755876 0.0763179 0.0763178 0.0770427 0.0770412 0.0777644 0.0777628 0.0784852 0.0784809 0.0798779 0.0798814
          0.0812589 0.081255 0.082619 0.0826141 0.0839634 0.0839593 0.0852928 0.0852842 0.086904 0.0868971 0.0884832 0.0884795
          0.0900272 0.0900369 0.0915371 0.0915353 0.0930077 0.0930056 0.0944391 0.0944397 0.0958336 0.0958238 0.0971712 0.0971674
          0.0984648 0.0984662 0.099715 0.099716 0.100916 0.100921 0.10207 0.102071 0.103158 0.10318 0.104239 0.104246
          0.105264 0.105271 0.106265 0.106273 0.107262 0.107277 0.108289 0.108302 0.109383 0.109398 0.110543 0.110562
          0.11149 0.111522 0.110757 0.110827 0.102292 0.102448 0.00769319 0.00769319
        </DataArray>
        <DataArray type="Float32" Name="Molarity_H" NumberOfComponents="1" format="ascii">
          0.000216036 0.000216095 0.000213022 0.000213027 0.000212185 0.000212194 0.000212047 0.000212102 0.000212223 0.00021223 0.000212447 0.000212463
          0.000212678 0.000212681 0.000212898 0.000212881 0.000213095 0.000213095 0.000213275 0.000213275 0.000213405 0.00021343 0.000213668 0.000213617
          0.000213795 0.000213812 0.000213855 0.000213883 0.000213803 0.000213824 0.000213621 0.000213679 0.000213296 0.000213338 0.000212789 0.000212806
          0.000212101 0.000212011 0.000211195 0.000211196 0.000210081 0.000210086 0.000208727 0.000208711 0.000207076 0.000207138 0.000205235 0.000205259
          0.000203074 0.000203064 0.000200542 0.000200538 0.000197632 0.000197609 0.000194292 0.00019429 0.00019057 0.000190452 0.000186085 0.000186058
          0.000181073 0.00018105 0.00017532 0.000175292 0.000168689 0.000168636 0.000161015 0.000160974 0.00015216 0.000152116 0.000142199 0.000142144
          0.00013222 0.000132129 0.000126923 0.000126723 0.000143762 0.0001433 0.000628379 0.000628379
        </DataArray>
        <DataArray type="Float32" Name="Molarity_OH" NumberOfComponents="1" format="ascii">
          4.33561e-05 4.33442e-05 4.39785e-05 4.39774e-05 4.41611e-05 4.41591e-05 4.41989e-05 4.41876e-05 4.41715e-05 4.417e-05 4.41341e-05 4.41309e-05
          4.40956e-05 4.40949e-05 4.40593e-05 4.40628e-05 4.4028e-05 4.4028e-05 4.40005e-05 4.40005e-05 4.39834e-05 4.39783e-05 4.39484e-05 4.39589e-05
          4.3942e-05 4.39384e-05 4.39497e-05 4.39441e-05 4.39811e-05 4.39766e-05 4.40397e-05 4.40278e-05 4.41341e-05 4.41254e-05 4.42678e-05 4.42641e-05
          4.44414e-05 4.44602e-05 4.46635e-05 4.46634e-05 4.49338e-05 4.49328e-05 4.5261e-05 4.52645e-05 4.56602e-05 4.56466e-05 4.6111e-05 4.61058e-05
          4.66466e-05 4.6649e-05 4.72845e-05 4.72855e-05 4.80345e-05 4.80401e-05 4.89199e-05 4.89205e-05 4.99417e-05 4.99727e-05 5.12203e-05 5.12278e-05
          5.27232e-05 5.273e-05 5.45507e-05 5.45598e-05 5.6809e-05 5.68269e-05 5.96508e-05 5.96665e-05 6.32846e-05 6.33031e-05 6.79186e-05 6.79454e-05
          7.33006e-05 7.33512e-05 7.66893e-05 7.68102e-05 6.81019e-05 6.83208e-05 1.57575e-05 1.57575e-05
        </DataArray>
        <DataArray type="Float32" Name="Da_ureolysis" NumberOfComponents="1" format="ascii">
          0 0 0 0 0 0 0 0 0 0 0 0
          0 0 0 0 0 0 0 0 0 0 0 0
          0 0 0 0 0 0 0 0 0 0 0 0
          0 0 0 0 0 0 0 0 0 0 0 0
          0 0 0 0 0 0 0 0 0 0 0 0
          0 0 0 0 0 0 0 0 0 0 0 0
          0 0 0 0 0 0 0 0
        </DataArray>
        <DataArray type="Float32" Name="Da_precipitation" NumberOfComponents="1" format="ascii">
          0.409958 0.409102 0.461929 0.461703 0.479441 0.479065 0.487003 0.485694 0.489136 0.48834 0.490025 0.489123
          0.490601 0.489741 0.490928 0.490501 0.491286 0.490542 0.491611 0.490833 0.492732 0.491632 0.492426 0.492593
          0.494294 0.493183 0.494779 0.493564 0.495972 0.494803 0.498008 0.496287 0.499346 0.497886 0.501376 0.500377
          0.503492 0.504478 0.506056 0.505442 0.509032 0.50832 0.512215 0.511952 0.516579 0.514939 0.51966 0.518825
          0.523219 0.523275 0.527786 0.527898 0.532784 0.533457 0.538627 0.539081 0.542195 0.545367 0.551794 0.553475
          0.560101 0.561848 0.568969 0.571174 0.579962 0.583268 0.592559 0.596091 0.60477 0.608741 0.602023 0.606812
          0.52386 0.529593 0.254269 0.259284 0.0113478 0.0118148 0 0
        </DataArray>
        <DataArray type="Float32" Name="Vx" NumberOfComponents="1" format="ascii">
          4.61897e-08 4.61957e-08 5.55624e-08 5.55666e-08 1.01236e-07 1.0127e-07 1.26833e-07 1.26936e-07 9.1862e-08 9.19777e-08 1.98233e-08 1.98615e-08
          1.1237e-09 1.12793e-09 3.80151e-08 3.80655e-08 2.65341e-08 2.65776e-08 2.58104e-09 2.59064e-09 1.99455e-08 1.99708e-08 2.33127e-08 2.33453e-08
          9.09656e-09 9.1094e-09 -9.67724e-09 -9.69028e-09 -5.35877e-09 -5.36165e-09 2.47058e-08 2.47317e-08 -6.30402e-09 -6.31404e-09 -4.17474e-08 -4.17906e-08
          -2.79873e-10 -2.81298e-10 2.81879e-08 2.82118e-08 -1.82713e-08 -1.82883e-08 -4.09769e-08 -4.1018e-08 -2.38908e-08 -2.39148e-08 -3.73598e-08 -3.73904e-08
          -8.85868e-08 -8.86134e-08 -7.75232e-08 -7.75185e-08 -1.8035e-08 -1.802e-08 -9.55772e-08 -9.55018e-08 -1.23984e-07 -1.23833e-07 -4.7473e-08 -4.73501e-08
          -7.70796e-08 -7.69047e-08 -1.24266e-07 -1.23916e-07 -1.31085e-07 -1.30608e-07 -1.20823e-07 -1.20304e-07 -9.64596e-08 -9.59618e-08 -9.08421e-08 -9.03353e-08
          -5.84868e-08 -5.82188e-08 9.42295e-08 9.37177e-08 2.27666e-07 2.26672e-07 4.134e-07 4.12436e-07
        </DataArray>
        <DataArray type="Float32" Name="Vy" NumberOfComponents="1" format="ascii">
          0.000337346 0.000337374 0.000334777 0.000334832 0.000335369 0.00033551 0.000335313 0.000335588 0.000335281 0.000335686 0.000335187 0.000335655
          0.000335256 0.000335726 0.000335199 0.000335692 0.000335183 0.000335719 0.000335147 0.000335695 0.000334908 0.000335405 0.000335489 0.000335969
          0.000334923 0.000335433 0.000335087 0.000335595 0.000335148 0.000335637 0.000334858 0.000335343 0.000335081 0.000335566 0.000334999 0.000335429
          0.000334959 0.00033534 0.000334995 0.000335413 0.000334857 0.00033529 0.0003349 0.000335266 0.000334903 0.000335204 0.000334842 0.000335089
          0.000334893 0.000335015 0.000334947 0.00033489 0.000334964 0.000334822 0.00033476 0.000334516 0.000335162 0.000334682 0.00033496 0.000334312
          0.000334755 0.000333997 0.000334992 0.000334029 0.00033491 0.000333691 0.000334851 0.000333381 0.000334487 0.000332803 0.000333722 0.000331856
          0.000332545 0.000330519 0.000331685 0.000329687 0.000337287 0.000335627 0.000942954 0.000941534
        </DataArray>
      </PointData>
      <CellData Scalars="process rank">
        <DataArray type="Float32" Name="process rank" NumberOfComponents="1" format="ascii">
          0 0 0 0 0 0 0 0 0 0 0 0
          0 0 0 0 0 0 0 0 0 0 0 0
          0 0 0 0 0 0 0 0 0 0 0 0
          0 0 0
        </DataArray>
      </CellData>
      <Points>
        <DataArray type="Float32" Name="Coordinates" NumberOfComponents="3" format="ascii">
          0 0 0 0.0254 0 0 0 0.01 0 0.0254 0.01 0
          0 0.02 0 0.0254 0.02 0 0 0.03 0 0.0254 0.03 0
          0 0.04 0 0.0254 0.04 0 0 0.05 0 0.0254 0.05 0
          0 0.06 0 0.0254 0.06 0 0 0.07 0 0.0254 0.07 0
          0 0.08 0 0.0254 0.08 0 0 0.09 0 0.0254 0.09 0
          0 0.1 0 0.0254 0.1 0 0 0.12 0 0.0254 0.12 0
          0 0.14 0 0.0254 0.14 0 0 0.16 0 0.0254 0.16 0
          0 0.18 0 0.0254 0.18 0 0 0.2 0 0.0254 0.2 0
          0 0.225 0 0.0254 0.225 0 0 0.25 0 0.0254 0.25 0
          0 0.275 0 0.0254 0.275 0 0 0.3 0 0.0254 0.3 0
          0 0.325 0 0.0254 0.325 0 0 0.35 0 0.0254 0.35 0
          0 0.375 0 0.0254 0.375 0 0 0.4 0 0.0254 0.4 0
          0 0.425 0 0.0254 0.425 0 0 0.45 0 0.0254 0.45 0
          0 0.475 0 0.0254 0.475 0 0 0.5 0 0.0254 0.5 0
          0 0.525 0 0.0254 0.525 0 0 0.55 0 0.0254 0.55 0
          0 0.575 0 0.0254 0.575 0 0 0.6 0 0.0254 0.6 0
          0 0.625 0 0.0254 0.625 0 0 0.65 0 0.0254 0.65 0
          0 0.675 0 0.0254 0.675 0 0 0.7 0 0.0254 0.7 0
          0 0.725 0 0.0254 0.725 0 0 0.75 0 0.0254 0.75 0
          0 0.775 0 0.0254 0.775 0 0 0.8 0 0.0254 0.8 0
        </DataArray>
      </Points>
      <Cells>
        <DataArray type="Int32" Name="connectivity" NumberOfComponents="1" format="ascii">
          0 1 3 2 2 3 5 4 4 5 7 6
          6 7 9 8 8 9 11 10 10 11 13 12
          12 13 15 14 14 15 17 16 16 17 19 18
          18 19 21 20 20 21 23 22 22 23 25 24
          24 25 27 26 26 27 29 28 28 29 31 30
          30 31 33 32 32 33 35 34 34 35 37 36
          36 37 39 38 38 39 41 40 40 41 43 42
          42 43 45 44 44 45 47 46 46 47 49 48
          48 49 51 50 50 51 53 52 52 53 55 54
          54 55 57 56 56 57 59 58 58 59 61 60
          60 61 63 62 62 63 65 64 64 65 67 66
          66 67 69 68 68 69 71 70 70 71 73 72
          72 73 75 74 74 75 77 76 76 77 79 78
        </DataArray>
        <DataArray type="Int32" Name="offsets" NumberOfComponents="1" format="ascii">
          4 8 12 16 20 24 28 32 36 40 44 48
          52 56 60 64 68 72 76 80 84 88 92 96
          100 104 108 112 116 120 124 128 132 136 140 144
          148 152 156
        </DataArray>
        <DataArray type="UInt8" Name="types" NumberOfComponents="1" format="ascii">
          9 9 9 9 9 9 9 9 9 9 9 9
          9 9 9 9 9 9 9 9 9 9 9 9
          9 9 9 9 9 9 9 9 9 9 9 9
          9 9 9
        </DataArray>
      </Cells>
    </Piece>
  </UnstructuredGrid>
</VTKFile>
