<?xml version="1.0"?>
<VTKFile type="UnstructuredGrid" version="0.1" byte_order="LittleEndian">
  <UnstructuredGrid>
    <Piece NumberOfCells="39" NumberOfPoints="80">
      <PointData Scalars="Sg">
        <DataArray type="Float32" Name="Sg" NumberOfComponents="1" format="ascii">
          0 0 0 0 0 0 0 0 0 0 0 0
          0 0 0 0 0 0 0 0 0 0 0 0
          0 0 0 0 0 0 0 0 0 0 0 0
          0 0 0 0 0 0 0 0 0 0 0 0
          0 0 0 0 0 0 0 0 0 0 0 0
          0 0 0 0 0 0 0 0 0 0 0 0
          0 0 0 0 0 0 0 0
        </DataArray>
        <DataArray type="Float32" Name="Sl" NumberOfComponents="1" format="ascii">
          1 1 1 1 1 1 1 1 1 1 1 1
          1 1 1 1 1 1 1 1 1 1 1 1
          1 1 1 1 1 1 1 1 1 1 1 1
          1 1 1 1 1 1 1 1 1 1 1 1
          1 1 1 1 1 1 1 1 1 1 1 1
          1 1 1 1 1 1 1 1 1 1 1 1
          1 1 1 1 1 1 1 1
        </DataArray>
        <DataArray type="Float32" Name="pg" NumberOfComponents="1" format="ascii">
          117564 117564 117466 117466 117367 117367 117269 117269 117170 117170 117072 117072
          116973 116973 116874 116874 116776 116776 116677 116677 116579 116579 116381 116381
          116184 116184 115987 115987 115789 115789 115592 115592 115345 115345 115098 115098
          114851 114851 114604 114604 114357 114357 114110 114110 113863 113863 113616 113616
          113369 113369 113122 113122 112875 112875 112627 112627 112380 112380 112133 112133
          111886 111886 111639 111639 111392 111392 111145 111145 110898 110898 110652 110652
          110405 110405 110159 110159 109913 109913 109667 109667
        </DataArray>
        <DataArray type="Float32" Name="pl" NumberOfComponents="1" format="ascii">
          107898 107898 107799 107799 107701 107701 107602 107602 107504 107504 107405 107405
          107306 107306 107208 107208 107109 107109 107011 107011 106912 106912 106715 106715
          106517 106517 106320 106320 106123 106123 105925 105925 105678 105678 105431 105431
          105185 105185 104938 104938 104691 104691 104443 104443 104196 104196 103949 103949
          103702 103702 103455 103455 103208 103208 102961 102961 102714 102714 102466 102466
          102219 102219 101972 101972 101725 101725 101478 101478 101232 101232 100985 100985
          100738 100738 100492 100492 100246 100246 100000 100000
        </DataArray>
        <DataArray type="Float32" Name="pc" NumberOfComponents="1" format="ascii">
          9666.67 9666.67 9666.67 9666.67 9666.67 9666.67 9666.67 9666.67 9666.67 9666.67 9666.67 9666.67
          9666.67 9666.67 9666.67 9666.67 9666.67 9666.67 9666.67 9666.67 9666.67 9666.67 9666.67 9666.67
          9666.67 9666.67 9666.67 9666.67 9666.67 9666.67 9666.67 9666.67 9666.67 9666.67 9666.67 9666.67
          9666.67 9666.67 9666.67 9666.67 9666.67 9666.67 9666.67 9666.67 9666.67 9666.67 9666.67 9666.67
          9666.67 9666.67 9666.67 9666.67 9666.67 9666.67 9666.67 9666.67 9666.67 9666.67 9666.67 9666.67
          9666.67 9666.67 9666.67 9666.67 9666.67 9666.67 9666.67 9666.67 9666.67 9666.67 9666.67 9666.67
          9666.67 9666.67 9666.67 9666.67 9666.67 9666.67 9666.67 9666.67
        </DataArray>
        <DataArray type="Float32" Name="rhoL" NumberOfComponents="1" format="ascii">
          1004.5 1004.5 1004.61 1004.61 1004.72 1004.72 1004.83 1004.83 1004.95 1004.95 1005.06 1005.06
          1005.18 1005.18 1005.3 1005.3 1005.41 1005.41 1005.53 1005.53 1005.65 1005.65 1005.88 1005.88
          1006.11 1006.11 1006.33 1006.33 1006.56 1006.56 1006.78 1006.78 1007.04 1007.04 1007.29 1007.29
          1007.53 1007.53 1007.76 1007.76 1007.96 1007.96 1008.15 1008.15 1008.31 1008.31 1008.45 1008.45
          1008.56 1008.56 1008.63 1008.63 1008.67 1008.67 1008.67 1008.67 1008.62 1008.62 1008.52 1008.52
          1008.37 1008.37 1008.15 1008.15 1007.87 1007.87 1007.5 1007.5 1007.04 1007.05 1006.48 1006.48
          1005.79 1005.79 1004.91 1004.91 1003.73 1003.73 1001.45 1001.45
        </DataArray>
        <DataArray type="Float32" Name="rhoG" NumberOfComponents="1" format="ascii">
          2.06797 2.06802 2.06623 2.06623 2.06445 2.06445 2.06267 2.06267 2.06088 2.06088 2.0591 2.0591
          2.05732 2.05732 2.05553 2.05553 2.05375 2.05375 2.05196 2.05196 2.05018 2.05018 2.04661 2.04661
          2.04304 2.04304 2.03946 2.03946 2.03589 2.03589 2.03232 2.03232 2.02785 2.02785 2.02338 2.02338
          2.01891 2.01891 2.01444 2.01444 2.00997 2.00997 2.0055 2.0055 2.00103 2.00103 1.99655 1.99655
          1.99208 1.99208 1.9876 1.9876 1.98313 1.98313 1.97865 1.97865 1.97417 1.97417 1.96969 1.96969
          1.96521 1.96521 1.96074 1.96074 1.95626 1.95626 1.95178 1.95178 1.9473 1.9473 1.94282 1.94282
          1.93835 1.93835 1.93387 1.93387 1.92939 1.92939 1.9249 1.9249
        </DataArray>
        <DataArray type="Float32" Name="mobL" NumberOfComponents="1" format="ascii">
          1086.6 1086.6 1086.06 1086.06 1085.5 1085.5 1084.93 1084.93 1084.36 1084.36 1083.79 1083.79
          1083.22 1083.22 1082.65 1082.65 1082.08 1082.08 1081.52 1081.52 1080.96 1080.96 1079.86 1079.86
          1078.78 1078.78 1077.73 1077.73 1076.69 1076.69 1075.69 1075.69 1074.49 1074.49 1073.35 1073.35
          1072.28 1072.28 1071.29 1071.29 1070.38 1070.38 1069.57 1069.57 1068.86 1068.86 1068.27 1068.27
          1067.81 1067.81 1067.49 1067.49 1067.33 1067.33 1067.34 1067.34 1067.54 1067.54 1067.96 1067.96
          1068.62 1068.62 1069.55 1069.55 1070.8 1070.8 1072.41 1072.41 1074.46 1074.46 1077.03 1077.02
          1080.28 1080.28 1084.53 1084.53 1090.52 1090.51 1103.12 1103.12
        </DataArray>
        <DataArray type="Float32" Name="mobG" NumberOfComponents="1" format="ascii">
          0 0 0 0 0 0 0 0 0 0 0 0
          0 0 0 0 0 0 0 0 0 0 0 0
          0 0 0 0 0 0 0 0 0 0 0 0
          0 0 0 0 0 0 0 0 0 0 0 0
          0 0 0 0 0 0 0 0 0 0 0 0
          0 0 0 0 0 0 0 0 0 0 0 0
          0 0 0 0 0 0 0 0
        </DataArray>
        <DataArray type="Float32" Name="porosity" NumberOfComponents="1" format="ascii">
          0.101185 0.101212 0.0994025 0.0993992 0.0990973 0.099102 0.0989292 0.0989856 0.0989107 0.0989481 0.0988595 0.0989396
          0.0989574 0.0989667 0.0989555 0.0990111 0.0989836 0.0990442 0.0989982 0.099058 0.0990419 0.0990922 0.099213 0.0992769
          0.0991971 0.0992557 0.0993143 0.0993956 0.0995005 0.0995396 0.0995719 0.0996403 0.0998441 0.0999317 0.100081 0.100138
          0.100391 0.100415 0.100719 0.100782 0.101096 0.101151 0.101553 0.101595 0.102049 0.102075 0.102601 0.102644
          0.103257 0.103275 0.104016 0.103977 0.104856 0.104788 0.105718 0.105711 0.106937 0.106778 0.108115 0.107989
          0.109525 0.109375 0.111317 0.111121 0.113411 0.113154 0.115994 0.115685 0.119247 0.118854 0.123721 0.123289
          0.130831 0.130261 0.143663 0.142953 0.172227 0.171526 0.4 0.4
        </DataArray>
        <DataArray type="Float32" Name="temperature" NumberOfComponents="1" format="ascii">
          298.15 298.15 298.15 298.15 298.15 298.15 298.15 298.15 298.15 298.15 298.15 298.15
          298.15 298.15 298.15 298.15 298.15 298.15 298.15 298.15 298.15 298.15 298.15 298.15
          298.15 298.15 298.15 298.15 298.15 298.15 298.15 298.15 298.15 298.15 298.15 298.15
          298.15 298.15 298.15 298.15 298.15 298.15 298.15 298.15 298.15 298.15 298.15 298.15
          298.15 298.15 298.15 298.15 298.15 298.15 298.15 298.15 298.15 298.15 298.15 298.15
          298.15 298.15 298.15 298.15 298.15 298.15 298.15 298.15 298.15 298.15 298.15 298.15
          298.15 298.15 298.15 298.15 298.15 298.15 298.15 298.15
        </DataArray>
        <DataArray type="Float32" Name="phase presence" NumberOfComponents="1" format="ascii">
          1 1 1 1 1 1 1 1 1 1 1 1
          1 1 1 1 1 1 1 1 1 1 1 1
          1 1 1 1 1 1 1 1 1 1 1 1
          1 1 1 1 1 1 1 1 1 1 1 1
          1 1 1 1 1 1 1 1 1 1 1 1
          1 1 1 1 1 1 1 1 1 1 1 1
          1 1 1 1 1 1 1 1
        </DataArray>
        <DataArray type="Float32" Name="potential" NumberOfComponents="1" format="ascii">
          0.00146716 0.00146733 0.0013833 0.00138339 0.00129464 0.00129482 0.00120678 0.00120682 0.00111979 0.00111981 0.00103376 0.00103376
          0.000948742 0.000948755 0.000864822 0.000864859 0.000782114 0.000782144 0.000700674 0.000700698 0.000620545 0.000620578 0.000467659 0.00046765
          0.000321096 0.000321092 0.000181597 0.000181583 4.9533e-05 4.95299e-05 -7.45653e-05 -7.45415e-05 -0.000216408 -0.000216419 -0.000344475 -0.000344503
          -0.000458054 -0.000458056 -0.000556635 -0.000556625 -0.00063981 -0.000639812 -0.000707326 -0.00070733 -0.000759046 -0.000759044 -0.000794953 -0.000794957
          -0.0008152 -0.00081522 -0.000820113 -0.000820137 -0.000810175 -0.000810187 -0.000786011 -0.000786039 -0.000748538 -0.000748563 -0.000698816 -0.000698839
          -0.000638156 -0.000638178 -0.000568189 -0.000568209 -0.000490818 -0.000490836 -0.000408297 -0.000408317 -0.000323297 -0.000323321 -0.000238993 -0.000239026
          -0.000159179 -0.000159227 -8.84743e-05 -8.85431e-05 -3.30368e-05 -3.30855e-05 0 0
        </DataArray>
        <DataArray type="Float32" Name="boxVolume" NumberOfComponents="1" format="ascii">
          6.35e-05 6.35e-05 0.000127 0.000127 0.000127 0.000127 0.000127 0.000127 0.000127 0.000127 0.000127 0.000127
          0.000127 0.000127 0.000127 0.000127 0.000127 0.000127 0.000127 0.000127 0.0001905 0.0001905 0.000254 0.000254
          0.000254 0.000254 0.000254 0.000254 0.000254 0.000254 0.00028575 0.00028575 0.0003175 0.0003175 0.0003175 0.0003175
          0.0003175 0.0003175 0.0003175 0.0003175 0.0003175 0.0003175 0.0003175 0.0003175 0.0003175 0.0003175 0.0003175 0.0003175
          0.0003175 0.0003175 0.0003175 0.0003175 0.0003175 0.0003175 0.0003175 0.0003175 0.0003175 0.0003175 0.0003175 0.0003175
          0.0003175 0.0003175 0.0003175 0.0003175 0.0003175 0.0003175 0.0003175 0.0003175 0.0003175 0.0003175 0.0003175 0.0003175
          0.0003175 0.0003175 0.0003175 0.0003175 0.0003175 0.0003175 0.00015875 0.00015875
        </DataArray>
        <DataArray type="Float32" Name="pH" NumberOfComponents="1" format="ascii">
          7.2482 7.24822 7.24274 7.24275 7.23718 7.23719 7.2316 7.23162 7.22607 7.22609 7.22059 7.22061
          7.21517 7.21519 7.2098 7.20983 7.2045 7.20452 7.19926 7.19928 7.19409 7.19411 7.18416 7.1842
          7.17452 7.17456 7.16525 7.16529 7.15635 7.15637 7.14781 7.14784 7.13782 7.13785 7.12849 7.12852
          7.11988 7.1199 7.11203 7.11206 7.10498 7.10501 7.0988 7.09882 7.09354 7.09355 7.08926 7.08927
          7.08604 7.08604 7.08398 7.08397 7.08318 7.08315 7.08375 7.08373 7.0859 7.08585 7.08976 7.0897
          7.09561 7.09554 7.10379 7.10369 7.11468 7.11456 7.12887 7.12873 7.14717 7.14701 7.17077 7.17058
          7.20125 7.201 7.23836 7.23804 7.25673 7.25646 6.19963 6.19963
        </DataArray>
        <DataArray type="Float32" Name="Omega" NumberOfComponents="1" format="ascii">
          2.80557 2.80577 2.80843 2.80843 2.81543 2.81551 2.82118 2.82152 2.82684 2.82727 2.83234 2.83284
          2.8379 2.83829 2.84324 2.84368 2.84848 2.84896 2.85366 2.85411 2.85882 2.85921 2.86875 2.86941
          2.87798 2.87859 2.88737 2.88803 2.89659 2.89713 2.90536 2.90591 2.91611 2.91677 2.92649 2.92706
          2.9367 2.93714 2.94659 2.94709 2.95625 2.95671 2.96583 2.96619 2.97522 2.97546 2.98447 2.98469
          2.99377 2.9938 3.00315 3.0029 3.01246 3.01202 3.02172 3.02132 3.03168 3.03071 3.04144 3.04026
          3.05168 3.05026 3.06289 3.0611 3.07486 3.07259 3.08808 3.08532 3.10294 3.09963 3.11925 3.11539
          3.12653 3.12185 3.03007 3.02503 2.19453 2.19262 0 0
        </DataArray>
        <DataArray type="Float32" Name="rurea" NumberOfComponents="1" format="ascii">
          0 0 0 0 0 0 0 0 0 0 0 0
          0 0 0 0 0 0 0 0 0 0 0 0
          0 0 0 0 0 0 0 0 0 0 0 0
          0 0 0 0 0 0 0 0 0 0 0 0
          0 0 0 0 0 0 0 0 0 0 0 0
          0 0 0 0 0 0 0 0 0 0 0 0
          0 0 0 0 0 0 0 0
        </DataArray>
        <DataArray type="Float32" Name="Volume_Fraction_Biofilm" NumberOfComponents="1" format="ascii">
          0.250252 0.250329 0.245172 0.245096 0.242559 0.242565 0.241482 0.24149 0.240855 0.24075 0.240172 0.240182
          0.239874 0.239732 0.239359 0.239345 0.23894 0.238915 0.238497 0.23849 0.238103 0.238143 0.237576 0.237461
          0.236805 0.236731 0.23611 0.236071 0.235641 0.23553 0.234931 0.234919 0.234483 0.23446 0.233944 0.23386
          0.233484 0.233375 0.233048 0.233025 0.23272 0.232673 0.232433 0.232395 0.232179 0.232156 0.231972 0.231992
          0.231844 0.231876 0.231745 0.231738 0.231703 0.231715 0.231591 0.231673 0.231715 0.231693 0.231701 0.231845
          0.231767 0.231935 0.231918 0.232107 0.232187 0.23243 0.23252 0.232834 0.233044 0.233363 0.234005 0.234437
          0.236248 0.236772 0.238467 0.23913 0.222375 0.223073 0 0
        </DataArray>
        <DataArray type="Float32" Name="Volume_Fraction_Calcite" NumberOfComponents="1" format="ascii">
          0.0485624 0.0484584 0.0554258 0.055505 0.0583434 0.0583326 0.0595892 0.0595248 0.0602342 0.0603014 0.0609683 0.0608782
          0.061169 0.0613008 0.0616856 0.0616438 0.0620761 0.0620405 0.0625051 0.0624518 0.0628553 0.0627645 0.0632113 0.063262
          0.0639984 0.0640136 0.0645761 0.0645329 0.0648582 0.0649303 0.0654972 0.0654405 0.0656726 0.0656083 0.0659744 0.0660024
          0.0661251 0.0662098 0.0662336 0.0661929 0.0661841 0.0661754 0.0660143 0.06601 0.0657722 0.0657694 0.0654277 0.0653641
          0.0648989 0.0648482 0.0642388 0.0642848 0.0634411 0.063497 0.0626914 0.0626159 0.0613478 0.0615284 0.0601837 0.0601656
          0.0587077 0.0586903 0.0567651 0.056772 0.0544021 0.0544159 0.0514857 0.0514813 0.047709 0.0477825 0.0422738 0.0422738
          0.0329212 0.0329666 0.0178701 0.017917 0.00539882 0.0054011 0 0
        </DataArray>
        <DataArray type="Float32" Name="Kxx" NumberOfComponents="1" format="ascii">
          3.23744e-12 3.24002e-12 3.06932e-12 3.06901e-12 3.04113e-12 3.04156e-12 3.02568e-12 3.03086e-12 3.02399e-12 3.02741e-12 3.01929e-12 3.02664e-12
          3.02827e-12 3.02913e-12 3.0281e-12 3.0332e-12 3.03068e-12 3.03625e-12 3.03202e-12 3.03751e-12 3.03604e-12 3.04066e-12 3.05179e-12 3.0577e-12
          3.05033e-12 3.05574e-12 3.06115e-12 3.06868e-12 3.07841e-12 3.08204e-12 3.08504e-12 3.0914e-12 3.1104e-12 3.1186e-12 3.13261e-12 3.13793e-12
          3.16181e-12 3.16409e-12 3.19285e-12 3.19888e-12 3.22891e-12 3.23418e-12 3.27288e-12 3.27696e-12 3.32106e-12 3.32355e-12 3.37521e-12 3.37945e-12
          3.44038e-12 3.44223e-12 3.51686e-12 3.51286e-12 3.60274e-12 3.59567e-12 3.69229e-12 3.69154e-12 3.82154e-12 3.80451e-12 3.94924e-12 3.93542e-12
          4.10573e-12 4.08884e-12 4.3106e-12 4.28784e-12 4.55845e-12 4.52746e-12 4.8771e-12 4.83814e-12 5.29896e-12 5.24681e-12 5.91808e-12 5.85626e-12
          6.99807e-12 6.90714e-12 9.26589e-12 9.12921e-12 1.59643e-11 1.57703e-11 2e-10 2e-10
        </DataArray>
        <DataArray type="Float32" Name="X_lBrine" NumberOfComponents="1" format="ascii">
          0.980774 0.980774 0.980548 0.980548 0.980305 0.980305 0.980061 0.980061 0.979816 0.979816 0.979569 0.979569
          0.979322 0.979322 0.979074 0.979074 0.978826 0.978826 0.978578 0.978578 0.978329 0.978329 0.977843 0.977843
          0.977361 0.977361 0.976884 0.976884 0.976416 0.976416 0.975959 0.975959 0.975411 0.975411 0.974888 0.974888
          0.974396 0.974396 0.973939 0.973939 0.973524 0.973524 0.973156 0.973156 0.972842 0.972842 0.972589 0.972589
          0.972405 0.972405 0.972296 0.972296 0.972273 0.972273 0.972344 0.972344 0.97252 0.97252 0.972813 0.972813
          0.973237 0.973237 0.973806 0.973806 0.97454 0.97454 0.97546 0.97546 0.976594 0.976594 0.977982 0.977981
          0.979687 0.979685 0.981833 0.981829 0.984718 0.984712 0.99029 0.99029
        </DataArray>
        <DataArray type="Float32" Name="X_lTotalC" NumberOfComponents="1" format="ascii">
          0.00010855 0.000108553 0.000108561 0.000108562 0.000108629 0.00010863 0.000108678 0.000108683 0.000108724 0.000108731 0.000108768 0.000108775
          0.000108811 0.000108816 0.000108849 0.000108856 0.000108886 0.000108893 0.00010892 0.000108927 0.000108954 0.00010896 0.000109015 0.000109025
          0.000109064 0.000109073 0.000109113 0.000109123 0.000109159 0.000109167 0.000109199 0.000109207 0.000109246 0.000109256 0.000109291 0.000109299
          0.000109336 0.000109343 0.000109382 0.00010939 0.000109432 0.000109439 0.000109489 0.000109494 0.000109553 0.000109556 0.000109627 0.00010963
          0.000109716 0.000109716 0.000109821 0.000109817 0.000109943 0.000109937 0.000110084 0.000110078 0.000110256 0.000110242 0.00011045 0.000110433
          0.000110675 0.000110655 0.000110942 0.000110916 0.000111247 0.000111215 0.0001116 0.00011156 0.000112002 0.000111956 0.000112448 0.000112394
          0.000112783 0.000112719 0.000111706 0.000111638 9.96034e-05 9.95717e-05 5.81077e-07 5.81077e-07
        </DataArray>
        <DataArray type="Float32" Name="X_lNa" NumberOfComponents="1" format="ascii">
          3.10387e-06 3.10392e-06 3.08054e-06 3.08057e-06 3.05551e-06 3.05556e-06 3.03031e-06 3.03033e-06 3.00497e-06 3.00498e-06 2.97951e-06 2.97951e-06
          2.95393e-06 2.95394e-06 2.92827e-06 2.92829e-06 2.90256e-06 2.90257e-06 2.87681e-06 2.87681e-06 2.85102e-06 2.85104e-06 2.80048e-06 2.80048e-06
          2.75022e-06 2.75022e-06 2.7005e-06 2.7005e-06 2.65149e-06 2.65149e-06 2.60344e-06 2.60345e-06 2.5456e-06 2.5456e-06 2.49008e-06 2.49008e-06
          2.4374e-06 2.4374e-06 2.38806e-06 2.38806e-06 2.34261e-06 2.34261e-06 2.30164e-06 2.30164e-06 2.26574e-06 2.26574e-06 2.23557e-06 2.23557e-06
          2.21184e-06 2.21183e-06 2.1953e-06 2.19529e-06 2.18675e-06 2.18674e-06 2.18711e-06 2.18709e-06 2.19733e-06 2.19731e-06 2.21853e-06 2.2185e-06
          2.25191e-06 2.25189e-06 2.2989e-06 2.29889e-06 2.36118e-06 2.36117e-06 2.44076e-06 2.44073e-06 2.54017e-06 2.54013e-06 2.66294e-06 2.66287e-06
          2.81477e-06 2.81462e-06 3.00664e-06 3.00627e-06 3.26363e-06 3.2631e-06 3.74885e-06 3.74885e-06
        </DataArray>
        <DataArray type="Float32" Name="X_lCl" NumberOfComponents="1" format="ascii">
          0.0108959 0.0108955 0.0110506 0.0110505 0.0112167 0.0112163 0.0113839 0.0113837 0.011552 0.0115519 0.0117209 0.0117208
          0.0118905 0.0118904 0.0120607 0.0120606 0.0122313 0.0122312 0.0124021 0.012402 0.0125731 0.012573 0.0129083 0.0129083
          0.0132416 0.0132416 0.0135714 0.0135714 0.0138963 0.0138963 0.0142149 0.0142148 0.0145983 0.0145983 0.0149663 0.0149663
          0.0153154 0.0153154 0.0156423 0.0156422 0.0159432 0.0159432 0.0162144 0.0162144 0.0164518 0.0164518 0.016651 0.016651
          0.0168074 0.0168075 0.016916 0.0169161 0.0169714 0.0169715 0.0169676 0.0169677 0.016898 0.0168981 0.0167554 0.0167556
          0.0165318 0.0165319 0.0162175 0.0162176 0.0158014 0.0158016 0.0152702 0.0152704 0.0146069 0.0146072 0.0137881 0.0137886
          0.0127757 0.0127767 0.0114966 0.0114991 0.00978427 0.00978783 0.00655617 0.00655617
        </DataArray>
        <DataArray type="Float32" Name="X_lCa" NumberOfComponents="1" format="ascii">
          0.000153047 0.000153046 0.000155014 0.000155012 0.000157175 0.000157172 0.000159332 0.000159335 0.000161499 0.000161504 0.000163673 0.00016368
          0.000165857 0.000165861 0.000168043 0.000168048 0.000170233 0.000170238 0.000172423 0.000172429 0.000174615 0.00017462 0.000178908 0.000178917
          0.000183166 0.000183174 0.000187379 0.000187388 0.000191529 0.000191536 0.000195592 0.000195598 0.000200482 0.000200491 0.000205175 0.000205183
          0.00020963 0.000209636 0.000213805 0.000213811 0.000217655 0.000217661 0.000221136 0.000221141 0.000224197 0.0002242 0.000226786 0.000226788
          0.000228846 0.000228847 0.000230318 0.000230315 0.000231133 0.000231128 0.000231216 0.000231212 0.0002305 0.000230488 0.000228879 0.000228865
          0.000226263 0.000226246 0.000222541 0.000222519 0.000217569 0.00021754 0.000211185 0.000211151 0.000203179 0.00020314 0.000193249 0.000193206
          0.000180777 0.00018073 0.000163657 0.000163624 0.000131046 0.000131059 0 0
        </DataArray>
        <DataArray type="Float32" Name="X_lUrea" NumberOfComponents="1" format="ascii">
          6.97214e-10 6.97035e-10 7.54145e-10 7.56259e-10 8.44278e-10 8.45226e-10 9.09209e-10 9.14454e-10 9.72118e-10 9.79973e-10 1.0361e-09 1.04431e-09
          1.1017e-09 1.10966e-09 1.169e-09 1.17681e-09 1.23804e-09 1.24671e-09 1.30959e-09 1.31782e-09 1.38438e-09 1.39118e-09 1.53639e-09 1.552e-09
          1.69196e-09 1.70697e-09 1.86732e-09 1.88429e-09 2.0523e-09 2.06887e-09 2.24688e-09 2.26296e-09 2.50286e-09 2.52407e-09 2.77764e-09 2.79972e-09
          3.07721e-09 3.09657e-09 3.39716e-09 3.41803e-09 3.73845e-09 3.7607e-09 4.11291e-09 4.13191e-09 4.5169e-09 4.53008e-09 4.95454e-09 4.96573e-09
          5.43917e-09 5.4395e-09 5.98085e-09 5.96439e-09 6.57664e-09 6.54331e-09 7.23642e-09 7.20325e-09 8.02974e-09 7.94748e-09 8.90793e-09 8.78934e-09
          9.95135e-09 9.79424e-09 1.12601e-08 1.10433e-08 1.28721e-08 1.25628e-08 1.49757e-08 1.4547e-08 1.78444e-08 1.72577e-08 2.21824e-08 2.13526e-08
          3.00269e-08 2.87174e-08 4.91792e-08 4.68797e-08 1.06403e-07 1.01903e-07 0 0
        </DataArray>
        <DataArray type="Float32" Name="X_lTotalNH" NumberOfComponents="1" format="ascii">
          0.00518768 0.00518754 0.00526037 0.00526029 0.00533836 0.0053382 0.00541687 0.00541682 0.00549581 0.00549579 0.00557514 0.00557513
          0.0056548 0.00565478 0.00573474 0.0057347 0.00581484 0.00581481 0.00589507 0.00589504 0.00597537 0.00597533 0.00613279 0.00613279
          0.00628935 0.00628935 0.0064442 0.00644421 0.00659681 0.00659681 0.00674643 0.0067464 0.00692649 0.0069265 0.00709931 0.00709934
          0.00726328 0.00726327 0.00741677 0.00741675 0.00755809 0.00755809 0.00768545 0.00768545 0.00779694 0.00779694 0.00789051 0.00789052
          0.00796397 0.00796399 0.00801498 0.00801501 0.00804097 0.00804101 0.00803917 0.00803922 0.00800651 0.00800656 0.00793954 0.00793961
          0.00783448 0.00783454 0.00768688 0.00768694 0.00749148 0.00749154 0.007242 0.00724208 0.00693047 0.0069306 0.00654591 0.00654613
          0.00607043 0.00607089 0.00546971 0.00547088 0.00466547 0.00466714 0.00314947 0.00314947
        </DataArray>
        <DataArray type="Float32" Name="X_lO2" NumberOfComponents="1" format="ascii">
          8.03532e-27 8.07379e-27 8.95371e-27 9.31783e-27 1.4359e-26 1.48478e-26 1.68602e-26 1.83959e-26 1.80368e-26 2.01452e-26 1.82517e-26 2.05096e-26
          1.80863e-26 2.00396e-26 1.72637e-26 1.90944e-26 1.61308e-26 1.78153e-26 1.47831e-26 1.62287e-26 1.33622e-26 1.45695e-26 1.03587e-26 1.17367e-26
          7.31213e-27 8.23489e-27 5.07298e-27 5.70615e-27 3.34639e-27 3.70541e-27 2.04647e-27 2.25008e-27 1.02498e-27 1.13386e-27 4.58472e-28 5.02579e-28
          1.84289e-28 1.98497e-28 6.6378e-29 7.11935e-29 2.13307e-29 2.27295e-29 5.95215e-30 6.26466e-30 1.43663e-30 1.48625e-30 3.14653e-31 3.22443e-31
          6.656e-32 6.7013e-32 3.95555e-32 3.86991e-32 6.20143e-33 6.05459e-33 6.53904e-34 6.41672e-34 6.42241e-35 6.18429e-35 6.65066e-36 6.33044e-36
          1.85507e-36 1.58143e-36 6.23803e-37 4.20945e-37 1.27021e-37 9.09029e-38 1.9169e-38 1.50589e-38 0 0 0 0
          0 0 0 0 0 0 0 0
        </DataArray>
        <DataArray type="Float32" Name="X_lSubstrate" NumberOfComponents="1" format="ascii">
          0.00287256 0.00287257 0.00286931 0.00286932 0.00286568 0.00286569 0.0028619 0.0028619 0.00285794 0.00285794 0.00285382 0.00285382
          0.00284952 0.00284951 0.00284502 0.00284502 0.00284034 0.00284034 0.00283544 0.00283544 0.00283033 0.00283033 0.00281968 0.00281967
          0.00280807 0.00280807 0.00279546 0.00279546 0.00278175 0.00278174 0.00276682 0.00276682 0.00274655 0.00274655 0.00272404 0.00272403
          0.00269904 0.00269903 0.00267128 0.00267128 0.00264045 0.00264044 0.00260619 0.00260618 0.00256808 0.00256807 0.00252568 0.00252567
          0.00247848 0.00247845 0.00242586 0.00242584 0.00236715 0.00236713 0.00230159 0.00230156 0.00222825 0.00222821 0.00214604 0.00214602
          0.0020538 0.00205376 0.00194998 0.00194992 0.0018327 0.00183264 0.0016997 0.00169965 0.00154799 0.00154794 0.00137331 0.00137329
          0.00116861 0.00116868 0.000920284 0.000920646 0.000597468 0.000598044 0 0
        </DataArray>
        <DataArray type="Float32" Name="X_lSuspended_Biomass" NumberOfComponents="1" format="ascii">
          5.52329e-06 5.52313e-06 5.51747e-06 5.51703e-06 5.50859e-06 5.50909e-06 5.50186e-06 5.50162e-06 5.49411e-06 5.49478e-06 5.48703e-06 5.48767e-06
          5.47986e-06 5.48034e-06 5.4722e-06 5.47269e-06 5.46417e-06 5.46463e-06 5.45575e-06 5.45613e-06 5.44699e-06 5.44712e-06 5.42723e-06 5.42834e-06
          5.40632e-06 5.40732e-06 5.38322e-06 5.38411e-06 5.35775e-06 5.35859e-06 5.32985e-06 5.33053e-06 5.29112e-06 5.29213e-06 5.24797e-06 5.2489e-06
          5.19962e-06 5.2005e-06 5.14552e-06 5.14632e-06 5.08501e-06 5.08572e-06 5.01733e-06 5.01798e-06 4.94166e-06 4.94226e-06 4.85708e-06 4.85761e-06
          4.76254e-06 4.76301e-06 4.65683e-06 4.65724e-06 4.53862e-06 4.53896e-06 4.40641e-06 4.40661e-06 4.25834e-06 4.25843e-06 4.09235e-06 4.09237e-06
          3.90623e-06 3.90607e-06 3.6971e-06 3.69674e-06 3.46164e-06 3.46106e-06 3.19597e-06 3.19513e-06 2.8952e-06 2.89405e-06 2.55264e-06 2.55109e-06
          2.1571e-06 2.15505e-06 1.68633e-06 1.6838e-06 1.08725e-06 1.08511e-06 0 0
        </DataArray>
        <DataArray type="Float32" Name="X_lNH4" NumberOfComponents="1" format="ascii">
          0.00544392 0.00544376 0.00552087 0.00552079 0.00560342 0.00560324 0.00568652 0.00568646 0.00577009 0.00577006 0.00585406 0.00585405
          0.00593839 0.00593837 0.00602301 0.00602297 0.00610781 0.00610778 0.00619274 0.00619271 0.00627776 0.00627772 0.00644442 0.00644441
          0.00661016 0.00661016 0.00677411 0.00677411 0.00693568 0.00693567 0.00709409 0.00709406 0.00728473 0.00728473 0.00746771 0.00746773
          0.00764131 0.0076413 0.00780383 0.00780381 0.00795345 0.00795344 0.00808829 0.00808828 0.00820632 0.00820631 0.00830537 0.00830537
          0.00838312 0.00838315 0.00843709 0.00843712 0.00846457 0.0084646 0.00846259 0.00846265 0.00842794 0.008428 0.00835694 0.00835703
          0.0082456 0.00824567 0.0080892 0.00808926 0.00788216 0.00788223 0.00761784 0.00761794 0.0072878 0.00728795 0.00688042 0.00688067
          0.00637682 0.00637733 0.00574122 0.00574248 0.00489473 0.00489652 0.00333307 0.00333307
        </DataArray>
        <DataArray type="Float32" Name="X_lHCO3" NumberOfComponents="1" format="ascii">
          0.000135288 0.000135292 0.000135143 0.000135144 0.000135064 0.000135067 0.00013496 0.000134967 0.000134852 0.00013486 0.00013474 0.000134749
          0.000134628 0.000134635 0.00013451 0.000134519 0.000134391 0.0001344 0.000134269 0.000134278 0.000134147 0.000134155 0.000133905 0.000133918
          0.000133651 0.000133663 0.000133405 0.000133418 0.000133163 0.000133174 0.000132921 0.000132932 0.000132634 0.000132647 0.000132362 0.000132373
          0.000132112 0.00013212 0.000131885 0.000131895 0.000131689 0.000131698 0.000131531 0.000131538 0.000131414 0.000131419 0.000131344 0.000131348
          0.000131331 0.000131331 0.000131381 0.000131376 0.000131499 0.00013149 0.000131691 0.000131683 0.000131982 0.000131963 0.000132362 0.000132339
          0.000132856 0.000132829 0.000133486 0.000133451 0.00013426 0.000134217 0.000135207 0.000135154 0.000136352 0.000136289 0.000137717 0.000137644
          0.000139146 0.000139059 0.000138963 0.000138867 0.000124264 0.000124217 3.37056e-07 3.37056e-07
        </DataArray>
        <DataArray type="Float32" Name="X_lCO3" NumberOfComponents="1" format="ascii">
          1.42088e-07 1.42099e-07 1.40385e-07 1.40387e-07 1.38755e-07 1.38762e-07 1.37111e-07 1.37125e-07 1.35498e-07 1.35514e-07 1.33914e-07 1.33932e-07
          1.32367e-07 1.32382e-07 1.30847e-07 1.30863e-07 1.29359e-07 1.29377e-07 1.27905e-07 1.27921e-07 1.26486e-07 1.265e-07 1.23799e-07 1.23822e-07
          1.21232e-07 1.21252e-07 1.18817e-07 1.18838e-07 1.16541e-07 1.16558e-07 1.14396e-07 1.14414e-07 1.11936e-07 1.11956e-07 1.09689e-07 1.09706e-07
          1.07662e-07 1.07675e-07 1.05851e-07 1.05866e-07 1.04262e-07 1.04276e-07 1.02904e-07 1.02914e-07 1.01779e-07 1.01786e-07 1.00898e-07 1.00904e-07
          1.00278e-07 1.00278e-07 9.99369e-08 9.99296e-08 9.98932e-08 9.98805e-08 1.00177e-07 1.00165e-07 1.00847e-07 1.0082e-07 1.01933e-07 1.01899e-07
          1.03522e-07 1.03482e-07 1.05727e-07 1.05676e-07 1.0868e-07 1.08613e-07 1.12594e-07 1.12511e-07 1.17782e-07 1.17679e-07 1.24729e-07 1.24602e-07
          1.33967e-07 1.33801e-07 1.43847e-07 1.43636e-07 1.30635e-07 1.30508e-07 2.55591e-11 2.55591e-11
        </DataArray>
        <DataArray type="Float32" Name="X_lCO2" NumberOfComponents="1" format="ascii">
          1.08898e-05 1.08896e-05 1.10069e-05 1.10068e-05 1.11327e-05 1.11325e-05 1.12583e-05 1.12583e-05 1.13837e-05 1.13837e-05 1.15088e-05 1.15089e-05
          1.16337e-05 1.16338e-05 1.17582e-05 1.17582e-05 1.18821e-05 1.18821e-05 1.20053e-05 1.20054e-05 1.21279e-05 1.2128e-05 1.23659e-05 1.23661e-05
          1.25996e-05 1.25997e-05 1.28279e-05 1.28281e-05 1.30503e-05 1.30505e-05 1.32658e-05 1.32659e-05 1.35219e-05 1.35221e-05 1.37645e-05 1.37647e-05
          1.39919e-05 1.39921e-05 1.42025e-05 1.42027e-05 1.43945e-05 1.43947e-05 1.45663e-05 1.45665e-05 1.47159e-05 1.4716e-05 1.48411e-05 1.48412e-05
          1.49398e-05 1.49398e-05 1.50093e-05 1.50092e-05 1.50466e-05 1.50465e-05 1.50483e-05 1.50482e-05 1.50108e-05 1.50105e-05 1.49288e-05 1.49284e-05
          1.47968e-05 1.47964e-05 1.46079e-05 1.46073e-05 1.43528e-05 1.43521e-05 1.40197e-05 1.40189e-05 1.35928e-05 1.3592e-05 1.30488e-05 1.3048e-05
          1.23468e-05 1.23463e-05 1.13949e-05 1.13957e-05 9.90075e-06 9.90302e-06 3.38012e-07 3.38012e-07
        </DataArray>
        <DataArray type="Float32" Name="X_lH" NumberOfComponents="1" format="ascii">
          5.61509e-11 5.61481e-11 5.6852e-11 5.68512e-11 5.75758e-11 5.75736e-11 5.83107e-11 5.83078e-11 5.90482e-11 5.90449e-11 5.97882e-11 5.97845e-11
          6.05287e-11 6.05257e-11 6.12712e-11 6.12676e-11 6.20138e-11 6.201e-11 6.27558e-11 6.27522e-11 6.34965e-11 6.34933e-11 6.49436e-11 6.49385e-11
          6.63797e-11 6.63749e-11 6.77903e-11 6.77851e-11 6.91734e-11 6.91689e-11 7.05246e-11 7.05196e-11 7.21399e-11 7.21344e-11 7.36807e-11 7.36759e-11
          7.5131e-11 7.51271e-11 7.64786e-11 7.6474e-11 7.77081e-11 7.77038e-11 7.88029e-11 7.87995e-11 7.97479e-11 7.97456e-11 8.05252e-11 8.05232e-11
          8.11141e-11 8.11141e-11 8.14945e-11 8.14972e-11 8.16455e-11 8.16501e-11 8.15426e-11 8.15468e-11 8.11518e-11 8.11614e-11 8.04506e-11 8.04623e-11
          7.93985e-11 7.94122e-11 7.79504e-11 7.79669e-11 7.60593e-11 7.60796e-11 7.3662e-11 7.36856e-11 7.06792e-11 7.07064e-11 6.70065e-11 6.7037e-11
          6.254e-11 6.25759e-11 5.75046e-11 5.75474e-11 5.5235e-11 5.52686e-11 6.32454e-10 6.32454e-10
        </DataArray>
        <DataArray type="Float32" Name="X_lOH" NumberOfComponents="1" format="ascii">
          2.97002e-06 2.97017e-06 2.93251e-06 2.93255e-06 2.8947e-06 2.89481e-06 2.85728e-06 2.85743e-06 2.82067e-06 2.82082e-06 2.78484e-06 2.78501e-06
          2.74986e-06 2.74999e-06 2.71563e-06 2.71579e-06 2.68222e-06 2.68239e-06 2.64962e-06 2.64977e-06 2.61784e-06 2.61798e-06 2.55784e-06 2.55804e-06
          2.50089e-06 2.50107e-06 2.44729e-06 2.44748e-06 2.39686e-06 2.39701e-06 2.3495e-06 2.34966e-06 2.29521e-06 2.29539e-06 2.24565e-06 2.24579e-06
          2.20086e-06 2.20097e-06 2.16077e-06 2.1609e-06 2.12542e-06 2.12554e-06 2.09488e-06 2.09497e-06 2.06921e-06 2.06927e-06 2.04858e-06 2.04863e-06
          2.03324e-06 2.03324e-06 2.02351e-06 2.02344e-06 2.01976e-06 2.01964e-06 2.02256e-06 2.02246e-06 2.03286e-06 2.03262e-06 2.05147e-06 2.05117e-06
          2.07994e-06 2.07958e-06 2.12032e-06 2.11987e-06 2.17532e-06 2.17474e-06 2.24905e-06 2.24833e-06 2.34773e-06 2.34683e-06 2.48127e-06 2.48014e-06
          2.66486e-06 2.66332e-06 2.90695e-06 2.90477e-06 3.03867e-06 3.0368e-06 2.67481e-07 2.67481e-07
        </DataArray>
        <DataArray type="Float32" Name="X_gBrine" NumberOfComponents="1" format="ascii">
          0.0112469 0.0112314 0.0112404 0.0112404 0.0112493 0.0112493 0.0112583 0.0112583 0.0112673 0.0112673 0.0112763 0.0112763
          0.0112853 0.0112853 0.0112944 0.0112944 0.0113034 0.0113034 0.0113125 0.0113125 0.0113216 0.0113216 0.0113398 0.0113398
          0.0113581 0.0113581 0.0113765 0.0113765 0.011395 0.011395 0.0114136 0.0114136 0.0114369 0.0114369 0.0114604 0.0114604
          0.0114842 0.0114842 0.011508 0.0115081 0.0115322 0.0115322 0.0115565 0.0115565 0.011581 0.011581 0.0116059 0.0116059
          0.0116309 0.0116309 0.0116563 0.0116563 0.011682 0.011682 0.0117081 0.0117081 0.0117345 0.0117345 0.0117613 0.0117613
          0.0117885 0.0117885 0.0118162 0.0118162 0.0118444 0.0118444 0.0118732 0.0118732 0.0119025 0.0119025 0.0119326 0.0119326
          0.0119636 0.0119636 0.0119957 0.0119957 0.0120297 0.0120296 0.0120698 0.0120698
        </DataArray>
        <DataArray type="Float32" Name="X_gTotalC" NumberOfComponents="1" format="ascii">
          0.988753 0.988769 0.98876 0.98876 0.988751 0.988751 0.988742 0.988742 0.988733 0.988733 0.988724 0.988724
          0.988715 0.988715 0.988706 0.988706 0.988697 0.988697 0.988688 0.988688 0.988678 0.988678 0.98866 0.98866
          0.988642 0.988642 0.988623 0.988623 0.988605 0.988605 0.988586 0.988586 0.988563 0.988563 0.98854 0.98854
          0.988516 0.988516 0.988492 0.988492 0.988468 0.988468 0.988443 0.988443 0.988419 0.988419 0.988394 0.988394
          0.988369 0.988369 0.988344 0.988344 0.988318 0.988318 0.988292 0.988292 0.988266 0.988266 0.988239 0.988239
          0.988212 0.988212 0.988184 0.988184 0.988156 0.988156 0.988127 0.988127 0.988097 0.988097 0.988067 0.988067
          0.988036 0.988036 0.988004 0.988004 0.98797 0.98797 0.98793 0.98793
        </DataArray>
        <DataArray type="Float32" Name="X_gNa" NumberOfComponents="1" format="ascii">
          0 0 0 0 0 0 0 0 0 0 0 0
          0 0 0 0 0 0 0 0 0 0 0 0
          0 0 0 0 0 0 0 0 0 0 0 0
          0 0 0 0 0 0 0 0 0 0 0 0
          0 0 0 0 0 0 0 0 0 0 0 0
          0 0 0 0 0 0 0 0 0 0 0 0
          0 0 0 0 0 0 0 0
        </DataArray>
        <DataArray type="Float32" Name="X_gCl" NumberOfComponents="1" format="ascii">
          0 0 0 0 0 0 0 0 0 0 0 0
          0 0 0 0 0 0 0 0 0 0 0 0
          0 0 0 0 0 0 0 0 0 0 0 0
          0 0 0 0 0 0 0 0 0 0 0 0
          0 0 0 0 0 0 0 0 0 0 0 0
          0 0 0 0 0 0 0 0 0 0 0 0
          0 0 0 0 0 0 0 0
        </DataArray>
        <DataArray type="Float32" Name="X_gCa" NumberOfComponents="1" format="ascii">
          0 0 0 0 0 0 0 0 0 0 0 0
          0 0 0 0 0 0 0 0 0 0 0 0
          0 0 0 0 0 0 0 0 0 0 0 0
          0 0 0 0 0 0 0 0 0 0 0 0
          0 0 0 0 0 0 0 0 0 0 0 0
          0 0 0 0 0 0 0 0 0 0 0 0
          0 0 0 0 0 0 0 0
        </DataArray>
        <DataArray type="Float32" Name="X_gUrea" NumberOfComponents="1" format="ascii">
          0 0 0 0 0 0 0 0 0 0 0 0
          0 0 0 0 0 0 0 0 0 0 0 0
          0 0 0 0 0 0 0 0 0 0 0 0
          0 0 0 0 0 0 0 0 0 0 0 0
          0 0 0 0 0 0 0 0 0 0 0 0
          0 0 0 0 0 0 0 0 0 0 0 0
          0 0 0 0 0 0 0 0
        </DataArray>
        <DataArray type="Float32" Name="X_gTotalNH" NumberOfComponents="1" format="ascii">
          0 0 0 0 0 0 0 0 0 0 0 0
          0 0 0 0 0 0 0 0 0 0 0 0
          0 0 0 0 0 0 0 0 0 0 0 0
          0 0 0 0 0 0 0 0 0 0 0 0
          0 0 0 0 0 0 0 0 0 0 0 0
          0 0 0 0 0 0 0 0 0 0 0 0
          0 0 0 0 0 0 0 0
        </DataArray>
        <DataArray type="Float32" Name="X_gO2" NumberOfComponents="1" format="ascii">
          0 0 0 0 0 0 0 0 0 0 0 0
          0 0 0 0 0 0 0 0 0 0 0 0
          0 0 0 0 0 0 0 0 0 0 0 0
          0 0 0 0 0 0 0 0 0 0 0 0
          0 0 0 0 0 0 0 0 0 0 0 0
          0 0 0 0 0 0 0 0 0 0 0 0
          0 0 0 0 0 0 0 0
        </DataArray>
        <DataArray type="Float32" Name="X_gSubstrate" NumberOfComponents="1" format="ascii">
          0 0 0 0 0 0 0 0 0 0 0 0
          0 0 0 0 0 0 0 0 0 0 0 0
          0 0 0 0 0 0 0 0 0 0 0 0
          0 0 0 0 0 0 0 0 0 0 0 0
          0 0 0 0 0 0 0 0 0 0 0 0
          0 0 0 0 0 0 0 0 0 0 0 0
          0 0 0 0 0 0 0 0
        </DataArray>
        <DataArray type="Float32" Name="X_gSuspended_Biomass" NumberOfComponents="1" format="ascii">
          0 0 0 0 0 0 0 0 0 0 0 0
          0 0 0 0 0 0 0 0 0 0 0 0
          0 0 0 0 0 0 0 0 0 0 0 0
          0 0 0 0 0 0 0 0 0 0 0 0
          0 0 0 0 0 0 0 0 0 0 0 0
          0 0 0 0 0 0 0 0 0 0 0 0
          0 0 0 0 0 0 0 0
        </DataArray>
        <DataArray type="Float32" Name="X_gNH4" NumberOfComponents="1" format="ascii">
          0 0 0 0 0 0 0 0 0 0 0 0
          0 0 0 0 0 0 0 0 0 0 0 0
          0 0 0 0 0 0 0 0 0 0 0 0
          0 0 0 0 0 0 0 0 0 0 0 0
          0 0 0 0 0 0 0 0 0 0 0 0
          0 0 0 0 0 0 0 0 0 0 0 0
          0 0 0 0 0 0 0 0
        </DataArray>
        <DataArray type="Float32" Name="X_gHCO3" NumberOfComponents="1" format="ascii">
          0 0 0 0 0 0 0 0 0 0 0 0
          0 0 0 0 0 0 0 0 0 0 0 0
          0 0 0 0 0 0 0 0 0 0 0 0
          0 0 0 0 0 0 0 0 0 0 0 0
          0 0 0 0 0 0 0 0 0 0 0 0
          0 0 0 0 0 0 0 0 0 0 0 0
          0 0 0 0 0 0 0 0
        </DataArray>
        <DataArray type="Float32" Name="X_gCO3" NumberOfComponents="1" format="ascii">
          0 0 0 0 0 0 0 0 0 0 0 0
          0 0 0 0 0 0 0 0 0 0 0 0
          0 0 0 0 0 0 0 0 0 0 0 0
          0 0 0 0 0 0 0 0 0 0 0 0
          0 0 0 0 0 0 0 0 0 0 0 0
          0 0 0 0 0 0 0 0 0 0 0 0
          0 0 0 0 0 0 0 0
        </DataArray>
        <DataArray type="Float32" Name="X_gCO2" NumberOfComponents="1" format="ascii">
          0.988753 0.988769 0.98876 0.98876 0.988751 0.988751 0.988742 0.988742 0.988733 0.988733 0.988724 0.988724
          0.988715 0.988715 0.988706 0.988706 0.988697 0.988697 0.988688 0.988688 0.988678 0.988678 0.98866 0.98866
          0.988642 0.988642 0.988623 0.988623 0.988605 0.988605 0.988586 0.988586 0.988563 0.988563 0.98854 0.98854
          0.988516 0.988516 0.988492 0.988492 0.988468 0.988468 0.988443 0.988443 0.988419 0.988419 0.988394 0.988394
          0.988369 0.988369 0.988344 0.988344 0.988318 0.988318 0.988292 0.988292 0.988266 0.988266 0.988239 0.988239
          0.988212 0.988212 0.988184 0.988184 0.988156 0.988156 0.988127 0.988127 0.988097 0.988097 0.988067 0.988067
          0.988036 0.988036 0.988004 0.988004 0.98797 0.98797 0.98793 0.98793
        </DataArray>
        <DataArray type="Float32" Name="X_gH" NumberOfComponents="1" format="ascii">
          0 0 0 0 0 0 0 0 0 0 0 0
          0 0 0 0 0 0 0 0 0 0 0 0
          0 0 0 0 0 0 0 0 0 0 0 0
          0 0 0 0 0 0 0 0 0 0 0 0
          0 0 0 0 0 0 0 0 0 0 0 0
          0 0 0 0 0 0 0 0 0 0 0 0
          0 0 0 0 0 0 0 0
        </DataArray>
        <DataArray type="Float32" Name="X_gOH" NumberOfComponents="1" format="ascii">
          0 0 0 0 0 0 0 0 0 0 0 0
          0 0 0 0 0 0 0 0 0 0 0 0
          0 0 0 0 0 0 0 0 0 0 0 0
          0 0 0 0 0 0 0 0 0 0 0 0
          0 0 0 0 0 0 0 0 0 0 0 0
          0 0 0 0 0 0 0 0 0 0 0 0
          0 0 0 0 0 0 0 0
        </DataArray>
        <DataArray type="Float32" Name="Molarity_Brine" NumberOfComponents="1" format="ascii">
          54686.5 54686.5 54679.7 54679.7 54672.3 54672.3 54664.9 54664.9 54657.5 54657.5 54650.1 54650.1
          54642.6 54642.6 54635.1 54635.1 54627.6 54627.6 54620.1 54620.1 54612.6 54612.6 54597.9 54597.9
          54583.4 54583.4 54569.1 54569.1 54555 54555 54541.3 54541.3 54524.9 54524.9 54509.4 54509.4
          54494.8 54494.8 54481.4 54481.5 54469.4 54469.4 54458.9 54458.9 54450.2 54450.2 54443.4 54443.4
          54438.9 54438.9 54436.9 54436.9 54437.6 54437.6 54441.4 54441.4 54448.7 54448.7 54459.8 54459.8
          54475.2 54475.2 54495.4 54495.4 54521 54521 54552.7 54552.7 54591.4 54591.4 54638.5 54638.4
          54695.9 54695.9 54768 54767.8 54864.3 54864.1 55049.2 55049.2
        </DataArray>
        <DataArray type="Float32" Name="Molarity_TotalC" NumberOfComponents="1" format="ascii">
          2.47814 2.47821 2.47867 2.47867 2.4805 2.48053 2.48189 2.48201 2.48324 2.48338 2.48451 2.48467
          2.48578 2.48591 2.48695 2.4871 2.48808 2.48823 2.48916 2.48931 2.49021 2.49034 2.49218 2.4924
          2.49386 2.49406 2.49555 2.49577 2.49716 2.49734 2.4986 2.49878 2.50035 2.50056 2.50199 2.50218
          2.50363 2.50377 2.50524 2.50541 2.50689 2.50705 2.50866 2.50878 2.51054 2.51062 2.51258 2.51265
          2.51488 2.51489 2.51748 2.5174 2.52037 2.52023 2.5236 2.52346 2.52743 2.52711 2.53161 2.53122
          2.5364 2.53593 2.54196 2.54137 2.54824 2.5475 2.55538 2.55448 2.56344 2.56238 2.5722 2.57098
          2.57809 2.57663 2.55125 2.54968 2.27215 2.27144 0.0132254 0.0132254
        </DataArray>
        <DataArray type="Float32" Name="Molarity_Na" NumberOfComponents="1" format="ascii">
          0.135617 0.135619 0.134612 0.134613 0.133533 0.133536 0.132447 0.132448 0.131355 0.131355 0.130257 0.130257
          0.129153 0.129154 0.128046 0.128047 0.126937 0.126937 0.125825 0.125825 0.124712 0.124713 0.122529 0.122529
          0.120357 0.120357 0.118208 0.118208 0.116089 0.116089 0.11401 0.11401 0.111506 0.111506 0.109101 0.109101
          0.106818 0.106818 0.104679 0.10468 0.102708 0.102709 0.100931 0.100931 0.0993724 0.0993725 0.0980627 0.0980627
          0.0970322 0.0970319 0.0963136 0.0963131 0.0959423 0.0959419 0.0959576 0.0959569 0.0964014 0.0964008 0.0973221 0.0973211
          0.0987715 0.0987707 0.100811 0.10081 0.103513 0.103512 0.106962 0.106961 0.111269 0.111267 0.116581 0.116578
          0.123143 0.123137 0.131422 0.131406 0.142488 0.142465 0.1633 0.1633
        </DataArray>
        <DataArray type="Float32" Name="Molarity_Cl" NumberOfComponents="1" format="ascii">
          308.715 308.706 313.133 313.129 317.875 317.865 322.649 322.646 327.451 327.45 332.277 332.277
          337.125 337.124 341.99 341.988 346.867 346.865 351.753 351.751 356.644 356.642 366.236 366.236
          375.779 375.779 385.223 385.223 394.534 394.534 403.667 403.665 414.663 414.663 425.223 425.224
          435.246 435.246 444.633 444.632 453.28 453.28 461.076 461.075 467.902 467.902 473.633 473.633
          478.134 478.135 481.259 481.261 482.852 482.854 482.742 482.745 480.741 480.744 476.638 476.642
          470.203 470.207 461.165 461.169 449.207 449.21 433.949 433.953 414.911 414.918 391.433 391.447
          362.442 362.469 325.871 325.941 277.008 277.109 185.193 185.193
        </DataArray>
        <DataArray type="Float32" Name="Molarity_Ca" NumberOfComponents="1" format="ascii">
          3.83592 3.83588 3.88563 3.88558 3.94024 3.94015 3.99477 3.99485 4.04957 4.04969 4.10456 4.10472
          4.15979 4.15991 4.21512 4.21524 4.27053 4.27067 4.32599 4.32612 4.3815 4.3816 4.49024 4.49046
          4.59815 4.59835 4.70497 4.7052 4.81023 4.81041 4.91335 4.91351 5.03751 5.03773 5.15671 5.15692
          5.26995 5.27009 5.37609 5.37624 5.47402 5.47417 5.56261 5.56273 5.64053 5.6406 5.70642 5.7065
          5.75888 5.75891 5.79635 5.79629 5.81708 5.81695 5.81917 5.81907 5.80086 5.80056 5.7595 5.75916
          5.69281 5.69238 5.59795 5.5974 5.47133 5.47062 5.30887 5.30802 5.1053 5.10432 4.85309 4.852
          4.53673 4.53555 4.10352 4.1027 3.28196 3.28229 0 0
        </DataArray>
        <DataArray type="Float32" Name="Molarity_Urea" NumberOfComponents="1" format="ascii">
          1.15569e-05 1.1554e-05 1.2502e-05 1.2537e-05 1.39977e-05 1.40135e-05 1.5076e-05 1.51629e-05 1.6121e-05 1.62512e-05 1.7184e-05 1.732e-05
          1.82741e-05 1.8406e-05 1.93927e-05 1.95221e-05 2.05403e-05 2.06841e-05 2.173e-05 2.18665e-05 2.29735e-05 2.30864e-05 2.5502e-05 2.57611e-05
          2.80907e-05 2.83398e-05 3.1009e-05 3.12909e-05 3.40884e-05 3.43637e-05 3.73285e-05 3.75955e-05 4.1592e-05 4.19445e-05 4.61699e-05 4.65368e-05
          5.11615e-05 5.14835e-05 5.64936e-05 5.68406e-05 6.21818e-05 6.2552e-05 6.84229e-05 6.8739e-05 7.51559e-05 7.53752e-05 8.2449e-05 8.26352e-05
          9.05233e-05 9.05289e-05 9.95459e-05 9.92719e-05 0.000109466 0.000108912 0.000120448 0.000119896 0.000133646 0.000132277 0.000148248 0.000146275
          0.000165588 0.000162974 0.000187325 0.000183719 0.000214082 0.000208938 0.000248977 0.000241851 0.000296537 0.000286787 0.00036842 0.000354637
          0.000498361 0.000476627 0.000815523 0.000777393 0.00176238 0.00168785 0 0
        </DataArray>
        <DataArray type="Float32" Name="Molarity_TotalNH" NumberOfComponents="1" format="ascii">
          305.973 305.964 310.293 310.288 314.929 314.919 319.597 319.594 324.292 324.29 329.01 329.01
          333.75 333.749 338.507 338.505 343.276 343.274 348.052 348.05 352.835 352.832 362.213 362.213
          371.544 371.544 380.777 380.778 389.881 389.881 398.81 398.809 409.562 409.562 419.886 419.887
          429.686 429.686 438.864 438.863 447.318 447.318 454.94 454.94 461.615 461.614 467.218 467.218
          471.618 471.619 474.674 474.676 476.231 476.233 476.123 476.126 474.167 474.169 470.155 470.159
          463.862 463.866 455.026 455.029 443.333 443.337 428.414 428.419 409.8 409.807 386.844 386.857
          358.497 358.525 322.739 322.808 274.961 275.061 185.193 185.193
        </DataArray>
        <DataArray type="Float32" Name="Molarity_O2" NumberOfComponents="1" format="ascii">
          2.52234e-22 2.53441e-22 2.81092e-22 2.92523e-22 4.50837e-22 4.66185e-22 5.29428e-22 5.7765e-22 5.6644e-22 6.32653e-22 5.73253e-22 6.4417e-22
          5.68124e-22 6.29483e-22 5.4235e-22 5.99862e-22 5.06816e-22 5.59741e-22 4.64527e-22 5.09951e-22 4.19929e-22 4.57868e-22 3.25613e-22 3.68927e-22
          2.299e-22 2.58912e-22 1.59535e-22 1.79447e-22 1.0526e-22 1.16553e-22 6.43855e-23 7.07914e-23 3.22562e-23 3.56827e-23 1.44317e-23 1.58201e-23
          5.8024e-24 6.24975e-24 2.0904e-24 2.24205e-24 6.71894e-25 7.15952e-25 1.87521e-25 1.97366e-25 4.52678e-26 4.68314e-26 9.91599e-27 1.01615e-26
          2.0978e-27 2.11208e-27 1.24678e-27 1.21979e-27 1.95475e-28 1.90846e-28 2.06116e-29 2.02261e-29 2.0243e-30 1.94925e-30 2.09604e-31 1.99512e-31
          5.84561e-32 4.98332e-32 1.96528e-32 1.32618e-32 4.00063e-33 2.86306e-33 6.03524e-34 4.74122e-34 7.66777e-35 6.42078e-35 9.12051e-36 7.9179e-36
          1.18869e-36 1.03776e-36 2.9515e-37 2.54658e-37 1.09726e-36 9.15731e-37 0 0
        </DataArray>
        <DataArray type="Float32" Name="Molarity_Substrate" NumberOfComponents="1" format="ascii">
          16.0162 16.0163 15.9998 15.9998 15.9814 15.9814 15.9621 15.9621 15.9419 15.9419 15.9207 15.9207
          15.8985 15.8985 15.8753 15.8753 15.851 15.851 15.8255 15.8255 15.7988 15.7988 15.743 15.7429
          15.6817 15.6817 15.6148 15.6148 15.5417 15.5416 15.4616 15.4616 15.3524 15.3523 15.2303 15.2303
          15.0942 15.0941 14.9423 14.9423 14.7729 14.7728 14.5839 14.5838 14.373 14.3729 14.1376 14.1375
          13.8748 13.8747 13.5813 13.5811 13.2531 13.253 12.886 12.8858 12.4748 12.4746 12.0134 12.0133
          11.4953 11.4951 10.9118 10.9115 10.2526 10.2523 9.50518 9.50485 8.65283 8.65257 7.67213 7.67204
          6.52403 6.52445 5.13323 5.13526 3.32868 3.3319 0 0
        </DataArray>
        <DataArray type="Float32" Name="Molarity_Suspended_Biomass" NumberOfComponents="1" format="ascii">
          0.00554814 0.00554799 0.00554288 0.00554244 0.00553459 0.00553509 0.00552846 0.00552822 0.0055213 0.00552197 0.00551482 0.00551546
          0.00550826 0.00550873 0.00550119 0.00550168 0.00549376 0.00549422 0.00548593 0.00548631 0.00547776 0.00547789 0.00545913 0.00546025
          0.00543934 0.00544035 0.00541731 0.00541821 0.00539288 0.00539372 0.00536596 0.00536665 0.00532837 0.00532938 0.00528623 0.00528717
          0.00523878 0.00523967 0.00518543 0.00518624 0.0051255 0.00512622 0.00505822 0.00505887 0.00498274 0.00498334 0.00489812 0.00489866
          0.0048033 0.00480377 0.00469704 0.00469745 0.00457798 0.00457832 0.0044446 0.00444481 0.00429505 0.00429514 0.00412723 0.00412725
          0.00393892 0.00393876 0.00372724 0.00372688 0.00348887 0.00348828 0.00321994 0.00321909 0.0029156 0.00291444 0.00256919 0.00256763
          0.00216959 0.00216752 0.00169461 0.00169207 0.0010913 0.00108916 0 0
        </DataArray>
        <DataArray type="Float32" Name="Molarity_NH4" NumberOfComponents="1" format="ascii">
          303.144 303.135 307.461 307.457 312.094 312.084 316.759 316.755 321.451 321.449 326.166 326.165
          330.903 330.902 335.657 335.655 340.423 340.421 345.196 345.195 349.976 349.974 359.349 359.349
          368.675 368.675 377.904 377.904 387.003 387.003 395.929 395.927 406.675 406.675 416.994 416.996
          426.79 426.789 435.964 435.963 444.414 444.414 452.032 452.032 458.703 458.703 464.303 464.303
          468.699 468.701 471.751 471.753 473.306 473.308 473.194 473.197 471.234 471.237 467.219 467.224
          460.924 460.928 452.084 452.088 440.388 440.392 425.466 425.471 406.849 406.857 383.892 383.906
          355.548 355.577 319.83 319.901 272.353 272.453 185.037 185.037
        </DataArray>
        <DataArray type="Float32" Name="Molarity_HCO3" NumberOfComponents="1" format="ascii">
          2.22719 2.22726 2.22504 2.22505 2.224 2.22403 2.22252 2.22264 2.221 2.22114 2.21941 2.21957
          2.21782 2.21795 2.21615 2.21629 2.21443 2.21459 2.21269 2.21284 2.21094 2.21106 2.20744 2.20766
          2.20376 2.20396 2.2002 2.20042 2.19669 2.19687 2.19318 2.19336 2.18902 2.18923 2.18507 2.18526
          2.18146 2.1816 2.17821 2.17837 2.17542 2.17557 2.17321 2.17333 2.17163 2.17171 2.17077 2.17084
          2.17078 2.17079 2.17177 2.17169 2.1738 2.17365 2.17697 2.17684 2.18167 2.18136 2.18775 2.18737
          2.19558 2.19512 2.20551 2.20494 2.21768 2.21696 2.2325 2.23163 2.25039 2.24935 2.27166 2.27046
          2.29365 2.2922 2.28863 2.28704 2.04414 2.04338 0.00553194 0.00553194
        </DataArray>
        <DataArray type="Float32" Name="Molarity_CO3" NumberOfComponents="1" format="ascii">
          0.00237842 0.00237861 0.00235017 0.0023502 0.00232314 0.00232326 0.00229587 0.00229611 0.00226913 0.0022694 0.00224286 0.00224317
          0.00221721 0.00221745 0.00219199 0.00219227 0.00216733 0.00216762 0.00214321 0.00214349 0.00211968 0.00211992 0.00207513 0.00207551
          0.00203256 0.0020329 0.00199252 0.00199288 0.00195478 0.00195508 0.00191922 0.00191952 0.00187845 0.00187879 0.0018412 0.00184148
          0.0018076 0.00180782 0.0017776 0.00177784 0.00175128 0.0017515 0.00172878 0.00172895 0.00171015 0.00171027 0.00169558 0.00169568
          0.00168534 0.00168535 0.00167974 0.00167961 0.00167907 0.00167885 0.00168382 0.00168363 0.00169501 0.00169455 0.00171309 0.00171253
          0.00173954 0.00173886 0.00177621 0.00177535 0.0018253 0.00182418 0.00189034 0.00188895 0.00197656 0.00197484 0.00209197 0.00208985
          0.00224536 0.00224257 0.00240886 0.00240533 0.00218504 0.00218291 4.26535e-07 4.26535e-07
        </DataArray>
        <DataArray type="Float32" Name="Molarity_CO2" NumberOfComponents="1" format="ascii">
          0.248609 0.248605 0.25131 0.251307 0.254211 0.254206 0.257107 0.257107 0.26 0.260002 0.262889 0.262891
          0.265772 0.265774 0.268647 0.268648 0.271509 0.27151 0.274357 0.274359 0.277191 0.277192 0.282696 0.2827
          0.288102 0.288107 0.29339 0.293395 0.298543 0.298547 0.303537 0.30354 0.309478 0.309484 0.31511 0.315115
          0.320393 0.320396 0.325288 0.325291 0.329754 0.329758 0.333751 0.333754 0.337232 0.337234 0.340148 0.34015
          0.342446 0.342447 0.344064 0.344063 0.344933 0.34493 0.344972 0.34497 0.344096 0.344088 0.342182 0.342174
          0.339106 0.339095 0.334705 0.334692 0.328766 0.328749 0.32102 0.321001 0.311104 0.311085 0.298485 0.298468
          0.282233 0.282223 0.260248 0.260265 0.225856 0.225908 0.00769319 0.00769319
        </DataArray>
        <DataArray type="Float32" Name="Molarity_H" NumberOfComponents="1" format="ascii">
          5.59593e-05 5.59565e-05 5.66639e-05 5.66632e-05 5.73919e-05 5.73897e-05 5.8131e-05 5.81281e-05 5.88729e-05 5.88697e-05 5.96176e-05 5.9614e-05
          6.0363e-05 6.036e-05 6.11106e-05 6.1107e-05 6.18584e-05 6.18546e-05 6.26059e-05 6.26023e-05 6.33522e-05 6.33489e-05 6.48108e-05 6.48057e-05
          6.6259e-05 6.62542e-05 6.76823e-05 6.76771e-05 6.90785e-05 6.9074e-05 7.04431e-05 7.04381e-05 7.20754e-05 7.20699e-05 7.36333e-05 7.36285e-05
          7.51006e-05 7.50967e-05 7.64646e-05 7.646e-05 7.77099e-05 7.77055e-05 7.88194e-05 7.88159e-05 7.97775e-05 7.97751e-05 8.05659e-05 8.05639e-05
          8.11639e-05 8.11638e-05 8.15505e-05 8.15532e-05 8.17047e-05 8.17093e-05 8.16015e-05 8.16058e-05 8.12066e-05 8.12162e-05 8.04971e-05 8.05088e-05
          7.94323e-05 7.94459e-05 7.79668e-05 7.79833e-05 7.60538e-05 7.6074e-05 7.36299e-05 7.36535e-05 7.06165e-05 7.06436e-05 6.69097e-05 6.69401e-05
          6.24065e-05 6.24423e-05 5.73317e-05 5.73745e-05 5.50042e-05 5.50378e-05 0.000628379 0.000628379
        </DataArray>
        <DataArray type="Float32" Name="Molarity_OH" NumberOfComponents="1" format="ascii">
          0.0001755 0.000175508 0.000173301 0.000173304 0.000171086 0.000171093 0.000168894 0.000168902 0.000166749 0.000166758 0.00016465 0.000164659
          0.0001626 0.000162608 0.000160595 0.000160604 0.000158637 0.000158647 0.000156728 0.000156737 0.000154866 0.000154874 0.000151351 0.000151363
          0.000148015 0.000148026 0.000144875 0.000144886 0.000141921 0.00014193 0.000139147 0.000139157 0.000135967 0.000135978 0.000133065 0.000133073
          0.000130442 0.000130449 0.000128094 0.000128102 0.000126025 0.000126032 0.000124237 0.000124242 0.000122735 0.000122738 0.000121527 0.00012153
          0.00012063 0.00012063 0.000120062 0.000120058 0.000119844 0.000119837 0.00012001 0.000120004 0.000120615 0.000120601 0.000121708 0.00012169
          0.000123378 0.000123356 0.000125746 0.000125719 0.000128971 0.000128937 0.000133294 0.000133251 0.00013908 0.000139026 0.000146908 0.000146841
          0.000157669 0.000157579 0.000171843 0.000171714 0.000179418 0.000179308 1.57575e-05 1.57575e-05
        </DataArray>
        <DataArray type="Float32" Name="Da_ureolysis" NumberOfComponents="1" format="ascii">
          0 0 0 0 0 0 0 0 0 0 0 0
          0 0 0 0 0 0 0 0 0 0 0 0
          0 0 0 0 0 0 0 0 0 0 0 0
          0 0 0 0 0 0 0 0 0 0 0 0
          0 0 0 0 0 0 0 0 0 0 0 0
          0 0 0 0 0 0 0 0 0 0 0 0
          0 0 0 0 0 0 0 0
        </DataArray>
        <DataArray type="Float32" Name="Da_precipitation" NumberOfComponents="1" format="ascii">
          8709.13 8560.95 1684.2 1693.84 820.94 825.316 549.03 549.548 411.666 411.013 327.438 327.385
          271.622 271.473 231.637 231.609 201.674 201.635 178.384 178.335 169.957 169.92 131.805 131.811
          111.954 111.94 97.0817 97.0895 85.5986 85.5765 77.8764 77.8724 67.3061 67.3144 60.1456 60.1462
          54.3509 54.3429 49.5881 49.594 45.6482 45.6481 42.3388 42.3378 39.5561 39.5512 37.1983 37.1991
          35.2105 35.2112 33.5395 33.5362 32.1414 32.1355 30.9983 31.0114 30.0937 30.0827 29.4132 29.4158
          28.9713 28.9707 28.7689 28.7667 28.8606 28.8563 29.2704 29.266 30.1198 30.1067 31.5228 31.5065
          33.1872 33.1402 30.3644 30.2757 5.08235 5.06973 0 0
        </DataArray>
        <DataArray type="Float32" Name="Vx" NumberOfComponents="1" format="ascii">
          4.26424e-12 4.26523e-12 4.07145e-12 4.07198e-12 6.37794e-12 6.38093e-12 9.32238e-12 9.32979e-12 6.41554e-12 6.42292e-12 4.19965e-12 4.20444e-12
          3.25536e-12 3.25814e-12 2.10414e-12 2.10617e-12 1.84139e-12 1.84377e-12 1.83929e-12 1.84155e-12 1.8659e-12 1.86803e-12 2.89042e-12 2.89319e-12
          3.35373e-12 3.35759e-12 4.0608e-12 4.06514e-12 3.24081e-12 3.24379e-12 1.31664e-12 1.31852e-12 3.71135e-12 3.71546e-12 5.94647e-12 5.95113e-12
          3.14546e-12 3.14749e-12 1.30923e-12 1.31059e-12 3.40886e-12 3.41136e-12 4.09917e-12 4.1016e-12 2.37101e-12 2.37232e-12 3.57867e-12 3.58058e-12
          9.21653e-12 9.21713e-12 8.89165e-12 8.88903e-12 2.73571e-12 2.73267e-12 1.02336e-11 1.02238e-11 1.29135e-11 1.28966e-11 4.54262e-12 4.53002e-12
          8.98831e-12 8.96894e-12 1.45e-11 1.44611e-11 1.61407e-11 1.60857e-11 1.65736e-11 1.65073e-11 1.42653e-11 1.41958e-11 1.25308e-11 1.24638e-11
          5.67972e-13 5.91488e-13 -3.89259e-11 -3.86653e-11 -6.55975e-11 -6.5193e-11 -1.53737e-10 -1.53337e-10
        </DataArray>
        <DataArray type="Float32" Name="Vy" NumberOfComponents="1" format="ascii">
          1.42127e-10 1.44671e-10 -7.20096e-10 -7.159e-10 -1.46702e-09 -1.45953e-09 -2.1808e-09 -2.18033e-09 -2.89476e-09 -2.9011e-09 -3.62086e-09 -3.62518e-09
          -4.3482e-09 -4.35235e-09 -5.07458e-09 -5.07947e-09 -5.80216e-09 -5.80843e-09 -6.52952e-09 -6.53697e-09 -6.82351e-09 -6.83074e-09 -8.73042e-09 -8.73875e-09
          -1.01843e-08 -1.01956e-08 -1.16531e-08 -1.16659e-08 -1.31274e-08 -1.31407e-08 -1.43229e-08 -1.43384e-08 -1.64582e-08 -1.6476e-08 -1.83014e-08 -1.83173e-08
          -2.01571e-08 -2.01709e-08 -2.20159e-08 -2.20326e-08 -2.38736e-08 -2.3892e-08 -2.57464e-08 -2.57623e-08 -2.76172e-08 -2.76314e-08 -2.94958e-08 -2.9509e-08
          -3.13859e-08 -3.13898e-08 -3.32863e-08 -3.32732e-08 -3.51952e-08 -3.51729e-08 -3.70864e-08 -3.70532e-08 -3.9046e-08 -3.89872e-08 -4.09655e-08 -4.08882e-08
          -4.28955e-08 -4.28037e-08 -4.48884e-08 -4.47687e-08 -4.68697e-08 -4.67137e-08 -4.89006e-08 -4.87044e-08 -5.09401e-08 -5.07034e-08 -5.30509e-08 -5.27746e-08
          -5.54586e-08 -5.51483e-08 -5.91383e-08 -5.88386e-08 -7.96826e-08 -7.94552e-08 9.97357e-07 9.97537e-07
        </DataArray>
      </PointData>
      <CellData Scalars="process rank">
        <DataArray type="Float32" Name="process rank" NumberOfComponents="1" format="ascii">
          0 0 0 0 0 0 0 0 0 0 0 0
          0 0 0 0 0 0 0 0 0 0 0 0
          0 0 0 0 0 0 0 0 0 0 0 0
          0 0 0
        </DataArray>
      </CellData>
      <Points>
        <DataArray type="Float32" Name="Coordinates" NumberOfComponents="3" format="ascii">
          0 0 0 0.0254 0 0 0 0.01 0 0.0254 0.01 0
          0 0.02 0 0.0254 0.02 0 0 0.03 0 0.0254 0.03 0
          0 0.04 0 0.0254 0.04 0 0 0.05 0 0.0254 0.05 0
          0 0.06 0 0.0254 0.06 0 0 0.07 0 0.0254 0.07 0
          0 0.08 0 0.0254 0.08 0 0 0.09 0 0.0254 0.09 0
          0 0.1 0 0.0254 0.1 0 0 0.12 0 0.0254 0.12 0
          0 0.14 0 0.0254 0.14 0 0 0.16 0 0.0254 0.16 0
          0 0.18 0 0.0254 0.18 0 0 0.2 0 0.0254 0.2 0
          0 0.225 0 0.0254 0.225 0 0 0.25 0 0.0254 0.25 0
          0 0.275 0 0.0254 0.275 0 0 0.3 0 0.0254 0.3 0
          0 0.325 0 0.0254 0.325 0 0 0.35 0 0.0254 0.35 0
          0 0.375 0 0.0254 0.375 0 0 0.4 0 0.0254 0.4 0
          0 0.425 0 0.0254 0.425 0 0 0.45 0 0.0254 0.45 0
          0 0.475 0 0.0254 0.475 0 0 0.5 0 0.0254 0.5 0
          0 0.525 0 0.0254 0.525 0 0 0.55 0 0.0254 0.55 0
          0 0.575 0 0.0254 0.575 0 0 0.6 0 0.0254 0.6 0
          0 0.625 0 0.0254 0.625 0 0 0.65 0 0.0254 0.65 0
          0 0.675 0 0.0254 0.675 0 0 0.7 0 0.0254 0.7 0
          0 0.725 0 0.0254 0.725 0 0 0.75 0 0.0254 0.75 0
          0 0.775 0 0.0254 0.775 0 0 0.8 0 0.0254 0.8 0
        </DataArray>
      </Points>
      <Cells>
        <DataArray type="Int32" Name="connectivity" NumberOfComponents="1" format="ascii">
          0 1 3 2 2 3 5 4 4 5 7 6
          6 7 9 8 8 9 11 10 10 11 13 12
          12 13 15 14 14 15 17 16 16 17 19 18
          18 19 21 20 20 21 23 22 22 23 25 24
          24 25 27 26 26 27 29 28 28 29 31 30
          30 31 33 32 32 33 35 34 34 35 37 36
          36 37 39 38 38 39 41 40 40 41 43 42
          42 43 45 44 44 45 47 46 46 47 49 48
          48 49 51 50 50 51 53 52 52 53 55 54
          54 55 57 56 56 57 59 58 58 59 61 60
          60 61 63 62 62 63 65 64 64 65 67 66
          66 67 69 68 68 69 71 70 70 71 73 72
          72 73 75 74 74 75 77 76 76 77 79 78
        </DataArray>
        <DataArray type="Int32" Name="offsets" NumberOfComponents="1" format="ascii">
          4 8 12 16 20 24 28 32 36 40 44 48
          52 56 60 64 68 72 76 80 84 88 92 96
          100 104 108 112 116 120 124 128 132 136 140 144
          148 152 156
        </DataArray>
        <DataArray type="UInt8" Name="types" NumberOfComponents="1" format="ascii">
          9 9 9 9 9 9 9 9 9 9 9 9
          9 9 9 9 9 9 9 9 9 9 9 9
          9 9 9 9 9 9 9 9 9 9 9 9
          9 9 9
        </DataArray>
      </Cells>
    </Piece>
  </UnstructuredGrid>
</VTKFile>
