<?xml version="1.0"?>
<VTKFile type="UnstructuredGrid" version="0.1" byte_order="LittleEndian">
  <UnstructuredGrid>
    <Piece NumberOfCells="39" NumberOfPoints="80">
      <PointData Scalars="Sg">
        <DataArray type="Float32" Name="Sg" NumberOfComponents="1" format="ascii">
          0 0 0 0 0 0 0 0 0 0 0 0
          0 0 0 0 0 0 0 0 0 0 0 0
          0 0 0 0 0 0 0 0 0 0 0 0
          0 0 0 0 0 0 0 0 0 0 0 0
          0 0 0 0 0 0 0 0 0 0 0 0
          0 0 0 0 0 0 0 0 0 0 0 0
          0 0 0 0 0 0 0 0
        </DataArray>
        <DataArray type="Float32" Name="Sl" NumberOfComponents="1" format="ascii">
          1 1 1 1 1 1 1 1 1 1 1 1
          1 1 1 1 1 1 1 1 1 1 1 1
          1 1 1 1 1 1 1 1 1 1 1 1
          1 1 1 1 1 1 1 1 1 1 1 1
          1 1 1 1 1 1 1 1 1 1 1 1
          1 1 1 1 1 1 1 1 1 1 1 1
          1 1 1 1 1 1 1 1
        </DataArray>
        <DataArray type="Float32" Name="pg" NumberOfComponents="1" format="ascii">
          117564 117564 117466 117466 117367 117367 117269 117269 117170 117170 117071 117071
          116973 116973 116874 116874 116776 116776 116677 116677 116578 116578 116381 116381
          116184 116184 115986 115986 115789 115789 115592 115592 115345 115345 115098 115098
          114851 114851 114604 114604 114357 114357 114110 114110 113863 113863 113616 113616
          113369 113369 113121 113121 112874 112874 112627 112627 112380 112380 112133 112133
          111886 111886 111639 111639 111392 111392 111145 111145 110898 110898 110652 110652
          110405 110405 110159 110159 109912 109912 109667 109667
        </DataArray>
        <DataArray type="Float32" Name="pl" NumberOfComponents="1" format="ascii">
          107898 107898 107799 107799 107700 107700 107602 107602 107503 107503 107405 107405
          107306 107306 107208 107208 107109 107109 107010 107010 106912 106912 106714 106714
          106517 106517 106320 106320 106122 106122 105925 105925 105678 105678 105431 105431
          105184 105184 104937 104937 104690 104690 104443 104443 104196 104196 103949 103949
          103702 103702 103455 103455 103208 103208 102961 102961 102713 102713 102466 102466
          102219 102219 101972 101972 101725 101725 101478 101478 101232 101232 100985 100985
          100738 100738 100492 100492 100246 100246 100000 100000
        </DataArray>
        <DataArray type="Float32" Name="pc" NumberOfComponents="1" format="ascii">
          9666.67 9666.67 9666.67 9666.67 9666.67 9666.67 9666.67 9666.67 9666.67 9666.67 9666.67 9666.67
          9666.67 9666.67 9666.67 9666.67 9666.67 9666.67 9666.67 9666.67 9666.67 9666.67 9666.67 9666.67
          9666.67 9666.67 9666.67 9666.67 9666.67 9666.67 9666.67 9666.67 9666.67 9666.67 9666.67 9666.67
          9666.67 9666.67 9666.67 9666.67 9666.67 9666.67 9666.67 9666.67 9666.67 9666.67 9666.67 9666.67
          9666.67 9666.67 9666.67 9666.67 9666.67 9666.67 9666.67 9666.67 9666.67 9666.67 9666.67 9666.67
          9666.67 9666.67 9666.67 9666.67 9666.67 9666.67 9666.67 9666.67 9666.67 9666.67 9666.67 9666.67
          9666.67 9666.67 9666.67 9666.67 9666.67 9666.67 9666.67 9666.67
        </DataArray>
        <DataArray type="Float32" Name="rhoL" NumberOfComponents="1" format="ascii">
          1004.51 1004.51 1004.61 1004.61 1004.72 1004.72 1004.84 1004.84 1004.95 1004.95 1005.07 1005.07
          1005.19 1005.19 1005.3 1005.3 1005.42 1005.42 1005.54 1005.54 1005.66 1005.66 1005.89 1005.89
          1006.11 1006.11 1006.34 1006.34 1006.56 1006.56 1006.78 1006.78 1007.04 1007.04 1007.3 1007.3
          1007.54 1007.54 1007.76 1007.76 1007.96 1007.96 1008.15 1008.15 1008.31 1008.31 1008.44 1008.44
          1008.54 1008.54 1008.61 1008.61 1008.65 1008.65 1008.64 1008.64 1008.58 1008.58 1008.48 1008.48
          1008.32 1008.32 1008.09 1008.09 1007.79 1007.79 1007.42 1007.42 1006.95 1006.95 1006.37 1006.37
          1005.66 1005.66 1004.77 1004.77 1003.59 1003.59 1001.45 1001.45
        </DataArray>
        <DataArray type="Float32" Name="rhoG" NumberOfComponents="1" format="ascii">
          2.06797 2.06801 2.06623 2.06623 2.06445 2.06445 2.06266 2.06266 2.06088 2.06088 2.0591 2.0591
          2.05731 2.05731 2.05553 2.05553 2.05374 2.05374 2.05196 2.05196 2.05017 2.05017 2.0466 2.0466
          2.04303 2.04303 2.03946 2.03946 2.03589 2.03589 2.03232 2.03232 2.02785 2.02785 2.02338 2.02338
          2.01891 2.01891 2.01444 2.01444 2.00997 2.00997 2.0055 2.0055 2.00102 2.00102 1.99655 1.99655
          1.99207 1.99207 1.9876 1.9876 1.98312 1.98312 1.97864 1.97864 1.97417 1.97417 1.96969 1.96969
          1.96521 1.96521 1.96073 1.96073 1.95625 1.95625 1.95177 1.95177 1.9473 1.9473 1.94282 1.94282
          1.93834 1.93834 1.93386 1.93386 1.92939 1.92939 1.9249 1.9249
        </DataArray>
        <DataArray type="Float32" Name="mobL" NumberOfComponents="1" format="ascii">
          1086.55 1086.55 1086.04 1086.04 1085.47 1085.47 1084.9 1084.9 1084.33 1084.33 1083.76 1083.76
          1083.19 1083.18 1082.62 1082.62 1082.05 1082.05 1081.48 1081.48 1080.92 1080.92 1079.82 1079.82
          1078.74 1078.74 1077.69 1077.69 1076.66 1076.66 1075.65 1075.65 1074.46 1074.46 1073.33 1073.33
          1072.26 1072.26 1071.28 1071.28 1070.38 1070.38 1069.58 1069.58 1068.88 1068.88 1068.31 1068.31
          1067.86 1067.86 1067.56 1067.56 1067.42 1067.42 1067.46 1067.46 1067.69 1067.69 1068.14 1068.14
          1068.84 1068.84 1069.82 1069.82 1071.12 1071.11 1072.78 1072.78 1074.89 1074.89 1077.54 1077.53
          1080.89 1080.88 1085.24 1085.23 1091.24 1091.23 1103.12 1103.12
        </DataArray>
        <DataArray type="Float32" Name="mobG" NumberOfComponents="1" format="ascii">
          0 0 0 0 0 0 0 0 0 0 0 0
          0 0 0 0 0 0 0 0 0 0 0 0
          0 0 0 0 0 0 0 0 0 0 0 0
          0 0 0 0 0 0 0 0 0 0 0 0
          0 0 0 0 0 0 0 0 0 0 0 0
          0 0 0 0 0 0 0 0 0 0 0 0
          0 0 0 0 0 0 0 0
        </DataArray>
        <DataArray type="Float32" Name="porosity" NumberOfComponents="1" format="ascii">
          0.101452 0.101479 0.0996651 0.0996617 0.0993566 0.0993629 0.0991882 0.0992464 0.0991691 0.0992089 0.0991182 0.0992006
          0.0992168 0.0992281 0.0992151 0.0992725 0.0992435 0.0993059 0.0992583 0.0993198 0.0993029 0.0993542 0.0994731 0.0995399
          0.0994576 0.099519 0.0995752 0.0996591 0.0997621 0.0998034 0.0998339 0.0999042 0.100106 0.100196 0.100344 0.100403
          0.100655 0.100681 0.100983 0.101048 0.101361 0.101418 0.101819 0.101862 0.102315 0.102342 0.102868 0.102912
          0.103525 0.103544 0.104285 0.104246 0.105126 0.105058 0.105989 0.105981 0.107209 0.10705 0.108388 0.108261
          0.109799 0.109648 0.111592 0.111395 0.113688 0.113428 0.116272 0.11596 0.119527 0.119131 0.124003 0.123566
          0.131116 0.130541 0.143952 0.143233 0.172496 0.171785 0.4 0.4
        </DataArray>
        <DataArray type="Float32" Name="temperature" NumberOfComponents="1" format="ascii">
          298.15 298.15 298.15 298.15 298.15 298.15 298.15 298.15 298.15 298.15 298.15 298.15
          298.15 298.15 298.15 298.15 298.15 298.15 298.15 298.15 298.15 298.15 298.15 298.15
          298.15 298.15 298.15 298.15 298.15 298.15 298.15 298.15 298.15 298.15 298.15 298.15
          298.15 298.15 298.15 298.15 298.15 298.15 298.15 298.15 298.15 298.15 298.15 298.15
          298.15 298.15 298.15 298.15 298.15 298.15 298.15 298.15 298.15 298.15 298.15 298.15
          298.15 298.15 298.15 298.15 298.15 298.15 298.15 298.15 298.15 298.15 298.15 298.15
          298.15 298.15 298.15 298.15 298.15 298.15 298.15 298.15
        </DataArray>
        <DataArray type="Float32" Name="phase presence" NumberOfComponents="1" format="ascii">
          1 1 1 1 1 1 1 1 1 1 1 1
          1 1 1 1 1 1 1 1 1 1 1 1
          1 1 1 1 1 1 1 1 1 1 1 1
          1 1 1 1 1 1 1 1 1 1 1 1
          1 1 1 1 1 1 1 1 1 1 1 1
          1 1 1 1 1 1 1 1 1 1 1 1
          1 1 1 1 1 1 1 1
        </DataArray>
        <DataArray type="Float32" Name="potential" NumberOfComponents="1" format="ascii">
          0.00144003 0.00144029 0.00135932 0.00135945 0.00127069 0.00127104 0.00118269 0.00118273 0.00109546 0.00109544 0.00100918 0.00100915
          0.00092394 0.000923917 0.000839805 0.00083981 0.000756894 0.000756895 0.000675262 0.00067526 0.000594972 0.000594979 0.00044195 0.0004419
          0.000295264 0.00029522 0.000155712 0.000155663 2.36835e-05 2.36488e-05 -0.00010028 -0.000100285 -0.00024179 -0.000241829 -0.000369402 -0.000369454
          -0.000482389 -0.00048241 -0.000580235 -0.000580241 -0.000662534 -0.000662548 -0.000729036 -0.000729049 -0.000779609 -0.000779615 -0.000814245 -0.000814253
          -0.000833109 -0.000833131 -0.000836538 -0.000836562 -0.000825026 -0.000825038 -0.000799216 -0.000799244 -0.000760041 -0.000760069 -0.000708585 -0.000708615
          -0.000646184 -0.000646217 -0.000574491 -0.000574527 -0.000495437 -0.000495478 -0.000411298 -0.000411348 -0.000324768 -0.000324826 -0.000239046 -0.000239115
          -0.000157997 -0.000158076 -8.64846e-05 -8.6569e-05 -3.12684e-05 -3.13126e-05 0 0
        </DataArray>
        <DataArray type="Float32" Name="boxVolume" NumberOfComponents="1" format="ascii">
          6.35e-05 6.35e-05 0.000127 0.000127 0.000127 0.000127 0.000127 0.000127 0.000127 0.000127 0.000127 0.000127
          0.000127 0.000127 0.000127 0.000127 0.000127 0.000127 0.000127 0.000127 0.0001905 0.0001905 0.000254 0.000254
          0.000254 0.000254 0.000254 0.000254 0.000254 0.000254 0.00028575 0.00028575 0.0003175 0.0003175 0.0003175 0.0003175
          0.0003175 0.0003175 0.0003175 0.0003175 0.0003175 0.0003175 0.0003175 0.0003175 0.0003175 0.0003175 0.0003175 0.0003175
          0.0003175 0.0003175 0.0003175 0.0003175 0.0003175 0.0003175 0.0003175 0.0003175 0.0003175 0.0003175 0.0003175 0.0003175
          0.0003175 0.0003175 0.0003175 0.0003175 0.0003175 0.0003175 0.0003175 0.0003175 0.0003175 0.0003175 0.0003175 0.0003175
          0.0003175 0.0003175 0.0003175 0.0003175 0.0003175 0.0003175 0.00015875 0.00015875
        </DataArray>
        <DataArray type="Float32" Name="pH" NumberOfComponents="1" format="ascii">
          7.22949 7.22951 7.22413 7.22414 7.21842 7.21844 7.2127 7.21272 7.20703 7.20705 7.20142 7.20143
          7.19586 7.19588 7.19036 7.19038 7.18493 7.18495 7.17957 7.17959 7.17428 7.17429 7.16412 7.16415
          7.15427 7.15429 7.14479 7.14482 7.13569 7.13571 7.12698 7.127 7.11678 7.1168 7.10727 7.10729
          7.09849 7.09851 7.0905 7.09052 7.08333 7.08335 7.07705 7.07707 7.07171 7.07172 7.06739 7.0674
          7.06416 7.06416 7.06211 7.0621 7.06136 7.06134 7.06203 7.06201 7.0643 7.06426 7.06836 7.06831
          7.07446 7.0744 7.08295 7.08288 7.09425 7.09416 7.10895 7.10884 7.12783 7.1277 7.15179 7.15164
          7.18104 7.18085 7.20993 7.2097 7.19848 7.19841 6.19963 6.19963
        </DataArray>
        <DataArray type="Float32" Name="Omega" NumberOfComponents="1" format="ascii">
          2.47413 2.47423 2.47537 2.4754 2.47974 2.47979 2.48338 2.48363 2.48697 2.48729 2.49047 2.49083
          2.49402 2.4943 2.4974 2.49772 2.50073 2.50106 2.50401 2.50432 2.50727 2.50755 2.51351 2.51396
          2.51928 2.5197 2.52513 2.52558 2.53086 2.53123 2.5363 2.53668 2.54294 2.54338 2.54934 2.54972
          2.55562 2.55591 2.56171 2.56203 2.56766 2.56797 2.57358 2.57382 2.57942 2.57958 2.5852 2.58534
          2.59106 2.59108 2.59701 2.59685 2.603 2.60272 2.60904 2.60877 2.61557 2.61496 2.62212 2.62138
          2.62909 2.62821 2.63678 2.63567 2.64509 2.6437 2.65411 2.65243 2.66285 2.66086 2.66472 2.66244
          2.62382 2.62127 2.37235 2.37027 1.36891 1.36955 0 0
        </DataArray>
        <DataArray type="Float32" Name="rurea" NumberOfComponents="1" format="ascii">
          0 0 0 0 0 0 0 0 0 0 0 0
          0 0 0 0 0 0 0 0 0 0 0 0
          0 0 0 0 0 0 0 0 0 0 0 0
          0 0 0 0 0 0 0 0 0 0 0 0
          0 0 0 0 0 0 0 0 0 0 0 0
          0 0 0 0 0 0 0 0 0 0 0 0
          0 0 0 0 0 0 0 0
        </DataArray>
        <DataArray type="Float32" Name="Volume_Fraction_Biofilm" NumberOfComponents="1" format="ascii">
          0.249986 0.250063 0.244909 0.244833 0.2423 0.242304 0.241222 0.241228 0.240596 0.240489 0.239913 0.239921
          0.239614 0.239471 0.239099 0.239083 0.23868 0.238653 0.238236 0.238228 0.237841 0.237881 0.237315 0.237198
          0.236544 0.236467 0.235848 0.235808 0.235379 0.235266 0.234668 0.234655 0.234221 0.234195 0.233681 0.233594
          0.23322 0.233109 0.232783 0.232759 0.232454 0.232406 0.232167 0.232127 0.231912 0.231888 0.231704 0.231724
          0.231576 0.231607 0.231475 0.231468 0.231432 0.231445 0.231319 0.231402 0.231442 0.231421 0.231427 0.231572
          0.231493 0.231662 0.231642 0.231833 0.23191 0.232155 0.232241 0.232558 0.232764 0.233086 0.233722 0.234159
          0.235962 0.236492 0.238177 0.238849 0.222105 0.222814 0 0
        </DataArray>
        <DataArray type="Float32" Name="Volume_Fraction_Calcite" NumberOfComponents="1" format="ascii">
          0.0485628 0.0484588 0.0554262 0.0555054 0.0583438 0.058333 0.0595896 0.0595253 0.0602347 0.0603019 0.0609687 0.0608786
          0.0611694 0.0613013 0.061686 0.0616442 0.0620765 0.062041 0.0625055 0.0624522 0.0628557 0.062765 0.0632117 0.0632625
          0.0639988 0.064014 0.0645766 0.0645334 0.0648586 0.0649308 0.0654977 0.065441 0.0656731 0.0656088 0.0659749 0.0660029
          0.0661256 0.0662102 0.0662341 0.0661934 0.0661846 0.0661759 0.0660148 0.0660105 0.0657727 0.06577 0.0654282 0.0653647
          0.0648995 0.0648487 0.0642394 0.0642853 0.0634417 0.0634975 0.062692 0.0626164 0.0613484 0.061529 0.0601843 0.0601662
          0.0587083 0.0586909 0.0567657 0.0567726 0.0544027 0.0544165 0.0514863 0.0514819 0.0477096 0.0477832 0.0422745 0.0422745
          0.0329219 0.0329673 0.0178706 0.0179174 0.00539886 0.00540114 0 0
        </DataArray>
        <DataArray type="Float32" Name="Kxx" NumberOfComponents="1" format="ascii">
          3.26307e-12 3.26567e-12 3.09371e-12 3.09339e-12 3.06507e-12 3.06565e-12 3.04951e-12 3.05488e-12 3.04775e-12 3.05142e-12 3.04306e-12 3.05065e-12
          3.05215e-12 3.05319e-12 3.05199e-12 3.0573e-12 3.05462e-12 3.06038e-12 3.05598e-12 3.06166e-12 3.0601e-12 3.06485e-12 3.07586e-12 3.08206e-12
          3.07443e-12 3.08012e-12 3.08535e-12 3.09315e-12 3.10275e-12 3.10661e-12 3.10946e-12 3.11603e-12 3.13497e-12 3.14345e-12 3.15735e-12 3.16291e-12
          3.18677e-12 3.18924e-12 3.21802e-12 3.22427e-12 3.25435e-12 3.2598e-12 3.29861e-12 3.30286e-12 3.34712e-12 3.34975e-12 3.40163e-12 3.406e-12
          3.46723e-12 3.46917e-12 3.54419e-12 3.54022e-12 3.63061e-12 3.62354e-12 3.72072e-12 3.71997e-12 3.85075e-12 3.83359e-12 3.9792e-12 3.96526e-12
          4.13661e-12 4.11952e-12 4.34265e-12 4.31961e-12 4.59188e-12 4.56051e-12 4.91225e-12 4.87279e-12 5.33635e-12 5.28351e-12 5.95864e-12 5.89592e-12
          7.044e-12 6.95172e-12 9.32192e-12 9.18294e-12 1.60394e-11 1.58419e-11 2e-10 2e-10
        </DataArray>
        <DataArray type="Float32" Name="X_lBrine" NumberOfComponents="1" format="ascii">
          0.980756 0.980757 0.980538 0.980539 0.980296 0.980297 0.980051 0.980052 0.979806 0.979806 0.979559 0.979559
          0.979311 0.979311 0.979062 0.979062 0.978814 0.978814 0.978565 0.978565 0.978316 0.978316 0.97783 0.97783
          0.977347 0.977347 0.976871 0.976871 0.976404 0.976403 0.975947 0.975947 0.975401 0.975401 0.974881 0.97488
          0.974391 0.974391 0.973939 0.973939 0.973529 0.973529 0.973167 0.973167 0.972861 0.972861 0.972616 0.972616
          0.972441 0.972441 0.972344 0.972344 0.972333 0.972333 0.972418 0.972418 0.972611 0.97261 0.972922 0.972922
          0.973365 0.973365 0.973957 0.973957 0.974715 0.974715 0.975663 0.975662 0.976828 0.976827 0.978251 0.978249
          0.979996 0.979993 0.98218 0.982175 0.985056 0.985051 0.99029 0.99029
        </DataArray>
        <DataArray type="Float32" Name="X_lTotalC" NumberOfComponents="1" format="ascii">
          0.000103623 0.000103625 0.000103602 0.000103602 0.000103623 0.000103624 0.000103633 0.000103637 0.000103641 0.000103646 0.000103646 0.000103652
          0.000103652 0.000103656 0.000103654 0.000103659 0.000103655 0.00010366 0.000103654 0.000103659 0.000103653 0.000103657 0.000103646 0.000103653
          0.000103631 0.000103638 0.000103618 0.000103625 0.000103602 0.000103608 0.000103583 0.000103589 0.00010356 0.000103567 0.000103538 0.000103544
          0.00010352 0.000103524 0.000103505 0.000103511 0.000103498 0.000103503 0.0001035 0.000103504 0.000103513 0.000103516 0.000103539 0.000103542
          0.000103583 0.000103583 0.000103645 0.000103643 0.000103728 0.000103724 0.000103835 0.00010383 0.000103973 0.000103963 0.000104138 0.000104126
          0.000104339 0.000104325 0.000104583 0.000104566 0.000104872 0.00010485 0.000105208 0.000105182 0.000105579 0.000105548 0.000105883 0.000105848
          0.000105577 0.000105537 0.000102033 0.000101999 8.39407e-05 8.39531e-05 5.81077e-07 5.81077e-07
        </DataArray>
        <DataArray type="Float32" Name="X_lNa" NumberOfComponents="1" format="ascii">
          3.10113e-06 3.1012e-06 3.07867e-06 3.0787e-06 3.05363e-06 3.05373e-06 3.02839e-06 3.0284e-06 3.00297e-06 3.00297e-06 2.97743e-06 2.97742e-06
          2.95179e-06 2.95178e-06 2.92606e-06 2.92606e-06 2.90028e-06 2.90028e-06 2.87446e-06 2.87446e-06 2.84863e-06 2.84863e-06 2.79804e-06 2.79803e-06
          2.74774e-06 2.74773e-06 2.69801e-06 2.69799e-06 2.64902e-06 2.64901e-06 2.60104e-06 2.60104e-06 2.54335e-06 2.54334e-06 2.48804e-06 2.48803e-06
          2.43564e-06 2.43563e-06 2.38667e-06 2.38667e-06 2.34168e-06 2.34168e-06 2.30126e-06 2.30126e-06 2.26602e-06 2.26602e-06 2.23663e-06 2.23663e-06
          2.2138e-06 2.21379e-06 2.19828e-06 2.19827e-06 2.19091e-06 2.1909e-06 2.19258e-06 2.19257e-06 2.20429e-06 2.20427e-06 2.22715e-06 2.22712e-06
          2.26238e-06 2.26235e-06 2.31141e-06 2.31138e-06 2.37596e-06 2.37592e-06 2.45806e-06 2.458e-06 2.5603e-06 2.5602e-06 2.68625e-06 2.68611e-06
          2.84158e-06 2.84135e-06 3.03644e-06 3.03601e-06 3.2917e-06 3.29123e-06 3.74885e-06 3.74885e-06
        </DataArray>
        <DataArray type="Float32" Name="X_lCl" NumberOfComponents="1" format="ascii">
          0.0109143 0.0109139 0.0110634 0.0110631 0.0112294 0.0112288 0.0113969 0.0113968 0.0115655 0.0115655 0.0117349 0.011735
          0.011905 0.0119051 0.0120757 0.0120757 0.0122467 0.0122467 0.0124179 0.0124179 0.0125893 0.0125893 0.0129248 0.0129249
          0.0132584 0.0132585 0.0135882 0.0135883 0.013913 0.0139131 0.0142311 0.0142312 0.0146135 0.0146136 0.0149801 0.0149802
          0.0153274 0.0153274 0.0156518 0.0156518 0.0159496 0.0159497 0.0162171 0.0162171 0.0164501 0.0164501 0.0166442 0.0166442
          0.0167947 0.0167947 0.0168964 0.0168965 0.016944 0.0169441 0.0169314 0.0169315 0.016852 0.0168521 0.0166983 0.0166985
          0.0164624 0.0164626 0.0161345 0.0161347 0.0157033 0.0157036 0.0151553 0.0151558 0.0144732 0.0144738 0.0136331 0.0136341
          0.0125975 0.012599 0.0112986 0.0113015 0.00959817 0.00960133 0.00655617 0.00655617
        </DataArray>
        <DataArray type="Float32" Name="X_lCa" NumberOfComponents="1" format="ascii">
          0.000148792 0.000148788 0.000150656 0.000150654 0.000152775 0.000152767 0.0001549 0.000154903 0.000157039 0.000157043 0.000159185 0.000159191
          0.00016134 0.000161345 0.000163499 0.000163504 0.000165661 0.000165666 0.000167825 0.00016783 0.00016999 0.000169993 0.000174224 0.000174232
          0.000178428 0.000178435 0.000182584 0.000182592 0.000186675 0.000186682 0.00019068 0.000190685 0.000195493 0.000195501 0.000200107 0.000200114
          0.00020448 0.000204485 0.000208569 0.000208573 0.000212328 0.000212333 0.000215713 0.000215716 0.000218671 0.000218674 0.000221151 0.000221153
          0.000223094 0.000223095 0.00022444 0.000224439 0.000225121 0.000225118 0.000225061 0.000225059 0.000224188 0.000224181 0.000222402 0.000222393
          0.000219608 0.000219598 0.000215692 0.000215679 0.000210513 0.000210497 0.000203901 0.000203883 0.000195626 0.000195606 0.000185297 0.000185277
          0.000171941 0.000171924 0.000152312 0.000152317 0.000114357 0.000114408 0 0
        </DataArray>
        <DataArray type="Float32" Name="X_lUrea" NumberOfComponents="1" format="ascii">
          1.37771e-12 1.37719e-12 1.50783e-12 1.51352e-12 1.73398e-12 1.73645e-12 1.89031e-12 1.90515e-12 2.041e-12 2.06386e-12 2.19578e-12 2.21974e-12
          2.35572e-12 2.37907e-12 2.52096e-12 2.54414e-12 2.69163e-12 2.71761e-12 2.87046e-12 2.89512e-12 3.05963e-12 3.08012e-12 3.44661e-12 3.49569e-12
          3.84702e-12 3.89458e-12 4.31221e-12 4.3669e-12 4.8119e-12 4.86609e-12 5.34685e-12 5.40028e-12 6.06514e-12 6.13754e-12 6.85754e-12 6.93419e-12
          7.74846e-12 7.81705e-12 8.72761e-12 8.8033e-12 9.80534e-12 9.88772e-12 1.10316e-11 1.11034e-11 1.24045e-11 1.24557e-11 1.3952e-11 1.39963e-11
          1.57446e-11 1.57453e-11 1.78446e-11 1.77747e-11 2.02735e-11 2.01303e-11 2.31197e-11 2.29667e-11 2.6738e-11 2.63521e-11 3.10281e-11 3.04467e-11
          3.65e-11 3.56895e-11 4.38886e-11 4.27005e-11 5.38584e-11 5.20456e-11 6.82542e-11 6.55289e-11 9.06593e-11 8.65242e-11 1.31452e-10 1.24696e-10
          2.27746e-10 2.14512e-10 5.38932e-10 5.06155e-10 1.65535e-09 1.55404e-09 0 0
        </DataArray>
        <DataArray type="Float32" Name="X_lTotalNH" NumberOfComponents="1" format="ascii">
          0.00519637 0.00519614 0.00526635 0.00526624 0.00534435 0.00534403 0.00542299 0.00542295 0.00550218 0.00550219 0.00558175 0.00558177
          0.00566164 0.00566165 0.00574179 0.00574178 0.0058221 0.00582209 0.00590251 0.00590251 0.00598298 0.00598297 0.00614055 0.00614059
          0.00629722 0.00629726 0.00645211 0.00645215 0.00660464 0.00660468 0.00675406 0.00675407 0.00693365 0.00693369 0.00710581 0.00710587
          0.00726889 0.00726891 0.00742123 0.00742124 0.00756112 0.00756114 0.00768675 0.00768676 0.00779618 0.00779618 0.00788732 0.00788733
          0.00795798 0.007958 0.00800577 0.0080058 0.00802811 0.00802815 0.00802218 0.00802223 0.00798489 0.00798494 0.00791273 0.00791282
          0.0078019 0.00780199 0.00764791 0.00764801 0.00744541 0.00744555 0.00718804 0.00718824 0.00686767 0.00686798 0.00647314 0.00647361
          0.00598674 0.00598747 0.00537675 0.00537808 0.00457813 0.00457961 0.00314947 0.00314947
        </DataArray>
        <DataArray type="Float32" Name="X_lO2" NumberOfComponents="1" format="ascii">
          5.08955e-38 5.12246e-38 5.16793e-38 5.38162e-38 8.35507e-38 8.64832e-38 9.8352e-38 1.07941e-37 1.06262e-37 1.19378e-37 1.08439e-37 1.22828e-37
          1.09193e-37 1.21443e-37 1.05323e-37 1.17202e-37 9.954e-38 1.10673e-37 9.22312e-38 1.01889e-37 8.44445e-38 9.25395e-38 6.73959e-38 7.6988e-38
          4.83971e-38 5.48914e-38 3.44919e-38 3.91296e-38 2.34759e-38 2.6144e-38 1.47283e-38 1.63041e-38 0 0 0 0
          0 0 0 0 0 0 0 0 0 0 0 0
          0 0 0 0 0 0 0 0 0 0 0 0
          0 0 0 0 0 0 0 0 0 0 0 0
          0 0 0 0 0 0 0 0
        </DataArray>
        <DataArray type="Float32" Name="X_lSubstrate" NumberOfComponents="1" format="ascii">
          0.0028722 0.00287221 0.00286905 0.00286906 0.00286541 0.00286542 0.00286159 0.00286159 0.0028576 0.0028576 0.00285344 0.00285343
          0.00284909 0.00284909 0.00284455 0.00284455 0.00283982 0.00283982 0.00283487 0.00283487 0.0028297 0.0028297 0.00281894 0.00281893
          0.0028072 0.0028072 0.00279444 0.00279444 0.00278056 0.00278055 0.00276544 0.00276543 0.00274491 0.0027449 0.00272209 0.00272208
          0.00269674 0.00269673 0.00266858 0.00266857 0.00263728 0.00263727 0.00260248 0.00260247 0.00256377 0.00256375 0.00252067 0.00252066
          0.00247267 0.00247265 0.00241915 0.00241912 0.0023594 0.00235939 0.00229267 0.00229264 0.00221799 0.00221796 0.00213426 0.00213425
          0.00204029 0.00204027 0.00193449 0.00193448 0.00181497 0.00181496 0.0016794 0.0016794 0.00152467 0.00152472 0.00134646 0.00134656
          0.0011377 0.0011379 0.000885727 0.000886174 0.000564675 0.000565194 0 0
        </DataArray>
        <DataArray type="Float32" Name="X_lSuspended_Biomass" NumberOfComponents="1" format="ascii">
          5.5041e-06 5.50394e-06 5.49924e-06 5.4989e-06 5.49066e-06 5.49203e-06 5.48404e-06 5.48513e-06 5.47676e-06 5.47879e-06 5.47015e-06 5.4721e-06
          5.46342e-06 5.46515e-06 5.45622e-06 5.45782e-06 5.4486e-06 5.45008e-06 5.44057e-06 5.44188e-06 5.43215e-06 5.43316e-06 5.41253e-06 5.41521e-06
          5.39206e-06 5.3946e-06 5.36943e-06 5.37174e-06 5.34436e-06 5.34649e-06 5.31678e-06 5.31862e-06 5.2782e-06 5.28049e-06 5.23518e-06 5.23732e-06
          5.18688e-06 5.18884e-06 5.1327e-06 5.13445e-06 5.07196e-06 5.0735e-06 5.0039e-06 5.00526e-06 4.92769e-06 4.92887e-06 4.84239e-06 4.84338e-06
          4.74693e-06 4.74773e-06 4.64009e-06 4.64069e-06 4.52049e-06 4.52089e-06 4.38661e-06 4.38675e-06 4.2366e-06 4.23648e-06 4.06835e-06 4.068e-06
          3.87964e-06 3.87895e-06 3.66758e-06 3.66652e-06 3.42883e-06 3.42736e-06 3.15949e-06 3.15755e-06 2.85461e-06 2.8521e-06 2.5073e-06 2.50406e-06
          2.10629e-06 2.10204e-06 1.63044e-06 1.62512e-06 1.0342e-06 1.02949e-06 0 0
        </DataArray>
        <DataArray type="Float32" Name="X_lNH4" NumberOfComponents="1" format="ascii">
          0.00545516 0.00545492 0.00552927 0.00552915 0.00561184 0.0056115 0.00569511 0.00569506 0.00577895 0.00577896 0.00586319 0.00586322
          0.00594778 0.00594779 0.00603264 0.00603263 0.00611768 0.00611767 0.00620283 0.00620282 0.00628803 0.00628802 0.00645487 0.00645491
          0.00662077 0.00662081 0.00678478 0.00678482 0.0069463 0.00694633 0.00710453 0.00710453 0.0072947 0.00729474 0.00747701 0.00747706
          0.00764969 0.00764972 0.00781102 0.00781103 0.00795916 0.00795917 0.00809218 0.00809219 0.00820805 0.00820806 0.00830456 0.00830457
          0.00837936 0.00837938 0.00842994 0.00842998 0.00845357 0.0084536 0.00844724 0.00844729 0.00840769 0.00840775 0.00833121 0.00833131
          0.00821377 0.00821387 0.0080506 0.00805071 0.00783605 0.00783621 0.00756338 0.00756361 0.00722399 0.00722433 0.00680611 0.00680662
          0.00629121 0.006292 0.00564682 0.00564824 0.00480879 0.00481035 0.00333307 0.00333307
        </DataArray>
        <DataArray type="Float32" Name="X_lHCO3" NumberOfComponents="1" format="ascii">
          0.000128562 0.000128565 0.00012838 0.000128381 0.000128241 0.000128243 0.000128085 0.000128091 0.000127927 0.000127933 0.000127765 0.000127773
          0.000127604 0.00012761 0.00012744 0.000127446 0.000127274 0.000127281 0.000127107 0.000127113 0.000126939 0.000126945 0.00012661 0.00012662
          0.000126275 0.000126284 0.000125949 0.000125959 0.000125629 0.000125637 0.000125314 0.000125322 0.000124939 0.000124949 0.000124584 0.000124592
          0.000124255 0.000124262 0.000123955 0.000123962 0.00012369 0.000123697 0.000123466 0.000123471 0.000123288 0.000123291 0.000123161 0.000123164
          0.000123094 0.000123094 0.000123094 0.00012309 0.000123166 0.00012316 0.000123319 0.000123313 0.000123569 0.000123556 0.000123919 0.000123903
          0.000124386 0.000124367 0.000124991 0.000124967 0.000125748 0.000125718 0.000126679 0.000126643 0.000127787 0.000127744 0.000128968 0.00012892
          0.000129536 0.000129481 0.000126006 0.000125957 0.000103176 0.000103189 3.37056e-07 3.37056e-07
        </DataArray>
        <DataArray type="Float32" Name="X_lCO3" NumberOfComponents="1" format="ascii">
          1.28883e-07 1.28892e-07 1.27315e-07 1.27319e-07 1.2573e-07 1.25739e-07 1.24146e-07 1.24157e-07 1.22593e-07 1.22604e-07 1.2107e-07 1.21083e-07
          1.19583e-07 1.19593e-07 1.18124e-07 1.18136e-07 1.16699e-07 1.16711e-07 1.15307e-07 1.15318e-07 1.13949e-07 1.13959e-07 1.11383e-07 1.11399e-07
          1.08939e-07 1.08953e-07 1.06638e-07 1.06653e-07 1.04473e-07 1.04484e-07 1.02436e-07 1.02448e-07 1.00102e-07 1.00116e-07 9.79723e-08 9.79835e-08
          9.6051e-08 9.60596e-08 9.4336e-08 9.43457e-08 9.28309e-08 9.28399e-08 9.15417e-08 9.15486e-08 9.04718e-08 9.04764e-08 8.96304e-08 8.96342e-08
          8.90318e-08 8.9032e-08 8.86917e-08 8.86868e-08 8.86286e-08 8.86204e-08 8.8871e-08 8.88628e-08 8.94668e-08 8.94491e-08 9.04532e-08 9.04311e-08
          9.19068e-08 9.18802e-08 9.39286e-08 9.38949e-08 9.66477e-08 9.66042e-08 1.00257e-07 1.00202e-07 1.05015e-07 1.04946e-07 1.11169e-07 1.11086e-07
          1.18256e-07 1.18152e-07 1.21072e-07 1.20962e-07 9.34259e-08 9.34273e-08 2.55591e-11 2.55591e-11
        </DataArray>
        <DataArray type="Float32" Name="X_lCO2" NumberOfComponents="1" format="ascii">
          1.08229e-05 1.08225e-05 1.09334e-05 1.09332e-05 1.10566e-05 1.10562e-05 1.11799e-05 1.11799e-05 1.13031e-05 1.13032e-05 1.1426e-05 1.14262e-05
          1.15487e-05 1.15488e-05 1.16708e-05 1.16709e-05 1.17923e-05 1.17924e-05 1.19132e-05 1.19133e-05 1.20333e-05 1.20334e-05 1.22662e-05 1.22664e-05
          1.24947e-05 1.24949e-05 1.27177e-05 1.27179e-05 1.29346e-05 1.29348e-05 1.31444e-05 1.31446e-05 1.33934e-05 1.33937e-05 1.36288e-05 1.36291e-05
          1.3849e-05 1.38492e-05 1.40524e-05 1.40525e-05 1.42372e-05 1.42373e-05 1.44018e-05 1.44019e-05 1.45443e-05 1.45444e-05 1.46626e-05 1.46627e-05
          1.47546e-05 1.47546e-05 1.48176e-05 1.48176e-05 1.48488e-05 1.48487e-05 1.48446e-05 1.48446e-05 1.48015e-05 1.48012e-05 1.47142e-05 1.4714e-05
          1.45774e-05 1.45771e-05 1.43839e-05 1.43835e-05 1.41244e-05 1.4124e-05 1.3787e-05 1.37866e-05 1.3355e-05 1.33547e-05 1.28027e-05 1.28026e-05
          1.2082e-05 1.20823e-05 1.10818e-05 1.10833e-05 9.47245e-06 9.47504e-06 3.38012e-07 3.38012e-07
        </DataArray>
        <DataArray type="Float32" Name="X_lH" NumberOfComponents="1" format="ascii">
          5.86219e-11 5.86187e-11 5.93411e-11 5.93397e-11 6.01171e-11 6.01134e-11 6.09034e-11 6.09009e-11 6.16936e-11 6.16911e-11 6.24864e-11 6.24837e-11
          6.32801e-11 6.32779e-11 6.40757e-11 6.40729e-11 6.48714e-11 6.48684e-11 6.56665e-11 6.56637e-11 6.64604e-11 6.64577e-11 6.80102e-11 6.80065e-11
          6.9548e-11 6.95444e-11 7.10599e-11 7.1056e-11 7.25423e-11 7.2539e-11 7.39899e-11 7.39861e-11 7.57204e-11 7.57162e-11 7.73706e-11 7.73672e-11
          7.8924e-11 7.89211e-11 8.03664e-11 8.03629e-11 8.16813e-11 8.1678e-11 8.28512e-11 8.28486e-11 8.38591e-11 8.38573e-11 8.46855e-11 8.4684e-11
          8.53087e-11 8.53088e-11 8.57067e-11 8.57089e-11 8.58563e-11 8.58598e-11 8.57304e-11 8.5734e-11 8.52952e-11 8.53027e-11 8.45222e-11 8.45315e-11
          8.337e-11 8.33808e-11 8.17912e-11 8.18043e-11 7.97335e-11 7.97496e-11 7.71316e-11 7.71507e-11 7.39113e-11 7.39335e-11 7.00131e-11 7.00383e-11
          6.55339e-11 6.55628e-11 6.14105e-11 6.14424e-11 6.31782e-11 6.31885e-11 6.32454e-10 6.32454e-10
        </DataArray>
        <DataArray type="Float32" Name="X_lOH" NumberOfComponents="1" format="ascii">
          2.84479e-06 2.84494e-06 2.80948e-06 2.80955e-06 2.77232e-06 2.7725e-06 2.73563e-06 2.73574e-06 2.6997e-06 2.69981e-06 2.66456e-06 2.66468e-06
          2.63027e-06 2.63036e-06 2.59675e-06 2.59686e-06 2.56404e-06 2.56416e-06 2.53215e-06 2.53226e-06 2.50107e-06 2.50117e-06 2.44248e-06 2.44262e-06
          2.38693e-06 2.38706e-06 2.33466e-06 2.33479e-06 2.28552e-06 2.28563e-06 2.23944e-06 2.23956e-06 2.18667e-06 2.18679e-06 2.13855e-06 2.13864e-06
          2.09509e-06 2.09517e-06 2.05626e-06 2.05635e-06 2.02206e-06 2.02215e-06 1.99257e-06 1.99263e-06 1.96784e-06 1.96788e-06 1.94803e-06 1.94807e-06
          1.93339e-06 1.93338e-06 1.9242e-06 1.92415e-06 1.92088e-06 1.9208e-06 1.92398e-06 1.9239e-06 1.93437e-06 1.9342e-06 1.95297e-06 1.95275e-06
          1.98123e-06 1.98098e-06 2.0212e-06 2.02087e-06 2.07561e-06 2.07519e-06 2.14851e-06 2.14798e-06 2.24582e-06 2.24515e-06 2.37563e-06 2.37477e-06
          2.54423e-06 2.5431e-06 2.72341e-06 2.72197e-06 2.65793e-06 2.65748e-06 2.67481e-07 2.67481e-07
        </DataArray>
        <DataArray type="Float32" Name="X_gBrine" NumberOfComponents="1" format="ascii">
          0.0112469 0.0112313 0.0112403 0.0112403 0.0112493 0.0112493 0.0112583 0.0112583 0.0112673 0.0112673 0.0112763 0.0112763
          0.0112853 0.0112853 0.0112943 0.0112943 0.0113034 0.0113034 0.0113125 0.0113125 0.0113215 0.0113215 0.0113398 0.0113398
          0.0113581 0.0113581 0.0113765 0.0113765 0.011395 0.011395 0.0114135 0.0114135 0.0114369 0.0114369 0.0114604 0.0114604
          0.0114842 0.0114842 0.0115081 0.0115081 0.0115322 0.0115322 0.0115565 0.0115565 0.0115811 0.0115811 0.0116059 0.0116059
          0.011631 0.011631 0.0116565 0.0116565 0.0116822 0.0116822 0.0117083 0.0117083 0.0117347 0.0117347 0.0117615 0.0117615
          0.0117888 0.0117888 0.0118166 0.0118166 0.0118448 0.0118448 0.0118736 0.0118736 0.0119031 0.0119031 0.0119333 0.0119333
          0.0119643 0.0119643 0.0119965 0.0119965 0.0120304 0.0120304 0.0120698 0.0120698
        </DataArray>
        <DataArray type="Float32" Name="X_gTotalC" NumberOfComponents="1" format="ascii">
          0.988753 0.988769 0.98876 0.98876 0.988751 0.988751 0.988742 0.988742 0.988733 0.988733 0.988724 0.988724
          0.988715 0.988715 0.988706 0.988706 0.988697 0.988697 0.988688 0.988688 0.988678 0.988678 0.98866 0.98866
          0.988642 0.988642 0.988623 0.988623 0.988605 0.988605 0.988586 0.988586 0.988563 0.988563 0.98854 0.98854
          0.988516 0.988516 0.988492 0.988492 0.988468 0.988468 0.988443 0.988443 0.988419 0.988419 0.988394 0.988394
          0.988369 0.988369 0.988344 0.988344 0.988318 0.988318 0.988292 0.988292 0.988265 0.988265 0.988238 0.988238
          0.988211 0.988211 0.988183 0.988183 0.988155 0.988155 0.988126 0.988126 0.988097 0.988097 0.988067 0.988067
          0.988036 0.988036 0.988003 0.988003 0.98797 0.98797 0.98793 0.98793
        </DataArray>
        <DataArray type="Float32" Name="X_gNa" NumberOfComponents="1" format="ascii">
          0 0 0 0 0 0 0 0 0 0 0 0
          0 0 0 0 0 0 0 0 0 0 0 0
          0 0 0 0 0 0 0 0 0 0 0 0
          0 0 0 0 0 0 0 0 0 0 0 0
          0 0 0 0 0 0 0 0 0 0 0 0
          0 0 0 0 0 0 0 0 0 0 0 0
          0 0 0 0 0 0 0 0
        </DataArray>
        <DataArray type="Float32" Name="X_gCl" NumberOfComponents="1" format="ascii">
          0 0 0 0 0 0 0 0 0 0 0 0
          0 0 0 0 0 0 0 0 0 0 0 0
          0 0 0 0 0 0 0 0 0 0 0 0
          0 0 0 0 0 0 0 0 0 0 0 0
          0 0 0 0 0 0 0 0 0 0 0 0
          0 0 0 0 0 0 0 0 0 0 0 0
          0 0 0 0 0 0 0 0
        </DataArray>
        <DataArray type="Float32" Name="X_gCa" NumberOfComponents="1" format="ascii">
          0 0 0 0 0 0 0 0 0 0 0 0
          0 0 0 0 0 0 0 0 0 0 0 0
          0 0 0 0 0 0 0 0 0 0 0 0
          0 0 0 0 0 0 0 0 0 0 0 0
          0 0 0 0 0 0 0 0 0 0 0 0
          0 0 0 0 0 0 0 0 0 0 0 0
          0 0 0 0 0 0 0 0
        </DataArray>
        <DataArray type="Float32" Name="X_gUrea" NumberOfComponents="1" format="ascii">
          0 0 0 0 0 0 0 0 0 0 0 0
          0 0 0 0 0 0 0 0 0 0 0 0
          0 0 0 0 0 0 0 0 0 0 0 0
          0 0 0 0 0 0 0 0 0 0 0 0
          0 0 0 0 0 0 0 0 0 0 0 0
          0 0 0 0 0 0 0 0 0 0 0 0
          0 0 0 0 0 0 0 0
        </DataArray>
        <DataArray type="Float32" Name="X_gTotalNH" NumberOfComponents="1" format="ascii">
          0 0 0 0 0 0 0 0 0 0 0 0
          0 0 0 0 0 0 0 0 0 0 0 0
          0 0 0 0 0 0 0 0 0 0 0 0
          0 0 0 0 0 0 0 0 0 0 0 0
          0 0 0 0 0 0 0 0 0 0 0 0
          0 0 0 0 0 0 0 0 0 0 0 0
          0 0 0 0 0 0 0 0
        </DataArray>
        <DataArray type="Float32" Name="X_gO2" NumberOfComponents="1" format="ascii">
          0 0 0 0 0 0 0 0 0 0 0 0
          0 0 0 0 0 0 0 0 0 0 0 0
          0 0 0 0 0 0 0 0 0 0 0 0
          0 0 0 0 0 0 0 0 0 0 0 0
          0 0 0 0 0 0 0 0 0 0 0 0
          0 0 0 0 0 0 0 0 0 0 0 0
          0 0 0 0 0 0 0 0
        </DataArray>
        <DataArray type="Float32" Name="X_gSubstrate" NumberOfComponents="1" format="ascii">
          0 0 0 0 0 0 0 0 0 0 0 0
          0 0 0 0 0 0 0 0 0 0 0 0
          0 0 0 0 0 0 0 0 0 0 0 0
          0 0 0 0 0 0 0 0 0 0 0 0
          0 0 0 0 0 0 0 0 0 0 0 0
          0 0 0 0 0 0 0 0 0 0 0 0
          0 0 0 0 0 0 0 0
        </DataArray>
        <DataArray type="Float32" Name="X_gSuspended_Biomass" NumberOfComponents="1" format="ascii">
          0 0 0 0 0 0 0 0 0 0 0 0
          0 0 0 0 0 0 0 0 0 0 0 0
          0 0 0 0 0 0 0 0 0 0 0 0
          0 0 0 0 0 0 0 0 0 0 0 0
          0 0 0 0 0 0 0 0 0 0 0 0
          0 0 0 0 0 0 0 0 0 0 0 0
          0 0 0 0 0 0 0 0
        </DataArray>
        <DataArray type="Float32" Name="X_gNH4" NumberOfComponents="1" format="ascii">
          0 0 0 0 0 0 0 0 0 0 0 0
          0 0 0 0 0 0 0 0 0 0 0 0
          0 0 0 0 0 0 0 0 0 0 0 0
          0 0 0 0 0 0 0 0 0 0 0 0
          0 0 0 0 0 0 0 0 0 0 0 0
          0 0 0 0 0 0 0 0 0 0 0 0
          0 0 0 0 0 0 0 0
        </DataArray>
        <DataArray type="Float32" Name="X_gHCO3" NumberOfComponents="1" format="ascii">
          0 0 0 0 0 0 0 0 0 0 0 0
          0 0 0 0 0 0 0 0 0 0 0 0
          0 0 0 0 0 0 0 0 0 0 0 0
          0 0 0 0 0 0 0 0 0 0 0 0
          0 0 0 0 0 0 0 0 0 0 0 0
          0 0 0 0 0 0 0 0 0 0 0 0
          0 0 0 0 0 0 0 0
        </DataArray>
        <DataArray type="Float32" Name="X_gCO3" NumberOfComponents="1" format="ascii">
          0 0 0 0 0 0 0 0 0 0 0 0
          0 0 0 0 0 0 0 0 0 0 0 0
          0 0 0 0 0 0 0 0 0 0 0 0
          0 0 0 0 0 0 0 0 0 0 0 0
          0 0 0 0 0 0 0 0 0 0 0 0
          0 0 0 0 0 0 0 0 0 0 0 0
          0 0 0 0 0 0 0 0
        </DataArray>
        <DataArray type="Float32" Name="X_gCO2" NumberOfComponents="1" format="ascii">
          0.988753 0.988769 0.98876 0.98876 0.988751 0.988751 0.988742 0.988742 0.988733 0.988733 0.988724 0.988724
          0.988715 0.988715 0.988706 0.988706 0.988697 0.988697 0.988688 0.988688 0.988678 0.988678 0.98866 0.98866
          0.988642 0.988642 0.988623 0.988623 0.988605 0.988605 0.988586 0.988586 0.988563 0.988563 0.98854 0.98854
          0.988516 0.988516 0.988492 0.988492 0.988468 0.988468 0.988443 0.988443 0.988419 0.988419 0.988394 0.988394
          0.988369 0.988369 0.988344 0.988344 0.988318 0.988318 0.988292 0.988292 0.988265 0.988265 0.988238 0.988238
          0.988211 0.988211 0.988183 0.988183 0.988155 0.988155 0.988126 0.988126 0.988097 0.988097 0.988067 0.988067
          0.988036 0.988036 0.988003 0.988003 0.98797 0.98797 0.98793 0.98793
        </DataArray>
        <DataArray type="Float32" Name="X_gH" NumberOfComponents="1" format="ascii">
          0 0 0 0 0 0 0 0 0 0 0 0
          0 0 0 0 0 0 0 0 0 0 0 0
          0 0 0 0 0 0 0 0 0 0 0 0
          0 0 0 0 0 0 0 0 0 0 0 0
          0 0 0 0 0 0 0 0 0 0 0 0
          0 0 0 0 0 0 0 0 0 0 0 0
          0 0 0 0 0 0 0 0
        </DataArray>
        <DataArray type="Float32" Name="X_gOH" NumberOfComponents="1" format="ascii">
          0 0 0 0 0 0 0 0 0 0 0 0
          0 0 0 0 0 0 0 0 0 0 0 0
          0 0 0 0 0 0 0 0 0 0 0 0
          0 0 0 0 0 0 0 0 0 0 0 0
          0 0 0 0 0 0 0 0 0 0 0 0
          0 0 0 0 0 0 0 0 0 0 0 0
          0 0 0 0 0 0 0 0
        </DataArray>
        <DataArray type="Float32" Name="Molarity_Brine" NumberOfComponents="1" format="ascii">
          54686 54686 54679.4 54679.4 54672.1 54672.1 54664.7 54664.7 54657.2 54657.2 54649.8 54649.8
          54642.3 54642.3 54634.8 54634.8 54627.2 54627.2 54619.7 54619.7 54612.2 54612.2 54597.6 54597.6
          54583 54583 54568.7 54568.7 54554.7 54554.7 54541 54541 54524.7 54524.7 54509.2 54509.2
          54494.8 54494.8 54481.5 54481.5 54469.7 54469.7 54459.4 54459.4 54450.9 54450.9 54444.4 54444.4
          54440.2 54440.2 54438.5 54438.5 54439.7 54439.7 54444 54444 54451.8 54451.8 54463.5 54463.5
          54479.6 54479.6 54500.5 54500.5 54526.9 54526.9 54559.5 54559.4 54599.2 54599.2 54647.4 54647.4
          54706.2 54706.1 54779.5 54779.3 54875.5 54875.3 55049.2 55049.2
        </DataArray>
        <DataArray type="Float32" Name="Molarity_TotalC" NumberOfComponents="1" format="ascii">
          2.36569 2.36573 2.36544 2.36545 2.3662 2.36623 2.36669 2.36678 2.36714 2.36725 2.36754 2.36767
          2.36794 2.36804 2.36827 2.36838 2.36856 2.36868 2.36882 2.36893 2.36906 2.36916 2.36946 2.36962
          2.36966 2.36981 2.36988 2.37004 2.37005 2.37018 2.37013 2.37026 2.37023 2.37039 2.37031 2.37045
          2.37045 2.37056 2.37065 2.37077 2.37095 2.37107 2.37144 2.37153 2.37212 2.37217 2.37303 2.37308
          2.37427 2.37427 2.37587 2.37581 2.37785 2.37775 2.38026 2.38016 2.3833 2.38308 2.38684 2.38657
          2.39106 2.39074 2.39613 2.39573 2.40203 2.40153 2.40883 2.40823 2.41619 2.41548 2.42177 2.42096
          2.41305 2.41215 2.32999 2.32922 1.91459 1.91488 0.0132254 0.0132254
        </DataArray>
        <DataArray type="Float32" Name="Molarity_Na" NumberOfComponents="1" format="ascii">
          0.135499 0.135502 0.134531 0.134532 0.133452 0.133456 0.132364 0.132364 0.131268 0.131268 0.130167 0.130166
          0.12906 0.12906 0.12795 0.12795 0.126838 0.126838 0.125723 0.125723 0.124608 0.124608 0.122423 0.122423
          0.12025 0.120249 0.1181 0.118099 0.115981 0.115981 0.113905 0.113905 0.111408 0.111407 0.109013 0.109012
          0.106742 0.106741 0.104619 0.104619 0.102668 0.102668 0.100914 0.100914 0.0993844 0.0993843 0.0981084 0.0981083
          0.0971169 0.0971165 0.0964429 0.0964424 0.0961224 0.096122 0.096195 0.0961943 0.0967033 0.0967026 0.097696 0.0976947
          0.0992253 0.0992241 0.101353 0.101352 0.104153 0.104151 0.107712 0.107709 0.11214 0.112135 0.117589 0.117582
          0.1243 0.12429 0.132706 0.132688 0.143694 0.143673 0.1633 0.1633
        </DataArray>
        <DataArray type="Float32" Name="Molarity_Cl" NumberOfComponents="1" format="ascii">
          309.242 309.228 313.496 313.489 318.238 318.219 323.02 323.018 327.837 327.838 332.678 332.679
          337.539 337.54 342.418 342.418 347.308 347.307 352.205 352.205 357.106 357.105 366.707 366.709
          376.257 376.26 385.703 385.706 395.01 395.012 404.131 404.131 415.099 415.101 425.618 425.621
          435.587 435.588 444.904 444.904 453.463 453.464 461.153 461.153 467.853 467.853 473.435 473.436
          477.764 477.765 480.692 480.694 482.062 482.064 481.698 481.701 479.413 479.416 474.992 474.998
          468.205 468.21 458.777 458.783 446.385 446.394 430.647 430.659 411.072 411.091 386.991 387.019
          357.34 357.384 320.213 320.294 271.701 271.791 185.193 185.193
        </DataArray>
        <DataArray type="Float32" Name="Molarity_Ca" NumberOfComponents="1" format="ascii">
          3.72931 3.72919 3.77641 3.77634 3.82995 3.82976 3.88367 3.88374 3.93774 3.93786 3.99202 3.99216
          4.04653 4.04664 4.10117 4.10127 4.15588 4.156 4.21066 4.21077 4.26546 4.26555 4.37272 4.37291
          4.47924 4.47941 4.5846 4.58479 4.68837 4.68853 4.78999 4.79013 4.91218 4.91237 5.02937 5.02955
          5.1405 5.14062 5.24444 5.24456 5.34005 5.34017 5.42617 5.42626 5.50147 5.50153 5.56458 5.56464
          5.61406 5.61408 5.64833 5.64829 5.66564 5.66556 5.6641 5.66403 5.64181 5.64162 5.59626 5.59606
          5.52508 5.52482 5.42535 5.42503 5.29351 5.29311 5.12534 5.12488 4.91505 4.91456 4.65286 4.65238
          4.31443 4.31403 3.81851 3.81863 2.86361 2.86489 0 0
        </DataArray>
        <DataArray type="Float32" Name="Molarity_Urea" NumberOfComponents="1" format="ascii">
          2.2837e-08 2.28283e-08 2.49963e-08 2.50908e-08 2.87488e-08 2.87897e-08 3.13442e-08 3.15903e-08 3.38467e-08 3.42258e-08 3.64176e-08 3.68152e-08
          3.9075e-08 3.94622e-08 4.18206e-08 4.22051e-08 4.46571e-08 4.50882e-08 4.76296e-08 4.80388e-08 5.07744e-08 5.11145e-08 5.72095e-08 5.80241e-08
          6.38703e-08 6.46599e-08 7.16097e-08 7.2518e-08 7.99254e-08 8.08255e-08 8.88302e-08 8.9718e-08 1.0079e-07 1.01993e-07 1.13986e-07 1.1526e-07
          1.28826e-07 1.29966e-07 1.45137e-07 1.46396e-07 1.63093e-07 1.64463e-07 1.83523e-07 1.84717e-07 2.06395e-07 2.07247e-07 2.32175e-07 2.32911e-07
          2.62031e-07 2.62044e-07 2.97001e-07 2.95838e-07 3.37439e-07 3.35056e-07 3.84809e-07 3.82262e-07 4.45008e-07 4.38586e-07 5.16355e-07 5.0668e-07
          6.07319e-07 5.93833e-07 7.30093e-07 7.10329e-07 8.95679e-07 8.65531e-07 1.13466e-06 1.08935e-06 1.50642e-06 1.43771e-06 2.18299e-06 2.0708e-06
          3.77946e-06 3.55985e-06 8.93566e-06 8.39222e-06 2.74141e-05 2.57364e-05 0 0
        </DataArray>
        <DataArray type="Float32" Name="Molarity_TotalNH" NumberOfComponents="1" format="ascii">
          306.488 306.475 310.647 310.64 315.283 315.265 319.96 319.957 324.669 324.67 329.402 329.404
          334.155 334.156 338.926 338.925 343.706 343.706 348.494 348.494 353.286 353.286 362.673 362.676
          372.011 372.014 381.247 381.25 390.347 390.349 399.264 399.264 409.988 409.99 420.272 420.276
          430.019 430.021 439.129 439.129 447.498 447.498 455.016 455.016 461.567 461.567 467.025 467.025
          471.257 471.258 474.12 474.122 475.458 475.46 475.103 475.106 472.869 472.872 468.546 468.552
          461.909 461.915 452.691 452.697 440.575 440.583 425.186 425.199 406.047 406.066 382.501 382.529
          353.51 353.553 317.209 317.288 269.776 269.864 185.193 185.193
        </DataArray>
        <DataArray type="Float32" Name="Molarity_O2" NumberOfComponents="1" format="ascii">
          1.59766e-33 1.60799e-33 1.62243e-33 1.68951e-33 2.62329e-33 2.71537e-33 3.08837e-33 3.38947e-33 3.33715e-33 3.74903e-33 3.40592e-33 3.85782e-33
          3.42997e-33 3.81479e-33 3.30881e-33 3.682e-33 3.12749e-33 3.47727e-33 2.89819e-33 3.20167e-33 2.65382e-33 2.90821e-33 2.11852e-33 2.42004e-33
          1.52166e-33 1.72585e-33 1.08471e-33 1.23055e-33 7.38439e-34 8.22361e-34 4.63382e-34 5.12959e-34 2.42237e-34 2.70204e-34 1.13209e-34 1.24868e-34
          4.78993e-35 5.17718e-35 1.82195e-35 1.96439e-35 6.2205e-36 6.65914e-36 1.86819e-36 1.97292e-36 4.8971e-37 5.07734e-37 1.16812e-37 1.20046e-37
          2.73738e-38 2.76074e-38 1.55355e-38 1.516e-38 0 0 0 0 0 0 0 0
          0 0 0 0 0 0 0 0 0 0 0 0
          0 0 0 0 0 0 0 0
        </DataArray>
        <DataArray type="Float32" Name="Molarity_Substrate" NumberOfComponents="1" format="ascii">
          16.0144 16.0144 15.9985 15.9985 15.9799 15.98 15.9605 15.9605 15.94 15.94 15.9187 15.9186
          15.8963 15.8962 15.8728 15.8728 15.8482 15.8482 15.8224 15.8224 15.7954 15.7954 15.7389 15.7389
          15.677 15.677 15.6093 15.6092 15.5351 15.5351 15.454 15.454 15.3433 15.3432 15.2195 15.2195
          15.0814 15.0813 14.9272 14.9271 14.7551 14.755 14.5631 14.563 14.3487 14.3486 14.1094 14.1093
          13.8421 13.842 13.5434 13.5433 13.2094 13.2093 12.8357 12.8355 12.4169 12.4167 11.9469 11.9469
          11.419 11.4189 10.8245 10.8244 10.1527 10.1527 9.39082 9.39087 8.52168 8.52194 7.52128 7.52184
          6.35067 6.35179 4.93977 4.94227 3.14555 3.14844 0 0
        </DataArray>
        <DataArray type="Float32" Name="Molarity_Suspended_Biomass" NumberOfComponents="1" format="ascii">
          0.00552892 0.00552876 0.00552459 0.00552425 0.0055166 0.00551797 0.00551057 0.00551167 0.0055039 0.00550594 0.00549789 0.00549984
          0.00549176 0.0054935 0.00548515 0.00548677 0.00547813 0.00547962 0.0054707 0.00547202 0.00546287 0.00546389 0.00544439 0.00544709
          0.00542503 0.00542759 0.00540347 0.0054058 0.00537944 0.00538158 0.00535284 0.0053547 0.00531538 0.00531769 0.00527338 0.00527553
          0.00522596 0.00522794 0.00517252 0.00517428 0.00511234 0.0051139 0.00504467 0.00504604 0.00496863 0.00496982 0.00488327 0.00488427
          0.00478749 0.00478829 0.00468006 0.00468066 0.00455957 0.00455998 0.0044245 0.00442464 0.00427296 0.00427284 0.00410284 0.00410249
          0.0039119 0.00391121 0.00369725 0.00369618 0.00345555 0.00345407 0.00318292 0.00318097 0.00287444 0.00287192 0.00252328 0.00252001
          0.00211821 0.00211394 0.00163821 0.00163287 0.00103792 0.00103318 0 0
        </DataArray>
        <DataArray type="Float32" Name="Molarity_NH4" NumberOfComponents="1" format="ascii">
          303.773 303.759 307.931 307.924 312.564 312.546 317.238 317.236 321.946 321.946 326.677 326.678
          331.428 331.429 336.196 336.195 340.975 340.974 345.761 345.761 350.551 350.551 359.935 359.937
          369.269 369.272 378.502 378.505 387.599 387.601 396.514 396.514 407.234 407.236 417.516 417.519
          427.259 427.261 436.367 436.367 444.733 444.733 452.248 452.249 458.797 458.797 464.253 464.253
          468.482 468.484 471.343 471.345 472.679 472.681 472.321 472.324 470.085 470.088 465.76 465.765
          459.12 459.126 449.899 449.905 437.78 437.789 422.389 422.402 403.248 403.267 379.703 379.732
          350.73 350.774 314.526 314.606 267.534 267.622 185.037 185.037
        </DataArray>
        <DataArray type="Float32" Name="Molarity_HCO3" NumberOfComponents="1" format="ascii">
          2.11648 2.11653 2.11371 2.11372 2.11165 2.11169 2.10933 2.10942 2.10696 2.10707 2.10454 2.10467
          2.10214 2.10223 2.09967 2.09978 2.09717 2.09729 2.09467 2.09478 2.09215 2.09225 2.08721 2.08736
          2.08216 2.08231 2.07725 2.0774 2.07243 2.07256 2.06767 2.06781 2.06204 2.06219 2.05669 2.05682
          2.05175 2.05185 2.04724 2.04736 2.04328 2.04339 2.03995 2.04004 2.03733 2.03739 2.0355 2.03555
          2.03461 2.03461 2.03475 2.03469 2.036 2.0359 2.03851 2.03841 2.04254 2.04232 2.0481 2.04784
          2.05549 2.05518 2.06503 2.06464 2.07693 2.07644 2.09152 2.09092 2.10883 2.10813 2.12711 2.12631
          2.13496 2.13406 2.07494 2.07413 1.697 1.69723 0.00553194 0.00553194
        </DataArray>
        <DataArray type="Float32" Name="Molarity_CO3" NumberOfComponents="1" format="ascii">
          0.0021574 0.00215756 0.00213137 0.00213143 0.00210507 0.00210522 0.0020788 0.00207898 0.00205302 0.00205322 0.00202775 0.00202797
          0.00200308 0.00200325 0.00197888 0.00197908 0.00195523 0.00195544 0.00193213 0.00193232 0.0019096 0.00190977 0.00186703 0.00186729
          0.00182647 0.0018267 0.0017883 0.00178854 0.00175237 0.00175257 0.00171858 0.00171878 0.00167986 0.00168009 0.00164453 0.00164472
          0.00161267 0.00161281 0.00158422 0.00158438 0.00155926 0.00155941 0.00153789 0.001538 0.00152016 0.00152023 0.00150622 0.00150628
          0.00149631 0.00149632 0.0014907 0.00149062 0.00148969 0.00148955 0.00149375 0.00149361 0.00150368 0.00150338 0.0015201 0.00151973
          0.00154428 0.00154383 0.0015779 0.00157733 0.0016231 0.00162237 0.00168308 0.00168216 0.00176213 0.00176099 0.00186434 0.00186294
          0.00198178 0.00198004 0.00202717 0.00202533 0.00156245 0.00156247 4.26535e-07 4.26535e-07
        </DataArray>
        <DataArray type="Float32" Name="Molarity_CO2" NumberOfComponents="1" format="ascii">
          0.247083 0.247076 0.249632 0.249628 0.252475 0.252464 0.255318 0.255318 0.258161 0.258164 0.260999 0.261003
          0.263831 0.263833 0.266652 0.266654 0.269461 0.269463 0.272254 0.272257 0.275032 0.275034 0.280419 0.280424
          0.285706 0.285711 0.290871 0.290876 0.295897 0.295902 0.300763 0.300767 0.30654 0.306546 0.312006 0.312012
          0.317122 0.317126 0.32185 0.321853 0.326149 0.326153 0.32998 0.329983 0.333299 0.3333 0.336055 0.336057
          0.338197 0.338198 0.339665 0.339664 0.34039 0.340388 0.340292 0.340291 0.339285 0.339279 0.337249 0.337244
          0.33406 0.334053 0.329551 0.329543 0.323511 0.323501 0.315664 0.315655 0.305631 0.305624 0.292824 0.292822
          0.276144 0.276151 0.25306 0.253093 0.216056 0.216115 0.00769319 0.00769319
        </DataArray>
        <DataArray type="Float32" Name="Molarity_H" NumberOfComponents="1" format="ascii">
          5.84223e-05 5.84191e-05 5.91451e-05 5.91437e-05 5.99253e-05 5.99216e-05 6.0716e-05 6.07135e-05 6.15109e-05 6.15084e-05 6.23085e-05 6.23058e-05
          6.31072e-05 6.3105e-05 6.39081e-05 6.39053e-05 6.47092e-05 6.47063e-05 6.55101e-05 6.55073e-05 6.63097e-05 6.63071e-05 6.78716e-05 6.78679e-05
          6.9422e-05 6.94185e-05 7.09471e-05 7.09433e-05 7.24433e-05 7.244e-05 7.39049e-05 7.39011e-05 7.56531e-05 7.5649e-05 7.73212e-05 7.73178e-05
          7.88923e-05 7.88894e-05 8.03519e-05 8.03484e-05 8.16831e-05 8.16799e-05 8.28682e-05 8.28656e-05 8.38896e-05 8.38878e-05 8.47276e-05 8.47261e-05
          8.53599e-05 8.536e-05 8.57641e-05 8.57663e-05 8.59165e-05 8.59201e-05 8.57898e-05 8.57934e-05 8.53497e-05 8.53572e-05 8.45673e-05 8.45766e-05
          8.34011e-05 8.34119e-05 8.18033e-05 8.18164e-05 7.97218e-05 7.9738e-05 7.70915e-05 7.71106e-05 7.38385e-05 7.38607e-05 6.99041e-05 6.99293e-05
          6.53857e-05 6.54146e-05 6.12171e-05 6.12491e-05 6.29055e-05 6.29158e-05 0.000628379 0.000628379
        </DataArray>
        <DataArray type="Float32" Name="Molarity_OH" NumberOfComponents="1" format="ascii">
          0.000168101 0.00016811 0.000166032 0.000166036 0.000163854 0.000163864 0.000161704 0.00016171 0.000159598 0.000159605 0.000157539 0.000157546
          0.00015553 0.000155535 0.000153565 0.000153572 0.000151649 0.000151656 0.00014978 0.000149787 0.000147959 0.000147965 0.000144526 0.000144534
          0.000141271 0.000141279 0.000138209 0.000138216 0.00013533 0.000135336 0.00013263 0.000132637 0.000129538 0.000129545 0.000126719 0.000126725
          0.000124174 0.000124178 0.000121899 0.000121904 0.000119896 0.000119901 0.000118169 0.000118173 0.000116721 0.000116723 0.000115561 0.000115563
          0.000114704 0.000114704 0.000114167 0.000114165 0.000113974 0.000113969 0.000114157 0.000114152 0.000114767 0.000114757 0.000115858 0.000115846
          0.000117516 0.000117501 0.00011986 0.000119841 0.00012305 0.000123025 0.000127325 0.000127293 0.00013303 0.00013299 0.000140638 0.000140587
          0.000150513 0.000150447 0.00016097 0.000160885 0.000156916 0.000156889 1.57575e-05 1.57575e-05
        </DataArray>
        <DataArray type="Float32" Name="Da_ureolysis" NumberOfComponents="1" format="ascii">
          0 0 0 0 0 0 0 0 0 0 0 0
          0 0 0 0 0 0 0 0 0 0 0 0
          0 0 0 0 0 0 0 0 0 0 0 0
          0 0 0 0 0 0 0 0 0 0 0 0
          0 0 0 0 0 0 0 0 0 0 0 0
          0 0 0 0 0 0 0 0 0 0 0 0
          0 0 0 0 0 0 0 0
        </DataArray>
        <DataArray type="Float32" Name="Da_precipitation" NumberOfComponents="1" format="ascii">
          5292.98 5185.69 898.153 903.881 432.838 434.535 287.617 288.018 214.823 214.752 170.853 170.811
          141.533 141.416 120.502 120.447 104.733 104.679 92.4705 92.4183 88.0172 87.9759 67.9398 67.9215
          57.4975 57.4733 49.6715 49.6606 43.6335 43.6114 39.563 39.5518 34.0372 34.0327 30.2893 30.2826
          27.2602 27.2513 24.7755 24.7737 22.7238 22.7197 21.0025 20.999 19.5576 19.5534 18.3358 18.3345
          17.3061 17.306 16.4407 16.4402 15.7178 15.7172 15.1281 15.1358 14.6571 14.6564 14.3048 14.3115
          14.0737 14.0796 13.9614 13.968 13.9971 14.0049 14.1851 14.1949 14.5502 14.5584 14.9643 14.9744
          14.4831 14.4875 9.12308 9.12278 0.129685 0.130769 0 0
        </DataArray>
        <DataArray type="Float32" Name="Vx" NumberOfComponents="1" format="ascii">
          4.04039e-12 4.0413e-12 2.49379e-12 2.49427e-12 1.12679e-12 1.12711e-12 1.03027e-12 1.03127e-12 1.98527e-12 1.98773e-12 3.08385e-12 3.08736e-12
          3.10746e-12 3.1102e-12 2.17257e-12 2.17475e-12 1.91573e-12 1.91826e-12 1.8344e-12 1.83671e-12 1.73381e-12 1.73586e-12 2.74541e-12 2.74815e-12
          3.33021e-12 3.33417e-12 4.09625e-12 4.10078e-12 3.27186e-12 3.27498e-12 1.30399e-12 1.30591e-12 3.65432e-12 3.6585e-12 5.95089e-12 5.95572e-12
          3.18398e-12 3.18614e-12 1.35539e-12 1.35683e-12 3.43979e-12 3.44239e-12 4.12101e-12 4.12353e-12 2.39791e-12 2.39927e-12 3.60214e-12 3.60411e-12
          9.20885e-12 9.20955e-12 8.8632e-12 8.86067e-12 2.70653e-12 2.70354e-12 1.01263e-11 1.01167e-11 1.27175e-11 1.2701e-11 4.29707e-12 4.28495e-12
          8.60911e-12 8.59051e-12 1.38929e-11 1.38555e-11 1.5241e-11 1.51888e-11 1.53137e-11 1.52522e-11 1.26325e-11 1.25705e-11 1.09483e-11 1.08889e-11
          9.87301e-13 1.0051e-12 -3.34452e-11 -3.32187e-11 -5.72009e-11 -5.68444e-11 -1.34005e-10 -1.3365e-10
        </DataArray>
        <DataArray type="Float32" Name="Vy" NumberOfComponents="1" format="ascii">
          1.2392e-10 1.26544e-10 -7.14082e-10 -7.09505e-10 -1.46689e-09 -1.46143e-09 -2.18925e-09 -2.18766e-09 -2.91011e-09 -2.91263e-09 -3.63191e-09 -3.63618e-09
          -4.35724e-09 -4.36226e-09 -5.08189e-09 -5.08796e-09 -5.8076e-09 -5.81505e-09 -6.5331e-09 -6.54176e-09 -6.81889e-09 -6.82729e-09 -8.72837e-09 -8.73799e-09
          -1.01786e-08 -1.01914e-08 -1.16437e-08 -1.16579e-08 -1.31141e-08 -1.31287e-08 -1.43034e-08 -1.43202e-08 -1.64363e-08 -1.64554e-08 -1.82745e-08 -1.82917e-08
          -2.0125e-08 -2.014e-08 -2.19786e-08 -2.19964e-08 -2.3831e-08 -2.38504e-08 -2.56984e-08 -2.57152e-08 -2.75638e-08 -2.75787e-08 -2.94369e-08 -2.94506e-08
          -3.13215e-08 -3.13258e-08 -3.32164e-08 -3.32037e-08 -3.51197e-08 -3.50977e-08 -3.70054e-08 -3.69725e-08 -3.89593e-08 -3.8901e-08 -4.08734e-08 -4.07968e-08
          -4.2798e-08 -4.27073e-08 -4.47856e-08 -4.46677e-08 -4.6762e-08 -4.66091e-08 -4.87887e-08 -4.85974e-08 -5.08254e-08 -5.05961e-08 -5.29333e-08 -5.26673e-08
          -5.53178e-08 -5.50189e-08 -5.87896e-08 -5.84949e-08 -7.67646e-08 -7.65279e-08 9.23606e-07 9.23803e-07
        </DataArray>
      </PointData>
      <CellData Scalars="process rank">
        <DataArray type="Float32" Name="process rank" NumberOfComponents="1" format="ascii">
          0 0 0 0 0 0 0 0 0 0 0 0
          0 0 0 0 0 0 0 0 0 0 0 0
          0 0 0 0 0 0 0 0 0 0 0 0
          0 0 0
        </DataArray>
      </CellData>
      <Points>
        <DataArray type="Float32" Name="Coordinates" NumberOfComponents="3" format="ascii">
          0 0 0 0.0254 0 0 0 0.01 0 0.0254 0.01 0
          0 0.02 0 0.0254 0.02 0 0 0.03 0 0.0254 0.03 0
          0 0.04 0 0.0254 0.04 0 0 0.05 0 0.0254 0.05 0
          0 0.06 0 0.0254 0.06 0 0 0.07 0 0.0254 0.07 0
          0 0.08 0 0.0254 0.08 0 0 0.09 0 0.0254 0.09 0
          0 0.1 0 0.0254 0.1 0 0 0.12 0 0.0254 0.12 0
          0 0.14 0 0.0254 0.14 0 0 0.16 0 0.0254 0.16 0
          0 0.18 0 0.0254 0.18 0 0 0.2 0 0.0254 0.2 0
          0 0.225 0 0.0254 0.225 0 0 0.25 0 0.0254 0.25 0
          0 0.275 0 0.0254 0.275 0 0 0.3 0 0.0254 0.3 0
          0 0.325 0 0.0254 0.325 0 0 0.35 0 0.0254 0.35 0
          0 0.375 0 0.0254 0.375 0 0 0.4 0 0.0254 0.4 0
          0 0.425 0 0.0254 0.425 0 0 0.45 0 0.0254 0.45 0
          0 0.475 0 0.0254 0.475 0 0 0.5 0 0.0254 0.5 0
          0 0.525 0 0.0254 0.525 0 0 0.55 0 0.0254 0.55 0
          0 0.575 0 0.0254 0.575 0 0 0.6 0 0.0254 0.6 0
          0 0.625 0 0.0254 0.625 0 0 0.65 0 0.0254 0.65 0
          0 0.675 0 0.0254 0.675 0 0 0.7 0 0.0254 0.7 0
          0 0.725 0 0.0254 0.725 0 0 0.75 0 0.0254 0.75 0
          0 0.775 0 0.0254 0.775 0 0 0.8 0 0.0254 0.8 0
        </DataArray>
      </Points>
      <Cells>
        <DataArray type="Int32" Name="connectivity" NumberOfComponents="1" format="ascii">
          0 1 3 2 2 3 5 4 4 5 7 6
          6 7 9 8 8 9 11 10 10 11 13 12
          12 13 15 14 14 15 17 16 16 17 19 18
          18 19 21 20 20 21 23 22 22 23 25 24
          24 25 27 26 26 27 29 28 28 29 31 30
          30 31 33 32 32 33 35 34 34 35 37 36
          36 37 39 38 38 39 41 40 40 41 43 42
          42 43 45 44 44 45 47 46 46 47 49 48
          48 49 51 50 50 51 53 52 52 53 55 54
          54 55 57 56 56 57 59 58 58 59 61 60
          60 61 63 62 62 63 65 64 64 65 67 66
          66 67 69 68 68 69 71 70 70 71 73 72
          72 73 75 74 74 75 77 76 76 77 79 78
        </DataArray>
        <DataArray type="Int32" Name="offsets" NumberOfComponents="1" format="ascii">
          4 8 12 16 20 24 28 32 36 40 44 48
          52 56 60 64 68 72 76 80 84 88 92 96
          100 104 108 112 116 120 124 128 132 136 140 144
          148 152 156
        </DataArray>
        <DataArray type="UInt8" Name="types" NumberOfComponents="1" format="ascii">
          9 9 9 9 9 9 9 9 9 9 9 9
          9 9 9 9 9 9 9 9 9 9 9 9
          9 9 9 9 9 9 9 9 9 9 9 9
          9 9 9
        </DataArray>
      </Cells>
    </Piece>
  </UnstructuredGrid>
</VTKFile>
