<?xml version="1.0"?>
<VTKFile type="UnstructuredGrid" version="0.1" byte_order="LittleEndian">
  <UnstructuredGrid>
    <Piece NumberOfCells="39" NumberOfPoints="80">
      <PointData Scalars="Sg">
        <DataArray type="Float32" Name="Sg" NumberOfComponents="1" format="ascii">
          0 0 0 0 0 0 0 0 0 0 0 0
          0 0 0 0 0 0 0 0 0 0 0 0
          0 0 0 0 0 0 0 0 0 0 0 0
          0 0 0 0 0 0 0 0 0 0 0 0
          0 0 0 0 0 0 0 0 0 0 0 0
          0 0 0 0 0 0 0 0 0 0 0 0
          0 0 0 0 0 0 0 0
        </DataArray>
        <DataArray type="Float32" Name="Sl" NumberOfComponents="1" format="ascii">
          1 1 1 1 1 1 1 1 1 1 1 1
          1 1 1 1 1 1 1 1 1 1 1 1
          1 1 1 1 1 1 1 1 1 1 1 1
          1 1 1 1 1 1 1 1 1 1 1 1
          1 1 1 1 1 1 1 1 1 1 1 1
          1 1 1 1 1 1 1 1 1 1 1 1
          1 1 1 1 1 1 1 1
        </DataArray>
        <DataArray type="Float32" Name="pg" NumberOfComponents="1" format="ascii">
          117569 117569 117470 117470 117372 117372 117273 117273 117175 117175 117076 117076
          116977 116977 116879 116879 116780 116780 116682 116682 116583 116583 116386 116386
          116188 116188 115991 115991 115793 115793 115596 115596 115349 115349 115102 115102
          114855 114855 114608 114608 114360 114360 114113 114113 113866 113866 113619 113619
          113371 113371 113124 113124 112877 112877 112629 112629 112382 112382 112135 112135
          111887 111887 111640 111640 111393 111393 111146 111146 110899 110899 110652 110652
          110405 110405 110159 110159 109913 109913 109667 109667
        </DataArray>
        <DataArray type="Float32" Name="pl" NumberOfComponents="1" format="ascii">
          107902 107902 107804 107804 107705 107705 107607 107607 107508 107508 107409 107409
          107311 107311 107212 107212 107114 107114 107015 107015 106916 106916 106719 106719
          106522 106522 106324 106324 106127 106127 105929 105929 105682 105682 105435 105435
          105188 105188 104941 104941 104694 104694 104446 104446 104199 104199 103952 103952
          103705 103705 103457 103457 103210 103210 102963 102963 102715 102715 102468 102468
          102221 102221 101973 101973 101726 101726 101479 101479 101232 101232 100985 100985
          100739 100739 100492 100492 100246 100246 100000 100000
        </DataArray>
        <DataArray type="Float32" Name="pc" NumberOfComponents="1" format="ascii">
          9666.67 9666.67 9666.67 9666.67 9666.67 9666.67 9666.67 9666.67 9666.67 9666.67 9666.67 9666.67
          9666.67 9666.67 9666.67 9666.67 9666.67 9666.67 9666.67 9666.67 9666.67 9666.67 9666.67 9666.67
          9666.67 9666.67 9666.67 9666.67 9666.67 9666.67 9666.67 9666.67 9666.67 9666.67 9666.67 9666.67
          9666.67 9666.67 9666.67 9666.67 9666.67 9666.67 9666.67 9666.67 9666.67 9666.67 9666.67 9666.67
          9666.67 9666.67 9666.67 9666.67 9666.67 9666.67 9666.67 9666.67 9666.67 9666.67 9666.67 9666.67
          9666.67 9666.67 9666.67 9666.67 9666.67 9666.67 9666.67 9666.67 9666.67 9666.67 9666.67 9666.67
          9666.67 9666.67 9666.67 9666.67 9666.67 9666.67 9666.67 9666.67
        </DataArray>
        <DataArray type="Float32" Name="rhoL" NumberOfComponents="1" format="ascii">
          1004.65 1004.65 1004.76 1004.76 1004.89 1004.89 1005.01 1005.01 1005.14 1005.14 1005.27 1005.27
          1005.41 1005.41 1005.54 1005.54 1005.67 1005.67 1005.8 1005.8 1005.93 1005.93 1006.19 1006.19
          1006.45 1006.45 1006.71 1006.71 1006.96 1006.96 1007.21 1007.21 1007.51 1007.51 1007.79 1007.79
          1008.06 1008.06 1008.32 1008.32 1008.55 1008.55 1008.77 1008.77 1008.95 1008.95 1009.11 1009.11
          1009.23 1009.23 1009.32 1009.32 1009.37 1009.37 1009.37 1009.37 1009.32 1009.32 1009.21 1009.21
          1009.04 1009.04 1008.8 1008.8 1008.48 1008.48 1008.07 1008.07 1007.55 1007.55 1006.91 1006.91
          1006.11 1006.11 1005.09 1005.09 1003.73 1003.73 1001.45 1001.45
        </DataArray>
        <DataArray type="Float32" Name="rhoG" NumberOfComponents="1" format="ascii">
          2.06806 2.0681 2.06632 2.06632 2.06454 2.06454 2.06275 2.06275 2.06097 2.06097 2.05918 2.05918
          2.0574 2.0574 2.05561 2.05561 2.05383 2.05383 2.05205 2.05205 2.05026 2.05026 2.04669 2.04669
          2.04312 2.04312 2.03955 2.03955 2.03597 2.03597 2.0324 2.0324 2.02793 2.02793 2.02346 2.02346
          2.01899 2.01899 2.01451 2.01451 2.01004 2.01004 2.00556 2.00556 2.00109 2.00109 1.99661 1.99661
          1.99213 1.99213 1.98765 1.98765 1.98317 1.98317 1.97869 1.97869 1.97421 1.97421 1.96973 1.96973
          1.96525 1.96525 1.96076 1.96076 1.95628 1.95628 1.9518 1.9518 1.94732 1.94732 1.94283 1.94283
          1.93835 1.93835 1.93387 1.93387 1.92939 1.92939 1.9249 1.9249
        </DataArray>
        <DataArray type="Float32" Name="mobL" NumberOfComponents="1" format="ascii">
          1085.83 1085.83 1085.29 1085.29 1084.66 1084.66 1084.03 1084.03 1083.39 1083.39 1082.76 1082.76
          1082.12 1082.12 1081.49 1081.49 1080.85 1080.85 1080.22 1080.22 1079.6 1079.6 1078.38 1078.37
          1077.17 1077.17 1075.99 1075.99 1074.84 1074.84 1073.72 1073.72 1072.39 1072.39 1071.12 1071.12
          1069.93 1069.93 1068.83 1068.83 1067.82 1067.82 1066.91 1066.91 1066.13 1066.13 1065.47 1065.47
          1064.95 1064.95 1064.59 1064.59 1064.4 1064.4 1064.4 1064.39 1064.61 1064.6 1065.05 1065.05
          1065.77 1065.76 1066.78 1066.78 1068.15 1068.14 1069.92 1069.92 1072.19 1072.19 1075.07 1075.07
          1078.77 1078.76 1083.64 1083.63 1090.52 1090.51 1103.12 1103.12
        </DataArray>
        <DataArray type="Float32" Name="mobG" NumberOfComponents="1" format="ascii">
          0 0 0 0 0 0 0 0 0 0 0 0
          0 0 0 0 0 0 0 0 0 0 0 0
          0 0 0 0 0 0 0 0 0 0 0 0
          0 0 0 0 0 0 0 0 0 0 0 0
          0 0 0 0 0 0 0 0 0 0 0 0
          0 0 0 0 0 0 0 0 0 0 0 0
          0 0 0 0 0 0 0 0
        </DataArray>
        <DataArray type="Float32" Name="porosity" NumberOfComponents="1" format="ascii">
          0.107693 0.107709 0.106339 0.10634 0.106096 0.1061 0.105956 0.106007 0.105903 0.105978 0.10586 0.105968
          0.105951 0.105998 0.105954 0.106028 0.10597 0.106067 0.105978 0.106063 0.105998 0.106066 0.1062 0.106311
          0.106131 0.106227 0.106242 0.106363 0.106415 0.10649 0.106485 0.106593 0.106734 0.106852 0.106968 0.107066
          0.107269 0.107337 0.107595 0.107698 0.107956 0.108066 0.10842 0.108498 0.108934 0.108997 0.109493 0.109559
          0.110174 0.110214 0.11096 0.110934 0.111821 0.111772 0.112728 0.11274 0.11404 0.11388 0.115273 0.115135
          0.116774 0.116608 0.118774 0.118552 0.121153 0.120851 0.124125 0.123763 0.127974 0.127523 0.13341 0.132927
          0.142228 0.141607 0.158736 0.158033 0.197359 0.196785 0.4 0.4
        </DataArray>
        <DataArray type="Float32" Name="temperature" NumberOfComponents="1" format="ascii">
          298.15 298.15 298.15 298.15 298.15 298.15 298.15 298.15 298.15 298.15 298.15 298.15
          298.15 298.15 298.15 298.15 298.15 298.15 298.15 298.15 298.15 298.15 298.15 298.15
          298.15 298.15 298.15 298.15 298.15 298.15 298.15 298.15 298.15 298.15 298.15 298.15
          298.15 298.15 298.15 298.15 298.15 298.15 298.15 298.15 298.15 298.15 298.15 298.15
          298.15 298.15 298.15 298.15 298.15 298.15 298.15 298.15 298.15 298.15 298.15 298.15
          298.15 298.15 298.15 298.15 298.15 298.15 298.15 298.15 298.15 298.15 298.15 298.15
          298.15 298.15 298.15 298.15 298.15 298.15 298.15 298.15
        </DataArray>
        <DataArray type="Float32" Name="phase presence" NumberOfComponents="1" format="ascii">
          1 1 1 1 1 1 1 1 1 1 1 1
          1 1 1 1 1 1 1 1 1 1 1 1
          1 1 1 1 1 1 1 1 1 1 1 1
          1 1 1 1 1 1 1 1 1 1 1 1
          1 1 1 1 1 1 1 1 1 1 1 1
          1 1 1 1 1 1 1 1 1 1 1 1
          1 1 1 1 1 1 1 1
        </DataArray>
        <DataArray type="Float32" Name="potential" NumberOfComponents="1" format="ascii">
          0.00181009 0.00181056 0.00172397 0.00172413 0.00162544 0.00162555 0.00152674 0.00152664 0.00142866 0.00142859 0.00133147 0.0013314
          0.00123528 0.00123523 0.00114017 0.00114016 0.00104628 0.00104627 0.000953692 0.000953676 0.000862489 0.000862494 0.000688497 0.000688409
          0.000521084 0.000520994 0.000361261 0.000361177 0.000209499 0.000209434 6.64308e-05 6.64007e-05 -9.7632e-05 -9.76966e-05 -0.000246599 -0.000246663
          -0.000379621 -0.000379653 -0.000496092 -0.0004961 -0.000595528 -0.000595546 -0.000677636 -0.000677654 -0.000742267 -0.000742276 -0.000789393 -0.000789403
          -0.000819176 -0.000819197 -0.000831962 -0.000831982 -0.00082825 -0.000828259 -0.000808716 -0.000808744 -0.000774334 -0.000774364 -0.000726223 -0.000726259
          -0.000665786 -0.000665829 -0.000594756 -0.000594808 -0.000515141 -0.000515205 -0.000429327 -0.000429408 -0.000340155 -0.00034025 -0.00025103 -0.000251135
          -0.000166091 -0.000166195 -9.05624e-05 -9.06399e-05 -3.1571e-05 -3.15872e-05 0 0
        </DataArray>
        <DataArray type="Float32" Name="boxVolume" NumberOfComponents="1" format="ascii">
          6.35e-05 6.35e-05 0.000127 0.000127 0.000127 0.000127 0.000127 0.000127 0.000127 0.000127 0.000127 0.000127
          0.000127 0.000127 0.000127 0.000127 0.000127 0.000127 0.000127 0.000127 0.0001905 0.0001905 0.000254 0.000254
          0.000254 0.000254 0.000254 0.000254 0.000254 0.000254 0.00028575 0.00028575 0.0003175 0.0003175 0.0003175 0.0003175
          0.0003175 0.0003175 0.0003175 0.0003175 0.0003175 0.0003175 0.0003175 0.0003175 0.0003175 0.0003175 0.0003175 0.0003175
          0.0003175 0.0003175 0.0003175 0.0003175 0.0003175 0.0003175 0.0003175 0.0003175 0.0003175 0.0003175 0.0003175 0.0003175
          0.0003175 0.0003175 0.0003175 0.0003175 0.0003175 0.0003175 0.0003175 0.0003175 0.0003175 0.0003175 0.0003175 0.0003175
          0.0003175 0.0003175 0.0003175 0.0003175 0.0003175 0.0003175 0.00015875 0.00015875
        </DataArray>
        <DataArray type="Float32" Name="pH" NumberOfComponents="1" format="ascii">
          7.21245 7.21244 7.20682 7.20684 7.20052 7.20053 7.19419 7.19419 7.1879 7.18792 7.18167 7.18169
          7.17552 7.17554 7.16944 7.16946 7.16342 7.16345 7.15749 7.15752 7.15165 7.15167 7.14045 7.14048
          7.1296 7.12962 7.11916 7.11919 7.10914 7.10917 7.09956 7.09959 7.08836 7.08839 7.07791 7.07793
          7.06826 7.06829 7.05947 7.05949 7.05156 7.05159 7.04461 7.04463 7.03866 7.03867 7.03377 7.03379
          7.03005 7.03005 7.02756 7.02756 7.02643 7.02642 7.0268 7.02679 7.02884 7.02881 7.03275 7.03271
          7.03882 7.03877 7.04743 7.04736 7.05905 7.05896 7.07434 7.07423 7.09419 7.09406 7.11958 7.11943
          7.15058 7.15042 7.18082 7.18082 7.16776 7.16862 6.19963 6.19963
        </DataArray>
        <DataArray type="Float32" Name="Omega" NumberOfComponents="1" format="ascii">
          2.31848 2.31797 2.31973 2.31989 2.32325 2.32329 2.32622 2.32642 2.32906 2.32945 2.33194 2.33237
          2.33486 2.33524 2.33767 2.33805 2.34041 2.34081 2.34311 2.34348 2.34579 2.34613 2.35097 2.35152
          2.3556 2.35611 2.36034 2.36086 2.36498 2.36543 2.36938 2.36984 2.37471 2.37522 2.37985 2.38033
          2.3849 2.38531 2.3898 2.39023 2.3946 2.39503 2.39944 2.39978 2.40426 2.40452 2.40908 2.40931
          2.41406 2.41416 2.41921 2.41915 2.42449 2.42434 2.43001 2.42985 2.43613 2.43567 2.44253 2.44192
          2.44967 2.44893 2.45804 2.45709 2.46773 2.46651 2.4789 2.47743 2.49048 2.48878 2.49428 2.49247
          2.44871 2.4472 2.17646 2.17773 1.17227 1.17979 0 0
        </DataArray>
        <DataArray type="Float32" Name="rurea" NumberOfComponents="1" format="ascii">
          0 0 0 0 0 0 0 0 0 0 0 0
          0 0 0 0 0 0 0 0 0 0 0 0
          0 0 0 0 0 0 0 0 0 0 0 0
          0 0 0 0 0 0 0 0 0 0 0 0
          0 0 0 0 0 0 0 0 0 0 0 0
          0 0 0 0 0 0 0 0 0 0 0 0
          0 0 0 0 0 0 0 0
        </DataArray>
        <DataArray type="Float32" Name="Volume_Fraction_Biofilm" NumberOfComponents="1" format="ascii">
          0.255251 0.255311 0.250975 0.250903 0.248764 0.248773 0.247837 0.247843 0.247283 0.24715 0.246627 0.246597
          0.246295 0.246134 0.245779 0.245718 0.24534 0.245293 0.244888 0.244847 0.244458 0.244475 0.243843 0.243685
          0.243085 0.242965 0.242325 0.242243 0.241787 0.241633 0.241034 0.240998 0.240491 0.240394 0.23989 0.239751
          0.239348 0.239193 0.238807 0.238732 0.238362 0.238297 0.237951 0.237868 0.23757 0.237535 0.237238 0.237188
          0.236922 0.236934 0.236617 0.236598 0.236338 0.236357 0.235998 0.236055 0.235789 0.235761 0.235423 0.235596
          0.235097 0.235285 0.234679 0.234899 0.234247 0.234539 0.233689 0.234063 0.232968 0.233349 0.231957 0.232451
          0.230605 0.2312 0.226094 0.226774 0.197897 0.198472 0 0
        </DataArray>
        <DataArray type="Float32" Name="Volume_Fraction_Calcite" NumberOfComponents="1" format="ascii">
          0.0370553 0.03698 0.042686 0.0427571 0.0451402 0.0451261 0.0462076 0.0461503 0.0468147 0.0468727 0.0475128 0.0474343
          0.0477542 0.0478681 0.0482663 0.0482537 0.0486901 0.0486403 0.049134 0.0490903 0.0495437 0.0494587 0.0499572 0.0500034
          0.0507832 0.0508087 0.0514337 0.0513935 0.0517975 0.0518771 0.0524813 0.0524086 0.0527753 0.0527541 0.0531421 0.0531831
          0.0533823 0.0534702 0.0535977 0.0535697 0.0536816 0.0536363 0.053629 0.0536341 0.0534959 0.053468 0.0532684 0.0532533
          0.0529046 0.0528516 0.052423 0.0524675 0.0518416 0.0518714 0.0512735 0.0512053 0.0501709 0.050359 0.0493037 0.0492698
          0.0481292 0.0481068 0.0465466 0.0465487 0.0446 0.0446098 0.0421859 0.0421741 0.0390581 0.0391275 0.034633 0.0346223
          0.0271674 0.0271924 0.01517 0.015193 0.00474401 0.00474312 0 0
        </DataArray>
        <DataArray type="Float32" Name="Kxx" NumberOfComponents="1" format="ascii">
          3.90316e-12 3.90482e-12 3.75774e-12 3.7578e-12 3.73205e-12 3.73251e-12 3.71727e-12 3.72266e-12 3.7117e-12 3.71958e-12 3.70722e-12 3.71858e-12
          3.71676e-12 3.72175e-12 3.71711e-12 3.72492e-12 3.71874e-12 3.72899e-12 3.71959e-12 3.72859e-12 3.72173e-12 3.72892e-12 3.74306e-12 3.75483e-12
          3.73579e-12 3.74584e-12 3.74743e-12 3.7603e-12 3.76585e-12 3.77375e-12 3.77322e-12 3.78475e-12 3.7998e-12 3.81236e-12 3.82481e-12 3.83529e-12
          3.85726e-12 3.86451e-12 3.8925e-12 3.90367e-12 3.9318e-12 3.94386e-12 3.98273e-12 3.99127e-12 4.03962e-12 4.04667e-12 4.10218e-12 4.10954e-12
          4.17912e-12 4.18372e-12 4.26918e-12 4.26624e-12 4.36937e-12 4.3636e-12 4.47661e-12 4.47798e-12 4.63471e-12 4.61521e-12 4.78668e-12 4.76945e-12
          4.97607e-12 4.95496e-12 5.23617e-12 5.20686e-12 5.55712e-12 5.5157e-12 5.97619e-12 5.92414e-12 6.54963e-12 6.4806e-12 7.42014e-12 7.33991e-12
          8.99086e-12 8.87376e-12 1.2499e-11 1.23338e-11 2.40226e-11 2.38136e-11 2e-10 2e-10
        </DataArray>
        <DataArray type="Float32" Name="X_lBrine" NumberOfComponents="1" format="ascii">
          0.980429 0.98043 0.980196 0.980197 0.979926 0.979926 0.979652 0.979651 0.979375 0.979375 0.979096 0.979096
          0.978817 0.978817 0.978536 0.978536 0.978255 0.978255 0.977973 0.977973 0.977691 0.977691 0.97714 0.97714
          0.976592 0.976592 0.976051 0.97605 0.975518 0.975518 0.974997 0.974997 0.974373 0.974372 0.973776 0.973776
          0.973213 0.973213 0.972689 0.972689 0.972212 0.972212 0.971788 0.971788 0.971424 0.971424 0.971128 0.971128
          0.970908 0.970908 0.970772 0.970772 0.970731 0.970731 0.970796 0.970796 0.970978 0.970977 0.97129 0.97129
          0.971749 0.971749 0.972372 0.972372 0.973182 0.973181 0.974205 0.974204 0.975477 0.975475 0.977046 0.977044
          0.978992 0.978989 0.981458 0.981454 0.984762 0.98476 0.99029 0.99029
        </DataArray>
        <DataArray type="Float32" Name="X_lTotalC" NumberOfComponents="1" format="ascii">
          0.000101089 0.000101081 0.000101059 0.000101061 0.000101056 0.000101057 0.000101043 0.000101046 0.000101027 0.000101034 0.000101011 0.000101018
          0.000100994 0.000101001 0.000100976 0.000100982 0.000100955 0.000100961 0.000100933 0.000100939 0.00010091 0.000100915 0.000100863 0.000100872
          0.000100807 0.000100815 0.000100752 0.000100761 0.000100697 0.000100704 0.000100639 0.000100647 0.00010057 0.000100578 0.000100503 0.000100511
          0.000100441 0.000100448 0.000100387 0.000100394 0.000100341 0.000100348 0.000100308 0.000100314 0.00010029 0.000100294 0.000100288 0.000100292
          0.000100307 0.000100309 0.00010035 0.000100349 0.000100418 0.000100415 0.000100515 0.000100512 0.000100651 0.000100643 0.000100823 0.000100812
          0.000101042 0.000101029 0.000101319 0.000101304 0.000101661 0.000101641 0.000102074 0.00010205 0.000102545 0.000102517 0.000102947 0.000102917
          0.00010262 0.000102595 9.86228e-05 9.86435e-05 7.91283e-05 7.93159e-05 5.81077e-07 5.81077e-07
        </DataArray>
        <DataArray type="Float32" Name="X_lNa" NumberOfComponents="1" format="ascii">
          3.06938e-06 3.06951e-06 3.04543e-06 3.04548e-06 3.01765e-06 3.01768e-06 2.9894e-06 2.98937e-06 2.9609e-06 2.96088e-06 2.93223e-06 2.93221e-06
          2.90341e-06 2.9034e-06 2.87447e-06 2.87447e-06 2.84545e-06 2.84545e-06 2.81636e-06 2.81635e-06 2.78723e-06 2.78723e-06 2.73021e-06 2.73019e-06
          2.67341e-06 2.67339e-06 2.61718e-06 2.61716e-06 2.56173e-06 2.56171e-06 2.50733e-06 2.50732e-06 2.4419e-06 2.44188e-06 2.37904e-06 2.37901e-06
          2.31935e-06 2.31934e-06 2.26342e-06 2.26342e-06 2.21187e-06 2.21187e-06 2.16534e-06 2.16534e-06 2.1245e-06 2.1245e-06 2.09009e-06 2.09009e-06
          2.06288e-06 2.06287e-06 2.0437e-06 2.04369e-06 2.03349e-06 2.03348e-06 2.03323e-06 2.03322e-06 2.04404e-06 2.04403e-06 2.0672e-06 2.06716e-06
          2.10406e-06 2.10402e-06 2.15633e-06 2.15627e-06 2.22601e-06 2.22594e-06 2.31559e-06 2.31547e-06 2.42824e-06 2.42807e-06 2.56843e-06 2.56819e-06
          2.74314e-06 2.74282e-06 2.96492e-06 2.96453e-06 3.26068e-06 3.26052e-06 3.74885e-06 3.74885e-06
        </DataArray>
        <DataArray type="Float32" Name="X_lCl" NumberOfComponents="1" format="ascii">
          0.0111256 0.0111248 0.0112845 0.0112842 0.0114689 0.0114687 0.0116563 0.0116565 0.0118454 0.0118455 0.0120356 0.0120357
          0.0122268 0.0122269 0.0124188 0.0124188 0.0126113 0.0126113 0.0128043 0.0128043 0.0129975 0.0129975 0.0133758 0.0133759
          0.0137525 0.0137527 0.0141255 0.0141257 0.0144933 0.0144934 0.014854 0.0148541 0.0152879 0.015288 0.0157046 0.0157048
          0.0161003 0.0161004 0.0164709 0.0164709 0.0168124 0.0168124 0.0171205 0.0171205 0.0173907 0.0173907 0.0176182 0.0176182
          0.0177978 0.0177978 0.0179239 0.0179239 0.0179904 0.0179904 0.0179906 0.0179907 0.0179171 0.0179173 0.0177616 0.0177618
          0.0175148 0.017515 0.0171655 0.0171658 0.0167002 0.0167007 0.0161025 0.0161033 0.0153512 0.0153523 0.0144165 0.0144181
          0.0132519 0.013254 0.0117741 0.0117766 0.00980432 0.00980534 0.00655617 0.00655617
        </DataArray>
        <DataArray type="Float32" Name="X_lCa" NumberOfComponents="1" format="ascii">
          0.000149153 0.000149135 0.000151133 0.000151132 0.000153461 0.000153459 0.000155819 0.000155824 0.000158194 0.000158201 0.000160583 0.000160591
          0.000162984 0.000162991 0.000165394 0.000165399 0.000167808 0.000167815 0.000170228 0.000170233 0.000172649 0.000172654 0.000177387 0.000177397
          0.000182098 0.000182108 0.000186762 0.000186772 0.00019136 0.000191369 0.000195868 0.000195876 0.000201289 0.000201299 0.000206496 0.000206505
          0.000211442 0.000211449 0.000216077 0.000216084 0.000220353 0.00022036 0.000224219 0.000224225 0.000227619 0.000227624 0.000230495 0.000230499
          0.000232784 0.000232787 0.00023442 0.000234419 0.000235325 0.000235323 0.00023542 0.000235419 0.00023462 0.000234614 0.000232815 0.000232809
          0.0002299 0.000229892 0.000225745 0.000225735 0.000220183 0.00022017 0.000213013 0.000213 0.000203955 0.000203944 0.000192519 0.000192512
          0.000177516 0.00017752 0.000155212 0.000155263 0.000112578 0.000112762 0 0
        </DataArray>
        <DataArray type="Float32" Name="X_lUrea" NumberOfComponents="1" format="ascii">
          7.01988e-15 7.00979e-15 7.92953e-15 7.96597e-15 9.21273e-15 9.2214e-15 1.0099e-14 1.01851e-14 1.09185e-14 1.11272e-14 1.18348e-14 1.20602e-14
          1.28048e-14 1.30396e-14 1.38214e-14 1.40521e-14 1.48665e-14 1.51296e-14 1.59754e-14 1.62268e-14 1.71671e-14 1.73865e-14 1.9731e-14 2.02371e-14
          2.22022e-14 2.2701e-14 2.52814e-14 2.58601e-14 2.86581e-14 2.92513e-14 3.23452e-14 3.29547e-14 3.73724e-14 3.82032e-14 4.30743e-14 4.40121e-14
          4.96772e-14 5.06165e-14 5.72165e-14 5.82674e-14 6.57506e-14 6.69278e-14 7.59543e-14 7.70585e-14 8.7903e-14 8.88268e-14 1.01905e-13 1.02897e-13
          1.19265e-13 1.19697e-13 1.40749e-13 1.40432e-13 1.67239e-13 1.66205e-13 2.00868e-13 1.99792e-13 2.47661e-13 2.43482e-13 3.08671e-13 3.011e-13
          3.96767e-13 3.8526e-13 5.37312e-13 5.17928e-13 7.69444e-13 7.34586e-13 1.20555e-12 1.14249e-12 2.22195e-12 2.09752e-12 5.54387e-12 5.23615e-12
          2.0975e-11 1.98616e-11 1.08924e-10 1.03473e-10 5.84584e-10 5.55186e-10 0 0
        </DataArray>
        <DataArray type="Float32" Name="X_lTotalNH" NumberOfComponents="1" format="ascii">
          0.0052956 0.0052952 0.00537022 0.00537007 0.0054568 0.00545671 0.00554483 0.00554492 0.00563363 0.00563369 0.00572295 0.00572301
          0.00581274 0.00581278 0.0059029 0.00590291 0.00599334 0.00599335 0.00608397 0.00608398 0.00617472 0.00617472 0.00635234 0.00635243
          0.00652929 0.00652937 0.00670445 0.00670453 0.00687717 0.00687723 0.00704658 0.00704661 0.00725036 0.00725043 0.00744608 0.00744615
          0.00763188 0.00763192 0.00780594 0.00780595 0.00796631 0.00796633 0.00811101 0.00811103 0.00823792 0.00823793 0.00834475 0.00834476
          0.00842908 0.00842911 0.0084883 0.00848833 0.00851953 0.00851955 0.00851962 0.00851967 0.00848513 0.00848518 0.00841208 0.00841218
          0.00829614 0.00829627 0.0081321 0.00813226 0.00791357 0.00791381 0.00763288 0.00763324 0.00728001 0.00728054 0.00684104 0.00684178
          0.0062941 0.0062951 0.00560005 0.00560124 0.00467495 0.00467543 0.00314947 0.00314947
        </DataArray>
        <DataArray type="Float32" Name="X_lO2" NumberOfComponents="1" format="ascii">
          0 0 0 0 0 0 0 0 0 0 0 0
          0 0 0 0 0 0 0 0 0 0 0 0
          0 0 0 0 0 0 0 0 0 0 0 0
          0 0 0 0 0 0 0 0 0 0 0 0
          0 0 0 0 0 0 0 0 0 0 0 0
          0 0 0 0 0 0 0 0 0 0 0 0
          0 0 0 0 0 0 0 0
        </DataArray>
        <DataArray type="Float32" Name="X_lSubstrate" NumberOfComponents="1" format="ascii">
          0.00289082 0.00289084 0.0028883 0.00288831 0.00288526 0.00288526 0.00288204 0.00288203 0.00287866 0.00287865 0.00287512 0.00287511
          0.0028714 0.0028714 0.00286751 0.00286751 0.00286344 0.00286344 0.00285917 0.00285916 0.00285469 0.00285469 0.00284533 0.00284532
          0.00283506 0.00283505 0.00282381 0.0028238 0.00281148 0.00281147 0.00279798 0.00279797 0.00277953 0.00277952 0.00275886 0.00275884
          0.00273572 0.00273571 0.00270983 0.00270981 0.00268084 0.00268082 0.00264838 0.00264836 0.00261202 0.002612 0.00257126 0.00257124
          0.00252554 0.00252551 0.00247421 0.00247418 0.00241652 0.0024165 0.00235165 0.00235162 0.00227856 0.00227852 0.00219604 0.00219604
          0.0021028 0.0021028 0.00199707 0.00199707 0.00187668 0.00187671 0.00173895 0.00173902 0.00158033 0.00158046 0.00139573 0.00139593
          0.00117703 0.00117733 0.000909707 0.000910086 0.000562688 0.000562823 0 0
        </DataArray>
        <DataArray type="Float32" Name="X_lSuspended_Biomass" NumberOfComponents="1" format="ascii">
          5.45829e-06 5.45817e-06 5.45549e-06 5.45568e-06 5.44903e-06 5.4509e-06 5.44263e-06 5.44595e-06 5.43599e-06 5.44134e-06 5.43182e-06 5.43603e-06
          5.42715e-06 5.43063e-06 5.42183e-06 5.4249e-06 5.41598e-06 5.41872e-06 5.40961e-06 5.41208e-06 5.40282e-06 5.40493e-06 5.38571e-06 5.39061e-06
          5.36864e-06 5.3733e-06 5.34957e-06 5.3538e-06 5.32814e-06 5.33199e-06 5.30424e-06 5.30763e-06 5.27007e-06 5.27415e-06 5.23181e-06 5.23557e-06
          5.18838e-06 5.19178e-06 5.13914e-06 5.14216e-06 5.08338e-06 5.08604e-06 5.02031e-06 5.02263e-06 4.94905e-06 4.95104e-06 4.86859e-06 4.87024e-06
          4.77779e-06 4.77909e-06 4.67532e-06 4.67628e-06 4.5597e-06 4.5603e-06 4.42926e-06 4.42943e-06 4.2819e-06 4.28164e-06 4.11529e-06 4.11462e-06
          3.92695e-06 3.92575e-06 3.71362e-06 3.71182e-06 3.47155e-06 3.46909e-06 3.19648e-06 3.19325e-06 2.88312e-06 2.87891e-06 2.52425e-06 2.51873e-06
          2.10832e-06 2.10094e-06 1.61352e-06 1.60397e-06 9.8801e-07 9.84019e-07 0 0
        </DataArray>
        <DataArray type="Float32" Name="X_lNH4" NumberOfComponents="1" format="ascii">
          0.00556128 0.00556087 0.00564031 0.00564015 0.00573198 0.00573188 0.00582519 0.00582528 0.00591922 0.00591928 0.00601381 0.00601386
          0.00610888 0.00610892 0.00620436 0.00620437 0.00630013 0.00630013 0.0063961 0.00639611 0.0064922 0.00649219 0.0066803 0.00668038
          0.00686768 0.00686777 0.00705318 0.00705326 0.00723609 0.00723616 0.00741551 0.00741553 0.00763131 0.00763138 0.00783859 0.00783866
          0.00803537 0.0080354 0.00821971 0.00821971 0.00838955 0.00838956 0.00854279 0.00854281 0.00867719 0.0086772 0.00879032 0.00879033
          0.00887962 0.00887964 0.00894231 0.00894233 0.00897535 0.00897537 0.0089754 0.00897545 0.00893882 0.00893888 0.00886139 0.0088615
          0.00873853 0.00873867 0.0085647 0.00856487 0.00833315 0.00833341 0.00803574 0.00803613 0.00766189 0.00766246 0.0071969 0.00719769
          0.00661789 0.00661896 0.00588468 0.00588593 0.00491331 0.00491374 0.00333307 0.00333307
        </DataArray>
        <DataArray type="Float32" Name="X_lHCO3" NumberOfComponents="1" format="ascii">
          0.000124902 0.000124892 0.000124701 0.000124705 0.000124513 0.000124515 0.00012431 0.000124314 0.000124102 0.000124111 0.000123894 0.000123903
          0.000123686 0.000123695 0.000123476 0.000123484 0.000123263 0.000123272 0.00012305 0.000123059 0.000122838 0.000122845 0.000122422 0.000122434
          0.000121999 0.00012201 0.000121588 0.000121599 0.000121184 0.000121194 0.000120789 0.000120799 0.000120318 0.000120329 0.000119871 0.000119882
          0.000119455 0.000119464 0.000119073 0.000119082 0.000118731 0.00011874 0.000118436 0.000118444 0.000118194 0.0001182 0.000118009 0.000118015
          0.000117893 0.000117895 0.00011785 0.000117848 0.000117888 0.000117885 0.000118018 0.000118014 0.000118257 0.000118247 0.00011861 0.000118596
          0.000119099 0.000119082 0.000119752 0.000119731 0.000120591 0.000120563 0.000121643 0.00012161 0.000122918 0.000122879 0.000124283 0.000124242
          0.000124908 0.000124873 0.000120907 0.000120933 9.64579e-05 9.67104e-05 3.37056e-07 3.37056e-07
        </DataArray>
        <DataArray type="Float32" Name="X_lCO3" NumberOfComponents="1" format="ascii">
          1.20429e-07 1.20417e-07 1.18878e-07 1.18887e-07 1.1721e-07 1.17213e-07 1.15542e-07 1.15547e-07 1.13903e-07 1.13917e-07 1.12305e-07 1.1232e-07
          1.10748e-07 1.10761e-07 1.09225e-07 1.09238e-07 1.07738e-07 1.07753e-07 1.06289e-07 1.06302e-07 1.04879e-07 1.04891e-07 1.02227e-07 1.02245e-07
          9.97056e-08 9.97215e-08 9.73402e-08 9.73565e-08 9.51199e-08 9.51339e-08 9.30391e-08 9.30535e-08 9.06609e-08 9.06761e-08 8.84955e-08 8.85094e-08
          8.65438e-08 8.65559e-08 8.48023e-08 8.4815e-08 8.32711e-08 8.32833e-08 8.19548e-08 8.19643e-08 8.0854e-08 8.08613e-08 7.99749e-08 7.99811e-08
          7.93302e-08 7.93327e-08 7.89321e-08 7.89303e-08 7.87979e-08 7.87935e-08 7.89547e-08 7.89501e-08 7.94459e-08 7.9433e-08 8.03093e-08 8.02915e-08
          8.16199e-08 8.15978e-08 8.34811e-08 8.34525e-08 8.60265e-08 8.59886e-08 8.94542e-08 8.94062e-08 9.4032e-08 9.39727e-08 9.99905e-08 9.99211e-08
          1.06751e-07 1.06683e-07 1.08893e-07 1.08919e-07 8.12381e-08 8.16259e-08 2.55591e-11 2.55591e-11
        </DataArray>
        <DataArray type="Float32" Name="X_lCO2" NumberOfComponents="1" format="ascii">
          1.09341e-05 1.09333e-05 1.10498e-05 1.10497e-05 1.11838e-05 1.11837e-05 1.13188e-05 1.1319e-05 1.14539e-05 1.14542e-05 1.15888e-05 1.1589e-05
          1.17233e-05 1.17235e-05 1.18573e-05 1.18575e-05 1.19907e-05 1.19908e-05 1.21233e-05 1.21234e-05 1.2255e-05 1.22551e-05 1.25099e-05 1.25103e-05
          1.276e-05 1.27603e-05 1.30039e-05 1.30043e-05 1.32411e-05 1.32414e-05 1.34704e-05 1.34706e-05 1.37421e-05 1.37425e-05 1.3999e-05 1.39993e-05
          1.42393e-05 1.42396e-05 1.44614e-05 1.44617e-05 1.46636e-05 1.46638e-05 1.48442e-05 1.48444e-05 1.50014e-05 1.50015e-05 1.5133e-05 1.51332e-05
          1.5237e-05 1.52371e-05 1.53107e-05 1.53107e-05 1.53511e-05 1.5351e-05 1.53548e-05 1.53547e-05 1.53177e-05 1.53175e-05 1.52347e-05 1.52345e-05
          1.50998e-05 1.50995e-05 1.49052e-05 1.49049e-05 1.46405e-05 1.46402e-05 1.4292e-05 1.42918e-05 1.384e-05 1.38399e-05 1.32528e-05 1.32531e-05
          1.24706e-05 1.24715e-05 1.13572e-05 1.13595e-05 9.51311e-06 9.51838e-06 3.38012e-07 3.38012e-07
        </DataArray>
        <DataArray type="Float32" Name="X_lH" NumberOfComponents="1" format="ascii">
          6.09546e-11 6.09549e-11 6.17398e-11 6.17368e-11 6.26304e-11 6.2629e-11 6.35387e-11 6.35378e-11 6.4454e-11 6.4451e-11 6.53721e-11 6.53686e-11
          6.62921e-11 6.62889e-11 6.72148e-11 6.72112e-11 6.81387e-11 6.81348e-11 6.90626e-11 6.9059e-11 6.99856e-11 6.9982e-11 7.17859e-11 7.17811e-11
          7.35763e-11 7.35718e-11 7.53388e-11 7.53339e-11 7.70692e-11 7.70647e-11 7.87605e-11 7.87555e-11 8.07849e-11 8.07795e-11 8.27192e-11 8.27141e-11
          8.45448e-11 8.45399e-11 8.62449e-11 8.62395e-11 8.78013e-11 8.77959e-11 8.91935e-11 8.91892e-11 9.04027e-11 9.03993e-11 9.14073e-11 9.14043e-11
          9.21824e-11 9.21813e-11 9.27035e-11 9.27045e-11 9.29436e-11 9.29459e-11 9.28715e-11 9.28741e-11 9.24487e-11 9.24554e-11 9.1641e-11 9.16502e-11
          9.03994e-11 9.04104e-11 8.86655e-11 8.86793e-11 8.63745e-11 8.6392e-11 8.34461e-11 8.34671e-11 7.97895e-11 7.98139e-11 7.53418e-11 7.53683e-11
          7.02477e-11 7.02727e-11 6.5635e-11 6.56352e-11 6.77965e-11 6.76628e-11 6.32454e-10 6.32454e-10
        </DataArray>
        <DataArray type="Float32" Name="X_lOH" NumberOfComponents="1" format="ascii">
          2.73469e-06 2.73469e-06 2.69907e-06 2.6992e-06 2.65973e-06 2.65979e-06 2.62074e-06 2.62077e-06 2.58256e-06 2.58268e-06 2.54534e-06 2.54547e-06
          2.50907e-06 2.50919e-06 2.4737e-06 2.47383e-06 2.43923e-06 2.43938e-06 2.40569e-06 2.40582e-06 2.37307e-06 2.37319e-06 2.31184e-06 2.312e-06
          2.25393e-06 2.25406e-06 2.1996e-06 2.19974e-06 2.14868e-06 2.1488e-06 2.10107e-06 2.1012e-06 2.04671e-06 2.04684e-06 1.99725e-06 1.99738e-06
          1.95266e-06 1.95277e-06 1.91283e-06 1.91295e-06 1.87774e-06 1.87785e-06 1.84739e-06 1.84748e-06 1.82182e-06 1.82189e-06 1.80111e-06 1.80116e-06
          1.78547e-06 1.78549e-06 1.77515e-06 1.77513e-06 1.77051e-06 1.77047e-06 1.7721e-06 1.77205e-06 1.7807e-06 1.78057e-06 1.79723e-06 1.79705e-06
          1.82313e-06 1.82291e-06 1.86045e-06 1.86016e-06 1.912e-06 1.91161e-06 1.98197e-06 1.98147e-06 2.07653e-06 2.07589e-06 2.20398e-06 2.20319e-06
          2.37027e-06 2.36941e-06 2.54562e-06 2.5456e-06 2.47591e-06 2.4808e-06 2.67481e-07 2.67481e-07
        </DataArray>
        <DataArray type="Float32" Name="X_gBrine" NumberOfComponents="1" format="ascii">
          0.011246 0.0112301 0.0112391 0.0112391 0.011248 0.011248 0.0112569 0.0112569 0.0112658 0.0112658 0.0112748 0.0112748
          0.0112837 0.0112837 0.0112927 0.0112927 0.0113016 0.0113016 0.0113106 0.0113106 0.0113196 0.0113196 0.0113377 0.0113377
          0.0113559 0.0113559 0.0113741 0.0113741 0.0113924 0.0113924 0.0114109 0.0114108 0.011434 0.011434 0.0114574 0.0114574
          0.0114809 0.0114809 0.0115047 0.0115047 0.0115286 0.0115286 0.0115528 0.0115528 0.0115773 0.0115773 0.011602 0.011602
          0.011627 0.011627 0.0116523 0.0116523 0.011678 0.011678 0.011704 0.011704 0.0117305 0.0117305 0.0117573 0.0117573
          0.0117847 0.0117847 0.0118125 0.0118125 0.0118409 0.0118409 0.0118699 0.0118699 0.0118997 0.0118997 0.0119302 0.0119302
          0.0119618 0.0119618 0.0119947 0.0119947 0.0120296 0.0120296 0.0120698 0.0120698
        </DataArray>
        <DataArray type="Float32" Name="X_gTotalC" NumberOfComponents="1" format="ascii">
          0.988754 0.98877 0.988761 0.988761 0.988752 0.988752 0.988743 0.988743 0.988734 0.988734 0.988725 0.988725
          0.988716 0.988716 0.988707 0.988707 0.988698 0.988698 0.988689 0.988689 0.98868 0.98868 0.988662 0.988662
          0.988644 0.988644 0.988626 0.988626 0.988608 0.988608 0.988589 0.988589 0.988566 0.988566 0.988543 0.988543
          0.988519 0.988519 0.988495 0.988495 0.988471 0.988471 0.988447 0.988447 0.988423 0.988423 0.988398 0.988398
          0.988373 0.988373 0.988348 0.988348 0.988322 0.988322 0.988296 0.988296 0.98827 0.98827 0.988243 0.988243
          0.988215 0.988215 0.988187 0.988187 0.988159 0.988159 0.98813 0.98813 0.9881 0.9881 0.98807 0.98807
          0.988038 0.988038 0.988005 0.988005 0.98797 0.98797 0.98793 0.98793
        </DataArray>
        <DataArray type="Float32" Name="X_gNa" NumberOfComponents="1" format="ascii">
          0 0 0 0 0 0 0 0 0 0 0 0
          0 0 0 0 0 0 0 0 0 0 0 0
          0 0 0 0 0 0 0 0 0 0 0 0
          0 0 0 0 0 0 0 0 0 0 0 0
          0 0 0 0 0 0 0 0 0 0 0 0
          0 0 0 0 0 0 0 0 0 0 0 0
          0 0 0 0 0 0 0 0
        </DataArray>
        <DataArray type="Float32" Name="X_gCl" NumberOfComponents="1" format="ascii">
          0 0 0 0 0 0 0 0 0 0 0 0
          0 0 0 0 0 0 0 0 0 0 0 0
          0 0 0 0 0 0 0 0 0 0 0 0
          0 0 0 0 0 0 0 0 0 0 0 0
          0 0 0 0 0 0 0 0 0 0 0 0
          0 0 0 0 0 0 0 0 0 0 0 0
          0 0 0 0 0 0 0 0
        </DataArray>
        <DataArray type="Float32" Name="X_gCa" NumberOfComponents="1" format="ascii">
          0 0 0 0 0 0 0 0 0 0 0 0
          0 0 0 0 0 0 0 0 0 0 0 0
          0 0 0 0 0 0 0 0 0 0 0 0
          0 0 0 0 0 0 0 0 0 0 0 0
          0 0 0 0 0 0 0 0 0 0 0 0
          0 0 0 0 0 0 0 0 0 0 0 0
          0 0 0 0 0 0 0 0
        </DataArray>
        <DataArray type="Float32" Name="X_gUrea" NumberOfComponents="1" format="ascii">
          0 0 0 0 0 0 0 0 0 0 0 0
          0 0 0 0 0 0 0 0 0 0 0 0
          0 0 0 0 0 0 0 0 0 0 0 0
          0 0 0 0 0 0 0 0 0 0 0 0
          0 0 0 0 0 0 0 0 0 0 0 0
          0 0 0 0 0 0 0 0 0 0 0 0
          0 0 0 0 0 0 0 0
        </DataArray>
        <DataArray type="Float32" Name="X_gTotalNH" NumberOfComponents="1" format="ascii">
          0 0 0 0 0 0 0 0 0 0 0 0
          0 0 0 0 0 0 0 0 0 0 0 0
          0 0 0 0 0 0 0 0 0 0 0 0
          0 0 0 0 0 0 0 0 0 0 0 0
          0 0 0 0 0 0 0 0 0 0 0 0
          0 0 0 0 0 0 0 0 0 0 0 0
          0 0 0 0 0 0 0 0
        </DataArray>
        <DataArray type="Float32" Name="X_gO2" NumberOfComponents="1" format="ascii">
          0 0 0 0 0 0 0 0 0 0 0 0
          0 0 0 0 0 0 0 0 0 0 0 0
          0 0 0 0 0 0 0 0 0 0 0 0
          0 0 0 0 0 0 0 0 0 0 0 0
          0 0 0 0 0 0 0 0 0 0 0 0
          0 0 0 0 0 0 0 0 0 0 0 0
          0 0 0 0 0 0 0 0
        </DataArray>
        <DataArray type="Float32" Name="X_gSubstrate" NumberOfComponents="1" format="ascii">
          0 0 0 0 0 0 0 0 0 0 0 0
          0 0 0 0 0 0 0 0 0 0 0 0
          0 0 0 0 0 0 0 0 0 0 0 0
          0 0 0 0 0 0 0 0 0 0 0 0
          0 0 0 0 0 0 0 0 0 0 0 0
          0 0 0 0 0 0 0 0 0 0 0 0
          0 0 0 0 0 0 0 0
        </DataArray>
        <DataArray type="Float32" Name="X_gSuspended_Biomass" NumberOfComponents="1" format="ascii">
          0 0 0 0 0 0 0 0 0 0 0 0
          0 0 0 0 0 0 0 0 0 0 0 0
          0 0 0 0 0 0 0 0 0 0 0 0
          0 0 0 0 0 0 0 0 0 0 0 0
          0 0 0 0 0 0 0 0 0 0 0 0
          0 0 0 0 0 0 0 0 0 0 0 0
          0 0 0 0 0 0 0 0
        </DataArray>
        <DataArray type="Float32" Name="X_gNH4" NumberOfComponents="1" format="ascii">
          0 0 0 0 0 0 0 0 0 0 0 0
          0 0 0 0 0 0 0 0 0 0 0 0
          0 0 0 0 0 0 0 0 0 0 0 0
          0 0 0 0 0 0 0 0 0 0 0 0
          0 0 0 0 0 0 0 0 0 0 0 0
          0 0 0 0 0 0 0 0 0 0 0 0
          0 0 0 0 0 0 0 0
        </DataArray>
        <DataArray type="Float32" Name="X_gHCO3" NumberOfComponents="1" format="ascii">
          0 0 0 0 0 0 0 0 0 0 0 0
          0 0 0 0 0 0 0 0 0 0 0 0
          0 0 0 0 0 0 0 0 0 0 0 0
          0 0 0 0 0 0 0 0 0 0 0 0
          0 0 0 0 0 0 0 0 0 0 0 0
          0 0 0 0 0 0 0 0 0 0 0 0
          0 0 0 0 0 0 0 0
        </DataArray>
        <DataArray type="Float32" Name="X_gCO3" NumberOfComponents="1" format="ascii">
          0 0 0 0 0 0 0 0 0 0 0 0
          0 0 0 0 0 0 0 0 0 0 0 0
          0 0 0 0 0 0 0 0 0 0 0 0
          0 0 0 0 0 0 0 0 0 0 0 0
          0 0 0 0 0 0 0 0 0 0 0 0
          0 0 0 0 0 0 0 0 0 0 0 0
          0 0 0 0 0 0 0 0
        </DataArray>
        <DataArray type="Float32" Name="X_gCO2" NumberOfComponents="1" format="ascii">
          0.988754 0.98877 0.988761 0.988761 0.988752 0.988752 0.988743 0.988743 0.988734 0.988734 0.988725 0.988725
          0.988716 0.988716 0.988707 0.988707 0.988698 0.988698 0.988689 0.988689 0.98868 0.98868 0.988662 0.988662
          0.988644 0.988644 0.988626 0.988626 0.988608 0.988608 0.988589 0.988589 0.988566 0.988566 0.988543 0.988543
          0.988519 0.988519 0.988495 0.988495 0.988471 0.988471 0.988447 0.988447 0.988423 0.988423 0.988398 0.988398
          0.988373 0.988373 0.988348 0.988348 0.988322 0.988322 0.988296 0.988296 0.98827 0.98827 0.988243 0.988243
          0.988215 0.988215 0.988187 0.988187 0.988159 0.988159 0.98813 0.98813 0.9881 0.9881 0.98807 0.98807
          0.988038 0.988038 0.988005 0.988005 0.98797 0.98797 0.98793 0.98793
        </DataArray>
        <DataArray type="Float32" Name="X_gH" NumberOfComponents="1" format="ascii">
          0 0 0 0 0 0 0 0 0 0 0 0
          0 0 0 0 0 0 0 0 0 0 0 0
          0 0 0 0 0 0 0 0 0 0 0 0
          0 0 0 0 0 0 0 0 0 0 0 0
          0 0 0 0 0 0 0 0 0 0 0 0
          0 0 0 0 0 0 0 0 0 0 0 0
          0 0 0 0 0 0 0 0
        </DataArray>
        <DataArray type="Float32" Name="X_gOH" NumberOfComponents="1" format="ascii">
          0 0 0 0 0 0 0 0 0 0 0 0
          0 0 0 0 0 0 0 0 0 0 0 0
          0 0 0 0 0 0 0 0 0 0 0 0
          0 0 0 0 0 0 0 0 0 0 0 0
          0 0 0 0 0 0 0 0 0 0 0 0
          0 0 0 0 0 0 0 0 0 0 0 0
          0 0 0 0 0 0 0 0
        </DataArray>
        <DataArray type="Float32" Name="Molarity_Brine" NumberOfComponents="1" format="ascii">
          54675.5 54675.6 54668.4 54668.5 54660.2 54660.2 54651.9 54651.9 54643.5 54643.5 54635.1 54635
          54626.6 54626.6 54618.1 54618.1 54609.5 54609.5 54601 54601 54592.4 54592.4 54575.7 54575.7
          54559.1 54559.1 54542.8 54542.7 54526.7 54526.7 54510.9 54510.9 54492.2 54492.2 54474.3 54474.3
          54457.5 54457.5 54442 54442 54427.9 54427.9 54415.6 54415.6 54405.3 54405.3 54397.1 54397.1
          54391.5 54391.5 54388.6 54388.6 54388.7 54388.7 54392.4 54392.3 54399.8 54399.8 54411.6 54411.5
          54428.1 54428.1 54450 54450 54478 54478 54513.1 54513 54556.2 54556.2 54609.2 54609.1
          54674.5 54674.4 54756.8 54756.6 54866.6 54866.5 55049.2 55049.2
        </DataArray>
        <DataArray type="Float32" Name="Molarity_TotalC" NumberOfComponents="1" format="ascii">
          2.30817 2.30798 2.30772 2.30778 2.30795 2.30797 2.30796 2.30803 2.30788 2.30803 2.30781 2.30797
          2.30774 2.30788 2.3076 2.30775 2.30743 2.30758 2.30723 2.30737 2.30701 2.30714 2.30654 2.30675
          2.30584 2.30603 2.30518 2.30537 2.30449 2.30466 2.30374 2.30392 2.30283 2.30303 2.30195 2.30213
          2.30117 2.30132 2.30049 2.30066 2.29998 2.30015 2.29972 2.29985 2.29972 2.29982 2.30003 2.30012
          2.30076 2.30079 2.30193 2.30191 2.30359 2.30353 2.30583 2.30577 2.30883 2.30865 2.31253 2.31229
          2.31716 2.31687 2.32297 2.32261 2.33007 2.3296 2.33858 2.33802 2.34816 2.34752 2.35585 2.35517
          2.34652 2.34595 2.25284 2.25331 1.80507 1.80935 0.0132254 0.0132254
        </DataArray>
        <DataArray type="Float32" Name="Molarity_Na" NumberOfComponents="1" format="ascii">
          0.13413 0.134136 0.133098 0.1331 0.131901 0.131902 0.130682 0.130681 0.129453 0.129452 0.128216 0.128216
          0.126973 0.126972 0.125724 0.125724 0.124471 0.12447 0.123214 0.123214 0.121956 0.121956 0.119492 0.119491
          0.117036 0.117035 0.114604 0.114602 0.112204 0.112203 0.109848 0.109848 0.107013 0.107012 0.104288 0.104287
          0.101699 0.101698 0.0992716 0.0992715 0.0970333 0.0970331 0.095012 0.0950117 0.0932372 0.0932371 0.0917411 0.091741
          0.0905578 0.0905575 0.0897238 0.0897234 0.0892793 0.0892789 0.0892682 0.0892675 0.0897384 0.0897376 0.0907451 0.0907436
          0.092348 0.0923463 0.0946192 0.094617 0.097646 0.0976427 0.101534 0.101529 0.106419 0.106412 0.112491 0.112481
          0.120048 0.120034 0.129622 0.129605 0.142359 0.142352 0.1633 0.1633
        </DataArray>
        <DataArray type="Float32" Name="Molarity_Cl" NumberOfComponents="1" format="ascii">
          315.273 315.249 319.81 319.801 325.076 325.07 330.431 330.436 335.834 335.838 341.271 341.274
          346.737 346.739 352.228 352.228 357.736 357.736 363.258 363.259 368.789 368.788 379.618 379.623
          390.411 390.416 401.101 401.106 411.647 411.651 421.997 421.999 434.452 434.457 446.423 446.427
          457.793 457.795 468.449 468.449 478.273 478.274 487.14 487.141 494.92 494.921 501.472 501.473
          506.646 506.647 510.279 510.281 512.195 512.197 512.201 512.204 510.085 510.088 505.603 505.61
          498.492 498.5 488.435 488.444 475.044 475.059 457.856 457.878 436.269 436.301 409.445 409.49
          376.071 376.132 333.795 333.868 277.575 277.604 185.193 185.193
        </DataArray>
        <DataArray type="Float32" Name="Molarity_Ca" NumberOfComponents="1" format="ascii">
          3.73888 3.73843 3.78893 3.78889 3.84777 3.84772 3.90738 3.90751 3.96745 3.96763 4.02789 4.02809
          4.08865 4.08882 4.14964 4.14979 4.21078 4.21094 4.27204 4.27219 4.33339 4.33351 4.45345 4.45372
          4.57289 4.57314 4.69122 4.69147 4.80793 4.80815 4.92239 4.92258 5.06013 5.06037 5.19251 5.19274
          5.3183 5.31848 5.43627 5.43644 5.54513 5.54531 5.64361 5.64375 5.73026 5.73036 5.80355 5.80364
          5.86191 5.86197 5.9036 5.90359 5.92667 5.92663 5.92906 5.92903 5.90861 5.90847 5.86254 5.86238
          5.78816 5.78796 5.68219 5.68193 5.54042 5.54012 5.35783 5.35752 5.12737 5.12709 4.83678 4.8366
          4.4563 4.45641 3.89247 3.89375 2.81943 2.82404 0 0
        </DataArray>
        <DataArray type="Float32" Name="Molarity_Urea" NumberOfComponents="1" format="ascii">
          1.16378e-10 1.16211e-10 1.31473e-10 1.32077e-10 1.52768e-10 1.52912e-10 1.67486e-10 1.68914e-10 1.81101e-10 1.84562e-10 1.96324e-10 2.00062e-10
          2.12443e-10 2.16337e-10 2.29338e-10 2.33167e-10 2.46712e-10 2.51078e-10 2.65149e-10 2.69322e-10 2.84967e-10 2.88608e-10 3.27611e-10 3.36013e-10
          3.68737e-10 3.7702e-10 4.19983e-10 4.29597e-10 4.76198e-10 4.86054e-10 5.37596e-10 5.47727e-10 6.21336e-10 6.35148e-10 7.16336e-10 7.31932e-10
          8.26367e-10 8.41992e-10 9.52022e-10 9.69507e-10 1.09427e-09 1.11387e-09 1.26436e-09 1.28274e-09 1.46353e-09 1.47891e-09 1.69692e-09 1.71344e-09
          1.98625e-09 1.99344e-09 2.34423e-09 2.33896e-09 2.78557e-09 2.76834e-09 3.3457e-09 3.32777e-09 4.12488e-09 4.05529e-09 5.14049e-09 5.0144e-09
          6.60649e-09 6.41488e-09 8.94454e-09 8.62186e-09 1.28047e-08 1.22246e-08 2.00541e-08 1.90051e-08 3.69427e-08 3.48738e-08 9.21148e-08 8.70019e-08
          3.48235e-07 3.2975e-07 1.80658e-06 1.71617e-06 9.68255e-06 9.19562e-06 0 0
        </DataArray>
        <DataArray type="Float32" Name="Molarity_TotalNH" NumberOfComponents="1" format="ascii">
          312.385 312.362 316.821 316.813 321.97 321.964 327.205 327.211 332.488 332.492 337.804 337.807
          343.148 343.151 348.517 348.517 353.903 353.903 359.302 359.302 364.709 364.709 375.297 375.302
          385.85 385.855 396.302 396.307 406.613 406.617 416.732 416.734 428.911 428.915 440.614 440.618
          451.731 451.733 462.15 462.151 471.755 471.756 480.425 480.426 488.032 488.032 494.438 494.438
          499.496 499.497 503.048 503.05 504.922 504.923 504.927 504.93 502.858 502.861 498.475 498.482
          491.523 491.53 481.688 481.698 468.596 468.61 451.79 451.812 430.683 430.715 404.456 404.5
          371.824 371.883 330.489 330.56 275.519 275.548 185.193 185.193
        </DataArray>
        <DataArray type="Float32" Name="Molarity_O2" NumberOfComponents="1" format="ascii">
          0 0 0 0 0 0 0 0 0 0 0 0
          0 0 0 0 0 0 0 0 0 0 0 0
          0 0 0 0 0 0 0 0 0 0 0 0
          0 0 0 0 0 0 0 0 0 0 0 0
          0 0 0 0 0 0 0 0 0 0 0 0
          0 0 0 0 0 0 0 0 0 0 0 0
          0 0 0 0 0 0 0 0
        </DataArray>
        <DataArray type="Float32" Name="Molarity_Substrate" NumberOfComponents="1" format="ascii">
          16.1205 16.1206 16.1082 16.1082 16.0932 16.0932 16.0773 16.0773 16.0605 16.0605 16.0428 16.0428
          16.0242 16.0242 16.0046 16.0046 15.984 15.9839 15.9622 15.9622 15.9393 15.9393 15.8912 15.8911
          15.8378 15.8378 15.779 15.779 15.7141 15.714 15.6425 15.6424 15.5439 15.5438 15.4327 15.4326
          15.3074 15.3073 15.1663 15.1663 15.0076 15.0075 14.829 14.8289 14.6281 14.628 14.4021 14.402
          14.1477 14.1476 13.8614 13.8612 13.5388 13.5387 13.1754 13.1752 12.7652 12.765 12.3016 12.3016
          11.7773 11.7773 11.1825 11.1825 10.505 10.5052 9.73013 9.73051 8.83803 8.83875 7.80066 7.8018
          6.57316 6.57485 5.07514 5.07726 3.1349 3.13566 0 0
        </DataArray>
        <DataArray type="Float32" Name="Molarity_Suspended_Biomass" NumberOfComponents="1" format="ascii">
          0.00548368 0.00548355 0.00548145 0.00548165 0.00547565 0.00547754 0.00546992 0.00547326 0.00546395 0.00546933 0.00546046 0.0054647
          0.00545648 0.00545999 0.00545184 0.00545494 0.00544668 0.00544944 0.00544099 0.00544348 0.00543488 0.005437 0.00541906 0.00542399
          0.00540327 0.00540796 0.00538545 0.00538971 0.00536522 0.0053691 0.00534247 0.00534588 0.00530963 0.00531373 0.00527257 0.00527637
          0.00523022 0.00523365 0.00518189 0.00518494 0.00512687 0.00512955 0.00506432 0.00506666 0.00499335 0.00499536 0.00491294 0.0049146
          0.0048219 0.00482322 0.00471889 0.00471986 0.0046024 0.00460302 0.00447074 0.00447091 0.00432179 0.00432152 0.00415319 0.00415251
          0.00396244 0.00396123 0.00374629 0.00374448 0.00350097 0.0034985 0.00322226 0.00321901 0.00290488 0.00290065 0.00254169 0.00253612
          0.0021212 0.00211377 0.00162173 0.00161214 0.000991691 0.000987686 0 0
        </DataArray>
        <DataArray type="Float32" Name="Molarity_NH4" NumberOfComponents="1" format="ascii">
          309.726 309.703 314.161 314.152 319.307 319.302 324.541 324.547 329.822 329.826 335.136 335.14
          340.479 340.481 345.846 345.846 351.23 351.23 356.628 356.628 362.034 362.033 372.619 372.623
          383.169 383.174 393.618 393.623 403.928 403.931 414.045 414.046 426.221 426.224 437.922 437.926
          449.037 449.038 459.454 459.454 469.057 469.058 477.725 477.726 485.33 485.331 491.734 491.735
          496.79 496.792 500.341 500.342 502.212 502.214 502.215 502.218 500.143 500.147 495.758 495.765
          488.802 488.81 478.965 478.975 465.868 465.883 449.058 449.08 427.946 427.979 401.719 401.764
          369.106 369.166 327.88 327.951 273.387 273.411 185.037 185.037
        </DataArray>
        <DataArray type="Float32" Name="Molarity_HCO3" NumberOfComponents="1" format="ascii">
          2.05653 2.05636 2.05343 2.0535 2.0506 2.05062 2.04751 2.04758 2.04435 2.04449 2.04119 2.04134
          2.03803 2.03817 2.03483 2.03497 2.0316 2.03174 2.02835 2.02849 2.02511 2.02524 2.01878 2.01898
          2.01233 2.01251 2.00605 2.00624 1.99989 2.00006 1.99386 1.99403 1.98667 1.98686 1.97986 1.98003
          1.97351 1.97366 1.9677 1.96786 1.9625 1.96266 1.95805 1.95817 1.9544 1.9545 1.95166 1.95174
          1.94996 1.95 1.94942 1.9494 1.95014 1.95008 1.95229 1.95223 1.95615 1.95598 1.96177 1.96154
          1.96954 1.96926 1.97986 1.97951 1.99309 1.99264 2.00967 2.00912 2.02969 2.02905 2.05093 2.05024
          2.0596 2.05902 1.99161 1.99204 1.58672 1.59088 0.00553194 0.00553194
        </DataArray>
        <DataArray type="Float32" Name="Molarity_CO3" NumberOfComponents="1" format="ascii">
          0.00201618 0.00201597 0.00199042 0.00199058 0.00196274 0.0019628 0.00193505 0.00193515 0.00190786 0.00190809 0.00188134 0.00188159
          0.00185549 0.00185571 0.00183021 0.00183044 0.00180554 0.00180578 0.00178149 0.00178171 0.00175808 0.00175828 0.00171408 0.00171437
          0.00167222 0.00167249 0.00163297 0.00163324 0.00159612 0.00159636 0.00156159 0.00156183 0.00152212 0.00152238 0.00148619 0.00148642
          0.00145381 0.00145401 0.00142491 0.00142512 0.00139951 0.00139971 0.00137768 0.00137784 0.00135942 0.00135955 0.00134485 0.00134496
          0.00133417 0.00133421 0.00132759 0.00132756 0.00132539 0.00132532 0.00132803 0.00132795 0.00133623 0.00133601 0.00135061 0.00135031
          0.00137241 0.00137204 0.00140338 0.0014029 0.00144571 0.00144507 0.0015027 0.00150189 0.00157879 0.00157779 0.00167776 0.0016766
          0.00178978 0.00178863 0.00182383 0.00182429 0.00135881 0.00136529 4.26535e-07 4.26535e-07
        </DataArray>
        <DataArray type="Float32" Name="Molarity_CO2" NumberOfComponents="1" format="ascii">
          0.249658 0.24964 0.252328 0.252324 0.25542 0.255417 0.258536 0.258541 0.261656 0.261661 0.264771 0.264776
          0.267879 0.267883 0.270977 0.27098 0.27406 0.274063 0.277127 0.27713 0.280175 0.280178 0.286077 0.286085
          0.29187 0.291877 0.297526 0.297534 0.303028 0.303034 0.308352 0.308358 0.314665 0.314673 0.320639 0.320646
          0.326231 0.326237 0.331403 0.331408 0.336114 0.33612 0.340326 0.340331 0.343993 0.343996 0.347065 0.347069
          0.349492 0.349494 0.351213 0.351213 0.352156 0.352155 0.35224 0.352239 0.351373 0.351369 0.349431 0.349426
          0.346278 0.346272 0.341734 0.341727 0.33556 0.335553 0.327439 0.327433 0.316919 0.316918 0.30328 0.303286
          0.285154 0.285174 0.259432 0.259484 0.217013 0.217133 0.00769319 0.00769319
        </DataArray>
        <DataArray type="Float32" Name="Molarity_H" NumberOfComponents="1" format="ascii">
          6.07558e-05 6.0756e-05 6.15451e-05 6.1542e-05 6.24406e-05 6.24392e-05 6.33543e-05 6.33534e-05 6.42752e-05 6.42722e-05 6.51992e-05 6.51957e-05
          6.61254e-05 6.61222e-05 6.70546e-05 6.7051e-05 6.79852e-05 6.79812e-05 6.8916e-05 6.89124e-05 6.98463e-05 6.98427e-05 7.16615e-05 7.16566e-05
          7.34677e-05 7.34631e-05 7.52466e-05 7.52417e-05 7.69942e-05 7.69897e-05 7.87033e-05 7.86982e-05 8.07501e-05 8.07448e-05 8.27071e-05 8.2702e-05
          8.45552e-05 8.45504e-05 8.62774e-05 8.62719e-05 8.78548e-05 8.78494e-05 8.92666e-05 8.92623e-05 9.04935e-05 9.04901e-05 9.15133e-05 9.15103e-05
          9.23006e-05 9.22995e-05 9.28304e-05 9.28314e-05 9.30751e-05 9.30774e-05 9.30028e-05 9.30054e-05 9.25749e-05 9.25815e-05 9.17563e-05 9.17655e-05
          9.04978e-05 9.05089e-05 8.87409e-05 8.87547e-05 8.64205e-05 8.6438e-05 8.34565e-05 8.34776e-05 7.97585e-05 7.9783e-05 7.52645e-05 7.52911e-05
          7.01199e-05 7.0145e-05 6.54494e-05 6.54497e-05 6.75131e-05 6.738e-05 0.000628379 0.000628379
        </DataArray>
        <DataArray type="Float32" Name="Molarity_OH" NumberOfComponents="1" format="ascii">
          0.000161618 0.000161618 0.00015953 0.000159538 0.000157225 0.000157228 0.00015494 0.000154942 0.000152702 0.000152709 0.000150521 0.000150529
          0.000148395 0.000148403 0.000146322 0.00014633 0.000144303 0.000144311 0.000142337 0.000142345 0.000140425 0.000140433 0.000136838 0.000136847
          0.000133444 0.000133452 0.000130261 0.000130269 0.000127277 0.000127284 0.000124488 0.000124495 0.000121302 0.00012131 0.000118405 0.000118412
          0.000115793 0.000115799 0.00011346 0.000113467 0.000111404 0.000111411 0.000109627 0.000109632 0.000108129 0.000108133 0.000106916 0.00010692
          0.000106001 0.000106002 0.000105397 0.000105396 0.000105127 0.000105124 0.000105221 0.000105218 0.000105727 0.000105719 0.000106697 0.000106686
          0.000108216 0.000108203 0.000110405 0.000110388 0.000113428 0.000113405 0.000117531 0.000117501 0.000123075 0.000123037 0.000130546 0.000130499
          0.000140284 0.000140233 0.00015051 0.000150509 0.00014619 0.000146478 1.57575e-05 1.57575e-05
        </DataArray>
        <DataArray type="Float32" Name="Da_ureolysis" NumberOfComponents="1" format="ascii">
          0 0 0 0 0 0 0 0 0 0 0 0
          0 0 0 0 0 0 0 0 0 0 0 0
          0 0 0 0 0 0 0 0 0 0 0 0
          0 0 0 0 0 0 0 0 0 0 0 0
          0 0 0 0 0 0 0 0 0 0 0 0
          0 0 0 0 0 0 0 0 0 0 0 0
          0 0 0 0 0 0 0 0
        </DataArray>
        <DataArray type="Float32" Name="Da_precipitation" NumberOfComponents="1" format="ascii">
          1788.97 1762.12 648.566 652.285 302.57 303.025 199.887 199.797 148.737 148.566 117.994 117.886
          97.5284 97.4067 82.8708 82.7952 71.8756 71.8167 63.3343 63.276 62.3345 62.2785 46.2722 46.2481
          39.0309 38.9997 33.5948 33.5761 29.4134 29.3894 26.8387 26.825 22.7768 22.7676 20.1939 20.1853
          18.1133 18.1041 16.4097 16.4044 15.0058 15.0009 13.8326 13.827 12.848 12.844 12.0211 12.0181
          11.3239 11.323 10.7412 10.7402 10.2575 10.2571 9.86729 9.87163 9.55673 9.55678 9.33394 9.33914
          9.19906 9.2041 9.15137 9.15719 9.21907 9.22585 9.4086 9.41677 9.73297 9.73954 10.0563 10.0645
          9.52424 9.53648 5.19796 5.23586 0.00960014 0.0110469 0 0
        </DataArray>
        <DataArray type="Float32" Name="Vx" NumberOfComponents="1" format="ascii">
          4.99198e-12 4.99266e-12 1.59619e-12 1.59652e-12 -6.77259e-13 -6.77441e-13 1.98732e-13 1.99241e-13 2.08412e-12 2.08769e-12 3.73307e-12 3.73931e-12
          3.94774e-12 3.95327e-12 2.99599e-12 3.00041e-12 2.61541e-12 2.62015e-12 2.29152e-12 2.29535e-12 1.60313e-12 1.60584e-12 2.94313e-12 2.94756e-12
          4.28756e-12 4.29477e-12 5.11266e-12 5.12082e-12 4.20227e-12 4.20831e-12 2.26769e-12 2.27184e-12 4.33805e-12 4.34467e-12 6.11898e-12 6.12669e-12
          3.57291e-12 3.57709e-12 1.34987e-12 1.35245e-12 4.02818e-12 4.03343e-12 5.59851e-12 5.60461e-12 4.03102e-12 4.03504e-12 5.13852e-12 5.14287e-12
          9.97651e-12 9.97989e-12 8.88861e-12 8.88815e-12 2.72083e-12 2.71907e-12 1.16427e-11 1.16339e-11 1.51256e-11 1.51074e-11 5.83494e-12 5.81977e-12
          9.54279e-12 9.52101e-12 1.53236e-11 1.52803e-11 1.55663e-11 1.55095e-11 1.26609e-11 1.26072e-11 6.16998e-12 6.13802e-12 1.2601e-13 1.27688e-13
          -1.28023e-11 -1.27048e-11 -4.10308e-11 -4.07922e-11 -4.91051e-11 -4.88652e-11 -7.51862e-11 -7.50087e-11
        </DataArray>
        <DataArray type="Float32" Name="Vy" NumberOfComponents="1" format="ascii">
          2.59499e-10 2.63185e-10 -7.01291e-10 -6.9749e-10 -1.48635e-09 -1.48434e-09 -2.22745e-09 -2.22969e-09 -2.96542e-09 -2.97118e-09 -3.70321e-09 -3.71087e-09
          -4.4434e-09 -4.45193e-09 -5.18302e-09 -5.19249e-09 -5.92381e-09 -5.93486e-09 -6.66439e-09 -6.67692e-09 -6.71385e-09 -6.72635e-09 -8.90492e-09 -8.92001e-09
          -1.03807e-08 -1.04005e-08 -1.18763e-08 -1.18981e-08 -1.33742e-08 -1.3397e-08 -1.4449e-08 -1.44738e-08 -1.67644e-08 -1.67915e-08 -1.86399e-08 -1.86668e-08
          -2.05235e-08 -2.05499e-08 -2.2411e-08 -2.24417e-08 -2.42951e-08 -2.43287e-08 -2.61934e-08 -2.62239e-08 -2.80953e-08 -2.81223e-08 -2.99961e-08 -3.00198e-08
          -3.19142e-08 -3.1927e-08 -3.38382e-08 -3.3834e-08 -3.57672e-08 -3.57545e-08 -3.76805e-08 -3.76557e-08 -3.9672e-08 -3.96177e-08 -4.16063e-08 -4.15296e-08
          -4.35523e-08 -4.34587e-08 -4.55797e-08 -4.54556e-08 -4.75922e-08 -4.74299e-08 -4.9657e-08 -4.94567e-08 -5.17547e-08 -5.15228e-08 -5.3981e-08 -5.37257e-08
          -5.66629e-08 -5.63943e-08 -6.14605e-08 -6.12079e-08 -8.74044e-08 -8.72096e-08 1.05731e-06 1.05747e-06
        </DataArray>
      </PointData>
      <CellData Scalars="process rank">
        <DataArray type="Float32" Name="process rank" NumberOfComponents="1" format="ascii">
          0 0 0 0 0 0 0 0 0 0 0 0
          0 0 0 0 0 0 0 0 0 0 0 0
          0 0 0 0 0 0 0 0 0 0 0 0
          0 0 0
        </DataArray>
      </CellData>
      <Points>
        <DataArray type="Float32" Name="Coordinates" NumberOfComponents="3" format="ascii">
          0 0 0 0.0254 0 0 0 0.01 0 0.0254 0.01 0
          0 0.02 0 0.0254 0.02 0 0 0.03 0 0.0254 0.03 0
          0 0.04 0 0.0254 0.04 0 0 0.05 0 0.0254 0.05 0
          0 0.06 0 0.0254 0.06 0 0 0.07 0 0.0254 0.07 0
          0 0.08 0 0.0254 0.08 0 0 0.09 0 0.0254 0.09 0
          0 0.1 0 0.0254 0.1 0 0 0.12 0 0.0254 0.12 0
          0 0.14 0 0.0254 0.14 0 0 0.16 0 0.0254 0.16 0
          0 0.18 0 0.0254 0.18 0 0 0.2 0 0.0254 0.2 0
          0 0.225 0 0.0254 0.225 0 0 0.25 0 0.0254 0.25 0
          0 0.275 0 0.0254 0.275 0 0 0.3 0 0.0254 0.3 0
          0 0.325 0 0.0254 0.325 0 0 0.35 0 0.0254 0.35 0
          0 0.375 0 0.0254 0.375 0 0 0.4 0 0.0254 0.4 0
          0 0.425 0 0.0254 0.425 0 0 0.45 0 0.0254 0.45 0
          0 0.475 0 0.0254 0.475 0 0 0.5 0 0.0254 0.5 0
          0 0.525 0 0.0254 0.525 0 0 0.55 0 0.0254 0.55 0
          0 0.575 0 0.0254 0.575 0 0 0.6 0 0.0254 0.6 0
          0 0.625 0 0.0254 0.625 0 0 0.65 0 0.0254 0.65 0
          0 0.675 0 0.0254 0.675 0 0 0.7 0 0.0254 0.7 0
          0 0.725 0 0.0254 0.725 0 0 0.75 0 0.0254 0.75 0
          0 0.775 0 0.0254 0.775 0 0 0.8 0 0.0254 0.8 0
        </DataArray>
      </Points>
      <Cells>
        <DataArray type="Int32" Name="connectivity" NumberOfComponents="1" format="ascii">
          0 1 3 2 2 3 5 4 4 5 7 6
          6 7 9 8 8 9 11 10 10 11 13 12
          12 13 15 14 14 15 17 16 16 17 19 18
          18 19 21 20 20 21 23 22 22 23 25 24
          24 25 27 26 26 27 29 28 28 29 31 30
          30 31 33 32 32 33 35 34 34 35 37 36
          36 37 39 38 38 39 41 40 40 41 43 42
          42 43 45 44 44 45 47 46 46 47 49 48
          48 49 51 50 50 51 53 52 52 53 55 54
          54 55 57 56 56 57 59 58 58 59 61 60
          60 61 63 62 62 63 65 64 64 65 67 66
          66 67 69 68 68 69 71 70 70 71 73 72
          72 73 75 74 74 75 77 76 76 77 79 78
        </DataArray>
        <DataArray type="Int32" Name="offsets" NumberOfComponents="1" format="ascii">
          4 8 12 16 20 24 28 32 36 40 44 48
          52 56 60 64 68 72 76 80 84 88 92 96
          100 104 108 112 116 120 124 128 132 136 140 144
          148 152 156
        </DataArray>
        <DataArray type="UInt8" Name="types" NumberOfComponents="1" format="ascii">
          9 9 9 9 9 9 9 9 9 9 9 9
          9 9 9 9 9 9 9 9 9 9 9 9
          9 9 9 9 9 9 9 9 9 9 9 9
          9 9 9
        </DataArray>
      </Cells>
    </Piece>
  </UnstructuredGrid>
</VTKFile>
