<?xml version="1.0"?>
<VTKFile type="UnstructuredGrid" version="0.1" byte_order="LittleEndian">
  <UnstructuredGrid>
    <Piece NumberOfCells="39" NumberOfPoints="80">
      <PointData Scalars="Sg">
        <DataArray type="Float32" Name="Sg" NumberOfComponents="1" format="ascii">
          0 0 0 0 0 0 0 0 0 0 0 0
          0 0 0 0 0 0 0 0 0 0 0 0
          0 0 0 0 0 0 0 0 0 0 0 0
          0 0 0 0 0 0 0 0 0 0 0 0
          0 0 0 0 0 0 0 0 0 0 0 0
          0 0 0 0 0 0 0 0 0 0 0 0
          0 0 0 0 0 0 0 0
        </DataArray>
        <DataArray type="Float32" Name="Sl" NumberOfComponents="1" format="ascii">
          1 1 1 1 1 1 1 1 1 1 1 1
          1 1 1 1 1 1 1 1 1 1 1 1
          1 1 1 1 1 1 1 1 1 1 1 1
          1 1 1 1 1 1 1 1 1 1 1 1
          1 1 1 1 1 1 1 1 1 1 1 1
          1 1 1 1 1 1 1 1 1 1 1 1
          1 1 1 1 1 1 1 1
        </DataArray>
        <DataArray type="Float32" Name="pg" NumberOfComponents="1" format="ascii">
          203485 203484 202126 202125 200700 200699 199258 199258 197810 197810 196360 196360
          194909 194910 193461 193460 192013 192013 190566 190566 189120 189120 186238 186238
          183363 183362 180494 180494 177639 177639 174796 174795 171262 171262 167754 167755
          164276 164276 160834 160834 157428 157429 154065 154066 150750 150750 147488 147488
          144284 144284 141143 141144 138073 138073 135077 135078 132167 132168 129350 129350
          126632 126632 124024 124024 121538 121539 119188 119189 116988 116989 114962 114963
          113155 113157 111628 111629 110375 110376 109667 109667
        </DataArray>
        <DataArray type="Float32" Name="pl" NumberOfComponents="1" format="ascii">
          193818 193817 192459 192458 191033 191032 189592 189592 188144 188144 186693 186694
          185243 185243 183795 183794 182346 182346 180899 180899 179454 179454 176571 176571
          173696 173696 170828 170828 167972 167972 165129 165129 161595 161595 158088 158089
          154610 154610 151167 151167 147762 147762 144399 144399 141084 141084 137821 137821
          134617 134618 131476 131477 128406 128406 125411 125411 122500 122501 119684 119684
          116965 116966 114357 114358 111872 111872 109521 109522 107322 107322 105296 105297
          103489 103490 101961 101962 100709 100709 100000 100000
        </DataArray>
        <DataArray type="Float32" Name="pc" NumberOfComponents="1" format="ascii">
          9666.67 9666.67 9666.67 9666.67 9666.67 9666.67 9666.67 9666.67 9666.67 9666.67 9666.67 9666.67
          9666.67 9666.67 9666.67 9666.67 9666.67 9666.67 9666.67 9666.67 9666.67 9666.67 9666.67 9666.67
          9666.67 9666.67 9666.67 9666.67 9666.67 9666.67 9666.67 9666.67 9666.67 9666.67 9666.67 9666.67
          9666.67 9666.67 9666.67 9666.67 9666.67 9666.67 9666.67 9666.67 9666.67 9666.67 9666.67 9666.67
          9666.67 9666.67 9666.67 9666.67 9666.67 9666.67 9666.67 9666.67 9666.67 9666.67 9666.67 9666.67
          9666.67 9666.67 9666.67 9666.67 9666.67 9666.67 9666.67 9666.67 9666.67 9666.67 9666.67 9666.67
          9666.67 9666.67 9666.67 9666.67 9666.67 9666.67 9666.67 9666.67
        </DataArray>
        <DataArray type="Float32" Name="rhoL" NumberOfComponents="1" format="ascii">
          1001.63 1001.63 1001.64 1001.64 1001.65 1001.65 1001.65 1001.65 1001.66 1001.66 1001.67 1001.67
          1001.67 1001.67 1001.68 1001.68 1001.69 1001.69 1001.69 1001.69 1001.7 1001.7 1001.71 1001.71
          1001.72 1001.72 1001.73 1001.73 1001.74 1001.74 1001.75 1001.75 1001.77 1001.77 1001.78 1001.78
          1001.79 1001.79 1001.8 1001.8 1001.8 1001.8 1001.81 1001.81 1001.81 1001.81 1001.82 1001.82
          1001.82 1001.82 1001.82 1001.82 1001.82 1001.82 1001.82 1001.82 1001.81 1001.81 1001.81 1001.81
          1001.8 1001.8 1001.78 1001.78 1001.77 1001.77 1001.75 1001.75 1001.73 1001.73 1001.7 1001.7
          1001.66 1001.66 1001.62 1001.62 1001.57 1001.57 1001.45 1001.45
        </DataArray>
        <DataArray type="Float32" Name="rhoG" NumberOfComponents="1" format="ascii">
          3.62423 3.62426 3.59966 3.59965 3.57384 3.57381 3.54772 3.54772 3.5215 3.5215 3.49522 3.49523
          3.46895 3.46896 3.44272 3.44271 3.41649 3.41649 3.39028 3.39028 3.3641 3.3641 3.31188 3.31189
          3.25981 3.2598 3.20786 3.20786 3.15614 3.15614 3.10465 3.10463 3.04063 3.04064 2.9771 2.97712
          2.91411 2.9141 2.85175 2.85175 2.79007 2.79007 2.72915 2.72915 2.6691 2.6691 2.61001 2.61001
          2.55197 2.55198 2.49508 2.49509 2.43946 2.43946 2.38521 2.38522 2.33249 2.3325 2.28147 2.28146
          2.23222 2.23223 2.18498 2.18499 2.13995 2.13996 2.09738 2.09739 2.05753 2.05754 2.02083 2.02085
          1.9881 1.98812 1.96043 1.96045 1.93774 1.93774 1.9249 1.9249
        </DataArray>
        <DataArray type="Float32" Name="mobL" NumberOfComponents="1" format="ascii">
          1103.56 1103.56 1103.56 1103.56 1103.56 1103.56 1103.56 1103.56 1103.56 1103.56 1103.56 1103.56
          1103.56 1103.56 1103.56 1103.56 1103.56 1103.56 1103.56 1103.56 1103.55 1103.55 1103.55 1103.55
          1103.55 1103.55 1103.55 1103.55 1103.55 1103.55 1103.54 1103.54 1103.54 1103.54 1103.54 1103.54
          1103.53 1103.53 1103.53 1103.53 1103.52 1103.52 1103.52 1103.52 1103.51 1103.51 1103.51 1103.51
          1103.5 1103.5 1103.49 1103.49 1103.48 1103.48 1103.47 1103.47 1103.46 1103.46 1103.45 1103.45
          1103.43 1103.43 1103.42 1103.42 1103.4 1103.4 1103.38 1103.38 1103.36 1103.35 1103.33 1103.33
          1103.3 1103.3 1103.26 1103.26 1103.22 1103.22 1103.12 1103.12
        </DataArray>
        <DataArray type="Float32" Name="mobG" NumberOfComponents="1" format="ascii">
          0 0 0 0 0 0 0 0 0 0 0 0
          0 0 0 0 0 0 0 0 0 0 0 0
          0 0 0 0 0 0 0 0 0 0 0 0
          0 0 0 0 0 0 0 0 0 0 0 0
          0 0 0 0 0 0 0 0 0 0 0 0
          0 0 0 0 0 0 0 0 0 0 0 0
          0 0 0 0 0 0 0 0
        </DataArray>
        <DataArray type="Float32" Name="porosity" NumberOfComponents="1" format="ascii">
          0.0942587 0.0942909 0.0914659 0.0914564 0.0910085 0.0910329 0.0907386 0.0907986 0.0907042 0.0907186 0.0906242 0.0906925
          0.0907152 0.0907022 0.0907078 0.0907514 0.0907272 0.0907743 0.090743 0.0907733 0.0908092 0.0908481 0.0909244 0.0909601
          0.0909809 0.0910077 0.091074 0.0911339 0.0912625 0.0912949 0.0913538 0.0914047 0.0916133 0.0916879 0.0918654 0.091881
          0.0921912 0.0921881 0.0925364 0.0925684 0.0928963 0.0929161 0.0933717 0.0933853 0.0938709 0.0938571 0.0944491 0.0944624
          0.0950852 0.0950885 0.0958334 0.0957924 0.0966817 0.0966019 0.0975659 0.0975375 0.0987353 0.0985884 0.0999271 0.0998264
          0.101323 0.101193 0.103022 0.102857 0.104996 0.104791 0.107402 0.107163 0.110361 0.110032 0.114345 0.113974
          0.120612 0.120102 0.130835 0.130122 0.141668 0.140747 0.4 0.4
        </DataArray>
        <DataArray type="Float32" Name="temperature" NumberOfComponents="1" format="ascii">
          298.15 298.15 298.15 298.15 298.15 298.15 298.15 298.15 298.15 298.15 298.15 298.15
          298.15 298.15 298.15 298.15 298.15 298.15 298.15 298.15 298.15 298.15 298.15 298.15
          298.15 298.15 298.15 298.15 298.15 298.15 298.15 298.15 298.15 298.15 298.15 298.15
          298.15 298.15 298.15 298.15 298.15 298.15 298.15 298.15 298.15 298.15 298.15 298.15
          298.15 298.15 298.15 298.15 298.15 298.15 298.15 298.15 298.15 298.15 298.15 298.15
          298.15 298.15 298.15 298.15 298.15 298.15 298.15 298.15 298.15 298.15 298.15 298.15
          298.15 298.15 298.15 298.15 298.15 298.15 298.15 298.15
        </DataArray>
        <DataArray type="Float32" Name="phase presence" NumberOfComponents="1" format="ascii">
          1 1 1 1 1 1 1 1 1 1 1 1
          1 1 1 1 1 1 1 1 1 1 1 1
          1 1 1 1 1 1 1 1 1 1 1 1
          1 1 1 1 1 1 1 1 1 1 1 1
          1 1 1 1 1 1 1 1 1 1 1 1
          1 1 1 1 1 1 1 1 1 1 1 1
          1 1 1 1 1 1 1 1
        </DataArray>
        <DataArray type="Float32" Name="potential" NumberOfComponents="1" format="ascii">
          8.74793 8.74784 8.61953 8.61948 8.48439 8.48426 8.34762 8.3476 8.2102 8.21019 8.07251 8.07256
          7.93486 7.93489 7.79742 7.79733 7.65998 7.65998 7.52265 7.52266 7.38552 7.38551 7.11206 7.11208
          6.83941 6.83937 6.56746 6.56745 6.29681 6.29682 6.02745 6.02739 5.69272 5.69277 5.36075 5.36086
          5.03182 5.0318 4.70649 4.70646 4.38492 4.38494 4.06767 4.06772 3.75535 3.75535 3.44839 3.44837
          3.14734 3.1474 2.85274 2.85284 2.56535 2.56534 2.28559 2.28565 2.01446 2.01454 1.75288 1.75286
          1.50127 1.50133 1.26091 1.26097 1.03301 1.03307 0.818858 0.81894 0.620046 0.620122 0.438919 0.438998
          0.280047 0.280168 0.149614 0.149715 0.0471365 0.0471558 0 0
        </DataArray>
        <DataArray type="Float32" Name="boxVolume" NumberOfComponents="1" format="ascii">
          6.35e-05 6.35e-05 0.000127 0.000127 0.000127 0.000127 0.000127 0.000127 0.000127 0.000127 0.000127 0.000127
          0.000127 0.000127 0.000127 0.000127 0.000127 0.000127 0.000127 0.000127 0.0001905 0.0001905 0.000254 0.000254
          0.000254 0.000254 0.000254 0.000254 0.000254 0.000254 0.00028575 0.00028575 0.0003175 0.0003175 0.0003175 0.0003175
          0.0003175 0.0003175 0.0003175 0.0003175 0.0003175 0.0003175 0.0003175 0.0003175 0.0003175 0.0003175 0.0003175 0.0003175
          0.0003175 0.0003175 0.0003175 0.0003175 0.0003175 0.0003175 0.0003175 0.0003175 0.0003175 0.0003175 0.0003175 0.0003175
          0.0003175 0.0003175 0.0003175 0.0003175 0.0003175 0.0003175 0.0003175 0.0003175 0.0003175 0.0003175 0.0003175 0.0003175
          0.0003175 0.0003175 0.0003175 0.0003175 0.0003175 0.0003175 0.00015875 0.00015875
        </DataArray>
        <DataArray type="Float32" Name="pH" NumberOfComponents="1" format="ascii">
          8.35889 8.35889 8.37202 8.37202 8.3842 8.3842 8.39591 8.39591 8.40692 8.40692 8.41737 8.41737
          8.42743 8.42743 8.43705 8.43705 8.44622 8.44622 8.4549 8.4549 8.46328 8.46328 8.47859 8.47859
          8.4927 8.4927 8.50572 8.50572 8.51754 8.51754 8.5286 8.52833 8.54051 8.54051 8.55132 8.55132
          8.56092 8.56092 8.56895 8.56895 8.5762 8.5762 8.58203 8.58203 8.58638 8.58638 8.58983 8.58983
          8.59204 8.59204 8.59267 8.59267 8.59172 8.59172 8.5892 8.5892 8.58513 8.58513 8.57865 8.57865
          8.56955 8.56955 8.55741 8.55741 8.54136 8.54136 8.52048 8.52048 8.4927 8.4927 8.45513 8.45513
          8.4024 8.4024 8.32222 8.32239 8.18437 8.18511 6.19963 6.19963
        </DataArray>
        <DataArray type="Float32" Name="Omega" NumberOfComponents="1" format="ascii">
          0.796139 0.796083 0.871486 0.871451 0.934157 0.934115 0.990116 0.990085 1.04479 1.04476 1.09953 1.0995
          1.1546 1.15457 1.20978 1.20974 1.26477 1.26474 1.31931 1.31928 1.37382 1.37379 1.47926 1.47923
          1.58254 1.58249 1.68298 1.68294 1.77916 1.77912 1.87183 1.87062 1.97727 1.97724 2.07468 2.07466
          2.16245 2.16243 2.23755 2.23754 2.30319 2.30318 2.35529 2.35528 2.39284 2.39283 2.41847 2.41847
          2.42988 2.42989 2.42476 2.42477 2.40255 2.40257 2.36279 2.36281 2.30506 2.30509 2.2243 2.22433
          2.11955 2.11957 1.98927 1.9893 1.83102 1.83106 1.64415 1.64421 1.42663 1.42678 1.17931 1.17968
          0.90442 0.905269 0.567638 0.569539 0.214554 0.216373 0 0
        </DataArray>
        <DataArray type="Float32" Name="rurea" NumberOfComponents="1" format="ascii">
          0 0 0 0 0 0 0 0 0 0 0 0
          0 0 0 0 0 0 0 0 0 0 0 0
          0 0 0 0 0 0 0 0 0 0 0 0
          0 0 0 0 0 0 0 0 0 0 0 0
          0 0 0 0 0 0 0 0 0 0 0 0
          0 0 0 0 0 0 0 0 0 0 0 0
          0 0 0 0 0 0 0 0
        </DataArray>
        <DataArray type="Float32" Name="Volume_Fraction_Biofilm" NumberOfComponents="1" format="ascii">
          0.227836 0.227908 0.220854 0.2208 0.217275 0.217253 0.215843 0.215837 0.215064 0.214994 0.214387 0.214422
          0.214104 0.213993 0.213666 0.213683 0.213275 0.213294 0.212913 0.212901 0.212611 0.212651 0.212204 0.212133
          0.211576 0.211514 0.211023 0.211025 0.21068 0.210655 0.210196 0.210156 0.209889 0.209911 0.209568 0.209506
          0.209334 0.209268 0.209176 0.209175 0.209021 0.209012 0.209044 0.209048 0.209108 0.209079 0.209253 0.209294
          0.209467 0.209523 0.209797 0.209803 0.210209 0.210226 0.210654 0.210744 0.211394 0.211391 0.212072 0.212188
          0.212934 0.213061 0.214069 0.214215 0.215501 0.215682 0.217269 0.217509 0.219751 0.219993 0.223863 0.224204
          0.231997 0.232405 0.244787 0.245376 0.251458 0.252367 0 0
        </DataArray>
        <DataArray type="Float32" Name="Volume_Fraction_Calcite" NumberOfComponents="1" format="ascii">
          0.077905 0.0778016 0.0876803 0.087744 0.0917163 0.0917142 0.0934183 0.0933639 0.0942319 0.0942875 0.0949884 0.0948852
          0.0951809 0.0953046 0.0956263 0.095566 0.0959975 0.0959313 0.0963437 0.0963253 0.0965797 0.0965011 0.0968721 0.0969072
          0.0974432 0.0974788 0.0979027 0.0978413 0.0980571 0.0980501 0.0984507 0.0984393 0.0984977 0.0984013 0.0985664 0.0986132
          0.098475 0.0985439 0.0982877 0.0982569 0.0980826 0.098072 0.0975841 0.0975672 0.0970208 0.0970638 0.0962976 0.0962435
          0.095448 0.0953885 0.0943698 0.0944043 0.0931094 0.093172 0.0917806 0.0917185 0.0898707 0.0900209 0.0880006 0.0879854
          0.0857426 0.0857459 0.0829093 0.0829276 0.0795037 0.079527 0.0753288 0.0753281 0.0698874 0.0699745 0.0617917 0.0618218
          0.0473911 0.0474928 0.0243785 0.0245019 0.00687343 0.00688642 0 0
        </DataArray>
        <DataArray type="Float32" Name="Kxx" NumberOfComponents="1" format="ascii">
          2.61707e-12 2.61975e-12 2.39126e-12 2.39052e-12 2.35557e-12 2.35747e-12 2.33467e-12 2.33931e-12 2.33202e-12 2.33313e-12 2.32586e-12 2.33112e-12
          2.33287e-12 2.33187e-12 2.3323e-12 2.33566e-12 2.33379e-12 2.33743e-12 2.33501e-12 2.33736e-12 2.34013e-12 2.34313e-12 2.34905e-12 2.35181e-12
          2.35343e-12 2.35551e-12 2.36066e-12 2.36532e-12 2.37535e-12 2.37788e-12 2.38248e-12 2.38646e-12 2.40285e-12 2.40872e-12 2.42274e-12 2.42397e-12
          2.4486e-12 2.44836e-12 2.47621e-12 2.47878e-12 2.50522e-12 2.50682e-12 2.54388e-12 2.54499e-12 2.5849e-12 2.58375e-12 2.63296e-12 2.63407e-12
          2.68651e-12 2.68679e-12 2.75043e-12 2.7469e-12 2.82411e-12 2.81713e-12 2.90231e-12 2.89977e-12 3.00793e-12 2.99452e-12 3.11817e-12 3.10875e-12
          3.25067e-12 3.23818e-12 3.41693e-12 3.40058e-12 3.61713e-12 3.59605e-12 3.87158e-12 3.84577e-12 4.20052e-12 4.16301e-12 4.67199e-12 4.62664e-12
          5.48308e-12 5.41378e-12 6.99874e-12 6.88504e-12 8.8852e-12 8.71294e-12 2e-10 2e-10
        </DataArray>
        <DataArray type="Float32" Name="X_lBrine" NumberOfComponents="1" format="ascii">
          0.968583 0.968583 0.968602 0.968602 0.968622 0.968622 0.968643 0.968643 0.968665 0.968665 0.968689 0.968689
          0.968715 0.968715 0.968742 0.968742 0.968772 0.968772 0.968802 0.968802 0.968835 0.968835 0.968905 0.968905
          0.968983 0.968983 0.96907 0.96907 0.969166 0.969166 0.969272 0.969272 0.969418 0.969418 0.969582 0.969582
          0.969766 0.969766 0.969973 0.969973 0.970203 0.970203 0.97046 0.97046 0.970746 0.970746 0.971066 0.971066
          0.971422 0.971422 0.971818 0.971818 0.97226 0.972261 0.972754 0.972754 0.973305 0.973305 0.973922 0.973922
          0.974613 0.974613 0.97539 0.97539 0.976265 0.976266 0.977257 0.977259 0.978387 0.978388 0.979684 0.979686
          0.981198 0.9812 0.983015 0.983016 0.985242 0.985234 0.99029 0.99029
        </DataArray>
        <DataArray type="Float32" Name="X_lTotalC" NumberOfComponents="1" format="ascii">
          0.00112145 0.0011214 0.00116208 0.00116203 0.00120148 0.00120143 0.00124021 0.00124016 0.00127836 0.00127831 0.00131595 0.00131591
          0.00135301 0.00135297 0.00138954 0.00138949 0.00142551 0.00142547 0.00146092 0.00146088 0.00149576 0.00149573 0.00156247 0.00156244
          0.00162672 0.00162667 0.00168837 0.00168833 0.00174735 0.0017473 0.00180351 0.00180346 0.00186891 0.00186888 0.00192938 0.00192937
          0.00198461 0.00198459 0.00203421 0.0020342 0.00207777 0.00207776 0.00211483 0.00211482 0.00214487 0.00214487 0.00216733 0.00216733
          0.00218154 0.00218155 0.00218677 0.00218679 0.00218219 0.00218222 0.00216686 0.00216689 0.00213967 0.00213971 0.00209937 0.00209942
          0.00204451 0.00204454 0.00197332 0.00197335 0.00188372 0.00188373 0.00177313 0.0017731 0.0016383 0.00163823 0.0014748 0.0014747
          0.00127556 0.00127546 0.00102818 0.00102838 0.000717215 0.000718561 5.81077e-07 5.81077e-07
        </DataArray>
        <DataArray type="Float32" Name="X_lNa" NumberOfComponents="1" format="ascii">
          3.68473e-06 3.68473e-06 3.68476e-06 3.68476e-06 3.6848e-06 3.6848e-06 3.68484e-06 3.68484e-06 3.68489e-06 3.68489e-06 3.68494e-06 3.68494e-06
          3.685e-06 3.685e-06 3.68506e-06 3.68506e-06 3.68513e-06 3.68513e-06 3.68521e-06 3.68521e-06 3.68528e-06 3.68528e-06 3.68546e-06 3.68546e-06
          3.68565e-06 3.68565e-06 3.68587e-06 3.68587e-06 3.68613e-06 3.68613e-06 3.68641e-06 3.68641e-06 3.6868e-06 3.6868e-06 3.68725e-06 3.68725e-06
          3.68776e-06 3.68776e-06 3.68833e-06 3.68833e-06 3.68898e-06 3.68898e-06 3.68971e-06 3.68971e-06 3.69053e-06 3.69053e-06 3.69145e-06 3.69145e-06
          3.69248e-06 3.69248e-06 3.69364e-06 3.69364e-06 3.69493e-06 3.69493e-06 3.69638e-06 3.69638e-06 3.698e-06 3.698e-06 3.69983e-06 3.69983e-06
          3.70188e-06 3.70188e-06 3.70418e-06 3.70419e-06 3.70679e-06 3.7068e-06 3.70975e-06 3.70976e-06 3.71313e-06 3.71313e-06 3.71701e-06 3.71702e-06
          3.72155e-06 3.72156e-06 3.727e-06 3.727e-06 3.73369e-06 3.73366e-06 3.74885e-06 3.74885e-06
        </DataArray>
        <DataArray type="Float32" Name="X_lCl" NumberOfComponents="1" format="ascii">
          0.0064449 0.0064449 0.00644501 0.00644501 0.00644512 0.00644512 0.00644525 0.00644525 0.00644538 0.00644538 0.00644552 0.00644552
          0.00644567 0.00644567 0.00644582 0.00644582 0.00644599 0.00644599 0.00644617 0.00644617 0.00644635 0.00644635 0.00644675 0.00644675
          0.00644719 0.00644719 0.00644768 0.00644768 0.00644821 0.00644821 0.0064488 0.0064488 0.0064496 0.0064496 0.0064505 0.0064505
          0.00645151 0.00645151 0.00645262 0.00645262 0.00645386 0.00645386 0.00645523 0.00645523 0.00645675 0.00645675 0.00645844 0.00645844
          0.00646031 0.00646031 0.00646239 0.00646239 0.00646469 0.00646469 0.00646725 0.00646725 0.0064701 0.0064701 0.00647327 0.00647327
          0.00647682 0.00647682 0.00648079 0.00648079 0.00648526 0.00648526 0.0064903 0.00649031 0.00649604 0.00649605 0.00650261 0.00650262
          0.00651028 0.00651029 0.00651946 0.00651946 0.0065307 0.00653066 0.00655617 0.00655617
        </DataArray>
        <DataArray type="Float32" Name="X_lCa" NumberOfComponents="1" format="ascii">
          3.63317e-07 3.63308e-07 3.72387e-07 3.72388e-07 3.75445e-07 3.75447e-07 3.75299e-07 3.75301e-07 3.74644e-07 3.74645e-07 3.73965e-07 3.73966e-07
          3.73262e-07 3.73263e-07 3.72533e-07 3.72534e-07 3.71777e-07 3.71778e-07 3.70995e-07 3.70995e-07 3.70184e-07 3.70184e-07 3.68504e-07 3.68505e-07
          3.6671e-07 3.66711e-07 3.64801e-07 3.64801e-07 3.62779e-07 3.62779e-07 3.60651e-07 3.60652e-07 3.57884e-07 3.57884e-07 3.55005e-07 3.55005e-07
          3.52058e-07 3.52059e-07 3.49096e-07 3.49096e-07 3.46177e-07 3.46177e-07 3.43366e-07 3.43365e-07 3.40725e-07 3.40725e-07 3.38316e-07 3.38316e-07
          3.36193e-07 3.36192e-07 3.34401e-07 3.344e-07 3.3297e-07 3.32968e-07 3.31913e-07 3.31911e-07 3.31227e-07 3.31225e-07 3.30893e-07 3.30891e-07
          3.30872e-07 3.30871e-07 3.31116e-07 3.31117e-07 3.31569e-07 3.31576e-07 3.32181e-07 3.32199e-07 3.32911e-07 3.3296e-07 3.33733e-07 3.33861e-07
          3.34626e-07 3.34968e-07 3.1411e-07 3.14977e-07 2.34845e-07 2.35982e-07 0 0
        </DataArray>
        <DataArray type="Float32" Name="X_lUrea" NumberOfComponents="1" format="ascii">
          0.0170816 0.0170817 0.0169953 0.0169954 0.0169102 0.0169103 0.016825 0.0168251 0.0167395 0.0167396 0.0166537 0.0166537
          0.0165673 0.0165674 0.0164804 0.0164805 0.016393 0.016393 0.0163049 0.016305 0.0162162 0.0162163 0.0160399 0.0160399
          0.0158608 0.0158609 0.0156787 0.0156787 0.015493 0.0154931 0.0153035 0.0153036 0.0150628 0.0150628 0.0148146 0.0148146
          0.0145581 0.0145581 0.0142921 0.0142921 0.0140153 0.0140153 0.0137263 0.0137263 0.0134235 0.0134235 0.0131051 0.013105
          0.0127688 0.0127687 0.0124124 0.0124122 0.0120329 0.0120327 0.0116271 0.0116268 0.0111911 0.0111908 0.0107203 0.01072
          0.0102094 0.0102089 0.00965174 0.0096511 0.00903897 0.00903814 0.00836082 0.00835972 0.00760388 0.00760251 0.00674941 0.00674772
          0.00576653 0.00576468 0.00460098 0.0046004 0.00318652 0.00319117 0 0
        </DataArray>
        <DataArray type="Float32" Name="X_lTotalNH" NumberOfComponents="1" format="ascii">
          0.00396343 0.00396339 0.00399492 0.00399489 0.00402548 0.00402544 0.00405552 0.00405549 0.00408512 0.00408508 0.00411428 0.00411426
          0.00414304 0.00414302 0.0041714 0.00417136 0.00419933 0.0041993 0.00422682 0.0042268 0.00425389 0.00425386 0.00430573 0.0043057
          0.00435567 0.00435564 0.00440363 0.0044036 0.00444955 0.00444952 0.00449331 0.00449327 0.00454433 0.0045443 0.00459158 0.00459157
          0.00463481 0.0046348 0.00467375 0.00467374 0.00470807 0.00470806 0.00473741 0.00473741 0.00476141 0.00476141 0.0047796 0.00477961
          0.0047915 0.00479151 0.00479655 0.00479657 0.00479412 0.00479414 0.00478348 0.0047835 0.0047638 0.00476383 0.00473413 0.00473416
          0.00469336 0.00469338 0.00464016 0.00464018 0.00457294 0.00457295 0.00448975 0.00448973 0.00438812 0.00438808 0.00426471 0.00426464
          0.00411415 0.00411408 0.00392707 0.00392723 0.00369181 0.00369283 0.00314947 0.00314947
        </DataArray>
        <DataArray type="Float32" Name="X_lO2" NumberOfComponents="1" format="ascii">
          7.26881e-06 7.26883e-06 7.25011e-06 7.25013e-06 7.23136e-06 7.23139e-06 7.21231e-06 7.21232e-06 7.19289e-06 7.1929e-06 7.17307e-06 7.17308e-06
          7.15282e-06 7.15283e-06 7.13212e-06 7.13214e-06 7.11097e-06 7.11098e-06 7.08933e-06 7.08934e-06 7.06719e-06 7.0672e-06 7.02213e-06 7.02214e-06
          6.97492e-06 6.97493e-06 6.92538e-06 6.9254e-06 6.87332e-06 6.87333e-06 6.81853e-06 6.81855e-06 6.74653e-06 6.74653e-06 6.66953e-06 6.66952e-06
          6.58702e-06 6.58702e-06 6.49839e-06 6.4984e-06 6.40302e-06 6.40302e-06 6.30016e-06 6.30015e-06 6.18894e-06 6.18893e-06 6.06844e-06 6.06842e-06
          5.93757e-06 5.93752e-06 5.79509e-06 5.79502e-06 5.63955e-06 5.63949e-06 5.46937e-06 5.46927e-06 5.28255e-06 5.28242e-06 5.07679e-06 5.07667e-06
          4.84952e-06 4.84933e-06 4.59741e-06 4.59716e-06 4.31645e-06 4.31611e-06 4.00163e-06 4.00117e-06 3.64649e-06 3.6459e-06 3.24201e-06 3.24128e-06
          2.77344e-06 2.77264e-06 2.21481e-06 2.2146e-06 1.5345e-06 1.5368e-06 0 0
        </DataArray>
        <DataArray type="Float32" Name="X_lSubstrate" NumberOfComponents="1" format="ascii">
          0.00279371 0.00279372 0.00278917 0.00278917 0.00278454 0.00278454 0.00277976 0.00277977 0.00277483 0.00277483 0.00276971 0.00276971
          0.00276442 0.00276442 0.00275893 0.00275893 0.00275324 0.00275325 0.00274735 0.00274735 0.00274125 0.00274125 0.00272859 0.00272859
          0.002715 0.00271501 0.00270043 0.00270043 0.00268477 0.00268477 0.00266795 0.00266796 0.00264536 0.00264536 0.00262065 0.00262064
          0.00259359 0.00259359 0.00256394 0.00256394 0.00253143 0.00253143 0.00249576 0.00249575 0.00245655 0.00245655 0.00241343 0.00241343
          0.00236594 0.00236593 0.00231357 0.00231354 0.0022557 0.00225568 0.00219168 0.00219164 0.00212067 0.00212062 0.00204172 0.00204168
          0.00195375 0.00195369 0.00185539 0.0018553 0.00174496 0.00174484 0.00162038 0.00162021 0.00147898 0.00147876 0.00131701 0.00131674
          0.0011284 0.00112811 0.000902448 0.000902402 0.000626029 0.000627005 0 0
        </DataArray>
        <DataArray type="Float32" Name="X_lSuspended_Biomass" NumberOfComponents="1" format="ascii">
          1.84708e-07 1.847e-07 1.91416e-07 1.91408e-07 1.97944e-07 1.97934e-07 2.04381e-07 2.04373e-07 2.10741e-07 2.10734e-07 2.1703e-07 2.17024e-07
          2.2325e-07 2.23244e-07 2.29402e-07 2.29395e-07 2.35481e-07 2.35475e-07 2.41486e-07 2.41481e-07 2.47418e-07 2.47412e-07 2.58838e-07 2.58832e-07
          2.69923e-07 2.69915e-07 2.8065e-07 2.80643e-07 2.91006e-07 2.90999e-07 3.00963e-07 3.00956e-07 3.12702e-07 3.12698e-07 3.23725e-07 3.23723e-07
          3.33972e-07 3.33968e-07 3.43376e-07 3.43373e-07 3.5186e-07 3.51858e-07 3.59341e-07 3.59341e-07 3.65725e-07 3.65725e-07 3.70904e-07 3.70905e-07
          3.74757e-07 3.7476e-07 3.77145e-07 3.77149e-07 3.7791e-07 3.77916e-07 3.76872e-07 3.76879e-07 3.7382e-07 3.73828e-07 3.68506e-07 3.68517e-07
          3.60645e-07 3.60656e-07 3.49891e-07 3.49901e-07 3.35823e-07 3.35832e-07 3.17922e-07 3.17928e-07 2.95525e-07 2.95529e-07 2.67732e-07 2.67736e-07
          2.33124e-07 2.33136e-07 1.89231e-07 1.89309e-07 1.32834e-07 1.33129e-07 0 0
        </DataArray>
        <DataArray type="Float32" Name="X_lNH4" NumberOfComponents="1" format="ascii">
          0.00373654 0.0037365 0.00375356 0.00375352 0.00377017 0.00377013 0.00378632 0.00378628 0.00380237 0.00380234 0.00381825 0.00381823
          0.00383382 0.0038338 0.00384916 0.00384913 0.00386431 0.00386428 0.00387934 0.00387931 0.00389405 0.00389402 0.00392239 0.00392237
          0.00394964 0.00394961 0.00397572 0.00397569 0.00400087 0.00400084 0.00402453 0.00402489 0.00405283 0.00405281 0.00407874 0.00407873
          0.00410234 0.00410233 0.00412417 0.00412416 0.0041428 0.00414279 0.00415911 0.00415911 0.00417299 0.00417299 0.00418319 0.00418319
          0.00418989 0.0041899 0.00419324 0.00419325 0.00419271 0.00419273 0.00418763 0.00418765 0.00417716 0.00417718 0.00416176 0.00416179
          0.00414052 0.00414054 0.00411253 0.00411255 0.00407711 0.00407711 0.00403289 0.00403287 0.00397908 0.00397904 0.00391384 0.00391377
          0.00383422 0.00383415 0.00373553 0.00373552 0.00361188 0.00361241 0.00333307 0.00333307
        </DataArray>
        <DataArray type="Float32" Name="X_lHCO3" NumberOfComponents="1" format="ascii">
          0.00152354 0.00152347 0.00157865 0.00157859 0.00163208 0.001632 0.00168455 0.00168449 0.00173621 0.00173615 0.00178709 0.00178705
          0.00183723 0.00183718 0.00188663 0.00188656 0.00193524 0.00193519 0.00198308 0.00198304 0.00203014 0.00203009 0.00212017 0.00212012
          0.0022068 0.00220674 0.00228987 0.00228982 0.00236929 0.00236924 0.00244486 0.00244481 0.00253282 0.00253278 0.00261409 0.00261407
          0.00268825 0.00268822 0.00275484 0.00275482 0.00281327 0.00281325 0.00286296 0.00286296 0.00290327 0.00290327 0.00293337 0.00293337
          0.0029524 0.00295242 0.00295943 0.00295945 0.00295332 0.00295335 0.00293279 0.00293283 0.00289634 0.00289639 0.00284232 0.00284238
          0.00276874 0.00276879 0.00267321 0.00267324 0.00255284 0.00255285 0.00240411 0.00240407 0.00222252 0.00222243 0.00200192 0.00200178
          0.00173248 0.00173234 0.00139691 0.00139718 0.000973347 0.000975185 3.37056e-07 3.37056e-07
        </DataArray>
        <DataArray type="Float32" Name="X_lCO3" NumberOfComponents="1" format="ascii">
          1.66965e-05 1.66958e-05 1.78325e-05 1.78317e-05 1.89602e-05 1.89593e-05 2.01049e-05 2.01042e-05 2.12534e-05 2.12526e-05 2.24088e-05 2.24082e-05
          2.3577e-05 2.35764e-05 2.47537e-05 2.47528e-05 2.59332e-05 2.59326e-05 2.71104e-05 2.71097e-05 2.82943e-05 2.82937e-05 3.06093e-05 3.06085e-05
          3.29116e-05 3.29106e-05 3.51896e-05 3.51887e-05 3.74146e-05 3.74137e-05 3.96033e-05 3.95776e-05 4.21684e-05 4.21678e-05 4.46172e-05 4.46169e-05
          4.69085e-05 4.6908e-05 4.8966e-05 4.89656e-05 5.08462e-05 5.0846e-05 5.24433e-05 5.24432e-05 5.37161e-05 5.37161e-05 5.47048e-05 5.47048e-05
          5.53399e-05 5.53402e-05 5.5552e-05 5.55525e-05 5.5316e-05 5.53167e-05 5.46133e-05 5.46141e-05 5.34322e-05 5.3433e-05 5.16581e-05 5.16592e-05
          4.92773e-05 4.92781e-05 4.62657e-05 4.62662e-05 4.25797e-05 4.25799e-05 3.82173e-05 3.82167e-05 3.31411e-05 3.31399e-05 2.73781e-05 2.73762e-05
          2.09847e-05 2.0983e-05 1.40663e-05 1.40746e-05 7.13327e-06 7.15901e-06 2.55591e-11 2.55591e-11
        </DataArray>
        <DataArray type="Float32" Name="X_lCO2" NumberOfComponents="1" format="ascii">
          1.058e-05 1.05795e-05 1.06359e-05 1.06354e-05 1.06919e-05 1.06913e-05 1.07419e-05 1.07415e-05 1.07942e-05 1.07938e-05 1.08465e-05 1.08462e-05
          1.08956e-05 1.08953e-05 1.09432e-05 1.09428e-05 1.09907e-05 1.09904e-05 1.10397e-05 1.10394e-05 1.10856e-05 1.10854e-05 1.11763e-05 1.1176e-05
          1.12612e-05 1.12609e-05 1.134e-05 1.13397e-05 1.14182e-05 1.14179e-05 1.14861e-05 1.14931e-05 1.15775e-05 1.15774e-05 1.16555e-05 1.16554e-05
          1.1724e-05 1.17239e-05 1.17947e-05 1.17946e-05 1.18453e-05 1.18453e-05 1.18939e-05 1.18939e-05 1.19413e-05 1.19413e-05 1.19697e-05 1.19698e-05
          1.19864e-05 1.19865e-05 1.19975e-05 1.19976e-05 1.19989e-05 1.19991e-05 1.19849e-05 1.1985e-05 1.19473e-05 1.19475e-05 1.19009e-05 1.19011e-05
          1.18383e-05 1.18385e-05 1.17538e-05 1.17539e-05 1.16471e-05 1.16472e-05 1.15086e-05 1.15084e-05 1.13422e-05 1.13418e-05 1.11395e-05 1.11387e-05
          1.08846e-05 1.08837e-05 1.05564e-05 1.05542e-05 1.0105e-05 1.01067e-05 3.38012e-07 3.38012e-07
        </DataArray>
        <DataArray type="Float32" Name="X_lH" NumberOfComponents="1" format="ascii">
          4.31465e-12 4.31465e-12 4.18621e-12 4.18621e-12 4.07063e-12 4.07063e-12 3.96238e-12 3.96238e-12 3.86332e-12 3.86332e-12 3.7716e-12 3.7716e-12
          3.68539e-12 3.68539e-12 3.60469e-12 3.60469e-12 3.52949e-12 3.52949e-12 3.45981e-12 3.45981e-12 3.3938e-12 3.3938e-12 3.27647e-12 3.27647e-12
          3.17201e-12 3.17201e-12 3.07856e-12 3.07856e-12 2.99615e-12 2.99615e-12 2.92109e-12 2.92293e-12 2.84243e-12 2.84243e-12 2.77298e-12 2.77298e-12
          2.71274e-12 2.71274e-12 2.66355e-12 2.66355e-12 2.6199e-12 2.6199e-12 2.58548e-12 2.58548e-12 2.56029e-12 2.56029e-12 2.54068e-12 2.54068e-12
          2.52847e-12 2.52847e-12 2.52554e-12 2.52554e-12 2.53189e-12 2.53189e-12 2.54755e-12 2.54755e-12 2.57254e-12 2.57254e-12 2.61241e-12 2.61241e-12
          2.66906e-12 2.66906e-12 2.74624e-12 2.74624e-12 2.8514e-12 2.8514e-12 2.99389e-12 2.9939e-12 3.19423e-12 3.19424e-12 3.48602e-12 3.48603e-12
          3.94017e-12 3.94018e-12 4.74515e-12 4.74329e-12 6.52781e-12 6.51662e-12 6.32454e-10 6.32454e-10
        </DataArray>
        <DataArray type="Float32" Name="X_lOH" NumberOfComponents="1" format="ascii">
          3.79956e-05 3.79956e-05 3.91635e-05 3.91634e-05 4.02777e-05 4.02777e-05 4.13803e-05 4.13803e-05 4.24438e-05 4.24438e-05 4.34785e-05 4.34785e-05
          4.44983e-05 4.44983e-05 4.54974e-05 4.54974e-05 4.64697e-05 4.64697e-05 4.74089e-05 4.74089e-05 4.83344e-05 4.83344e-05 5.00725e-05 5.00725e-05
          5.17297e-05 5.17297e-05 5.33087e-05 5.33087e-05 5.47849e-05 5.47849e-05 5.62034e-05 5.61681e-05 5.77736e-05 5.77736e-05 5.92373e-05 5.92373e-05
          6.05715e-05 6.05715e-05 6.17109e-05 6.17109e-05 6.27622e-05 6.27622e-05 6.36235e-05 6.36235e-05 6.4278e-05 6.4278e-05 6.4806e-05 6.4806e-05
          6.51538e-05 6.51538e-05 6.52681e-05 6.52681e-05 6.5147e-05 6.5147e-05 6.47934e-05 6.47935e-05 6.42156e-05 6.42156e-05 6.32918e-05 6.32918e-05
          6.20099e-05 6.20099e-05 6.03341e-05 6.03341e-05 5.81812e-05 5.81813e-05 5.54898e-05 5.54898e-05 5.20922e-05 5.20922e-05 4.78188e-05 4.78189e-05
          4.23967e-05 4.23968e-05 3.52937e-05 3.53075e-05 2.57348e-05 2.57787e-05 2.67481e-07 2.67481e-07
        </DataArray>
        <DataArray type="Float32" Name="X_gBrine" NumberOfComponents="1" format="ascii">
          0.0065009 0.0064936 0.00653678 0.0065368 0.00658274 0.00658278 0.00662989 0.0066299 0.00667796 0.00667796 0.00672684 0.00672682
          0.00677645 0.00677644 0.00682674 0.00682677 0.00687781 0.00687781 0.00692962 0.00692962 0.00698218 0.00698218 0.00708949 0.00708948
          0.00719993 0.00719995 0.00731368 0.00731369 0.00743065 0.00743065 0.00755098 0.00755101 0.00770626 0.00770623 0.00786695 0.0078669
          0.00803319 0.0080332 0.00820498 0.008205 0.00838249 0.00838248 0.00856566 0.00856564 0.00875438 0.00875438 0.00894858 0.00894859
          0.00914808 0.00914804 0.00935264 0.00935258 0.0095618 0.00956181 0.00977527 0.00977522 0.00999219 0.00999213 0.0102117 0.0102117
          0.010433 0.010433 0.0106547 0.0106547 0.0108751 0.0108751 0.0110922 0.0110922 0.0113036 0.0113035 0.0115055 0.0115055
          0.011692 0.0116919 0.0118544 0.0118543 0.0119911 0.0119911 0.0120698 0.0120698
        </DataArray>
        <DataArray type="Float32" Name="X_gTotalC" NumberOfComponents="1" format="ascii">
          0.993499 0.993506 0.993463 0.993463 0.993417 0.993417 0.99337 0.99337 0.993322 0.993322 0.993273 0.993273
          0.993224 0.993224 0.993173 0.993173 0.993122 0.993122 0.99307 0.99307 0.993018 0.993018 0.992911 0.992911
          0.9928 0.9928 0.992686 0.992686 0.992569 0.992569 0.992449 0.992449 0.992294 0.992294 0.992133 0.992133
          0.991967 0.991967 0.991795 0.991795 0.991618 0.991618 0.991434 0.991434 0.991246 0.991246 0.991051 0.991051
          0.990852 0.990852 0.990647 0.990647 0.990438 0.990438 0.990225 0.990225 0.990008 0.990008 0.989788 0.989788
          0.989567 0.989567 0.989345 0.989345 0.989125 0.989125 0.988908 0.988908 0.988696 0.988697 0.988494 0.988495
          0.988308 0.988308 0.988146 0.988146 0.988009 0.988009 0.98793 0.98793
        </DataArray>
        <DataArray type="Float32" Name="X_gNa" NumberOfComponents="1" format="ascii">
          0 0 0 0 0 0 0 0 0 0 0 0
          0 0 0 0 0 0 0 0 0 0 0 0
          0 0 0 0 0 0 0 0 0 0 0 0
          0 0 0 0 0 0 0 0 0 0 0 0
          0 0 0 0 0 0 0 0 0 0 0 0
          0 0 0 0 0 0 0 0 0 0 0 0
          0 0 0 0 0 0 0 0
        </DataArray>
        <DataArray type="Float32" Name="X_gCl" NumberOfComponents="1" format="ascii">
          0 0 0 0 0 0 0 0 0 0 0 0
          0 0 0 0 0 0 0 0 0 0 0 0
          0 0 0 0 0 0 0 0 0 0 0 0
          0 0 0 0 0 0 0 0 0 0 0 0
          0 0 0 0 0 0 0 0 0 0 0 0
          0 0 0 0 0 0 0 0 0 0 0 0
          0 0 0 0 0 0 0 0
        </DataArray>
        <DataArray type="Float32" Name="X_gCa" NumberOfComponents="1" format="ascii">
          0 0 0 0 0 0 0 0 0 0 0 0
          0 0 0 0 0 0 0 0 0 0 0 0
          0 0 0 0 0 0 0 0 0 0 0 0
          0 0 0 0 0 0 0 0 0 0 0 0
          0 0 0 0 0 0 0 0 0 0 0 0
          0 0 0 0 0 0 0 0 0 0 0 0
          0 0 0 0 0 0 0 0
        </DataArray>
        <DataArray type="Float32" Name="X_gUrea" NumberOfComponents="1" format="ascii">
          0 0 0 0 0 0 0 0 0 0 0 0
          0 0 0 0 0 0 0 0 0 0 0 0
          0 0 0 0 0 0 0 0 0 0 0 0
          0 0 0 0 0 0 0 0 0 0 0 0
          0 0 0 0 0 0 0 0 0 0 0 0
          0 0 0 0 0 0 0 0 0 0 0 0
          0 0 0 0 0 0 0 0
        </DataArray>
        <DataArray type="Float32" Name="X_gTotalNH" NumberOfComponents="1" format="ascii">
          0 0 0 0 0 0 0 0 0 0 0 0
          0 0 0 0 0 0 0 0 0 0 0 0
          0 0 0 0 0 0 0 0 0 0 0 0
          0 0 0 0 0 0 0 0 0 0 0 0
          0 0 0 0 0 0 0 0 0 0 0 0
          0 0 0 0 0 0 0 0 0 0 0 0
          0 0 0 0 0 0 0 0
        </DataArray>
        <DataArray type="Float32" Name="X_gO2" NumberOfComponents="1" format="ascii">
          0 0 0 0 0 0 0 0 0 0 0 0
          0 0 0 0 0 0 0 0 0 0 0 0
          0 0 0 0 0 0 0 0 0 0 0 0
          0 0 0 0 0 0 0 0 0 0 0 0
          0 0 0 0 0 0 0 0 0 0 0 0
          0 0 0 0 0 0 0 0 0 0 0 0
          0 0 0 0 0 0 0 0
        </DataArray>
        <DataArray type="Float32" Name="X_gSubstrate" NumberOfComponents="1" format="ascii">
          0 0 0 0 0 0 0 0 0 0 0 0
          0 0 0 0 0 0 0 0 0 0 0 0
          0 0 0 0 0 0 0 0 0 0 0 0
          0 0 0 0 0 0 0 0 0 0 0 0
          0 0 0 0 0 0 0 0 0 0 0 0
          0 0 0 0 0 0 0 0 0 0 0 0
          0 0 0 0 0 0 0 0
        </DataArray>
        <DataArray type="Float32" Name="X_gSuspended_Biomass" NumberOfComponents="1" format="ascii">
          0 0 0 0 0 0 0 0 0 0 0 0
          0 0 0 0 0 0 0 0 0 0 0 0
          0 0 0 0 0 0 0 0 0 0 0 0
          0 0 0 0 0 0 0 0 0 0 0 0
          0 0 0 0 0 0 0 0 0 0 0 0
          0 0 0 0 0 0 0 0 0 0 0 0
          0 0 0 0 0 0 0 0
        </DataArray>
        <DataArray type="Float32" Name="X_gNH4" NumberOfComponents="1" format="ascii">
          0 0 0 0 0 0 0 0 0 0 0 0
          0 0 0 0 0 0 0 0 0 0 0 0
          0 0 0 0 0 0 0 0 0 0 0 0
          0 0 0 0 0 0 0 0 0 0 0 0
          0 0 0 0 0 0 0 0 0 0 0 0
          0 0 0 0 0 0 0 0 0 0 0 0
          0 0 0 0 0 0 0 0
        </DataArray>
        <DataArray type="Float32" Name="X_gHCO3" NumberOfComponents="1" format="ascii">
          0 0 0 0 0 0 0 0 0 0 0 0
          0 0 0 0 0 0 0 0 0 0 0 0
          0 0 0 0 0 0 0 0 0 0 0 0
          0 0 0 0 0 0 0 0 0 0 0 0
          0 0 0 0 0 0 0 0 0 0 0 0
          0 0 0 0 0 0 0 0 0 0 0 0
          0 0 0 0 0 0 0 0
        </DataArray>
        <DataArray type="Float32" Name="X_gCO3" NumberOfComponents="1" format="ascii">
          0 0 0 0 0 0 0 0 0 0 0 0
          0 0 0 0 0 0 0 0 0 0 0 0
          0 0 0 0 0 0 0 0 0 0 0 0
          0 0 0 0 0 0 0 0 0 0 0 0
          0 0 0 0 0 0 0 0 0 0 0 0
          0 0 0 0 0 0 0 0 0 0 0 0
          0 0 0 0 0 0 0 0
        </DataArray>
        <DataArray type="Float32" Name="X_gCO2" NumberOfComponents="1" format="ascii">
          0.993499 0.993506 0.993463 0.993463 0.993417 0.993417 0.99337 0.99337 0.993322 0.993322 0.993273 0.993273
          0.993224 0.993224 0.993173 0.993173 0.993122 0.993122 0.99307 0.99307 0.993018 0.993018 0.992911 0.992911
          0.9928 0.9928 0.992686 0.992686 0.992569 0.992569 0.992449 0.992449 0.992294 0.992294 0.992133 0.992133
          0.991967 0.991967 0.991795 0.991795 0.991618 0.991618 0.991434 0.991434 0.991246 0.991246 0.991051 0.991051
          0.990852 0.990852 0.990647 0.990647 0.990438 0.990438 0.990225 0.990225 0.990008 0.990008 0.989788 0.989788
          0.989567 0.989567 0.989345 0.989345 0.989125 0.989125 0.988908 0.988908 0.988696 0.988697 0.988494 0.988495
          0.988308 0.988308 0.988146 0.988146 0.988009 0.988009 0.98793 0.98793
        </DataArray>
        <DataArray type="Float32" Name="X_gH" NumberOfComponents="1" format="ascii">
          0 0 0 0 0 0 0 0 0 0 0 0
          0 0 0 0 0 0 0 0 0 0 0 0
          0 0 0 0 0 0 0 0 0 0 0 0
          0 0 0 0 0 0 0 0 0 0 0 0
          0 0 0 0 0 0 0 0 0 0 0 0
          0 0 0 0 0 0 0 0 0 0 0 0
          0 0 0 0 0 0 0 0
        </DataArray>
        <DataArray type="Float32" Name="X_gOH" NumberOfComponents="1" format="ascii">
          0 0 0 0 0 0 0 0 0 0 0 0
          0 0 0 0 0 0 0 0 0 0 0 0
          0 0 0 0 0 0 0 0 0 0 0 0
          0 0 0 0 0 0 0 0 0 0 0 0
          0 0 0 0 0 0 0 0 0 0 0 0
          0 0 0 0 0 0 0 0 0 0 0 0
          0 0 0 0 0 0 0 0
        </DataArray>
        <DataArray type="Float32" Name="Molarity_Brine" NumberOfComponents="1" format="ascii">
          53852.6 53852.6 53854 53854 53855.5 53855.5 53857.1 53857.1 53858.7 53858.7 53860.4 53860.4
          53862.2 53862.2 53864 53864 53866 53866 53868.1 53868.1 53870.2 53870.2 53874.8 53874.8
          53879.7 53879.7 53885.1 53885.1 53891 53891 53897.4 53897.4 53906.2 53906.2 53915.9 53915.9
          53926.7 53926.7 53938.6 53938.6 53951.8 53951.8 53966.5 53966.5 53982.7 53982.7 54000.7 54000.7
          54020.6 54020.6 54042.7 54042.7 54067.2 54067.2 54094.5 54094.5 54124.9 54124.9 54158.8 54158.8
          54196.7 54196.8 54239.3 54239.3 54287.1 54287.2 54341.2 54341.3 54402.7 54402.8 54473.3 54473.5
          54555.7 54555.8 54654.4 54654.4 54775.3 54774.8 55049.2 55049.2
        </DataArray>
        <DataArray type="Float32" Name="Molarity_TotalC" NumberOfComponents="1" format="ascii">
          25.529 25.5279 26.4541 26.453 27.3514 27.3501 28.2332 28.2322 29.1018 29.1008 29.9578 29.957
          30.8016 30.8008 31.6335 31.6324 32.4526 32.4517 33.2589 33.2581 34.0524 34.0516 35.5715 35.5707
          37.0345 37.0335 38.4385 38.4376 39.7817 39.7807 41.0607 41.0597 42.5502 42.5495 43.9276 43.9272
          45.1853 45.1849 46.3151 46.3147 47.3072 47.3069 48.1512 48.1511 48.8356 48.8355 49.347 49.3471
          49.6707 49.6709 49.7898 49.7903 49.6856 49.6862 49.3363 49.337 48.7172 48.718 47.7992 47.8002
          46.5495 46.5503 44.9283 44.9288 42.8876 42.8877 40.3689 40.3683 37.2983 37.2969 33.575 33.5727
          29.0383 29.0359 23.4056 23.41 16.3259 16.3565 0.0132254 0.0132254
        </DataArray>
        <DataArray type="Float32" Name="Molarity_Na" NumberOfComponents="1" format="ascii">
          0.160537 0.160537 0.160539 0.160539 0.160542 0.160542 0.160545 0.160545 0.160549 0.160549 0.160552 0.160552
          0.160555 0.160555 0.160559 0.160559 0.160563 0.160563 0.160567 0.160567 0.160572 0.160572 0.160581 0.160581
          0.160592 0.160592 0.160603 0.160603 0.160616 0.160616 0.16063 0.16063 0.160649 0.160649 0.16067 0.16067
          0.160694 0.160694 0.16072 0.16072 0.16075 0.16075 0.160782 0.160782 0.160819 0.160819 0.16086 0.16086
          0.160905 0.160905 0.160955 0.160955 0.161012 0.161012 0.161074 0.161074 0.161144 0.161144 0.161223 0.161223
          0.16131 0.161311 0.161409 0.161409 0.16152 0.16152 0.161646 0.161646 0.161789 0.16179 0.161954 0.161954
          0.162146 0.162146 0.162377 0.162377 0.162659 0.162658 0.1633 0.1633
        </DataArray>
        <DataArray type="Float32" Name="Molarity_Cl" NumberOfComponents="1" format="ascii">
          182.084 182.084 182.088 182.088 182.093 182.093 182.098 182.098 182.102 182.102 182.108 182.108
          182.113 182.113 182.119 182.119 182.125 182.125 182.131 182.131 182.137 182.137 182.151 182.151
          182.165 182.165 182.181 182.181 182.198 182.198 182.216 182.216 182.241 182.241 182.268 182.268
          182.299 182.299 182.332 182.332 182.368 182.368 182.408 182.408 182.452 182.452 182.5 182.5
          182.554 182.554 182.612 182.613 182.677 182.677 182.749 182.749 182.829 182.829 182.917 182.917
          183.016 183.016 183.126 183.126 183.249 183.249 183.388 183.388 183.546 183.546 183.726 183.727
          183.937 183.937 184.188 184.188 184.496 184.495 185.193 185.193
        </DataArray>
        <DataArray type="Float32" Name="Molarity_Ca" NumberOfComponents="1" format="ascii">
          0.00908004 0.00907981 0.0093068 0.00930682 0.00938329 0.00938332 0.0093797 0.00937975 0.00936338 0.00936343 0.00934649 0.00934652
          0.00932897 0.009329 0.00931081 0.00931084 0.00929199 0.00929201 0.00927249 0.0092725 0.00925228 0.00925229 0.00921041 0.00921042
          0.00916567 0.00916568 0.00911805 0.00911807 0.0090676 0.00906762 0.00901451 0.00901454 0.00894545 0.00894546 0.0088736 0.00887359
          0.00880002 0.00880003 0.00872605 0.00872606 0.00865315 0.00865316 0.00858293 0.00858293 0.00851699 0.00851698 0.0084568 0.0084568
          0.00840376 0.00840373 0.00835897 0.00835893 0.00832318 0.00832314 0.00829674 0.00829669 0.00827956 0.0082795 0.00827113 0.00827109
          0.00827053 0.00827052 0.00827652 0.00827656 0.00828773 0.00828789 0.00830286 0.00830332 0.00832091 0.00832213 0.00834122 0.00834443
          0.00836325 0.00837179 0.00785017 0.00787184 0.00586887 0.00589729 0 0
        </DataArray>
        <DataArray type="Float32" Name="Molarity_Urea" NumberOfComponents="1" format="ascii">
          282.334 282.336 280.911 280.912 279.505 279.507 278.1 278.101 276.689 276.69 275.271 275.272
          273.846 273.847 272.411 272.412 270.967 270.968 269.513 269.514 268.049 268.05 265.138 265.139
          262.18 262.182 259.172 259.174 256.106 256.108 252.976 252.978 249 249 244.9 244.9
          240.662 240.663 236.266 236.267 231.692 231.692 226.917 226.917 221.912 221.912 216.648 216.648
          211.091 211.088 205.198 205.195 198.924 198.921 192.216 192.211 185.007 185.002 177.222 177.217
          168.775 168.767 159.554 159.543 149.422 149.408 138.209 138.191 125.693 125.671 111.565 111.538
          95.3154 95.285 76.0468 76.0373 52.6652 52.7422 0 0
        </DataArray>
        <DataArray type="Float32" Name="Molarity_TotalNH" NumberOfComponents="1" format="ascii">
          233.098 233.096 234.952 234.95 236.751 236.749 238.52 238.518 240.262 240.26 241.979 241.977
          243.672 243.67 245.341 245.339 246.986 246.984 248.604 248.603 250.198 250.196 253.25 253.248
          256.19 256.188 259.014 259.012 261.717 261.716 264.294 264.292 267.298 267.297 270.08 270.08
          272.626 272.625 274.919 274.918 276.939 276.939 278.668 278.667 280.08 280.08 281.152 281.152
          281.853 281.853 282.15 282.151 282.006 282.007 281.379 281.381 280.221 280.222 278.473 278.475
          276.072 276.074 272.94 272.941 268.982 268.982 264.083 264.082 258.1 258.097 250.834 250.829
          241.97 241.966 230.957 230.966 217.11 217.17 185.193 185.193
        </DataArray>
        <DataArray type="Float32" Name="Molarity_O2" NumberOfComponents="1" format="ascii">
          0.227521 0.227522 0.226937 0.226938 0.226352 0.226353 0.225757 0.225758 0.225151 0.225151 0.224532 0.224532
          0.2239 0.2239 0.223253 0.223254 0.222593 0.222593 0.221917 0.221917 0.221225 0.221225 0.219817 0.219818
          0.218342 0.218342 0.216793 0.216794 0.215166 0.215166 0.213453 0.213453 0.211201 0.211201 0.208793 0.208793
          0.206212 0.206212 0.203439 0.20344 0.200455 0.200455 0.197236 0.197236 0.193755 0.193755 0.189984 0.189983
          0.185887 0.185885 0.181427 0.181424 0.176557 0.176555 0.171229 0.171225 0.165379 0.165375 0.158936 0.158932
          0.15182 0.151814 0.143926 0.143918 0.135128 0.135117 0.12527 0.125255 0.114149 0.114131 0.101485 0.101462
          0.0868143 0.0867889 0.0693249 0.0693185 0.0480284 0.0481003 0 0
        </DataArray>
        <DataArray type="Float32" Name="Molarity_Substrate" NumberOfComponents="1" format="ascii">
          15.5322 15.5322 15.507 15.507 15.4814 15.4814 15.4549 15.455 15.4276 15.4276 15.3993 15.3993
          15.3699 15.3699 15.3395 15.3395 15.308 15.308 15.2753 15.2753 15.2415 15.2415 15.1713 15.1713
          15.0959 15.0959 15.015 15.015 14.9281 14.9282 14.8348 14.8348 14.7093 14.7093 14.5721 14.572
          14.4218 14.4218 14.257 14.257 14.0764 14.0764 13.8781 13.878 13.6602 13.6601 13.4204 13.4204
          13.1564 13.1563 12.8651 12.865 12.5433 12.5432 12.1873 12.1871 11.7924 11.7921 11.3533 11.3531
          10.864 10.8637 10.317 10.3164 9.70274 9.70206 9.00987 9.00892 8.22341 8.22219 7.32266 7.32113
          6.27376 6.2721 5.01727 5.01701 3.4803 3.48572 0 0
        </DataArray>
        <DataArray type="Float32" Name="Molarity_Suspended_Biomass" NumberOfComponents="1" format="ascii">
          0.00018501 0.000185001 0.00019173 0.000191721 0.00019827 0.00019826 0.000204719 0.000204711 0.000211091 0.000211084 0.000217392 0.000217386
          0.000223624 0.000223618 0.000229788 0.00022978 0.000235878 0.000235872 0.000241895 0.00024189 0.000247838 0.000247832 0.000259281 0.000259275
          0.000270388 0.00027038 0.000281137 0.00028113 0.000291513 0.000291506 0.000301491 0.000301484 0.000313254 0.00031325 0.0003243 0.000324298
          0.000334568 0.000334565 0.000343992 0.000343989 0.000352494 0.000352492 0.000359991 0.000359991 0.000366389 0.000366389 0.000371579 0.00037158
          0.000375439 0.000375442 0.000377832 0.000377837 0.000378599 0.000378605 0.000377557 0.000377565 0.000374498 0.000374506 0.000369171 0.000369182
          0.000361293 0.000361304 0.000350516 0.000350526 0.000336417 0.000336426 0.000318478 0.000318484 0.000296035 0.000296039 0.000268187 0.00026819
          0.000233512 0.000233524 0.000189538 0.000189615 0.000133042 0.000133338 0 0
        </DataArray>
        <DataArray type="Float32" Name="Molarity_NH4" NumberOfComponents="1" format="ascii">
          207.475 207.473 208.421 208.419 209.345 209.343 210.243 210.241 211.136 211.135 212.019 212.018
          212.885 212.884 213.738 213.737 214.581 214.579 215.417 215.416 216.235 216.234 217.812 217.81
          219.327 219.326 220.778 220.776 222.177 222.175 223.493 223.513 225.067 225.066 226.508 226.508
          227.821 227.821 229.036 229.035 230.072 230.072 230.979 230.979 231.751 231.751 232.319 232.319
          232.692 232.692 232.878 232.878 232.848 232.849 232.565 232.566 231.983 231.984 231.126 231.127
          229.944 229.945 228.387 228.388 226.416 226.416 223.956 223.955 220.963 220.961 217.334 217.33
          212.905 212.901 207.416 207.416 200.54 200.569 185.037 185.037
        </DataArray>
        <DataArray type="Float32" Name="Molarity_HCO3" NumberOfComponents="1" format="ascii">
          25.0098 25.0087 25.9147 25.9136 26.7919 26.7906 27.6535 27.6525 28.5017 28.5008 29.3372 29.3365
          30.1605 30.1597 30.9716 30.9705 31.7699 31.7691 32.5555 32.5547 33.3282 33.3274 34.8066 34.8058
          36.2293 36.2283 37.5934 37.5925 38.8977 38.8967 40.1386 40.1379 41.5832 41.5826 42.918 42.9176
          44.1359 44.1355 45.2298 45.2294 46.1893 46.189 47.0055 47.0055 47.6676 47.6676 48.1619 48.162
          48.4746 48.4748 48.5899 48.5904 48.4896 48.4902 48.1523 48.153 47.5538 47.5546 46.6665 46.6675
          45.458 45.4587 43.8889 43.8894 41.9122 41.9123 39.4695 39.4689 36.4873 36.486 32.8648 32.8626
          28.4406 28.4383 22.9308 22.9352 15.977 16.0072 0.00553194 0.00553194
        </DataArray>
        <DataArray type="Float32" Name="Molarity_CO3" NumberOfComponents="1" format="ascii">
          0.278687 0.278675 0.29765 0.297637 0.316475 0.31646 0.335585 0.335572 0.354756 0.354745 0.374045 0.374036
          0.393548 0.393538 0.413191 0.413177 0.432883 0.432872 0.452535 0.452524 0.472301 0.47229 0.510949 0.510937
          0.549387 0.549371 0.58742 0.587405 0.624568 0.624553 0.661112 0.660683 0.70394 0.703929 0.744827 0.744822
          0.783085 0.783077 0.81744 0.817433 0.848835 0.84883 0.875502 0.875501 0.896755 0.896755 0.913264 0.913266
          0.923869 0.923874 0.927412 0.92742 0.92347 0.923482 0.911738 0.911751 0.892014 0.892029 0.862392 0.86241
          0.822637 0.822651 0.772352 0.772361 0.710808 0.71081 0.637972 0.637962 0.553221 0.5532 0.457006 0.456975
          0.350273 0.350245 0.234782 0.23492 0.119056 0.119486 4.26535e-07 4.26535e-07
        </DataArray>
        <DataArray type="Float32" Name="Molarity_CO2" NumberOfComponents="1" format="ascii">
          0.240847 0.240836 0.242121 0.242111 0.243397 0.243385 0.244537 0.244528 0.24573 0.245722 0.246922 0.246915
          0.248041 0.248034 0.249126 0.249118 0.25021 0.250203 0.251327 0.25132 0.252374 0.252368 0.254441 0.254435
          0.256377 0.25637 0.258174 0.258167 0.259957 0.259951 0.261507 0.261666 0.263591 0.263587 0.265368 0.265367
          0.266931 0.266929 0.268543 0.268541 0.269698 0.269696 0.270805 0.270804 0.271885 0.271885 0.272534 0.272535
          0.272914 0.272915 0.273166 0.273169 0.273199 0.273203 0.272879 0.272883 0.272021 0.272026 0.270963 0.270968
          0.269536 0.26954 0.267608 0.267611 0.265175 0.265176 0.262016 0.262012 0.258222 0.258212 0.2536 0.253583
          0.247789 0.247768 0.240306 0.240258 0.230018 0.230058 0.00769319 0.00769319
        </DataArray>
        <DataArray type="Float32" Name="Molarity_H" NumberOfComponents="1" format="ascii">
          4.28765e-06 4.28765e-06 4.16005e-06 4.16005e-06 4.04521e-06 4.04521e-06 3.93767e-06 3.93767e-06 3.83925e-06 3.83925e-06 3.74813e-06 3.74813e-06
          3.66248e-06 3.66248e-06 3.5823e-06 3.5823e-06 3.5076e-06 3.5076e-06 3.43837e-06 3.43837e-06 3.37279e-06 3.37279e-06 3.25623e-06 3.25623e-06
          3.15244e-06 3.15244e-06 3.05961e-06 3.05961e-06 2.97773e-06 2.97773e-06 2.90316e-06 2.90499e-06 2.82502e-06 2.82502e-06 2.75603e-06 2.75603e-06
          2.69618e-06 2.69618e-06 2.64731e-06 2.64731e-06 2.60395e-06 2.60395e-06 2.56975e-06 2.56975e-06 2.54474e-06 2.54474e-06 2.52525e-06 2.52525e-06
          2.51312e-06 2.51312e-06 2.51021e-06 2.51021e-06 2.51652e-06 2.51652e-06 2.53208e-06 2.53208e-06 2.5569e-06 2.5569e-06 2.59651e-06 2.59652e-06
          2.6528e-06 2.6528e-06 2.72947e-06 2.72947e-06 2.83394e-06 2.83394e-06 2.9755e-06 2.97551e-06 3.17454e-06 3.17455e-06 3.46443e-06 3.46444e-06
          3.91564e-06 3.91564e-06 4.7154e-06 4.71355e-06 6.48654e-06 6.47543e-06 0.000628379 0.000628379
        </DataArray>
        <DataArray type="Float32" Name="Molarity_OH" NumberOfComponents="1" format="ascii">
          0.00223876 0.00223876 0.00230759 0.00230759 0.00237326 0.00237326 0.00243824 0.00243824 0.00250093 0.00250093 0.00256191 0.00256191
          0.00262202 0.00262202 0.00268091 0.00268091 0.00273822 0.00273822 0.00279358 0.00279358 0.00284813 0.00284813 0.00295059 0.00295059
          0.00304827 0.00304827 0.00314135 0.00314135 0.00322837 0.00322837 0.003312 0.00330992 0.00340457 0.00340457 0.00349086 0.00349086
          0.00356952 0.00356952 0.0036367 0.0036367 0.00369868 0.00369868 0.00374947 0.00374947 0.00378805 0.00378805 0.00381918 0.00381918
          0.00383969 0.00383969 0.00384643 0.00384643 0.00383929 0.00383929 0.00381844 0.00381845 0.00378437 0.00378437 0.0037299 0.0037299
          0.00365432 0.00365432 0.00355552 0.00355552 0.0034286 0.0034286 0.00326993 0.00326993 0.00306964 0.00306965 0.00281775 0.00281775
          0.00249816 0.00249816 0.00207954 0.00208035 0.00151624 0.00151883 1.57575e-05 1.57575e-05
        </DataArray>
        <DataArray type="Float32" Name="Da_ureolysis" NumberOfComponents="1" format="ascii">
          0 0 0 0 0 0 0 0 0 0 0 0
          0 0 0 0 0 0 0 0 0 0 0 0
          0 0 0 0 0 0 0 0 0 0 0 0
          0 0 0 0 0 0 0 0 0 0 0 0
          0 0 0 0 0 0 0 0 0 0 0 0
          0 0 0 0 0 0 0 0 0 0 0 0
          0 0 0 0 0 0 0 0
        </DataArray>
        <DataArray type="Float32" Name="Da_precipitation" NumberOfComponents="1" format="ascii">
          0 0 0 0 0 0 0 0 7.48173e-06 7.45836e-06 0.000101904 0.000101766
          0.000430666 0.000430006 0.00116962 0.00116822 0.00250749 0.00250471 0.00463317 0.0046279 0.0077712 0.0077646 0.017571 0.0175542
          0.0333971 0.0333633 0.0564288 0.0563805 0.0872298 0.0871441 0.126749 0.126065 0.185326 0.185195 0.254985 0.254832
          0.332365 0.332223 0.411466 0.411348 0.491857 0.491699 0.564095 0.564028 0.622649 0.622573 0.666592 0.66665
          0.690109 0.6903 0.687311 0.687679 0.657476 0.658 0.602438 0.603231 0.525991 0.52668 0.429141 0.429973
          0.322094 0.322761 0.216051 0.216587 0.122959 0.12333 0.0538363 0.0540419 0.0141394 0.0142126 0.000844306 0.000854088
          0 0 0 0 0 0 0 0
        </DataArray>
        <DataArray type="Float32" Name="Vx" NumberOfComponents="1" format="ascii">
          8.04345e-08 8.04525e-08 8.13178e-08 8.13353e-08 9.15855e-08 9.16324e-08 4.23234e-08 4.23682e-08 -2.27701e-09 -2.28124e-09 -3.2587e-08 -3.26102e-08
          -8.05463e-09 -8.062e-09 4.27392e-08 4.27675e-08 1.61863e-08 1.62069e-08 -5.60552e-09 -5.60959e-09 -3.48698e-09 -3.49079e-09 -1.88814e-09 -1.88722e-09
          2.19048e-08 2.19176e-08 1.20005e-08 1.20104e-08 8.12566e-09 8.13579e-09 2.64102e-08 2.64227e-08 -4.08165e-08 -4.08436e-08 -7.49493e-08 -7.49817e-08
          -9.96708e-10 -9.95809e-10 1.96929e-08 1.96968e-08 -1.90767e-08 -1.9081e-08 -3.46945e-08 -3.46995e-08 -5.27933e-09 -5.27937e-09 9.58649e-10 9.56954e-10
          -6.29203e-08 -6.29082e-08 -8.19367e-08 -8.18996e-08 -2.74003e-08 -2.73626e-08 -6.74183e-08 -6.73437e-08 -7.20688e-08 -7.19743e-08 -1.54814e-08 -1.54268e-08
          -5.89537e-08 -5.88438e-08 -8.48732e-08 -8.46693e-08 -9.36425e-08 -9.33576e-08 -1.25148e-07 -1.24711e-07 -1.40257e-07 -1.39645e-07 -1.74346e-07 -1.734e-07
          -2.58161e-07 -2.56518e-07 -2.60459e-07 -2.58526e-07 -1.18579e-07 -1.1736e-07 -2.39705e-07 -2.39049e-07
        </DataArray>
        <DataArray type="Float32" Name="Vy" NumberOfComponents="1" format="ascii">
          0.000352409 0.00035246 0.000345937 0.000346028 0.000347511 0.000347702 0.000347458 0.000347729 0.000347597 0.000347889 0.000347522 0.000347792
          0.000347641 0.00034788 0.000347599 0.000347862 0.000347585 0.000347888 0.000347516 0.00034782 0.000347475 0.000347736 0.000347675 0.000347901
          0.000347501 0.000347745 0.00034746 0.000347739 0.000347613 0.000347903 0.000347207 0.00034752 0.000347553 0.00034784 0.000347389 0.000347546
          0.000347467 0.000347544 0.000347494 0.000347602 0.000347278 0.000347388 0.000347413 0.000347463 0.000347259 0.000347267 0.000347298 0.00034731
          0.000347194 0.000347149 0.000347201 0.000346998 0.000347213 0.000346905 0.000347025 0.000346633 0.000347147 0.000346602 0.000347015 0.00034639
          0.000346788 0.000346097 0.000346806 0.000345967 0.000346603 0.00034559 0.000346529 0.0003453 0.00034605 0.000344557 0.000345194 0.0003434
          0.000344776 0.000342555 0.000349268 0.000346516 0.000316941 0.000313818 0.00220316 0.00219994
        </DataArray>
      </PointData>
      <CellData Scalars="process rank">
        <DataArray type="Float32" Name="process rank" NumberOfComponents="1" format="ascii">
          0 0 0 0 0 0 0 0 0 0 0 0
          0 0 0 0 0 0 0 0 0 0 0 0
          0 0 0 0 0 0 0 0 0 0 0 0
          0 0 0
        </DataArray>
      </CellData>
      <Points>
        <DataArray type="Float32" Name="Coordinates" NumberOfComponents="3" format="ascii">
          0 0 0 0.0254 0 0 0 0.01 0 0.0254 0.01 0
          0 0.02 0 0.0254 0.02 0 0 0.03 0 0.0254 0.03 0
          0 0.04 0 0.0254 0.04 0 0 0.05 0 0.0254 0.05 0
          0 0.06 0 0.0254 0.06 0 0 0.07 0 0.0254 0.07 0
          0 0.08 0 0.0254 0.08 0 0 0.09 0 0.0254 0.09 0
          0 0.1 0 0.0254 0.1 0 0 0.12 0 0.0254 0.12 0
          0 0.14 0 0.0254 0.14 0 0 0.16 0 0.0254 0.16 0
          0 0.18 0 0.0254 0.18 0 0 0.2 0 0.0254 0.2 0
          0 0.225 0 0.0254 0.225 0 0 0.25 0 0.0254 0.25 0
          0 0.275 0 0.0254 0.275 0 0 0.3 0 0.0254 0.3 0
          0 0.325 0 0.0254 0.325 0 0 0.35 0 0.0254 0.35 0
          0 0.375 0 0.0254 0.375 0 0 0.4 0 0.0254 0.4 0
          0 0.425 0 0.0254 0.425 0 0 0.45 0 0.0254 0.45 0
          0 0.475 0 0.0254 0.475 0 0 0.5 0 0.0254 0.5 0
          0 0.525 0 0.0254 0.525 0 0 0.55 0 0.0254 0.55 0
          0 0.575 0 0.0254 0.575 0 0 0.6 0 0.0254 0.6 0
          0 0.625 0 0.0254 0.625 0 0 0.65 0 0.0254 0.65 0
          0 0.675 0 0.0254 0.675 0 0 0.7 0 0.0254 0.7 0
          0 0.725 0 0.0254 0.725 0 0 0.75 0 0.0254 0.75 0
          0 0.775 0 0.0254 0.775 0 0 0.8 0 0.0254 0.8 0
        </DataArray>
      </Points>
      <Cells>
        <DataArray type="Int32" Name="connectivity" NumberOfComponents="1" format="ascii">
          0 1 3 2 2 3 5 4 4 5 7 6
          6 7 9 8 8 9 11 10 10 11 13 12
          12 13 15 14 14 15 17 16 16 17 19 18
          18 19 21 20 20 21 23 22 22 23 25 24
          24 25 27 26 26 27 29 28 28 29 31 30
          30 31 33 32 32 33 35 34 34 35 37 36
          36 37 39 38 38 39 41 40 40 41 43 42
          42 43 45 44 44 45 47 46 46 47 49 48
          48 49 51 50 50 51 53 52 52 53 55 54
          54 55 57 56 56 57 59 58 58 59 61 60
          60 61 63 62 62 63 65 64 64 65 67 66
          66 67 69 68 68 69 71 70 70 71 73 72
          72 73 75 74 74 75 77 76 76 77 79 78
        </DataArray>
        <DataArray type="Int32" Name="offsets" NumberOfComponents="1" format="ascii">
          4 8 12 16 20 24 28 32 36 40 44 48
          52 56 60 64 68 72 76 80 84 88 92 96
          100 104 108 112 116 120 124 128 132 136 140 144
          148 152 156
        </DataArray>
        <DataArray type="UInt8" Name="types" NumberOfComponents="1" format="ascii">
          9 9 9 9 9 9 9 9 9 9 9 9
          9 9 9 9 9 9 9 9 9 9 9 9
          9 9 9 9 9 9 9 9 9 9 9 9
          9 9 9
        </DataArray>
      </Cells>
    </Piece>
  </UnstructuredGrid>
</VTKFile>
