<?xml version="1.0"?>
<VTKFile type="UnstructuredGrid" version="0.1" byte_order="LittleEndian">
  <UnstructuredGrid>
    <Piece NumberOfCells="39" NumberOfPoints="80">
      <PointData Scalars="Sg">
        <DataArray type="Float32" Name="Sg" NumberOfComponents="1" format="ascii">
          0 0 0 0 0 0 0 0 0 0 0 0
          0 0 0 0 0 0 0 0 0 0 0 0
          0 0 0 0 0 0 0 0 0 0 0 0
          0 0 0 0 0 0 0 0 0 0 0 0
          0 0 0 0 0 0 0 0 0 0 0 0
          0 0 0 0 0 0 0 0 0 0 0 0
          0 0 0 0 0 0 0 0
        </DataArray>
        <DataArray type="Float32" Name="Sl" NumberOfComponents="1" format="ascii">
          1 1 1 1 1 1 1 1 1 1 1 1
          1 1 1 1 1 1 1 1 1 1 1 1
          1 1 1 1 1 1 1 1 1 1 1 1
          1 1 1 1 1 1 1 1 1 1 1 1
          1 1 1 1 1 1 1 1 1 1 1 1
          1 1 1 1 1 1 1 1 1 1 1 1
          1 1 1 1 1 1 1 1
        </DataArray>
        <DataArray type="Float32" Name="pg" NumberOfComponents="1" format="ascii">
          146399 146399 145862 145862 145320 145321 144779 144779 144238 144238 143696 143696
          143154 143154 142612 142611 142069 142069 141527 141527 140984 140984 139900 139901
          138818 138818 137733 137733 136650 136650 135568 135568 134219 134219 132876 132876
          131537 131537 130206 130205 128882 128883 127569 127570 126268 126268 124981 124981
          123709 123709 122455 122455 121221 121221 120010 120010 118826 118826 117674 117674
          116553 116553 115475 115475 114449 114449 113482 113482 112584 112584 111770 111770
          111056 111056 110463 110463 110004 110004 109667 109667
        </DataArray>
        <DataArray type="Float32" Name="pl" NumberOfComponents="1" format="ascii">
          136733 136733 136195 136195 135654 135654 135113 135113 134571 134571 134029 134029
          133487 133487 132945 132945 132403 132403 131860 131860 131317 131317 130234 130234
          129151 129151 128067 128067 126983 126983 125902 125902 124553 124553 123209 123209
          121870 121870 120539 120539 119216 119216 117903 117903 116602 116602 115314 115314
          114042 114042 112788 112788 111555 111555 110343 110343 109159 109160 108007 108007
          106887 106887 105808 105809 104782 104782 103815 103815 102918 102918 102103 102103
          101389 101389 100796 100796 100337 100337 100000 100000
        </DataArray>
        <DataArray type="Float32" Name="pc" NumberOfComponents="1" format="ascii">
          9666.67 9666.67 9666.67 9666.67 9666.67 9666.67 9666.67 9666.67 9666.67 9666.67 9666.67 9666.67
          9666.67 9666.67 9666.67 9666.67 9666.67 9666.67 9666.67 9666.67 9666.67 9666.67 9666.67 9666.67
          9666.67 9666.67 9666.67 9666.67 9666.67 9666.67 9666.67 9666.67 9666.67 9666.67 9666.67 9666.67
          9666.67 9666.67 9666.67 9666.67 9666.67 9666.67 9666.67 9666.67 9666.67 9666.67 9666.67 9666.67
          9666.67 9666.67 9666.67 9666.67 9666.67 9666.67 9666.67 9666.67 9666.67 9666.67 9666.67 9666.67
          9666.67 9666.67 9666.67 9666.67 9666.67 9666.67 9666.67 9666.67 9666.67 9666.67 9666.67 9666.67
          9666.67 9666.67 9666.67 9666.67 9666.67 9666.67 9666.67 9666.67
        </DataArray>
        <DataArray type="Float32" Name="rhoL" NumberOfComponents="1" format="ascii">
          1025.79 1025.79 1025.74 1025.74 1025.69 1025.69 1025.64 1025.64 1025.59 1025.59 1025.54 1025.54
          1025.49 1025.49 1025.44 1025.44 1025.39 1025.39 1025.34 1025.34 1025.28 1025.28 1025.17 1025.17
          1025.06 1025.06 1024.94 1024.94 1024.82 1024.82 1024.69 1024.69 1024.53 1024.53 1024.35 1024.35
          1024.16 1024.16 1023.96 1023.96 1023.74 1023.74 1023.49 1023.49 1023.23 1023.23 1022.94 1022.94
          1022.62 1022.62 1022.27 1022.27 1021.87 1021.87 1021.43 1021.42 1020.92 1020.92 1020.36 1020.36
          1019.71 1019.71 1018.97 1018.97 1018.11 1018.11 1017.11 1017.11 1015.92 1015.92 1014.49 1014.49
          1012.72 1012.72 1010.42 1010.42 1007.13 1007.13 1001.45 1001.45
        </DataArray>
        <DataArray type="Float32" Name="rhoG" NumberOfComponents="1" format="ascii">
          2.59044 2.59067 2.58094 2.58094 2.57113 2.57114 2.56133 2.56133 2.55152 2.55152 2.5417 2.5417
          2.53188 2.53188 2.52206 2.52206 2.51224 2.51224 2.50241 2.50241 2.49257 2.49257 2.47295 2.47295
          2.45334 2.45334 2.43369 2.43369 2.41407 2.41406 2.39447 2.39447 2.37003 2.37003 2.34569 2.34569
          2.32144 2.32143 2.29732 2.29731 2.27335 2.27335 2.24956 2.24956 2.22599 2.22598 2.20266 2.20266
          2.1796 2.17961 2.15689 2.15689 2.13454 2.13454 2.11258 2.11259 2.09113 2.09114 2.07025 2.07025
          2.04994 2.04994 2.0304 2.0304 2.01179 2.0118 1.99426 1.99426 1.97799 1.97798 1.9632 1.9632
          1.95024 1.95024 1.93946 1.93946 1.93109 1.93109 1.9249 1.9249
        </DataArray>
        <DataArray type="Float32" Name="mobL" NumberOfComponents="1" format="ascii">
          1009.3 1009.3 1009.43 1009.43 1009.57 1009.57 1009.71 1009.71 1009.84 1009.84 1009.98 1009.98
          1010.13 1010.13 1010.27 1010.27 1010.42 1010.42 1010.57 1010.57 1010.72 1010.72 1011.02 1011.02
          1011.34 1011.34 1011.67 1011.67 1012.02 1012.02 1012.38 1012.38 1012.85 1012.85 1013.35 1013.35
          1013.9 1013.9 1014.48 1014.48 1015.12 1015.12 1015.82 1015.82 1016.59 1016.59 1017.44 1017.44
          1018.38 1018.38 1019.43 1019.43 1020.61 1020.62 1021.95 1021.95 1023.48 1023.48 1025.22 1025.22
          1027.23 1027.24 1029.58 1029.58 1032.34 1032.35 1035.65 1035.65 1039.66 1039.66 1044.66 1044.66
          1051.12 1051.12 1060.05 1060.04 1073.98 1073.97 1103.12 1103.12
        </DataArray>
        <DataArray type="Float32" Name="mobG" NumberOfComponents="1" format="ascii">
          0 0 0 0 0 0 0 0 0 0 0 0
          0 0 0 0 0 0 0 0 0 0 0 0
          0 0 0 0 0 0 0 0 0 0 0 0
          0 0 0 0 0 0 0 0 0 0 0 0
          0 0 0 0 0 0 0 0 0 0 0 0
          0 0 0 0 0 0 0 0 0 0 0 0
          0 0 0 0 0 0 0 0
        </DataArray>
        <DataArray type="Float32" Name="porosity" NumberOfComponents="1" format="ascii">
          0.134896 0.134892 0.134137 0.134186 0.134219 0.134185 0.134129 0.134105 0.134078 0.134082 0.134021 0.134045
          0.13406 0.134048 0.134017 0.134035 0.133973 0.134038 0.133919 0.133957 0.133863 0.133903 0.1342 0.134247
          0.133921 0.133921 0.133944 0.133992 0.134028 0.134055 0.134036 0.134099 0.134259 0.134309 0.134391 0.13447
          0.13463 0.13467 0.134904 0.135041 0.135242 0.135368 0.135688 0.13578 0.136227 0.136309 0.136762 0.136897
          0.137512 0.137569 0.138404 0.138385 0.139335 0.139311 0.14037 0.140352 0.142018 0.141878 0.143453 0.143328
          0.145332 0.14519 0.148098 0.147911 0.151526 0.151253 0.155924 0.15562 0.161843 0.161505 0.170395 0.170136
          0.184108 0.183831 0.20849 0.20825 0.259523 0.25948 0.4 0.4
        </DataArray>
        <DataArray type="Float32" Name="temperature" NumberOfComponents="1" format="ascii">
          298.15 298.15 298.15 298.15 298.15 298.15 298.15 298.15 298.15 298.15 298.15 298.15
          298.15 298.15 298.15 298.15 298.15 298.15 298.15 298.15 298.15 298.15 298.15 298.15
          298.15 298.15 298.15 298.15 298.15 298.15 298.15 298.15 298.15 298.15 298.15 298.15
          298.15 298.15 298.15 298.15 298.15 298.15 298.15 298.15 298.15 298.15 298.15 298.15
          298.15 298.15 298.15 298.15 298.15 298.15 298.15 298.15 298.15 298.15 298.15 298.15
          298.15 298.15 298.15 298.15 298.15 298.15 298.15 298.15 298.15 298.15 298.15 298.15
          298.15 298.15 298.15 298.15 298.15 298.15 298.15 298.15
        </DataArray>
        <DataArray type="Float32" Name="phase presence" NumberOfComponents="1" format="ascii">
          1 1 1 1 1 1 1 1 1 1 1 1
          1 1 1 1 1 1 1 1 1 1 1 1
          1 1 1 1 1 1 1 1 1 1 1 1
          1 1 1 1 1 1 1 1 1 1 1 1
          1 1 1 1 1 1 1 1 1 1 1 1
          1 1 1 1 1 1 1 1 1 1 1 1
          1 1 1 1 1 1 1 1
        </DataArray>
        <DataArray type="Float32" Name="potential" NumberOfComponents="1" format="ascii">
          2.85029 2.85026 2.807 2.80701 2.76339 2.76342 2.7198 2.71978 2.67613 2.67611 2.63241 2.63241
          2.5887 2.58869 2.54499 2.54496 2.50125 2.50123 2.45747 2.45747 2.41364 2.41364 2.32625 2.32627
          2.23894 2.23894 2.15139 2.15138 2.06398 2.06398 1.9767 1.97669 1.86791 1.86791 1.7596 1.75961
          1.6518 1.65178 1.54469 1.54466 1.43839 1.4384 1.33306 1.33307 1.22892 1.2289 1.12607 1.12608
          1.02472 1.02476 0.925188 0.925211 0.827652 0.827652 0.732227 0.732256 0.639549 0.639576 0.54992 0.54992
          0.463433 0.463446 0.381073 0.381099 0.303801 0.303822 0.232369 0.232377 0.167768 0.16776 0.111324 0.111311
          0.0648258 0.0648209 0.0303024 0.0302906 0.00910403 0.00909707 0 0
        </DataArray>
        <DataArray type="Float32" Name="boxVolume" NumberOfComponents="1" format="ascii">
          6.35e-05 6.35e-05 0.000127 0.000127 0.000127 0.000127 0.000127 0.000127 0.000127 0.000127 0.000127 0.000127
          0.000127 0.000127 0.000127 0.000127 0.000127 0.000127 0.000127 0.000127 0.0001905 0.0001905 0.000254 0.000254
          0.000254 0.000254 0.000254 0.000254 0.000254 0.000254 0.00028575 0.00028575 0.0003175 0.0003175 0.0003175 0.0003175
          0.0003175 0.0003175 0.0003175 0.0003175 0.0003175 0.0003175 0.0003175 0.0003175 0.0003175 0.0003175 0.0003175 0.0003175
          0.0003175 0.0003175 0.0003175 0.0003175 0.0003175 0.0003175 0.0003175 0.0003175 0.0003175 0.0003175 0.0003175 0.0003175
          0.0003175 0.0003175 0.0003175 0.0003175 0.0003175 0.0003175 0.0003175 0.0003175 0.0003175 0.0003175 0.0003175 0.0003175
          0.0003175 0.0003175 0.0003175 0.0003175 0.0003175 0.0003175 0.00015875 0.00015875
        </DataArray>
        <DataArray type="Float32" Name="pH" NumberOfComponents="1" format="ascii">
          6.64562 6.64562 6.65281 6.6528 6.65442 6.65442 6.65433 6.65436 6.65372 6.65378 6.65305 6.65306
          6.65235 6.65234 6.65165 6.65165 6.65099 6.65099 6.65038 6.65037 6.6498 6.6498 6.64877 6.64876
          6.64798 6.64799 6.64735 6.64732 6.6469 6.64686 6.6465 6.6466 6.64653 6.64652 6.64682 6.64678
          6.64784 6.64735 6.64838 6.64833 6.64971 6.64969 6.6515 6.65148 6.6538 6.65378 6.65664 6.65662
          6.6601 6.6601 6.66429 6.66429 6.66931 6.66931 6.6753 6.67531 6.68246 6.68235 6.691 6.69098
          6.70118 6.7012 6.71338 6.71344 6.72829 6.72836 6.74666 6.74674 6.76961 6.76969 6.79826 6.79834
          6.83134 6.83145 6.85323 6.85343 6.79375 6.79401 6.19963 6.19963
        </DataArray>
        <DataArray type="Float32" Name="Omega" NumberOfComponents="1" format="ascii">
          29.3363 29.3361 30.5782 30.5769 30.9509 30.9523 31.0461 31.0495 31.0488 31.0579 31.0342 31.0361
          31.0069 31.0057 30.9739 30.9738 30.9412 30.9403 30.9075 30.9068 30.8734 30.8728 30.7993 30.798
          30.7367 30.7372 30.6696 30.6658 30.602 30.5959 30.5112 30.5272 30.4379 30.4367 30.3538 30.3471
          30.3273 30.2484 30.162 30.1547 30.055 30.0508 29.9453 29.9412 29.8297 29.827 29.7066 29.703
          29.571 29.5702 29.4241 29.4238 29.2635 29.264 29.0848 29.0858 28.8847 28.8666 28.6558 28.6524
          28.3868 28.3881 28.0603 28.0671 27.6749 27.6829 27.1992 27.209 26.5725 26.5819 25.5931 25.6025
          23.4786 23.4915 17.66 17.6813 5.87735 5.8872 0 0
        </DataArray>
        <DataArray type="Float32" Name="rurea" NumberOfComponents="1" format="ascii">
          0 0 0 0 0 0 0 0 0 0 0 0
          0 0 0 0 0 0 0 0 0 0 0 0
          0 0 0 0 0 0 0 0 0 0 0 0
          0 0 0 0 0 0 0 0 0 0 0 0
          0 0 0 0 0 0 0 0 0 0 0 0
          0 0 0 0 0 0 0 0 0 0 0 0
          0 0 0 0 0 0 0 0
        </DataArray>
        <DataArray type="Float32" Name="Volume_Fraction_Biofilm" NumberOfComponents="1" format="ascii">
          0.246064 0.2461 0.243317 0.24323 0.241621 0.241667 0.240914 0.24098 0.240474 0.240428 0.239933 0.23996
          0.23961 0.239515 0.239125 0.239138 0.238763 0.238751 0.23836 0.238356 0.238041 0.238047 0.237072 0.237038
          0.236613 0.236581 0.235894 0.235853 0.235301 0.235229 0.234646 0.234625 0.234048 0.23398 0.233426 0.233332
          0.232852 0.232697 0.232226 0.232207 0.231792 0.231676 0.231215 0.231081 0.230713 0.230641 0.230174 0.230089
          0.229594 0.229563 0.228956 0.22892 0.228311 0.228325 0.227576 0.227654 0.226681 0.226635 0.225668 0.225846
          0.224503 0.224663 0.222736 0.22292 0.220581 0.220849 0.21778 0.218107 0.21393 0.214207 0.208211 0.208493
          0.199052 0.199324 0.181714 0.181953 0.1373 0.137345 0 0
        </DataArray>
        <DataArray type="Float32" Name="Volume_Fraction_Calcite" NumberOfComponents="1" format="ascii">
          0.0190404 0.0190082 0.0225456 0.0225834 0.0241601 0.0241482 0.0249569 0.0249153 0.0254484 0.0254907 0.0260459 0.0259951
          0.0263304 0.0264377 0.0268578 0.0268273 0.0272642 0.0272111 0.0277207 0.0276875 0.0280966 0.0280506 0.0287286 0.0287156
          0.0294656 0.0294981 0.0301622 0.0301555 0.030671 0.0307156 0.0313183 0.0312763 0.0316934 0.0317103 0.0321833 0.0321979
          0.0325177 0.0326325 0.0328698 0.0327516 0.0329661 0.032956 0.0330968 0.0331387 0.0330607 0.0330502 0.0330638 0.0330141
          0.0328941 0.0328688 0.0326402 0.0326953 0.0323537 0.0323641 0.0320542 0.0319943 0.0313014 0.0314871 0.0308783 0.0308258
          0.0301645 0.030147 0.0291657 0.0291688 0.0278926 0.0278985 0.0262963 0.026273 0.0242273 0.0242879 0.0213934 0.0213705
          0.0168401 0.0168444 0.00979584 0.0097971 0.00317725 0.00317476 0 0
        </DataArray>
        <DataArray type="Float32" Name="Kxx" NumberOfComponents="1" format="ascii">
          7.67091e-12 7.67022e-12 7.54217e-12 7.55051e-12 7.55606e-12 7.55023e-12 7.54081e-12 7.53679e-12 7.53215e-12 7.53285e-12 7.5226e-12 7.52667e-12
          7.52911e-12 7.52713e-12 7.52198e-12 7.5249e-12 7.51457e-12 7.52546e-12 7.50545e-12 7.51185e-12 7.49602e-12 7.50269e-12 7.55276e-12 7.56069e-12
          7.50578e-12 7.5058e-12 7.50967e-12 7.51767e-12 7.52385e-12 7.52837e-12 7.52513e-12 7.53575e-12 7.56276e-12 7.57127e-12 7.58502e-12 7.59853e-12
          7.62565e-12 7.63248e-12 7.67234e-12 7.69567e-12 7.73015e-12 7.75178e-12 7.80682e-12 7.82278e-12 7.90016e-12 7.91454e-12 7.99369e-12 8.01733e-12
          8.12586e-12 8.13595e-12 8.285e-12 8.28162e-12 8.45347e-12 8.44907e-12 8.64321e-12 8.63987e-12 8.95117e-12 8.92478e-12 9.22532e-12 9.20116e-12
          9.59257e-12 9.56448e-12 1.01508e-11 1.01123e-11 1.08721e-11 1.08134e-11 1.18464e-11 1.17773e-11 1.32474e-11 1.31645e-11 1.54604e-11 1.539e-11
          1.95015e-11 1.94137e-11 2.8321e-11 2.82232e-11 5.46231e-11 5.45962e-11 2e-10 2e-10
        </DataArray>
        <DataArray type="Float32" Name="X_lBrine" NumberOfComponents="1" format="ascii">
          0.933052 0.933052 0.933164 0.933164 0.933278 0.933278 0.933393 0.933393 0.93351 0.93351 0.933628 0.933628
          0.933748 0.933747 0.933869 0.933869 0.933992 0.933992 0.934117 0.934117 0.934245 0.934245 0.934499 0.934499
          0.934763 0.934763 0.935036 0.935036 0.935322 0.935322 0.93562 0.93562 0.936008 0.936008 0.936422 0.936421
          0.936864 0.936864 0.937341 0.937341 0.937857 0.937857 0.938418 0.938418 0.939032 0.939031 0.939705 0.939705
          0.94045 0.94045 0.941276 0.941276 0.942197 0.942198 0.94323 0.94323 0.944394 0.944395 0.945714 0.945715
          0.947218 0.947219 0.948944 0.948946 0.950945 0.950947 0.953286 0.953288 0.956061 0.956062 0.959409 0.95941
          0.963566 0.963567 0.968989 0.968988 0.976749 0.976748 0.99029 0.99029
        </DataArray>
        <DataArray type="Float32" Name="X_lTotalC" NumberOfComponents="1" format="ascii">
          1.54318e-05 1.54318e-05 1.58862e-05 1.58859e-05 1.61258e-05 1.61261e-05 1.62975e-05 1.62983e-05 1.64464e-05 1.64486e-05 1.65911e-05 1.65915e-05
          1.67327e-05 1.67323e-05 1.68731e-05 1.68729e-05 1.70135e-05 1.70132e-05 1.71539e-05 1.71536e-05 1.72944e-05 1.72941e-05 1.75666e-05 1.75661e-05
          1.78423e-05 1.78423e-05 1.81171e-05 1.81159e-05 1.83927e-05 1.83907e-05 1.86626e-05 1.8667e-05 1.90087e-05 1.90082e-05 1.93542e-05 1.93519e-05
          1.97209e-05 1.96959e-05 2.00483e-05 2.00456e-05 2.03992e-05 2.03974e-05 2.07559e-05 2.07542e-05 2.11195e-05 2.11182e-05 2.14915e-05 2.149e-05
          2.18731e-05 2.18727e-05 2.22686e-05 2.22686e-05 2.26821e-05 2.26825e-05 2.3118e-05 2.31187e-05 2.35841e-05 2.35774e-05 2.40891e-05 2.40884e-05
          2.46437e-05 2.46451e-05 2.52643e-05 2.52686e-05 2.5986e-05 2.59914e-05 2.68493e-05 2.68559e-05 2.79151e-05 2.79218e-05 2.92356e-05 2.92427e-05
          3.06276e-05 3.06375e-05 3.05009e-05 3.05191e-05 2.29699e-05 2.29885e-05 5.81077e-07 5.81077e-07
        </DataArray>
        <DataArray type="Float32" Name="X_lNa" NumberOfComponents="1" format="ascii">
          1.57871e-07 1.5787e-07 1.59957e-07 1.59957e-07 1.62149e-07 1.6215e-07 1.6446e-07 1.64459e-07 1.66892e-07 1.66891e-07 1.69453e-07 1.69452e-07
          1.72151e-07 1.7215e-07 1.74994e-07 1.74992e-07 1.77988e-07 1.77986e-07 1.81141e-07 1.8114e-07 1.84461e-07 1.8446e-07 1.91463e-07 1.91463e-07
          1.99217e-07 1.99216e-07 2.07794e-07 2.07792e-07 2.17293e-07 2.17291e-07 2.27815e-07 2.27812e-07 2.4239e-07 2.42386e-07 2.58944e-07 2.5894e-07
          2.77752e-07 2.77745e-07 2.99137e-07 2.99128e-07 3.23466e-07 3.23461e-07 3.5117e-07 3.51166e-07 3.82754e-07 3.82748e-07 4.18788e-07 4.18789e-07
          4.59952e-07 4.59965e-07 5.07063e-07 5.07078e-07 5.61056e-07 5.61073e-07 6.23022e-07 6.23056e-07 6.94384e-07 6.94428e-07 7.76781e-07 7.76825e-07
          8.72126e-07 8.72194e-07 9.83122e-07 9.83222e-07 1.11326e-06 1.11338e-06 1.26706e-06 1.26717e-06 1.4508e-06 1.45089e-06 1.67398e-06 1.67404e-06
          1.95248e-06 1.95251e-06 2.31687e-06 2.31676e-06 2.83863e-06 2.83851e-06 3.74885e-06 3.74885e-06
        </DataArray>
        <DataArray type="Float32" Name="X_lCl" NumberOfComponents="1" format="ascii">
          0.0298331 0.0298331 0.0298222 0.0298222 0.0298106 0.0298105 0.0297982 0.0297982 0.029785 0.029785 0.0297709 0.029771
          0.029756 0.029756 0.0297401 0.0297401 0.0297232 0.0297232 0.0297052 0.0297053 0.0296862 0.0296862 0.0296455 0.0296455
          0.0295999 0.0295999 0.0295489 0.0295489 0.0294917 0.0294917 0.0294279 0.0294279 0.0293386 0.0293386 0.0292362 0.0292362
          0.029119 0.0291191 0.0289849 0.028985 0.0288315 0.0288315 0.0286559 0.0286559 0.0284548 0.0284548 0.0282245 0.0282245
          0.0279606 0.0279605 0.0276577 0.0276576 0.0273098 0.0273097 0.0269096 0.0269094 0.0264479 0.0264476 0.025914 0.0259138
          0.0252955 0.025295 0.0245746 0.0245739 0.0237285 0.0237278 0.022728 0.0227272 0.0215318 0.0215312 0.0200782 0.0200778
          0.0182636 0.0182635 0.0158889 0.0158896 0.0124883 0.0124891 0.00655617 0.00655617
        </DataArray>
        <DataArray type="Float32" Name="X_lCa" NumberOfComponents="1" format="ascii">
          0.0122102 0.0122102 0.0121529 0.0121529 0.0120956 0.0120956 0.0120382 0.0120382 0.0119806 0.0119807 0.011923 0.011923
          0.0118653 0.0118653 0.0118074 0.0118075 0.0117494 0.0117494 0.0116912 0.0116913 0.0116329 0.0116329 0.0115186 0.0115186
          0.0114035 0.0114035 0.0112876 0.0112876 0.0111706 0.0111706 0.0110522 0.0110522 0.0109039 0.0109039 0.0107527 0.0107528
          0.0105981 0.0105982 0.0104393 0.0104394 0.0102754 0.0102755 0.0101055 0.0101056 0.00992842 0.00992854 0.00974279 0.00974285
          0.00954701 0.009547 0.00933909 0.00933904 0.00911678 0.00911671 0.00887747 0.00887731 0.00861754 0.00861733 0.00833291 0.00833268
          0.00801884 0.00801852 0.00766828 0.00766785 0.00727212 0.00727161 0.00681855 0.00681804 0.00629089 0.00629047 0.00566388 0.00566354
          0.00489453 0.00489433 0.00389886 0.00389908 0.00247819 0.00247847 0 0
        </DataArray>
        <DataArray type="Float32" Name="X_lUrea" NumberOfComponents="1" format="ascii">
          0.0179949 0.0179949 0.0179079 0.0179079 0.0178212 0.0178212 0.0177343 0.0177343 0.0176474 0.0176474 0.0175603 0.0175604
          0.0174731 0.0174732 0.0173858 0.0173858 0.0172982 0.0172983 0.0172104 0.0172105 0.0171224 0.0171224 0.0169499 0.01695
          0.0167764 0.0167765 0.0166018 0.0166019 0.0164256 0.0164257 0.0162475 0.0162476 0.0160245 0.0160246 0.0157974 0.0157976
          0.0155654 0.0155656 0.0153274 0.0153276 0.0150821 0.0150823 0.0148282 0.0148283 0.0145637 0.0145639 0.014287 0.0142871
          0.0139955 0.0139955 0.0136864 0.0136863 0.0133564 0.0133563 0.0130016 0.0130014 0.0126168 0.0126165 0.012196 0.0121957
          0.0117322 0.0117318 0.0112152 0.0112145 0.0106314 0.0106306 0.00996357 0.0099628 0.00918721 0.00918658 0.00826521 0.0082647
          0.00713481 0.00713449 0.00567504 0.00567532 0.00360252 0.0036029 0 0
        </DataArray>
        <DataArray type="Float32" Name="X_lTotalNH" NumberOfComponents="1" format="ascii">
          0.0039654 0.00396539 0.00400916 0.00400916 0.0040525 0.0040525 0.00409552 0.00409551 0.0041382 0.00413818 0.00418053 0.0041805
          0.00422252 0.00422249 0.00426417 0.00426413 0.00430547 0.00430543 0.00434638 0.00434635 0.00438692 0.00438689 0.00446477 0.00446475
          0.00454089 0.00454085 0.00461507 0.00461503 0.0046873 0.00468725 0.00475744 0.00475739 0.00484085 0.00484079 0.00492043 0.00492036
          0.00499582 0.00499574 0.00506665 0.00506655 0.00513246 0.00513237 0.00519275 0.00519267 0.00524696 0.00524688 0.0052944 0.00529433
          0.00533431 0.00533427 0.00536583 0.00536582 0.00538793 0.00538794 0.00539942 0.00539945 0.00539891 0.00539895 0.00538474 0.0053848
          0.00535495 0.00535501 0.00530705 0.00530711 0.00523789 0.00523796 0.00514341 0.00514349 0.00501806 0.00501815 0.00485371 0.0048538
          0.00463694 0.00463704 0.00434226 0.00434245 0.00391029 0.00391045 0.00314947 0.00314947
        </DataArray>
        <DataArray type="Float32" Name="X_lO2" NumberOfComponents="1" format="ascii">
          7.62891e-06 7.62891e-06 7.61664e-06 7.61664e-06 7.6042e-06 7.6042e-06 7.59154e-06 7.59154e-06 7.57864e-06 7.57865e-06 7.56551e-06 7.56551e-06
          7.55211e-06 7.55212e-06 7.53843e-06 7.53844e-06 7.52447e-06 7.52448e-06 7.5102e-06 7.5102e-06 7.49561e-06 7.49561e-06 7.46615e-06 7.46616e-06
          7.43528e-06 7.43529e-06 7.40288e-06 7.40289e-06 7.36872e-06 7.36874e-06 7.33263e-06 7.33265e-06 7.28508e-06 7.2851e-06 7.23378e-06 7.2338e-06
          7.17821e-06 7.17824e-06 7.11774e-06 7.11778e-06 7.05167e-06 7.0517e-06 6.97915e-06 6.97917e-06 6.89921e-06 6.89924e-06 6.81074e-06 6.81075e-06
          6.71243e-06 6.7124e-06 6.60267e-06 6.60264e-06 6.47966e-06 6.47962e-06 6.34128e-06 6.3412e-06 6.18473e-06 6.18463e-06 6.00681e-06 6.0067e-06
          5.8038e-06 5.80364e-06 5.57037e-06 5.57014e-06 5.29963e-06 5.29936e-06 4.9827e-06 4.98242e-06 4.60711e-06 4.60689e-06 4.1541e-06 4.15393e-06
          3.59211e-06 3.59201e-06 2.86037e-06 2.86056e-06 1.81659e-06 1.81681e-06 0 0
        </DataArray>
        <DataArray type="Float32" Name="X_lSubstrate" NumberOfComponents="1" format="ascii">
          0.00292103 0.00292103 0.00291959 0.00291959 0.00291805 0.00291805 0.00291642 0.00291642 0.00291469 0.00291469 0.00291285 0.00291285
          0.0029109 0.0029109 0.00290883 0.00290883 0.00290664 0.00290664 0.00290431 0.00290431 0.00290185 0.00290185 0.00289661 0.00289661
          0.00289075 0.00289075 0.00288421 0.00288421 0.00287691 0.00287692 0.00286878 0.00286878 0.00285742 0.00285743 0.00284444 0.00284444
          0.00282961 0.00282961 0.00281265 0.00281266 0.00279328 0.00279329 0.00277114 0.00277114 0.00274581 0.00274581 0.00271683 0.00271682
          0.00268363 0.00268362 0.00264556 0.00264555 0.00260185 0.00260183 0.0025516 0.00255157 0.00249364 0.00249361 0.00242665 0.00242661
          0.00234904 0.00234899 0.00225862 0.00225854 0.00215253 0.00215243 0.00202707 0.00202698 0.00187711 0.00187704 0.0016949 0.00169484
          0.00146744 0.00146742 0.00116978 0.00116987 0.00074355 0.000743647 0 0
        </DataArray>
        <DataArray type="Float32" Name="X_lSuspended_Biomass" NumberOfComponents="1" format="ascii">
          1.36937e-07 1.36935e-07 1.44106e-07 1.44105e-07 1.51221e-07 1.51222e-07 1.58302e-07 1.58301e-07 1.65345e-07 1.65341e-07 1.72348e-07 1.72344e-07
          1.79313e-07 1.79308e-07 1.8624e-07 1.86233e-07 1.93125e-07 1.93118e-07 1.99965e-07 1.99959e-07 2.06759e-07 2.06754e-07 2.19862e-07 2.19857e-07
          2.32743e-07 2.32737e-07 2.45368e-07 2.45361e-07 2.57733e-07 2.57724e-07 2.69812e-07 2.69803e-07 2.8428e-07 2.84268e-07 2.98199e-07 2.98186e-07
          3.11504e-07 3.11488e-07 3.24128e-07 3.24111e-07 3.3599e-07 3.35974e-07 3.46998e-07 3.46983e-07 3.5705e-07 3.57035e-07 3.66022e-07 3.6601e-07
          3.73774e-07 3.73768e-07 3.80149e-07 3.80147e-07 3.8496e-07 3.84961e-07 3.87983e-07 3.8799e-07 3.88965e-07 3.88975e-07 3.87598e-07 3.87612e-07
          3.83515e-07 3.8353e-07 3.76254e-07 3.76271e-07 3.65232e-07 3.65252e-07 3.49699e-07 3.49722e-07 3.28631e-07 3.28658e-07 3.00537e-07 3.00564e-07
          2.62978e-07 2.63007e-07 2.11355e-07 2.11397e-07 1.35042e-07 1.35075e-07 0 0
        </DataArray>
        <DataArray type="Float32" Name="X_lNH4" NumberOfComponents="1" format="ascii">
          0.00419301 0.004193 0.00423916 0.00423916 0.00428495 0.00428495 0.00433043 0.00433041 0.00437555 0.00437553 0.00442031 0.00442029
          0.00446472 0.00446469 0.00450877 0.00450872 0.00455243 0.00455239 0.0045957 0.00459566 0.00463856 0.00463852 0.00472088 0.00472085
          0.00480135 0.00480132 0.00487978 0.00487973 0.00495614 0.00495609 0.00503029 0.00503023 0.00511846 0.00511839 0.00520256 0.00520249
          0.00528222 0.00528214 0.00535706 0.00535696 0.00542658 0.00542648 0.00549024 0.00549015 0.00554746 0.00554737 0.0055975 0.00559743
          0.00563956 0.00563952 0.00567272 0.00567271 0.0056959 0.0056959 0.00570782 0.00570784 0.00570701 0.00570705 0.0056917 0.00569177
          0.00565983 0.00565989 0.00560874 0.0056088 0.00553507 0.00553514 0.0054345 0.00543458 0.00530113 0.00530122 0.00512631 0.00512641
          0.0048959 0.00489601 0.00458356 0.00458375 0.00412887 0.00412902 0.00333307 0.00333307
        </DataArray>
        <DataArray type="Float32" Name="X_lHCO3" NumberOfComponents="1" format="ascii">
          1.73247e-05 1.73246e-05 1.78871e-05 1.78867e-05 1.81663e-05 1.81667e-05 1.83559e-05 1.83569e-05 1.85156e-05 1.85185e-05 1.86698e-05 1.86703e-05
          1.882e-05 1.88195e-05 1.89687e-05 1.89685e-05 1.91178e-05 1.91173e-05 1.92668e-05 1.92664e-05 1.94161e-05 1.94158e-05 1.97055e-05 1.97049e-05
          2.00003e-05 2.00004e-05 2.02949e-05 2.02933e-05 2.05913e-05 2.05888e-05 2.08813e-05 2.08872e-05 2.12578e-05 2.12571e-05 2.16353e-05 2.16323e-05
          2.20426e-05 2.20099e-05 2.24008e-05 2.23973e-05 2.27921e-05 2.27899e-05 2.31939e-05 2.31917e-05 2.36076e-05 2.3606e-05 2.40358e-05 2.40339e-05
          2.44802e-05 2.44798e-05 2.4947e-05 2.4947e-05 2.54419e-05 2.54423e-05 2.59712e-05 2.59722e-05 2.65459e-05 2.65371e-05 2.71779e-05 2.71768e-05
          2.78821e-05 2.78839e-05 2.86811e-05 2.86866e-05 2.9622e-05 2.96289e-05 3.07597e-05 3.07682e-05 3.2176e-05 3.21846e-05 3.39421e-05 3.39512e-05
          3.58173e-05 3.58302e-05 3.56938e-05 3.57177e-05 2.58814e-05 2.59053e-05 3.37056e-07 3.37056e-07
        </DataArray>
        <DataArray type="Float32" Name="X_lCO3" NumberOfComponents="1" format="ascii">
          1.70111e-08 1.70109e-08 1.78197e-08 1.7819e-08 1.81276e-08 1.81284e-08 1.82753e-08 1.82773e-08 1.837e-08 1.83753e-08 1.84554e-08 1.84565e-08
          1.85343e-08 1.85335e-08 1.86108e-08 1.86106e-08 1.86885e-08 1.86879e-08 1.87667e-08 1.87661e-08 1.88457e-08 1.88453e-08 1.89985e-08 1.89977e-08
          1.91631e-08 1.91633e-08 1.93298e-08 1.93274e-08 1.9502e-08 1.94981e-08 1.96657e-08 1.96759e-08 1.99025e-08 1.99016e-08 2.01448e-08 2.01402e-08
          2.04404e-08 2.0387e-08 2.06591e-08 2.06538e-08 2.09366e-08 2.09334e-08 2.12354e-08 2.12322e-08 2.15575e-08 2.15553e-08 2.19071e-08 2.19043e-08
          2.22869e-08 2.22864e-08 2.27063e-08 2.27063e-08 2.3174e-08 2.31747e-08 2.36999e-08 2.37011e-08 2.42999e-08 2.42853e-08 2.49921e-08 2.49899e-08
          2.57986e-08 2.58009e-08 2.67522e-08 2.67603e-08 2.79234e-08 2.79336e-08 2.93929e-08 2.94058e-08 3.12795e-08 3.12927e-08 3.3662e-08 3.36764e-08
          3.59991e-08 3.60204e-08 3.43188e-08 3.43582e-08 1.82147e-08 1.82431e-08 2.55591e-11 2.55591e-11
        </DataArray>
        <DataArray type="Float32" Name="X_lCO2" NumberOfComponents="1" format="ascii">
          2.9266e-06 2.92659e-06 2.97477e-06 2.97476e-06 3.01283e-06 3.01285e-06 3.0477e-06 3.04772e-06 3.08143e-06 3.08152e-06 3.11487e-06 3.11487e-06
          3.14806e-06 3.14803e-06 3.18112e-06 3.18109e-06 3.21408e-06 3.21404e-06 3.24692e-06 3.24689e-06 3.27966e-06 3.27963e-06 3.34305e-06 3.34301e-06
          3.40604e-06 3.40603e-06 3.46834e-06 3.46826e-06 3.53002e-06 3.52989e-06 3.59072e-06 3.59091e-06 3.6652e-06 3.66512e-06 3.73829e-06 3.73813e-06
          3.81099e-06 3.80964e-06 3.88004e-06 3.87983e-06 3.9485e-06 3.94835e-06 4.01529e-06 4.01515e-06 4.08027e-06 4.08015e-06 4.14328e-06 4.14317e-06
          4.20412e-06 4.20408e-06 4.26274e-06 4.26274e-06 4.31903e-06 4.31906e-06 4.37282e-06 4.37289e-06 4.42412e-06 4.42382e-06 4.47288e-06 4.47291e-06
          4.51905e-06 4.51921e-06 4.56282e-06 4.56314e-06 4.60515e-06 4.60554e-06 4.64704e-06 4.64749e-06 4.69014e-06 4.69059e-06 4.73537e-06 4.73583e-06
          4.77345e-06 4.77402e-06 4.73707e-06 4.73802e-06 4.2935e-06 4.29482e-06 3.38012e-07 3.38012e-07
        </DataArray>
        <DataArray type="Float32" Name="X_lH" NumberOfComponents="1" format="ascii">
          2.14918e-10 2.14919e-10 2.11422e-10 2.11426e-10 2.1067e-10 2.10666e-10 2.1074e-10 2.1073e-10 2.11066e-10 2.11039e-10 2.11424e-10 2.11418e-10
          2.11799e-10 2.11803e-10 2.12172e-10 2.12172e-10 2.12523e-10 2.12526e-10 2.12856e-10 2.12858e-10 2.1317e-10 2.13172e-10 2.13743e-10 2.13747e-10
          2.14197e-10 2.14196e-10 2.14578e-10 2.1459e-10 2.14871e-10 2.14889e-10 2.15141e-10 2.15092e-10 2.15219e-10 2.15223e-10 2.1517e-10 2.1519e-10
          2.1477e-10 2.15014e-10 2.14612e-10 2.14634e-10 2.1407e-10 2.14083e-10 2.13311e-10 2.13323e-10 2.1232e-10 2.12329e-10 2.11075e-10 2.11086e-10
          2.09554e-10 2.09556e-10 2.07712e-10 2.07712e-10 2.05505e-10 2.05502e-10 2.02887e-10 2.02882e-10 1.9979e-10 1.99841e-10 1.96141e-10 1.96148e-10
          1.91861e-10 1.91854e-10 1.8684e-10 1.86815e-10 1.80867e-10 1.80838e-10 1.73741e-10 1.73708e-10 1.65208e-10 1.65177e-10 1.55124e-10 1.55095e-10
          1.44276e-10 1.4424e-10 1.37843e-10 1.3778e-10 1.59151e-10 1.59056e-10 6.32454e-10 6.32454e-10
        </DataArray>
        <DataArray type="Float32" Name="X_lOH" NumberOfComponents="1" format="ascii">
          7.08812e-07 7.08809e-07 7.20736e-07 7.20722e-07 7.23512e-07 7.23526e-07 7.23479e-07 7.23515e-07 7.22569e-07 7.22662e-07 7.21555e-07 7.21575e-07
          7.20487e-07 7.20474e-07 7.19434e-07 7.19434e-07 7.1846e-07 7.18451e-07 7.17551e-07 7.17544e-07 7.16713e-07 7.16707e-07 7.15222e-07 7.1521e-07
          7.14149e-07 7.14153e-07 7.13332e-07 7.13294e-07 7.12826e-07 7.12765e-07 7.12409e-07 7.12574e-07 7.12768e-07 7.12757e-07 7.13578e-07 7.1351e-07
          7.1559e-07 7.14779e-07 7.16842e-07 7.16766e-07 7.19432e-07 7.19388e-07 7.22825e-07 7.22783e-07 7.271e-07 7.2707e-07 7.32376e-07 7.32337e-07
          7.38773e-07 7.38767e-07 7.46523e-07 7.46524e-07 7.55876e-07 7.55886e-07 7.67133e-07 7.67151e-07 7.80733e-07 7.80533e-07 7.97215e-07 7.97185e-07
          8.17261e-07 8.17294e-07 8.41879e-07 8.41994e-07 8.72852e-07 8.72996e-07 9.12497e-07 9.12677e-07 9.64418e-07 9.64597e-07 1.03326e-06 1.03345e-06
          1.11916e-06 1.11944e-06 1.18263e-06 1.18317e-06 1.03829e-06 1.03891e-06 2.67481e-07 2.67481e-07
        </DataArray>
        <DataArray type="Float32" Name="X_gBrine" NumberOfComponents="1" format="ascii">
          0.00897739 0.00891303 0.0089462 0.0089462 0.00897984 0.00897983 0.00901373 0.00901374 0.00904793 0.00904794 0.00908242 0.00908242
          0.00911718 0.00911719 0.00915221 0.00915223 0.00918753 0.00918754 0.00922316 0.00922316 0.00925911 0.00925911 0.00933166 0.00933165
          0.00940533 0.00940533 0.00948037 0.00948037 0.00955654 0.00955654 0.00963389 0.00963389 0.00973215 0.00973215 0.00983214 0.00983214
          0.00993388 0.0099339 0.0100373 0.0100373 0.0101423 0.0101423 0.0102488 0.0102488 0.0103568 0.0103568 0.010466 0.010466
          0.0105764 0.0105764 0.0106877 0.0106877 0.0107997 0.0107997 0.0109124 0.0109124 0.0110251 0.011025 0.0111374 0.0111374
          0.0112494 0.0112494 0.0113598 0.0113598 0.0114678 0.0114678 0.0115725 0.0115725 0.0116726 0.0116727 0.011767 0.011767
          0.0118537 0.0118537 0.0119313 0.0119313 0.0120003 0.0120003 0.0120698 0.0120698
        </DataArray>
        <DataArray type="Float32" Name="X_gTotalC" NumberOfComponents="1" format="ascii">
          0.991023 0.991087 0.991054 0.991054 0.99102 0.99102 0.990986 0.990986 0.990952 0.990952 0.990918 0.990918
          0.990883 0.990883 0.990848 0.990848 0.990812 0.990812 0.990777 0.990777 0.990741 0.990741 0.990668 0.990668
          0.990595 0.990595 0.99052 0.99052 0.990443 0.990443 0.990366 0.990366 0.990268 0.990268 0.990168 0.990168
          0.990066 0.990066 0.989963 0.989963 0.989858 0.989858 0.989751 0.989751 0.989643 0.989643 0.989534 0.989534
          0.989424 0.989424 0.989312 0.989312 0.9892 0.9892 0.989088 0.989088 0.988975 0.988975 0.988863 0.988863
          0.988751 0.988751 0.98864 0.98864 0.988532 0.988532 0.988428 0.988428 0.988327 0.988327 0.988233 0.988233
          0.988146 0.988146 0.988069 0.988069 0.988 0.988 0.98793 0.98793
        </DataArray>
        <DataArray type="Float32" Name="X_gNa" NumberOfComponents="1" format="ascii">
          0 0 0 0 0 0 0 0 0 0 0 0
          0 0 0 0 0 0 0 0 0 0 0 0
          0 0 0 0 0 0 0 0 0 0 0 0
          0 0 0 0 0 0 0 0 0 0 0 0
          0 0 0 0 0 0 0 0 0 0 0 0
          0 0 0 0 0 0 0 0 0 0 0 0
          0 0 0 0 0 0 0 0
        </DataArray>
        <DataArray type="Float32" Name="X_gCl" NumberOfComponents="1" format="ascii">
          0 0 0 0 0 0 0 0 0 0 0 0
          0 0 0 0 0 0 0 0 0 0 0 0
          0 0 0 0 0 0 0 0 0 0 0 0
          0 0 0 0 0 0 0 0 0 0 0 0
          0 0 0 0 0 0 0 0 0 0 0 0
          0 0 0 0 0 0 0 0 0 0 0 0
          0 0 0 0 0 0 0 0
        </DataArray>
        <DataArray type="Float32" Name="X_gCa" NumberOfComponents="1" format="ascii">
          0 0 0 0 0 0 0 0 0 0 0 0
          0 0 0 0 0 0 0 0 0 0 0 0
          0 0 0 0 0 0 0 0 0 0 0 0
          0 0 0 0 0 0 0 0 0 0 0 0
          0 0 0 0 0 0 0 0 0 0 0 0
          0 0 0 0 0 0 0 0 0 0 0 0
          0 0 0 0 0 0 0 0
        </DataArray>
        <DataArray type="Float32" Name="X_gUrea" NumberOfComponents="1" format="ascii">
          0 0 0 0 0 0 0 0 0 0 0 0
          0 0 0 0 0 0 0 0 0 0 0 0
          0 0 0 0 0 0 0 0 0 0 0 0
          0 0 0 0 0 0 0 0 0 0 0 0
          0 0 0 0 0 0 0 0 0 0 0 0
          0 0 0 0 0 0 0 0 0 0 0 0
          0 0 0 0 0 0 0 0
        </DataArray>
        <DataArray type="Float32" Name="X_gTotalNH" NumberOfComponents="1" format="ascii">
          0 0 0 0 0 0 0 0 0 0 0 0
          0 0 0 0 0 0 0 0 0 0 0 0
          0 0 0 0 0 0 0 0 0 0 0 0
          0 0 0 0 0 0 0 0 0 0 0 0
          0 0 0 0 0 0 0 0 0 0 0 0
          0 0 0 0 0 0 0 0 0 0 0 0
          0 0 0 0 0 0 0 0
        </DataArray>
        <DataArray type="Float32" Name="X_gO2" NumberOfComponents="1" format="ascii">
          0 0 0 0 0 0 0 0 0 0 0 0
          0 0 0 0 0 0 0 0 0 0 0 0
          0 0 0 0 0 0 0 0 0 0 0 0
          0 0 0 0 0 0 0 0 0 0 0 0
          0 0 0 0 0 0 0 0 0 0 0 0
          0 0 0 0 0 0 0 0 0 0 0 0
          0 0 0 0 0 0 0 0
        </DataArray>
        <DataArray type="Float32" Name="X_gSubstrate" NumberOfComponents="1" format="ascii">
          0 0 0 0 0 0 0 0 0 0 0 0
          0 0 0 0 0 0 0 0 0 0 0 0
          0 0 0 0 0 0 0 0 0 0 0 0
          0 0 0 0 0 0 0 0 0 0 0 0
          0 0 0 0 0 0 0 0 0 0 0 0
          0 0 0 0 0 0 0 0 0 0 0 0
          0 0 0 0 0 0 0 0
        </DataArray>
        <DataArray type="Float32" Name="X_gSuspended_Biomass" NumberOfComponents="1" format="ascii">
          0 0 0 0 0 0 0 0 0 0 0 0
          0 0 0 0 0 0 0 0 0 0 0 0
          0 0 0 0 0 0 0 0 0 0 0 0
          0 0 0 0 0 0 0 0 0 0 0 0
          0 0 0 0 0 0 0 0 0 0 0 0
          0 0 0 0 0 0 0 0 0 0 0 0
          0 0 0 0 0 0 0 0
        </DataArray>
        <DataArray type="Float32" Name="X_gNH4" NumberOfComponents="1" format="ascii">
          0 0 0 0 0 0 0 0 0 0 0 0
          0 0 0 0 0 0 0 0 0 0 0 0
          0 0 0 0 0 0 0 0 0 0 0 0
          0 0 0 0 0 0 0 0 0 0 0 0
          0 0 0 0 0 0 0 0 0 0 0 0
          0 0 0 0 0 0 0 0 0 0 0 0
          0 0 0 0 0 0 0 0
        </DataArray>
        <DataArray type="Float32" Name="X_gHCO3" NumberOfComponents="1" format="ascii">
          0 0 0 0 0 0 0 0 0 0 0 0
          0 0 0 0 0 0 0 0 0 0 0 0
          0 0 0 0 0 0 0 0 0 0 0 0
          0 0 0 0 0 0 0 0 0 0 0 0
          0 0 0 0 0 0 0 0 0 0 0 0
          0 0 0 0 0 0 0 0 0 0 0 0
          0 0 0 0 0 0 0 0
        </DataArray>
        <DataArray type="Float32" Name="X_gCO3" NumberOfComponents="1" format="ascii">
          0 0 0 0 0 0 0 0 0 0 0 0
          0 0 0 0 0 0 0 0 0 0 0 0
          0 0 0 0 0 0 0 0 0 0 0 0
          0 0 0 0 0 0 0 0 0 0 0 0
          0 0 0 0 0 0 0 0 0 0 0 0
          0 0 0 0 0 0 0 0 0 0 0 0
          0 0 0 0 0 0 0 0
        </DataArray>
        <DataArray type="Float32" Name="X_gCO2" NumberOfComponents="1" format="ascii">
          0.991023 0.991087 0.991054 0.991054 0.99102 0.99102 0.990986 0.990986 0.990952 0.990952 0.990918 0.990918
          0.990883 0.990883 0.990848 0.990848 0.990812 0.990812 0.990777 0.990777 0.990741 0.990741 0.990668 0.990668
          0.990595 0.990595 0.99052 0.99052 0.990443 0.990443 0.990366 0.990366 0.990268 0.990268 0.990168 0.990168
          0.990066 0.990066 0.989963 0.989963 0.989858 0.989858 0.989751 0.989751 0.989643 0.989643 0.989534 0.989534
          0.989424 0.989424 0.989312 0.989312 0.9892 0.9892 0.989088 0.989088 0.988975 0.988975 0.988863 0.988863
          0.988751 0.988751 0.98864 0.98864 0.988532 0.988532 0.988428 0.988428 0.988327 0.988327 0.988233 0.988233
          0.988146 0.988146 0.988069 0.988069 0.988 0.988 0.98793 0.98793
        </DataArray>
        <DataArray type="Float32" Name="X_gH" NumberOfComponents="1" format="ascii">
          0 0 0 0 0 0 0 0 0 0 0 0
          0 0 0 0 0 0 0 0 0 0 0 0
          0 0 0 0 0 0 0 0 0 0 0 0
          0 0 0 0 0 0 0 0 0 0 0 0
          0 0 0 0 0 0 0 0 0 0 0 0
          0 0 0 0 0 0 0 0 0 0 0 0
          0 0 0 0 0 0 0 0
        </DataArray>
        <DataArray type="Float32" Name="X_gOH" NumberOfComponents="1" format="ascii">
          0 0 0 0 0 0 0 0 0 0 0 0
          0 0 0 0 0 0 0 0 0 0 0 0
          0 0 0 0 0 0 0 0 0 0 0 0
          0 0 0 0 0 0 0 0 0 0 0 0
          0 0 0 0 0 0 0 0 0 0 0 0
          0 0 0 0 0 0 0 0 0 0 0 0
          0 0 0 0 0 0 0 0
        </DataArray>
        <DataArray type="Float32" Name="Molarity_Brine" NumberOfComponents="1" format="ascii">
          53128.2 53128.2 53132.2 53132.2 53136.1 53136.1 53140.1 53140.1 53144.2 53144.2 53148.3 53148.3
          53152.5 53152.5 53156.7 53156.7 53161 53161 53165.4 53165.4 53169.8 53169.8 53178.7 53178.7
          53187.8 53187.8 53197.3 53197.3 53207.2 53207.2 53217.6 53217.6 53231 53231 53245.3 53245.3
          53260.7 53260.6 53277.1 53277.1 53294.9 53294.9 53314.2 53314.2 53335.4 53335.3 53358.5 53358.5
          53384.1 53384.1 53412.4 53412.4 53443.9 53444 53479.3 53479.3 53519 53519.1 53564.1 53564.1
          53615.2 53615.3 53673.9 53674 53741.8 53741.8 53821 53821.1 53914.6 53914.7 54027.3 54027.3
          54166.7 54166.7 54347.6 54347.6 54604.9 54604.9 55049.2 55049.2
        </DataArray>
        <DataArray type="Float32" Name="Molarity_TotalC" NumberOfComponents="1" format="ascii">
          0.359768 0.359767 0.370343 0.370336 0.375911 0.375919 0.379896 0.379914 0.383349 0.383401 0.386703 0.386712
          0.389983 0.389975 0.393235 0.393231 0.396489 0.39648 0.39974 0.399732 0.402991 0.402985 0.40929 0.40928
          0.415669 0.41567 0.422023 0.421995 0.428391 0.428346 0.434623 0.434727 0.442613 0.4426 0.450579 0.450526
          0.45903 0.458449 0.466559 0.466496 0.474621 0.474581 0.482808 0.482769 0.491139 0.491108 0.499648 0.499613
          0.50836 0.508352 0.517374 0.517373 0.526776 0.526784 0.536666 0.536683 0.547217 0.547063 0.558624 0.558608
          0.571123 0.571157 0.585081 0.58518 0.601287 0.601411 0.620651 0.620803 0.644536 0.644689 0.674075 0.674237
          0.704936 0.705163 0.700423 0.700842 0.525767 0.526193 0.0132254 0.0132254
        </DataArray>
        <DataArray type="Float32" Name="Molarity_Na" NumberOfComponents="1" format="ascii">
          0.00704402 0.00704399 0.00713677 0.00713677 0.00723426 0.00723427 0.00733697 0.00733694 0.00744512 0.00744507 0.00755901 0.00755897
          0.007679 0.00767894 0.00780541 0.00780532 0.00793854 0.00793846 0.00807874 0.00807869 0.00822638 0.00822634 0.00853775 0.00853773
          0.00888253 0.00888249 0.00926389 0.0092638 0.00968624 0.00968613 0.010154 0.0101539 0.0108019 0.0108017 0.0115376 0.0115374
          0.0123733 0.012373 0.0133233 0.0133229 0.0144038 0.0144036 0.0156338 0.0156336 0.0170355 0.0170352 0.018634 0.018634
          0.0204592 0.0204598 0.0225469 0.0225476 0.0249381 0.0249388 0.0276803 0.0276818 0.0308357 0.0308377 0.0344756 0.0344776
          0.0386828 0.0386857 0.0435742 0.0435786 0.0493008 0.049306 0.0560562 0.0560613 0.0641106 0.0641144 0.0738685 0.0738713
          0.0860077 0.0860089 0.101827 0.101822 0.124353 0.124348 0.1633 0.1633
        </DataArray>
        <DataArray type="Float32" Name="Molarity_Cl" NumberOfComponents="1" format="ascii">
          863.183 863.183 862.827 862.827 862.451 862.451 862.052 862.052 861.629 861.629 861.18 861.18
          860.705 860.705 860.202 860.202 859.669 859.669 859.105 859.105 858.508 858.509 857.242 857.242
          855.829 855.829 854.256 854.256 852.503 852.503 850.55 850.551 847.832 847.832 844.728 844.729
          841.187 841.188 837.146 837.147 832.534 832.534 827.268 827.268 821.251 821.252 814.374 814.374
          806.507 806.505 797.494 797.491 787.155 787.152 775.284 775.277 761.609 761.601 745.82 745.812
          727.556 727.543 706.308 706.289 681.417 681.395 652.041 652.019 617.003 616.987 574.541 574.529
          521.703 521.698 452.835 452.856 354.763 354.785 185.193 185.193
        </DataArray>
        <DataArray type="Float32" Name="Molarity_Ca" NumberOfComponents="1" format="ascii">
          312.517 312.518 311.038 311.038 309.556 309.556 308.071 308.071 306.584 306.584 305.094 305.095
          303.602 303.603 302.106 302.107 300.606 300.608 299.103 299.104 297.594 297.595 294.639 294.639
          291.663 291.664 288.666 288.667 285.639 285.64 282.576 282.578 278.739 278.741 274.827 274.83
          270.826 270.828 266.714 266.717 262.471 262.474 258.07 258.073 253.482 253.485 248.672 248.674
          243.599 243.599 238.211 238.21 232.451 232.449 226.251 226.247 219.518 219.513 212.15 212.144
          204.025 204.016 194.963 194.952 184.735 184.722 173.043 173.029 159.465 159.455 143.369 143.361
          123.679 123.673 98.2952 98.3006 62.2754 62.2824 0 0
        </DataArray>
        <DataArray type="Float32" Name="Molarity_Urea" NumberOfComponents="1" format="ascii">
          304.604 304.604 303.117 303.118 301.634 301.634 300.15 300.15 298.664 298.665 297.177 297.177
          295.686 295.687 294.193 294.194 292.696 292.697 291.196 291.197 289.691 289.692 286.743 286.744
          283.777 283.778 280.791 280.792 277.777 277.779 274.731 274.733 270.916 270.918 267.031 267.034
          263.061 263.064 258.987 258.99 254.787 254.79 250.438 250.441 245.909 245.912 241.167 241.169
          236.173 236.173 230.877 230.876 225.222 225.221 219.145 219.141 212.555 212.55 205.351 205.345
          197.417 197.409 188.579 188.568 178.613 178.6 167.228 167.215 154.018 154.007 138.366 138.357
          119.234 119.228 94.623 94.6277 59.8716 59.8779 0 0
        </DataArray>
        <DataArray type="Float32" Name="Molarity_TotalNH" NumberOfComponents="1" format="ascii">
          238.839 238.838 241.464 241.463 244.062 244.062 246.641 246.641 249.199 249.198 251.736 251.735
          254.252 254.25 256.747 256.745 259.22 259.218 261.67 261.668 264.097 264.095 268.755 268.753
          273.307 273.305 277.74 277.737 282.053 282.05 286.238 286.235 291.209 291.206 295.946 295.941
          300.424 300.419 304.623 304.617 308.513 308.507 312.063 312.058 315.24 315.235 318 317.996
          320.297 320.295 322.077 322.077 323.279 323.279 323.827 323.829 323.638 323.64 322.609 322.612
          320.621 320.625 317.522 317.526 313.121 313.124 307.17 307.174 299.334 299.339 289.122 289.128
          275.728 275.734 257.618 257.629 231.237 231.246 185.193 185.193
        </DataArray>
        <DataArray type="Float32" Name="Molarity_O2" NumberOfComponents="1" format="ascii">
          0.244551 0.244552 0.244147 0.244147 0.243737 0.243737 0.243319 0.243319 0.242894 0.242894 0.242461 0.242462
          0.24202 0.24202 0.241569 0.24157 0.24111 0.24111 0.24064 0.24064 0.24016 0.24016 0.239191 0.239191
          0.238175 0.238176 0.23711 0.237111 0.235988 0.235989 0.234803 0.234804 0.233243 0.233243 0.23156 0.231561
          0.229739 0.22974 0.227758 0.227759 0.225595 0.225596 0.223223 0.223223 0.220609 0.22061 0.217718 0.217719
          0.214508 0.214508 0.210928 0.210927 0.206918 0.206917 0.202411 0.202408 0.197317 0.197314 0.191534 0.191531
          0.184944 0.184938 0.177376 0.177369 0.168613 0.168604 0.158373 0.158364 0.146264 0.146257 0.131697 0.131691
          0.113681 0.113678 0.0903175 0.0903236 0.0571733 0.0571802 0 0
        </DataArray>
        <DataArray type="Float32" Name="Molarity_Substrate" NumberOfComponents="1" format="ascii">
          16.6317 16.6317 16.6227 16.6227 16.6132 16.6132 16.6031 16.6031 16.5924 16.5924 16.5811 16.5811
          16.5692 16.5692 16.5566 16.5566 16.5433 16.5433 16.5292 16.5292 16.5143 16.5143 16.4827 16.4827
          16.4476 16.4476 16.4085 16.4085 16.365 16.365 16.3167 16.3167 16.2495 16.2495 16.1729 16.1729
          16.0856 16.0856 15.986 15.986 15.8725 15.8725 15.7429 15.7429 15.595 15.595 15.426 15.426
          15.2328 15.2327 15.0115 15.0114 14.7577 14.7576 14.4664 14.4662 14.1309 14.1307 13.7436 13.7434
          13.2957 13.2953 12.7746 12.7741 12.1643 12.1637 11.444 11.4435 10.585 10.5846 9.54405 9.54375
          8.24879 8.24867 6.56062 6.56115 4.15661 4.15715 0 0
        </DataArray>
        <DataArray type="Float32" Name="Molarity_Suspended_Biomass" NumberOfComponents="1" format="ascii">
          0.000140468 0.000140466 0.000147815 0.000147815 0.000155106 0.000155107 0.000162362 0.00016236 0.000169577 0.000169573 0.00017675 0.000176747
          0.000183885 0.00018388 0.000190979 0.000190971 0.000198028 0.000198021 0.000205031 0.000205025 0.000211987 0.000211981 0.000225396 0.000225391
          0.000238576 0.00023857 0.000251489 0.000251481 0.00026413 0.000264121 0.000276475 0.000276465 0.000291253 0.000291241 0.00030546 0.000305447
          0.000319031 0.000319014 0.000331894 0.000331875 0.000343965 0.000343948 0.000355151 0.000355135 0.000365345 0.000365329 0.000374419 0.000374406
          0.000382229 0.000382223 0.000388613 0.000388612 0.000393378 0.00039338 0.000396296 0.000396302 0.000397104 0.000397114 0.000395488 0.000395502
          0.000391074 0.00039109 0.000383391 0.000383408 0.000371847 0.000371867 0.000355681 0.000355704 0.000333863 0.00033389 0.000304893 0.00030492
          0.000266323 0.000266352 0.000213556 0.0002136 0.000136005 0.000136038 0 0
        </DataArray>
        <DataArray type="Float32" Name="Molarity_NH4" NumberOfComponents="1" format="ascii">
          238.436 238.435 241.049 241.049 243.641 243.641 246.215 246.215 248.769 248.768 251.301 251.3
          253.813 253.812 256.304 256.302 258.773 258.771 261.219 261.217 263.642 263.64 268.292 268.29
          272.835 272.833 277.26 277.258 281.565 281.563 285.743 285.739 290.704 290.7 295.429 295.425
          299.897 299.893 304.086 304.08 307.965 307.96 311.505 311.5 314.67 314.665 317.418 317.415
          319.703 319.701 321.472 321.471 322.66 322.66 323.195 323.196 322.99 322.993 321.945 321.949
          319.94 319.943 316.821 316.824 312.396 312.4 306.418 306.422 298.549 298.554 288.297 288.303
          274.859 274.865 256.738 256.749 230.518 230.527 185.037 185.037
        </DataArray>
        <DataArray type="Float32" Name="Molarity_HCO3" NumberOfComponents="1" format="ascii">
          0.291254 0.291252 0.300695 0.300688 0.305373 0.305381 0.308546 0.308564 0.311215 0.311265 0.313792 0.313801
          0.316301 0.316293 0.318784 0.318781 0.321273 0.321265 0.323761 0.323754 0.326252 0.326247 0.33108 0.331071
          0.335997 0.335998 0.340906 0.34088 0.345844 0.345803 0.35067 0.35077 0.356936 0.356924 0.363211 0.363162
          0.369982 0.369433 0.375918 0.375859 0.382402 0.382365 0.389052 0.389016 0.39589 0.395862 0.402955 0.402923
          0.410278 0.410271 0.417956 0.417955 0.426081 0.426089 0.434758 0.434774 0.444159 0.444012 0.454481 0.454464
          0.465962 0.465992 0.478967 0.479058 0.494263 0.494378 0.51274 0.512881 0.535723 0.535866 0.564333 0.564484
          0.594471 0.594684 0.591073 0.591469 0.427192 0.427587 0.00553194 0.00553194
        </DataArray>
        <DataArray type="Float32" Name="Molarity_CO3" NumberOfComponents="1" format="ascii">
          0.000290785 0.000290782 0.000304594 0.000304581 0.000309841 0.000309855 0.000312352 0.000312385 0.000313954 0.000314045 0.000315399 0.000315417
          0.000316731 0.000316717 0.000318023 0.00031802 0.000319334 0.000319323 0.000320653 0.000320644 0.000321987 0.000321979 0.000324563 0.000324549
          0.000327339 0.000327343 0.000330149 0.000330107 0.000333051 0.000332983 0.000335804 0.000335978 0.000339793 0.000339777 0.000343869 0.000343791
          0.00034885 0.000347939 0.000352514 0.000352423 0.000357171 0.000357117 0.000362182 0.000362129 0.000367583 0.000367544 0.000373437 0.000373389
          0.000379793 0.000379783 0.000386806 0.000386804 0.00039462 0.000394631 0.000403399 0.00040342 0.000413409 0.00041316 0.000424949 0.000424912
          0.000438385 0.000438424 0.000454258 0.000454395 0.000473746 0.000473918 0.000498186 0.000498404 0.000529544 0.000529767 0.000569077 0.000569319
          0.000607524 0.000607883 0.000577849 0.000578513 0.000305697 0.000306174 4.26535e-07 4.26535e-07
        </DataArray>
        <DataArray type="Float32" Name="Molarity_CO2" NumberOfComponents="1" format="ascii">
          0.0682289 0.0682287 0.0693488 0.0693485 0.0702327 0.0702331 0.0710422 0.0710427 0.071825 0.0718271 0.0726008 0.0726009
          0.0733709 0.0733702 0.0741377 0.0741369 0.0749019 0.0749009 0.0756634 0.0756625 0.0764222 0.0764214 0.077891 0.0778902
          0.07935 0.0793497 0.0807921 0.0807902 0.0822191 0.0822162 0.0836224 0.0836269 0.0853431 0.0853415 0.0870301 0.0870263
          0.088706 0.0886748 0.0902953 0.0902904 0.0918686 0.0918651 0.0934006 0.0933973 0.0948877 0.0948848 0.0963257 0.0963231
          0.0977095 0.0977087 0.0990376 0.0990375 0.100306 0.100307 0.101512 0.101513 0.102652 0.102645 0.103726 0.103726
          0.10473 0.104734 0.105668 0.105675 0.106558 0.106567 0.107421 0.107432 0.108291 0.108302 0.109182 0.109192
          0.109867 0.10988 0.108782 0.108804 0.0982756 0.0983059 0.00769319 0.00769319
        </DataArray>
        <DataArray type="Float32" Name="Molarity_H" NumberOfComponents="1" format="ascii">
          0.000218724 0.000218725 0.000215156 0.00021516 0.000214381 0.000214377 0.000214442 0.000214431 0.000214763 0.000214735 0.000215117 0.000215111
          0.000215488 0.000215492 0.000215856 0.000215856 0.000216202 0.000216205 0.00021653 0.000216532 0.000216838 0.000216839 0.000217398 0.000217401
          0.000217835 0.000217834 0.000218198 0.00021821 0.00021847 0.000218488 0.000218718 0.000218667 0.000218761 0.000218765 0.000218673 0.000218694
          0.000218226 0.000218474 0.000218022 0.000218045 0.000217424 0.000217437 0.000216603 0.000216615 0.000215541 0.00021555 0.000214216 0.000214227
          0.000212606 0.000212608 0.000210664 0.000210664 0.000208345 0.000208342 0.000205602 0.000205597 0.000202363 0.000202416 0.000198557 0.000198564
          0.000194102 0.000194094 0.000188885 0.000188859 0.000182692 0.000182662 0.000175321 0.000175287 0.000166516 0.000166485 0.000156132 0.000156103
          0.00014496 0.000144924 0.000138182 0.000138119 0.000159024 0.000158929 0.000628379 0.000628379
        </DataArray>
        <DataArray type="Float32" Name="Molarity_OH" NumberOfComponents="1" format="ascii">
          4.27716e-05 4.27714e-05 4.34891e-05 4.34883e-05 4.36545e-05 4.36554e-05 4.36505e-05 4.36526e-05 4.35934e-05 4.35991e-05 4.35302e-05 4.35314e-05
          4.34636e-05 4.34628e-05 4.33979e-05 4.33979e-05 4.33369e-05 4.33364e-05 4.32798e-05 4.32794e-05 4.3227e-05 4.32266e-05 4.31325e-05 4.31318e-05
          4.3063e-05 4.30633e-05 4.30089e-05 4.30066e-05 4.29733e-05 4.29696e-05 4.29428e-05 4.29527e-05 4.29574e-05 4.29568e-05 4.29988e-05 4.29948e-05
          4.31121e-05 4.30632e-05 4.31789e-05 4.31743e-05 4.33255e-05 4.33229e-05 4.35196e-05 4.35171e-05 4.37657e-05 4.37639e-05 4.40708e-05 4.40685e-05
          4.44418e-05 4.44415e-05 4.48925e-05 4.48925e-05 4.54373e-05 4.54379e-05 4.60939e-05 4.6095e-05 4.68881e-05 4.6876e-05 4.78513e-05 4.78495e-05
          4.90235e-05 4.90254e-05 5.04635e-05 5.04704e-05 5.2276e-05 5.22846e-05 5.45965e-05 5.46073e-05 5.76357e-05 5.76464e-05 6.16629e-05 6.16743e-05
          6.66726e-05 6.66892e-05 7.02936e-05 7.03257e-05 6.1514e-05 6.15506e-05 1.57575e-05 1.57575e-05
        </DataArray>
        <DataArray type="Float32" Name="Da_ureolysis" NumberOfComponents="1" format="ascii">
          0 0 0 0 0 0 0 0 0 0 0 0
          0 0 0 0 0 0 0 0 0 0 0 0
          0 0 0 0 0 0 0 0 0 0 0 0
          0 0 0 0 0 0 0 0 0 0 0 0
          0 0 0 0 0 0 0 0 0 0 0 0
          0 0 0 0 0 0 0 0 0 0 0 0
          0 0 0 0 0 0 0 0
        </DataArray>
        <DataArray type="Float32" Name="Da_precipitation" NumberOfComponents="1" format="ascii">
          0.387596 0.387576 0.446888 0.446774 0.465785 0.465903 0.47237 0.472639 0.474384 0.474818 0.47553 0.475616
          0.476145 0.475898 0.476434 0.476271 0.476775 0.476489 0.477095 0.476765 0.47787 0.477602 0.476917 0.476663
          0.479017 0.478854 0.479477 0.479094 0.480476 0.479866 0.480637 0.481235 0.482625 0.482221 0.48473 0.484008
          0.490244 0.485418 0.488349 0.487465 0.490389 0.489524 0.492491 0.491669 0.494832 0.494139 0.497569 0.496878
          0.500181 0.49985 0.502958 0.502873 0.506219 0.506369 0.51021 0.510621 0.513346 0.512649 0.51816 0.518737
          0.523005 0.523952 0.526683 0.528203 0.531756 0.533667 0.537024 0.539301 0.541083 0.543268 0.533347 0.535425
          0.465198 0.4671 0.221885 0.22317 0.00619443 0.00623983 0 0
        </DataArray>
        <DataArray type="Float32" Name="Vx" NumberOfComponents="1" format="ascii">
          2.95435e-08 2.95516e-08 -1.68998e-08 -1.68988e-08 -4.01311e-08 -4.01299e-08 1.80011e-08 1.80016e-08 4.43632e-08 4.43633e-08 2.29424e-08 2.29471e-08
          3.60725e-08 3.60747e-08 7.02639e-08 7.02887e-08 4.45154e-08 4.4546e-08 4.11708e-09 4.12294e-09 -9.20159e-09 -9.20844e-09 -2.43302e-08 -2.43383e-08
          -2.29952e-09 -2.30036e-09 2.14471e-08 2.14549e-08 2.22841e-08 2.22959e-08 2.17676e-08 2.17802e-08 1.26078e-08 1.26154e-08 7.08793e-09 7.09644e-09
          4.64089e-08 4.64493e-08 5.25114e-08 5.25588e-08 -1.8538e-08 -1.85489e-08 -2.66004e-08 -2.66266e-08 1.13364e-08 1.13397e-08 -3.42818e-08 -3.43213e-08
          -1.07319e-07 -1.07375e-07 -7.40836e-08 -7.40908e-08 -3.30646e-08 -3.30544e-08 -8.10155e-08 -8.09687e-08 -7.96397e-08 -7.95644e-08 -2.70827e-08 -2.7032e-08
          -4.94214e-08 -4.9341e-08 -9.04275e-08 -9.02527e-08 -8.21378e-08 -8.19374e-08 -3.15161e-08 -3.14328e-08 3.65785e-08 3.64858e-08 6.65028e-08 6.63456e-08
          6.23627e-08 6.22109e-08 1.15924e-07 1.15754e-07 1.43067e-07 1.42966e-07 1.36373e-07 1.36349e-07
        </DataArray>
        <DataArray type="Float32" Name="Vy" NumberOfComponents="1" format="ascii">
          0.000336396 0.000336423 0.00033522 0.000335235 0.000335707 0.000335679 0.000335617 0.000335573 0.000335619 0.000335618 0.000335552 0.00033559
          0.000335594 0.000335658 0.000335525 0.000335654 0.000335512 0.000335711 0.000335461 0.000335685 0.000335138 0.000335329 0.000336048 0.000336188
          0.000335229 0.00033534 0.000335472 0.000335603 0.000335502 0.000335673 0.000335242 0.000335444 0.000335489 0.000335714 0.000335333 0.000335573
          0.000335267 0.000335558 0.000335284 0.000335684 0.000335172 0.000335608 0.00033518 0.000335558 0.000335242 0.000335608 0.000335122 0.000335478
          0.00033519 0.000335397 0.000335333 0.000335349 0.000335335 0.000335255 0.000334997 0.000334808 0.000335686 0.000335325 0.000335222 0.000334759
          0.000334912 0.000334383 0.000335249 0.000334577 0.000335139 0.00033429 0.000334986 0.000334019 0.00033455 0.00033359 0.000333919 0.00033307
          0.000333399 0.000332673 0.000334273 0.000333721 0.000344188 0.000343907 0.000568064 0.000567935
        </DataArray>
      </PointData>
      <CellData Scalars="process rank">
        <DataArray type="Float32" Name="process rank" NumberOfComponents="1" format="ascii">
          0 0 0 0 0 0 0 0 0 0 0 0
          0 0 0 0 0 0 0 0 0 0 0 0
          0 0 0 0 0 0 0 0 0 0 0 0
          0 0 0
        </DataArray>
      </CellData>
      <Points>
        <DataArray type="Float32" Name="Coordinates" NumberOfComponents="3" format="ascii">
          0 0 0 0.0254 0 0 0 0.01 0 0.0254 0.01 0
          0 0.02 0 0.0254 0.02 0 0 0.03 0 0.0254 0.03 0
          0 0.04 0 0.0254 0.04 0 0 0.05 0 0.0254 0.05 0
          0 0.06 0 0.0254 0.06 0 0 0.07 0 0.0254 0.07 0
          0 0.08 0 0.0254 0.08 0 0 0.09 0 0.0254 0.09 0
          0 0.1 0 0.0254 0.1 0 0 0.12 0 0.0254 0.12 0
          0 0.14 0 0.0254 0.14 0 0 0.16 0 0.0254 0.16 0
          0 0.18 0 0.0254 0.18 0 0 0.2 0 0.0254 0.2 0
          0 0.225 0 0.0254 0.225 0 0 0.25 0 0.0254 0.25 0
          0 0.275 0 0.0254 0.275 0 0 0.3 0 0.0254 0.3 0
          0 0.325 0 0.0254 0.325 0 0 0.35 0 0.0254 0.35 0
          0 0.375 0 0.0254 0.375 0 0 0.4 0 0.0254 0.4 0
          0 0.425 0 0.0254 0.425 0 0 0.45 0 0.0254 0.45 0
          0 0.475 0 0.0254 0.475 0 0 0.5 0 0.0254 0.5 0
          0 0.525 0 0.0254 0.525 0 0 0.55 0 0.0254 0.55 0
          0 0.575 0 0.0254 0.575 0 0 0.6 0 0.0254 0.6 0
          0 0.625 0 0.0254 0.625 0 0 0.65 0 0.0254 0.65 0
          0 0.675 0 0.0254 0.675 0 0 0.7 0 0.0254 0.7 0
          0 0.725 0 0.0254 0.725 0 0 0.75 0 0.0254 0.75 0
          0 0.775 0 0.0254 0.775 0 0 0.8 0 0.0254 0.8 0
        </DataArray>
      </Points>
      <Cells>
        <DataArray type="Int32" Name="connectivity" NumberOfComponents="1" format="ascii">
          0 1 3 2 2 3 5 4 4 5 7 6
          6 7 9 8 8 9 11 10 10 11 13 12
          12 13 15 14 14 15 17 16 16 17 19 18
          18 19 21 20 20 21 23 22 22 23 25 24
          24 25 27 26 26 27 29 28 28 29 31 30
          30 31 33 32 32 33 35 34 34 35 37 36
          36 37 39 38 38 39 41 40 40 41 43 42
          42 43 45 44 44 45 47 46 46 47 49 48
          48 49 51 50 50 51 53 52 52 53 55 54
          54 55 57 56 56 57 59 58 58 59 61 60
          60 61 63 62 62 63 65 64 64 65 67 66
          66 67 69 68 68 69 71 70 70 71 73 72
          72 73 75 74 74 75 77 76 76 77 79 78
        </DataArray>
        <DataArray type="Int32" Name="offsets" NumberOfComponents="1" format="ascii">
          4 8 12 16 20 24 28 32 36 40 44 48
          52 56 60 64 68 72 76 80 84 88 92 96
          100 104 108 112 116 120 124 128 132 136 140 144
          148 152 156
        </DataArray>
        <DataArray type="UInt8" Name="types" NumberOfComponents="1" format="ascii">
          9 9 9 9 9 9 9 9 9 9 9 9
          9 9 9 9 9 9 9 9 9 9 9 9
          9 9 9 9 9 9 9 9 9 9 9 9
          9 9 9
        </DataArray>
      </Cells>
    </Piece>
  </UnstructuredGrid>
</VTKFile>
